This is BibTeX, Version 0.99d (TeX Live 2013/Debian)
Capacity: max_strings=35307, hash_size=35307, hash_prime=30011
The top-level auxiliary file: Saavedra_Proposal.aux
The style file: apacite.bst
Reallocated glb_str_ptr (elt_size=4) to 20 items from 10.
Reallocated global_strs (elt_size=20001) to 20 items from 10.
Reallocated glb_str_end (elt_size=4) to 20 items from 10.
Reallocated singl_function (elt_size=4) to 100 items from 50.
Reallocated wiz_functions (elt_size=4) to 6000 items from 3000.
Reallocated singl_function (elt_size=4) to 100 items from 50.
Reallocated singl_function (elt_size=4) to 100 items from 50.
Reallocated wiz_functions (elt_size=4) to 9000 items from 6000.
Reallocated singl_function (elt_size=4) to 100 items from 50.
Database file #1: bibille.bib
Warning--entry type for "Gagne2014" isn't style-file defined
--line 154 of file bibille.bib
Warning--entry type for "Guardian2013" isn't style-file defined
--line 411 of file bibille.bib
apacite.bst [2013/07/21 v6.03 APA bibliography style]
Warning--No journal in MinMinas2003
You've used 9 entries,
            6951 wiz_defined-function locations,
            1343 strings with 12509 characters,
and the built_in function-call counts, 16397 in all, are:
= -- 2069
> -- 130
< -- 736
+ -- 733
- -- 22
* -- 1012
:= -- 2929
add.period$ -- 36
call.type$ -- 9
change.case$ -- 159
chr.to.int$ -- 0
cite$ -- 19
duplicate$ -- 389
empty$ -- 678
format.name$ -- 198
if$ -- 3175
int.to.chr$ -- 0
int.to.str$ -- 27
missing$ -- 0
newline$ -- 239
num.names$ -- 72
pop$ -- 291
preamble$ -- 1
purify$ -- 42
quote$ -- 0
skip$ -- 1149
stack$ -- 0
substring$ -- 802
swap$ -- 224
text.length$ -- 32
text.prefix$ -- 0
top$ -- 1
type$ -- 864
warning$ -- 1
while$ -- 77
width$ -- 0
write$ -- 281
(There were 3 warnings)
