\relax 
\providecommand\hyper@newdestlabel[2]{}
\providecommand\HyperFirstAtBeginDocument{\AtBeginDocument}
\HyperFirstAtBeginDocument{\ifx\hyper@anchor\@undefined
\global\let\oldcontentsline\contentsline
\gdef\contentsline#1#2#3#4{\oldcontentsline{#1}{#2}{#3}}
\global\let\oldnewlabel\newlabel
\gdef\newlabel#1#2{\newlabelxx{#1}#2}
\gdef\newlabelxx#1#2#3#4#5#6{\oldnewlabel{#1}{{#2}{#3}}}
\AtEndDocument{\ifx\hyper@anchor\@undefined
\let\contentsline\oldcontentsline
\let\newlabel\oldnewlabel
\fi}
\fi}
\global\let\hyper@last\relax 
\gdef\HyperFirstAtBeginDocument#1{#1}
\providecommand\HyField@AuxAddToFields[1]{}
\providecommand\HyField@AuxAddToCoFields[2]{}
\citation{Slemrod2007}
\citation{Jensen2016}
\citation{Banerjeeetal2012}
\citation{MinMinas2003}
\select@language{english}
\@writefile{toc}{\select@language{english}}
\@writefile{lof}{\select@language{english}}
\@writefile{lot}{\select@language{english}}
\bibstyle{apacite}
\bibdata{bibille}
\bibcite{Asner2013}{\citeauthoryear {Asner, Llactayo, Tupayachi,{}\ \BBA{} Luna}{Asner\ \BOthers {.}}{{\APACyear {2013}}}}
\APACbibcite{Asner2013}{\citeauthoryear {Asner, Llactayo, Tupayachi,{}\ \BBA{} Luna}{Asner\ \BOthers {.}}{{\APACyear {2013}}}}
\bibcite{Banerjeeetal2012}{\citeauthoryear {Banerjee, Mullainathan,{}\ \BBA{} Hanna}{Banerjee\ \BOthers {.}}{{\APACyear {2012}}}}
\APACbibcite{Banerjeeetal2012}{\citeauthoryear {Banerjee, Mullainathan,{}\ \BBA{} Hanna}{Banerjee\ \BOthers {.}}{{\APACyear {2012}}}}
\bibcite{Gagne2014}{\citeauthoryear {Gagne}{Gagne}{{\APACyear {2014}}}}
\APACbibcite{Gagne2014}{\citeauthoryear {Gagne}{Gagne}{{\APACyear {2014}}}}
\bibcite{Hilson2006}{\citeauthoryear {Hilson}{Hilson}{{\APACyear {2006}}}}
\APACbibcite{Hilson2006}{\citeauthoryear {Hilson}{Hilson}{{\APACyear {2006}}}}
\@writefile{toc}{\contentsline {section}{References}{2}{section*.2}}
\bibcite{Jensen2016}{\citeauthoryear {Jensen}{Jensen}{{\APACyear {2016}}}}
\APACbibcite{Jensen2016}{\citeauthoryear {Jensen}{Jensen}{{\APACyear {2016}}}}
\bibcite{MinMinas2003}{\citeauthoryear {{Ministerio de Minas y Energia}}{{Ministerio de Minas y Energia}}{{\APACyear {2003}}}}
\APACbibcite{MinMinas2003}{\citeauthoryear {{Ministerio de Minas y Energia}}{{Ministerio de Minas y Energia}}{{\APACyear {2003}}}}
\bibcite{Slemrod2007}{\citeauthoryear {Slemrod}{Slemrod}{{\APACyear {2007}}}}
\APACbibcite{Slemrod2007}{\citeauthoryear {Slemrod}{Slemrod}{{\APACyear {2007}}}}
\bibcite{Swenson2011}{\citeauthoryear {Swenson, Carter, Domec,{}\ \BBA{} Delgado}{Swenson\ \BOthers {.}}{{\APACyear {2011}}}}
\APACbibcite{Swenson2011}{\citeauthoryear {Swenson, Carter, Domec,{}\ \BBA{} Delgado}{Swenson\ \BOthers {.}}{{\APACyear {2011}}}}
\bibcite{Guardian2013}{\citeauthoryear {{The Guardian}}{{The Guardian}}{{\APACyear {2013}}}}
\APACbibcite{Guardian2013}{\citeauthoryear {{The Guardian}}{{The Guardian}}{{\APACyear {2013}}}}
