\relax 
\providecommand\hyper@newdestlabel[2]{}
\providecommand\HyperFirstAtBeginDocument{\AtBeginDocument}
\HyperFirstAtBeginDocument{\ifx\hyper@anchor\@undefined
\global\let\oldcontentsline\contentsline
\gdef\contentsline#1#2#3#4{\oldcontentsline{#1}{#2}{#3}}
\global\let\oldnewlabel\newlabel
\gdef\newlabel#1#2{\newlabelxx{#1}#2}
\gdef\newlabelxx#1#2#3#4#5#6{\oldnewlabel{#1}{{#2}{#3}}}
\AtEndDocument{\ifx\hyper@anchor\@undefined
\let\contentsline\oldcontentsline
\let\newlabel\oldnewlabel
\fi}
\fi}
\global\let\hyper@last\relax 
\gdef\HyperFirstAtBeginDocument#1{#1}
\providecommand\HyField@AuxAddToFields[1]{}
\providecommand\HyField@AuxAddToCoFields[2]{}
\providecommand \oddpage@label [2]{}
\@writefile{toc}{\beamer@endinputifotherversion {3.36pt}}
\@writefile{nav}{\beamer@endinputifotherversion {3.36pt}}
\select@language{english}
\@writefile{toc}{\select@language{english}}
\@writefile{lof}{\select@language{english}}
\@writefile{lot}{\select@language{english}}
\@writefile{nav}{\headcommand {\slideentry {0}{0}{1}{1/1}{}{0}}}
\@writefile{nav}{\headcommand {\beamer@framepages {1}{1}}}
\@writefile{nav}{\headcommand {\slideentry {0}{0}{2}{2/4}{}{0}}}
\@writefile{nav}{\headcommand {\beamer@framepages {2}{4}}}
\@writefile{nav}{\headcommand {\slideentry {0}{0}{3}{5/6}{}{0}}}
\@writefile{nav}{\headcommand {\beamer@framepages {5}{6}}}
\@writefile{nav}{\headcommand {\slideentry {0}{0}{4}{7/8}{}{0}}}
\@writefile{nav}{\headcommand {\beamer@framepages {7}{8}}}
\@writefile{nav}{\headcommand {\slideentry {0}{0}{5}{9/9}{}{0}}}
\@writefile{nav}{\headcommand {\beamer@framepages {9}{9}}}
\newlabel{context<1>}{{6}{10}{}{Doc-Start}{}}
\@writefile{snm}{\beamer@slide {context<1>}{10}}
\newlabel{context}{{6}{10}{}{Doc-Start}{}}
\@writefile{snm}{\beamer@slide {context}{10}}
\newlabel{context<2>}{{6}{11}{}{Doc-Start}{}}
\@writefile{snm}{\beamer@slide {context<2>}{11}}
\@writefile{nav}{\headcommand {\slideentry {0}{0}{6}{10/11}{}{0}}}
\@writefile{nav}{\headcommand {\beamer@framepages {10}{11}}}
\newlabel{what_we_do<1>}{{7}{12}{}{Doc-Start}{}}
\@writefile{snm}{\beamer@slide {what_we_do<1>}{12}}
\newlabel{what_we_do}{{7}{12}{}{Doc-Start}{}}
\@writefile{snm}{\beamer@slide {what_we_do}{12}}
\newlabel{what_we_do<2>}{{7}{13}{}{Doc-Start}{}}
\@writefile{snm}{\beamer@slide {what_we_do<2>}{13}}
\newlabel{what_we_do<3>}{{7}{14}{}{Doc-Start}{}}
\@writefile{snm}{\beamer@slide {what_we_do<3>}{14}}
\newlabel{what_we_do<4>}{{7}{15}{}{Doc-Start}{}}
\@writefile{snm}{\beamer@slide {what_we_do<4>}{15}}
\newlabel{what_we_do<5>}{{7}{16}{}{Doc-Start}{}}
\@writefile{snm}{\beamer@slide {what_we_do<5>}{16}}
\@writefile{nav}{\headcommand {\slideentry {0}{0}{7}{12/16}{}{0}}}
\@writefile{nav}{\headcommand {\beamer@framepages {12}{16}}}
\newlabel{contribution<1>}{{8}{17}{}{Doc-Start}{}}
\@writefile{snm}{\beamer@slide {contribution<1>}{17}}
\newlabel{contribution}{{8}{17}{}{Doc-Start}{}}
\@writefile{snm}{\beamer@slide {contribution}{17}}
\@writefile{nav}{\headcommand {\slideentry {0}{0}{8}{17/17}{}{0}}}
\@writefile{nav}{\headcommand {\beamer@framepages {17}{17}}}
\@writefile{nav}{\headcommand {\slideentry {0}{0}{9}{18/18}{}{0}}}
\@writefile{nav}{\headcommand {\beamer@framepages {18}{18}}}
\newlabel{graph_prepare<1>}{{10}{19}{}{Doc-Start}{}}
\@writefile{snm}{\beamer@slide {graph_prepare<1>}{19}}
\newlabel{graph_prepare}{{10}{19}{}{Doc-Start}{}}
\@writefile{snm}{\beamer@slide {graph_prepare}{19}}
\@writefile{nav}{\headcommand {\slideentry {0}{0}{10}{19/19}{}{0}}}
\@writefile{nav}{\headcommand {\beamer@framepages {19}{19}}}
\newlabel{training_testing<1>}{{11}{20}{}{Doc-Start}{}}
\@writefile{snm}{\beamer@slide {training_testing<1>}{20}}
\newlabel{training_testing}{{11}{20}{}{Doc-Start}{}}
\@writefile{snm}{\beamer@slide {training_testing}{20}}
\@writefile{nav}{\headcommand {\slideentry {0}{0}{11}{20/20}{}{0}}}
\@writefile{nav}{\headcommand {\beamer@framepages {20}{20}}}
\newlabel{graph_predlegal<1>}{{12}{21}{}{Doc-Start}{}}
\@writefile{snm}{\beamer@slide {graph_predlegal<1>}{21}}
\newlabel{graph_predlegal}{{12}{21}{}{Doc-Start}{}}
\@writefile{snm}{\beamer@slide {graph_predlegal}{21}}
\@writefile{nav}{\headcommand {\slideentry {0}{0}{12}{21/21}{}{0}}}
\@writefile{nav}{\headcommand {\beamer@framepages {21}{21}}}
\@writefile{nav}{\headcommand {\slideentry {0}{0}{13}{22/22}{}{0}}}
\@writefile{nav}{\headcommand {\beamer@framepages {22}{22}}}
\@writefile{nav}{\headcommand {\slideentry {0}{0}{14}{23/23}{}{0}}}
\@writefile{nav}{\headcommand {\beamer@framepages {23}{23}}}
\newlabel{reg_main<1>}{{15}{24}{}{Doc-Start}{}}
\@writefile{snm}{\beamer@slide {reg_main<1>}{24}}
\newlabel{reg_main}{{15}{24}{}{Doc-Start}{}}
\@writefile{snm}{\beamer@slide {reg_main}{24}}
\@writefile{nav}{\headcommand {\slideentry {0}{0}{15}{24/24}{}{0}}}
\@writefile{nav}{\headcommand {\beamer@framepages {24}{24}}}
\@writefile{nav}{\headcommand {\slideentry {0}{0}{16}{25/25}{}{0}}}
\@writefile{nav}{\headcommand {\beamer@framepages {25}{25}}}
\newlabel{reg_healthIVfs<1>}{{17}{26}{}{Doc-Start}{}}
\@writefile{snm}{\beamer@slide {reg_healthIVfs<1>}{26}}
\newlabel{reg_healthIVfs}{{17}{26}{}{Doc-Start}{}}
\@writefile{snm}{\beamer@slide {reg_healthIVfs}{26}}
\@writefile{nav}{\headcommand {\slideentry {0}{0}{17}{26/26}{}{0}}}
\@writefile{nav}{\headcommand {\beamer@framepages {26}{26}}}
\newlabel{reg_healthIVnsm<1>}{{18}{27}{}{Doc-Start}{}}
\@writefile{snm}{\beamer@slide {reg_healthIVnsm<1>}{27}}
\newlabel{reg_healthIVnsm}{{18}{27}{}{Doc-Start}{}}
\@writefile{snm}{\beamer@slide {reg_healthIVnsm}{27}}
\@writefile{nav}{\headcommand {\slideentry {0}{0}{18}{27/27}{}{0}}}
\@writefile{nav}{\headcommand {\beamer@framepages {27}{27}}}
\@writefile{nav}{\headcommand {\slideentry {0}{0}{19}{28/28}{}{0}}}
\@writefile{nav}{\headcommand {\beamer@framepages {28}{28}}}
\@writefile{nav}{\headcommand {\slideentry {0}{0}{20}{29/29}{}{0}}}
\@writefile{nav}{\headcommand {\beamer@framepages {29}{29}}}
\@writefile{nav}{\headcommand {\slideentry {0}{0}{21}{30/30}{}{0}}}
\@writefile{nav}{\headcommand {\beamer@framepages {30}{30}}}
\newlabel{reg_health<1>}{{21}{31}{}{Doc-Start}{}}
\@writefile{snm}{\beamer@slide {reg_health<1>}{31}}
\newlabel{reg_health}{{21}{31}{}{Doc-Start}{}}
\@writefile{snm}{\beamer@slide {reg_health}{31}}
\@writefile{nav}{\headcommand {\slideentry {0}{0}{22}{31/31}{}{0}}}
\@writefile{nav}{\headcommand {\beamer@framepages {31}{31}}}
\newlabel{est_equation<1>}{{22}{32}{}{Doc-Start}{}}
\@writefile{snm}{\beamer@slide {est_equation<1>}{32}}
\newlabel{est_equation}{{22}{32}{}{Doc-Start}{}}
\@writefile{snm}{\beamer@slide {est_equation}{32}}
\@writefile{nav}{\headcommand {\slideentry {0}{0}{23}{32/32}{}{0}}}
\@writefile{nav}{\headcommand {\beamer@framepages {32}{32}}}
\newlabel{discussion<1>}{{23}{33}{}{Doc-Start}{}}
\@writefile{snm}{\beamer@slide {discussion<1>}{33}}
\newlabel{discussion}{{23}{33}{}{Doc-Start}{}}
\@writefile{snm}{\beamer@slide {discussion}{33}}
\@writefile{nav}{\headcommand {\slideentry {0}{0}{24}{33/33}{}{0}}}
\@writefile{nav}{\headcommand {\beamer@framepages {33}{33}}}
\newlabel{costreform<1>}{{24}{34}{}{Doc-Start}{}}
\@writefile{snm}{\beamer@slide {costreform<1>}{34}}
\newlabel{costreform}{{24}{34}{}{Doc-Start}{}}
\@writefile{snm}{\beamer@slide {costreform}{34}}
\@writefile{nav}{\headcommand {\slideentry {0}{0}{25}{34/34}{}{0}}}
\@writefile{nav}{\headcommand {\beamer@framepages {34}{34}}}
\newlabel{healthcostreform<1>}{{25}{35}{}{Doc-Start}{}}
\@writefile{snm}{\beamer@slide {healthcostreform<1>}{35}}
\newlabel{healthcostreform}{{25}{35}{}{Doc-Start}{}}
\@writefile{snm}{\beamer@slide {healthcostreform}{35}}
\@writefile{nav}{\headcommand {\slideentry {0}{0}{26}{35/35}{}{0}}}
\@writefile{nav}{\headcommand {\beamer@framepages {35}{35}}}
\newlabel{literature<1>}{{26}{36}{}{Doc-Start}{}}
\@writefile{snm}{\beamer@slide {literature<1>}{36}}
\newlabel{literature}{{26}{36}{}{Doc-Start}{}}
\@writefile{snm}{\beamer@slide {literature}{36}}
\@writefile{nav}{\headcommand {\slideentry {0}{0}{27}{36/36}{}{0}}}
\@writefile{nav}{\headcommand {\beamer@framepages {36}{36}}}
\newlabel{mining_Col<1>}{{27}{37}{}{Doc-Start}{}}
\@writefile{snm}{\beamer@slide {mining_Col<1>}{37}}
\newlabel{mining_Col}{{27}{37}{}{Doc-Start}{}}
\@writefile{snm}{\beamer@slide {mining_Col}{37}}
\@writefile{nav}{\headcommand {\slideentry {0}{0}{28}{37/37}{}{0}}}
\@writefile{nav}{\headcommand {\beamer@framepages {37}{37}}}
\newlabel{details_reform<1>}{{28}{38}{}{Doc-Start}{}}
\@writefile{snm}{\beamer@slide {details_reform<1>}{38}}
\newlabel{details_reform}{{28}{38}{}{Doc-Start}{}}
\@writefile{snm}{\beamer@slide {details_reform}{38}}
\@writefile{nav}{\headcommand {\slideentry {0}{0}{29}{38/38}{}{0}}}
\@writefile{nav}{\headcommand {\beamer@framepages {38}{38}}}
\newlabel{roy_ineq<1>}{{29}{39}{}{Doc-Start}{}}
\@writefile{snm}{\beamer@slide {roy_ineq<1>}{39}}
\newlabel{roy_ineq}{{29}{39}{}{Doc-Start}{}}
\@writefile{snm}{\beamer@slide {roy_ineq}{39}}
\newlabel{Circle size proportional to population of the municipality}{{29}{39}{}{Doc-Start}{}}
\@writefile{snm}{\beamer@slide {Circle size proportional to population of the municipality}{39}}
\@writefile{nav}{\headcommand {\slideentry {0}{0}{30}{39/39}{}{0}}}
\@writefile{nav}{\headcommand {\beamer@framepages {39}{39}}}
\newlabel{formula<1>}{{30}{40}{}{Doc-Start}{}}
\@writefile{snm}{\beamer@slide {formula<1>}{40}}
\newlabel{formula}{{30}{40}{}{Doc-Start}{}}
\@writefile{snm}{\beamer@slide {formula}{40}}
\@writefile{nav}{\headcommand {\slideentry {0}{0}{31}{40/40}{}{0}}}
\@writefile{nav}{\headcommand {\beamer@framepages {40}{40}}}
\newlabel{example_wl<1>}{{31}{41}{}{Doc-Start}{}}
\@writefile{snm}{\beamer@slide {example_wl<1>}{41}}
\newlabel{example_wl}{{31}{41}{}{Doc-Start}{}}
\@writefile{snm}{\beamer@slide {example_wl}{41}}
\@writefile{nav}{\headcommand {\slideentry {0}{0}{32}{41/41}{}{0}}}
\@writefile{nav}{\headcommand {\beamer@framepages {41}{41}}}
\newlabel{model_overview<1>}{{32}{42}{}{Doc-Start}{}}
\@writefile{snm}{\beamer@slide {model_overview<1>}{42}}
\newlabel{model_overview}{{32}{42}{}{Doc-Start}{}}
\@writefile{snm}{\beamer@slide {model_overview}{42}}
\newlabel{model_overview<2>}{{32}{43}{}{Doc-Start}{}}
\@writefile{snm}{\beamer@slide {model_overview<2>}{43}}
\newlabel{model_overview<3>}{{32}{44}{}{Doc-Start}{}}
\@writefile{snm}{\beamer@slide {model_overview<3>}{44}}
\@writefile{nav}{\headcommand {\slideentry {0}{0}{33}{42/44}{}{0}}}
\@writefile{nav}{\headcommand {\beamer@framepages {42}{44}}}
\newlabel{thmod<1>}{{33}{45}{}{Doc-Start}{}}
\@writefile{snm}{\beamer@slide {thmod<1>}{45}}
\newlabel{thmod}{{33}{45}{}{Doc-Start}{}}
\@writefile{snm}{\beamer@slide {thmod}{45}}
\@writefile{nav}{\headcommand {\slideentry {0}{0}{34}{45/45}{}{0}}}
\@writefile{nav}{\headcommand {\beamer@framepages {45}{45}}}
\newlabel{graph_beta<1>}{{34}{46}{}{Doc-Start}{}}
\@writefile{snm}{\beamer@slide {graph_beta<1>}{46}}
\newlabel{graph_beta}{{34}{46}{}{Doc-Start}{}}
\@writefile{snm}{\beamer@slide {graph_beta}{46}}
\@writefile{nav}{\headcommand {\slideentry {0}{0}{35}{46/46}{}{0}}}
\@writefile{nav}{\headcommand {\beamer@framepages {46}{46}}}
\newlabel{graph_agPr<1>}{{35}{47}{}{Doc-Start}{}}
\@writefile{snm}{\beamer@slide {graph_agPr<1>}{47}}
\newlabel{graph_agPr}{{35}{47}{}{Doc-Start}{}}
\@writefile{snm}{\beamer@slide {graph_agPr}{47}}
\@writefile{nav}{\headcommand {\slideentry {0}{0}{36}{47/47}{}{0}}}
\@writefile{nav}{\headcommand {\beamer@framepages {47}{47}}}
\newlabel{model_convex<1>}{{36}{48}{}{Doc-Start}{}}
\@writefile{snm}{\beamer@slide {model_convex<1>}{48}}
\newlabel{model_convex}{{36}{48}{}{Doc-Start}{}}
\@writefile{snm}{\beamer@slide {model_convex}{48}}
\newlabel{model_convex<2>}{{36}{49}{}{Doc-Start}{}}
\@writefile{snm}{\beamer@slide {model_convex<2>}{49}}
\@writefile{nav}{\headcommand {\slideentry {0}{0}{37}{48/49}{}{0}}}
\@writefile{nav}{\headcommand {\beamer@framepages {48}{49}}}
\newlabel{thmod_prof<1>}{{37}{50}{}{Doc-Start}{}}
\@writefile{snm}{\beamer@slide {thmod_prof<1>}{50}}
\newlabel{thmod_prof}{{37}{50}{}{Doc-Start}{}}
\@writefile{snm}{\beamer@slide {thmod_prof}{50}}
\@writefile{nav}{\headcommand {\slideentry {0}{0}{38}{50/50}{}{0}}}
\@writefile{nav}{\headcommand {\beamer@framepages {50}{50}}}
\newlabel{model_parameters<1>}{{38}{51}{}{Doc-Start}{}}
\@writefile{snm}{\beamer@slide {model_parameters<1>}{51}}
\newlabel{model_parameters}{{38}{51}{}{Doc-Start}{}}
\@writefile{snm}{\beamer@slide {model_parameters}{51}}
\@writefile{nav}{\headcommand {\slideentry {0}{0}{39}{51/51}{}{0}}}
\@writefile{nav}{\headcommand {\beamer@framepages {51}{51}}}
\newlabel{model_linear<1>}{{39}{52}{}{Doc-Start}{}}
\@writefile{snm}{\beamer@slide {model_linear<1>}{52}}
\newlabel{model_linear}{{39}{52}{}{Doc-Start}{}}
\@writefile{snm}{\beamer@slide {model_linear}{52}}
\@writefile{nav}{\headcommand {\slideentry {0}{0}{40}{52/52}{}{0}}}
\@writefile{nav}{\headcommand {\beamer@framepages {52}{52}}}
\newlabel{model_f<1>}{{40}{53}{}{Doc-Start}{}}
\@writefile{snm}{\beamer@slide {model_f<1>}{53}}
\newlabel{model_f}{{40}{53}{}{Doc-Start}{}}
\@writefile{snm}{\beamer@slide {model_f}{53}}
\@writefile{nav}{\headcommand {\slideentry {0}{0}{41}{53/53}{}{0}}}
\@writefile{nav}{\headcommand {\beamer@framepages {53}{53}}}
\newlabel{prepare<1>}{{41}{54}{}{Doc-Start}{}}
\@writefile{snm}{\beamer@slide {prepare<1>}{54}}
\newlabel{prepare}{{41}{54}{}{Doc-Start}{}}
\@writefile{snm}{\beamer@slide {prepare}{54}}
\@writefile{nav}{\headcommand {\slideentry {0}{0}{42}{54/54}{}{0}}}
\@writefile{nav}{\headcommand {\beamer@framepages {54}{54}}}
\newlabel{algorithm<1>}{{42}{55}{}{Doc-Start}{}}
\@writefile{snm}{\beamer@slide {algorithm<1>}{55}}
\newlabel{algorithm}{{42}{55}{}{Doc-Start}{}}
\@writefile{snm}{\beamer@slide {algorithm}{55}}
\@writefile{nav}{\headcommand {\slideentry {0}{0}{43}{55/55}{}{0}}}
\@writefile{nav}{\headcommand {\beamer@framepages {55}{55}}}
\newlabel{ROC<1>}{{43}{56}{}{Doc-Start}{}}
\@writefile{snm}{\beamer@slide {ROC<1>}{56}}
\newlabel{ROC}{{43}{56}{}{Doc-Start}{}}
\@writefile{snm}{\beamer@slide {ROC}{56}}
\@writefile{nav}{\headcommand {\slideentry {0}{0}{44}{56/56}{}{0}}}
\@writefile{nav}{\headcommand {\beamer@framepages {56}{56}}}
\@writefile{nav}{\headcommand {\slideentry {0}{0}{45}{57/57}{}{0}}}
\@writefile{nav}{\headcommand {\beamer@framepages {57}{57}}}
\newlabel{remove_clouds<1>}{{45}{58}{}{Doc-Start}{}}
\@writefile{snm}{\beamer@slide {remove_clouds<1>}{58}}
\newlabel{remove_clouds}{{45}{58}{}{Doc-Start}{}}
\@writefile{snm}{\beamer@slide {remove_clouds}{58}}
\@writefile{nav}{\headcommand {\slideentry {0}{0}{46}{58/58}{}{0}}}
\@writefile{nav}{\headcommand {\beamer@framepages {58}{58}}}
\newlabel{balancestats_censed<1>}{{46}{59}{}{Doc-Start}{}}
\@writefile{snm}{\beamer@slide {balancestats_censed<1>}{59}}
\newlabel{balancestats_censed}{{46}{59}{}{Doc-Start}{}}
\@writefile{snm}{\beamer@slide {balancestats_censed}{59}}
\@writefile{nav}{\headcommand {\slideentry {0}{0}{47}{59/59}{}{0}}}
\@writefile{nav}{\headcommand {\beamer@framepages {59}{59}}}
\newlabel{reg_vs_trees<1>}{{47}{60}{}{Doc-Start}{}}
\@writefile{snm}{\beamer@slide {reg_vs_trees<1>}{60}}
\newlabel{reg_vs_trees}{{47}{60}{}{Doc-Start}{}}
\@writefile{snm}{\beamer@slide {reg_vs_trees}{60}}
\@writefile{nav}{\headcommand {\slideentry {0}{0}{48}{60/60}{}{0}}}
\@writefile{nav}{\headcommand {\beamer@framepages {60}{60}}}
\newlabel{varimportance<1>}{{48}{61}{}{Doc-Start}{}}
\@writefile{snm}{\beamer@slide {varimportance<1>}{61}}
\newlabel{varimportance}{{48}{61}{}{Doc-Start}{}}
\@writefile{snm}{\beamer@slide {varimportance}{61}}
\@writefile{nav}{\headcommand {\slideentry {0}{0}{49}{61/61}{}{0}}}
\@writefile{nav}{\headcommand {\beamer@framepages {61}{61}}}
\newlabel{erroranal<1>}{{49}{62}{}{Doc-Start}{}}
\@writefile{snm}{\beamer@slide {erroranal<1>}{62}}
\newlabel{erroranal}{{49}{62}{}{Doc-Start}{}}
\@writefile{snm}{\beamer@slide {erroranal}{62}}
\@writefile{nav}{\headcommand {\slideentry {0}{0}{50}{62/62}{}{0}}}
\@writefile{nav}{\headcommand {\beamer@framepages {62}{62}}}
\@writefile{nav}{\headcommand {\slideentry {0}{0}{51}{63/63}{}{0}}}
\@writefile{nav}{\headcommand {\beamer@framepages {63}{63}}}
\newlabel{sumstats_tprfpr<1>}{{51}{64}{}{Doc-Start}{}}
\@writefile{snm}{\beamer@slide {sumstats_tprfpr<1>}{64}}
\newlabel{sumstats_tprfpr}{{51}{64}{}{Doc-Start}{}}
\@writefile{snm}{\beamer@slide {sumstats_tprfpr}{64}}
\@writefile{nav}{\headcommand {\slideentry {0}{0}{52}{64/64}{}{0}}}
\@writefile{nav}{\headcommand {\beamer@framepages {64}{64}}}
\@input{R/mat_conf.aux}
\newlabel{mat_conf<1>}{{52}{65}{}{Doc-Start}{}}
\@writefile{snm}{\beamer@slide {mat_conf<1>}{65}}
\newlabel{mat_conf}{{52}{65}{}{Doc-Start}{}}
\@writefile{snm}{\beamer@slide {mat_conf}{65}}
\@writefile{nav}{\headcommand {\slideentry {0}{0}{53}{65/65}{}{0}}}
\@writefile{nav}{\headcommand {\beamer@framepages {65}{65}}}
\newlabel{dd_basico<1>}{{53}{66}{}{Doc-Start}{}}
\@writefile{snm}{\beamer@slide {dd_basico<1>}{66}}
\newlabel{dd_basico}{{53}{66}{}{Doc-Start}{}}
\@writefile{snm}{\beamer@slide {dd_basico}{66}}
\@writefile{nav}{\headcommand {\slideentry {0}{0}{54}{66/66}{}{0}}}
\@writefile{nav}{\headcommand {\beamer@framepages {66}{66}}}
\@writefile{nav}{\headcommand {\slideentry {0}{0}{55}{67/67}{}{0}}}
\@writefile{nav}{\headcommand {\beamer@framepages {67}{67}}}
\newlabel{dd_avanzado<1>}{{55}{68}{}{Doc-Start}{}}
\@writefile{snm}{\beamer@slide {dd_avanzado<1>}{68}}
\newlabel{dd_avanzado}{{55}{68}{}{Doc-Start}{}}
\@writefile{snm}{\beamer@slide {dd_avanzado}{68}}
\@writefile{nav}{\headcommand {\slideentry {0}{0}{56}{68/68}{}{0}}}
\@writefile{nav}{\headcommand {\beamer@framepages {68}{68}}}
\newlabel{predPeru<1>}{{56}{69}{}{Doc-Start}{}}
\@writefile{snm}{\beamer@slide {predPeru<1>}{69}}
\newlabel{predPeru}{{56}{69}{}{Doc-Start}{}}
\@writefile{snm}{\beamer@slide {predPeru}{69}}
\@writefile{nav}{\headcommand {\slideentry {0}{0}{57}{69/69}{}{0}}}
\@writefile{nav}{\headcommand {\beamer@framepages {69}{69}}}
\newlabel{dd_basico_mined_ally<1>}{{57}{70}{}{Doc-Start}{}}
\@writefile{snm}{\beamer@slide {dd_basico_mined_ally<1>}{70}}
\newlabel{dd_basico_mined_ally}{{57}{70}{}{Doc-Start}{}}
\@writefile{snm}{\beamer@slide {dd_basico_mined_ally}{70}}
\@writefile{nav}{\headcommand {\slideentry {0}{0}{58}{70/70}{}{0}}}
\@writefile{nav}{\headcommand {\beamer@framepages {70}{70}}}
\newlabel{sumstats_regvarperu<1>}{{58}{71}{}{Doc-Start}{}}
\@writefile{snm}{\beamer@slide {sumstats_regvarperu<1>}{71}}
\newlabel{sumstats_regvarperu}{{58}{71}{}{Doc-Start}{}}
\@writefile{snm}{\beamer@slide {sumstats_regvarperu}{71}}
\@writefile{nav}{\headcommand {\slideentry {0}{0}{59}{71/71}{}{0}}}
\@writefile{nav}{\headcommand {\beamer@framepages {71}{71}}}
\newlabel{dd_avanzado_minedperu<1>}{{59}{72}{}{Doc-Start}{}}
\@writefile{snm}{\beamer@slide {dd_avanzado_minedperu<1>}{72}}
\newlabel{dd_avanzado_minedperu}{{59}{72}{}{Doc-Start}{}}
\@writefile{snm}{\beamer@slide {dd_avanzado_minedperu}{72}}
\@writefile{nav}{\headcommand {\slideentry {0}{0}{60}{72/72}{}{0}}}
\@writefile{nav}{\headcommand {\beamer@framepages {72}{72}}}
\newlabel{gold_price<1>}{{60}{73}{}{Doc-Start}{}}
\@writefile{snm}{\beamer@slide {gold_price<1>}{73}}
\newlabel{gold_price}{{60}{73}{}{Doc-Start}{}}
\@writefile{snm}{\beamer@slide {gold_price}{73}}
\@writefile{nav}{\headcommand {\slideentry {0}{0}{61}{73/73}{}{0}}}
\@writefile{nav}{\headcommand {\beamer@framepages {73}{73}}}
\newlabel{dd_basico_mined<1>}{{61}{74}{}{Doc-Start}{}}
\@writefile{snm}{\beamer@slide {dd_basico_mined<1>}{74}}
\newlabel{dd_basico_mined}{{61}{74}{}{Doc-Start}{}}
\@writefile{snm}{\beamer@slide {dd_basico_mined}{74}}
\@writefile{nav}{\headcommand {\slideentry {0}{0}{62}{74/74}{}{0}}}
\@writefile{nav}{\headcommand {\beamer@framepages {74}{74}}}
\newlabel{sumstats_muni<1>}{{62}{75}{}{Doc-Start}{}}
\@writefile{snm}{\beamer@slide {sumstats_muni<1>}{75}}
\newlabel{sumstats_muni}{{62}{75}{}{Doc-Start}{}}
\@writefile{snm}{\beamer@slide {sumstats_muni}{75}}
\@writefile{nav}{\headcommand {\slideentry {0}{0}{63}{75/75}{}{0}}}
\@writefile{nav}{\headcommand {\beamer@framepages {75}{75}}}
\newlabel{sumstats_regvarmined<1>}{{63}{76}{}{Doc-Start}{}}
\@writefile{snm}{\beamer@slide {sumstats_regvarmined<1>}{76}}
\newlabel{sumstats_regvarmined}{{63}{76}{}{Doc-Start}{}}
\@writefile{snm}{\beamer@slide {sumstats_regvarmined}{76}}
\@writefile{nav}{\headcommand {\slideentry {0}{0}{64}{76/76}{}{0}}}
\@writefile{nav}{\headcommand {\beamer@framepages {76}{76}}}
\newlabel{balancestats_muni<1>}{{64}{77}{}{Doc-Start}{}}
\@writefile{snm}{\beamer@slide {balancestats_muni<1>}{77}}
\newlabel{balancestats_muni}{{64}{77}{}{Doc-Start}{}}
\@writefile{snm}{\beamer@slide {balancestats_muni}{77}}
\@writefile{nav}{\headcommand {\slideentry {0}{0}{65}{77/77}{}{0}}}
\@writefile{nav}{\headcommand {\beamer@framepages {77}{77}}}
\newlabel{sumstats_ftotalperu<1>}{{65}{78}{}{Doc-Start}{}}
\@writefile{snm}{\beamer@slide {sumstats_ftotalperu<1>}{78}}
\newlabel{sumstats_ftotalperu}{{65}{78}{}{Doc-Start}{}}
\@writefile{snm}{\beamer@slide {sumstats_ftotalperu}{78}}
\@writefile{nav}{\headcommand {\slideentry {0}{0}{66}{78/78}{}{0}}}
\@writefile{nav}{\headcommand {\beamer@framepages {78}{78}}}
\newlabel{sumstats_regvar<1>}{{66}{79}{}{Doc-Start}{}}
\@writefile{snm}{\beamer@slide {sumstats_regvar<1>}{79}}
\newlabel{sumstats_regvar}{{66}{79}{}{Doc-Start}{}}
\@writefile{snm}{\beamer@slide {sumstats_regvar}{79}}
\@writefile{nav}{\headcommand {\slideentry {0}{0}{67}{79/79}{}{0}}}
\@writefile{nav}{\headcommand {\beamer@framepages {79}{79}}}
\newlabel{reg_non_parametric<1>}{{67}{80}{}{Doc-Start}{}}
\@writefile{snm}{\beamer@slide {reg_non_parametric<1>}{80}}
\newlabel{reg_non_parametric}{{67}{80}{}{Doc-Start}{}}
\@writefile{snm}{\beamer@slide {reg_non_parametric}{80}}
\@writefile{nav}{\headcommand {\slideentry {0}{0}{68}{80/80}{}{0}}}
\@writefile{nav}{\headcommand {\beamer@framepages {80}{80}}}
\newlabel{reg_newarea<1>}{{68}{81}{}{Doc-Start}{}}
\@writefile{snm}{\beamer@slide {reg_newarea<1>}{81}}
\newlabel{reg_newarea}{{68}{81}{}{Doc-Start}{}}
\@writefile{snm}{\beamer@slide {reg_newarea}{81}}
\@writefile{nav}{\headcommand {\slideentry {0}{0}{69}{81/81}{}{0}}}
\@writefile{nav}{\headcommand {\beamer@framepages {81}{81}}}
\newlabel{reg_titulos<1>}{{69}{82}{}{Doc-Start}{}}
\@writefile{snm}{\beamer@slide {reg_titulos<1>}{82}}
\newlabel{reg_titulos}{{69}{82}{}{Doc-Start}{}}
\@writefile{snm}{\beamer@slide {reg_titulos}{82}}
\@writefile{nav}{\headcommand {\slideentry {0}{0}{70}{82/82}{}{0}}}
\@writefile{nav}{\headcommand {\beamer@framepages {82}{82}}}
\newlabel{reg_c12<1>}{{70}{83}{}{Doc-Start}{}}
\@writefile{snm}{\beamer@slide {reg_c12<1>}{83}}
\newlabel{reg_c12}{{70}{83}{}{Doc-Start}{}}
\@writefile{snm}{\beamer@slide {reg_c12}{83}}
\@writefile{nav}{\headcommand {\slideentry {0}{0}{71}{83/83}{}{0}}}
\@writefile{nav}{\headcommand {\beamer@framepages {83}{83}}}
\newlabel{altonji_mined<1>}{{71}{84}{}{Doc-Start}{}}
\@writefile{snm}{\beamer@slide {altonji_mined<1>}{84}}
\newlabel{altonji_mined}{{71}{84}{}{Doc-Start}{}}
\@writefile{snm}{\beamer@slide {altonji_mined}{84}}
\@writefile{nav}{\headcommand {\slideentry {0}{0}{72}{84/84}{}{0}}}
\@writefile{nav}{\headcommand {\beamer@framepages {84}{84}}}
\newlabel{reg_lasso<1>}{{72}{85}{}{Doc-Start}{}}
\@writefile{snm}{\beamer@slide {reg_lasso<1>}{85}}
\newlabel{reg_lasso}{{72}{85}{}{Doc-Start}{}}
\@writefile{snm}{\beamer@slide {reg_lasso}{85}}
\@writefile{nav}{\headcommand {\slideentry {0}{0}{73}{85/85}{}{0}}}
\@writefile{nav}{\headcommand {\beamer@framepages {85}{85}}}
\newlabel{reg_lasso_continuous<1>}{{73}{86}{}{Doc-Start}{}}
\@writefile{snm}{\beamer@slide {reg_lasso_continuous<1>}{86}}
\newlabel{reg_lasso_continuous}{{73}{86}{}{Doc-Start}{}}
\@writefile{snm}{\beamer@slide {reg_lasso_continuous}{86}}
\@writefile{nav}{\headcommand {\slideentry {0}{0}{74}{86/86}{}{0}}}
\@writefile{nav}{\headcommand {\beamer@framepages {86}{86}}}
\newlabel{reg_adj<1>}{{74}{87}{}{Doc-Start}{}}
\@writefile{snm}{\beamer@slide {reg_adj<1>}{87}}
\newlabel{reg_adj}{{74}{87}{}{Doc-Start}{}}
\@writefile{snm}{\beamer@slide {reg_adj}{87}}
\@writefile{nav}{\headcommand {\slideentry {0}{0}{75}{87/87}{}{0}}}
\@writefile{nav}{\headcommand {\beamer@framepages {87}{87}}}
\newlabel{reg_weights<1>}{{75}{88}{}{Doc-Start}{}}
\@writefile{snm}{\beamer@slide {reg_weights<1>}{88}}
\newlabel{reg_weights}{{75}{88}{}{Doc-Start}{}}
\@writefile{snm}{\beamer@slide {reg_weights}{88}}
\@writefile{nav}{\headcommand {\slideentry {0}{0}{76}{88/88}{}{0}}}
\@writefile{nav}{\headcommand {\beamer@framepages {88}{88}}}
\newlabel{reg_dummy_deptr<1>}{{76}{89}{}{Doc-Start}{}}
\@writefile{snm}{\beamer@slide {reg_dummy_deptr<1>}{89}}
\newlabel{reg_dummy_deptr}{{76}{89}{}{Doc-Start}{}}
\@writefile{snm}{\beamer@slide {reg_dummy_deptr}{89}}
\@writefile{nav}{\headcommand {\slideentry {0}{0}{77}{89/89}{}{0}}}
\@writefile{nav}{\headcommand {\beamer@framepages {89}{89}}}
\newlabel{reg_otherm<1>}{{77}{90}{}{Doc-Start}{}}
\@writefile{snm}{\beamer@slide {reg_otherm<1>}{90}}
\newlabel{reg_otherm}{{77}{90}{}{Doc-Start}{}}
\@writefile{snm}{\beamer@slide {reg_otherm}{90}}
\@writefile{nav}{\headcommand {\slideentry {0}{0}{78}{90/90}{}{0}}}
\@writefile{nav}{\headcommand {\beamer@framepages {90}{90}}}
\newlabel{reg_newarea<1>}{{78}{91}{}{Doc-Start}{}}
\@writefile{snm}{\beamer@slide {reg_newarea<1>}{91}}
\newlabel{reg_newarea}{{78}{91}{}{Doc-Start}{}}
\@writefile{snm}{\beamer@slide {reg_newarea}{91}}
\@writefile{nav}{\headcommand {\slideentry {0}{0}{79}{91/91}{}{0}}}
\@writefile{nav}{\headcommand {\beamer@framepages {91}{91}}}
\newlabel{reg_peruRD<1>}{{79}{92}{}{Doc-Start}{}}
\@writefile{snm}{\beamer@slide {reg_peruRD<1>}{92}}
\newlabel{reg_peruRD}{{79}{92}{}{Doc-Start}{}}
\@writefile{snm}{\beamer@slide {reg_peruRD}{92}}
\@writefile{nav}{\headcommand {\slideentry {0}{0}{80}{92/92}{}{0}}}
\@writefile{nav}{\headcommand {\beamer@framepages {92}{92}}}
\newlabel{reg_importance<1>}{{80}{93}{}{Doc-Start}{}}
\@writefile{snm}{\beamer@slide {reg_importance<1>}{93}}
\newlabel{reg_importance}{{80}{93}{}{Doc-Start}{}}
\@writefile{snm}{\beamer@slide {reg_importance}{93}}
\@writefile{nav}{\headcommand {\slideentry {0}{0}{81}{93/93}{}{0}}}
\@writefile{nav}{\headcommand {\beamer@framepages {93}{93}}}
\newlabel{reg_continuous_deptr<1>}{{81}{94}{}{Doc-Start}{}}
\@writefile{snm}{\beamer@slide {reg_continuous_deptr<1>}{94}}
\newlabel{reg_continuous_deptr}{{81}{94}{}{Doc-Start}{}}
\@writefile{snm}{\beamer@slide {reg_continuous_deptr}{94}}
\@writefile{nav}{\headcommand {\slideentry {0}{0}{82}{94/94}{}{0}}}
\@writefile{nav}{\headcommand {\beamer@framepages {94}{94}}}
\newlabel{dd_basico_titulos<1>}{{82}{95}{}{Doc-Start}{}}
\@writefile{snm}{\beamer@slide {dd_basico_titulos<1>}{95}}
\newlabel{dd_basico_titulos}{{82}{95}{}{Doc-Start}{}}
\@writefile{snm}{\beamer@slide {dd_basico_titulos}{95}}
\@writefile{nav}{\headcommand {\slideentry {0}{0}{83}{95/95}{}{0}}}
\@writefile{nav}{\headcommand {\beamer@framepages {95}{95}}}
\newlabel{reg_wl<1>}{{83}{96}{}{Doc-Start}{}}
\@writefile{snm}{\beamer@slide {reg_wl<1>}{96}}
\newlabel{reg_wl}{{83}{96}{}{Doc-Start}{}}
\@writefile{snm}{\beamer@slide {reg_wl}{96}}
\@writefile{nav}{\headcommand {\slideentry {0}{0}{84}{96/96}{}{0}}}
\@writefile{nav}{\headcommand {\beamer@framepages {96}{96}}}
\newlabel{reg_prod<1>}{{84}{97}{}{Doc-Start}{}}
\@writefile{snm}{\beamer@slide {reg_prod<1>}{97}}
\newlabel{reg_prod}{{84}{97}{}{Doc-Start}{}}
\@writefile{snm}{\beamer@slide {reg_prod}{97}}
\@writefile{nav}{\headcommand {\slideentry {0}{0}{85}{97/97}{}{0}}}
\@writefile{nav}{\headcommand {\beamer@framepages {97}{97}}}
\newlabel{intro_hetins<1>}{{85}{98}{}{Doc-Start}{}}
\@writefile{snm}{\beamer@slide {intro_hetins<1>}{98}}
\newlabel{intro_hetins}{{85}{98}{}{Doc-Start}{}}
\@writefile{snm}{\beamer@slide {intro_hetins}{98}}
\@writefile{nav}{\headcommand {\slideentry {0}{0}{86}{98/98}{}{0}}}
\@writefile{nav}{\headcommand {\beamer@framepages {98}{98}}}
\newlabel{balancestats_inst<1>}{{86}{99}{}{Doc-Start}{}}
\@writefile{snm}{\beamer@slide {balancestats_inst<1>}{99}}
\newlabel{balancestats_inst}{{86}{99}{}{Doc-Start}{}}
\@writefile{snm}{\beamer@slide {balancestats_inst}{99}}
\@writefile{nav}{\headcommand {\slideentry {0}{0}{87}{99/99}{}{0}}}
\@writefile{nav}{\headcommand {\beamer@framepages {99}{99}}}
\newlabel{het_plot<1>}{{87}{100}{}{Doc-Start}{}}
\@writefile{snm}{\beamer@slide {het_plot<1>}{100}}
\newlabel{het_plot}{{87}{100}{}{Doc-Start}{}}
\@writefile{snm}{\beamer@slide {het_plot}{100}}
\@writefile{nav}{\headcommand {\slideentry {0}{0}{88}{100/100}{}{0}}}
\@writefile{nav}{\headcommand {\beamer@framepages {100}{100}}}
\@writefile{nav}{\headcommand {\slideentry {0}{0}{89}{101/101}{}{0}}}
\@writefile{nav}{\headcommand {\beamer@framepages {101}{101}}}
\newlabel{context_health<1>}{{89}{102}{}{Doc-Start}{}}
\@writefile{snm}{\beamer@slide {context_health<1>}{102}}
\newlabel{context_health}{{89}{102}{}{Doc-Start}{}}
\@writefile{snm}{\beamer@slide {context_health}{102}}
\@writefile{nav}{\headcommand {\slideentry {0}{0}{90}{102/102}{}{0}}}
\@writefile{nav}{\headcommand {\beamer@framepages {102}{102}}}
\newlabel{causalforestexp<1>}{{90}{103}{}{Doc-Start}{}}
\@writefile{snm}{\beamer@slide {causalforestexp<1>}{103}}
\newlabel{causalforestexp}{{90}{103}{}{Doc-Start}{}}
\@writefile{snm}{\beamer@slide {causalforestexp}{103}}
\@writefile{nav}{\headcommand {\slideentry {0}{0}{91}{103/103}{}{0}}}
\@writefile{nav}{\headcommand {\beamer@framepages {103}{103}}}
\newlabel{reg_CFleaf<1>}{{91}{104}{}{Doc-Start}{}}
\@writefile{snm}{\beamer@slide {reg_CFleaf<1>}{104}}
\newlabel{reg_CFleaf}{{91}{104}{}{Doc-Start}{}}
\@writefile{snm}{\beamer@slide {reg_CFleaf}{104}}
\@writefile{nav}{\headcommand {\slideentry {0}{0}{92}{104/104}{}{0}}}
\@writefile{nav}{\headcommand {\beamer@framepages {104}{104}}}
\newlabel{reg_het1<1>}{{92}{105}{}{Doc-Start}{}}
\@writefile{snm}{\beamer@slide {reg_het1<1>}{105}}
\newlabel{reg_het1}{{92}{105}{}{Doc-Start}{}}
\@writefile{snm}{\beamer@slide {reg_het1}{105}}
\@writefile{nav}{\headcommand {\slideentry {0}{0}{93}{105/105}{}{0}}}
\@writefile{nav}{\headcommand {\beamer@framepages {105}{105}}}
\newlabel{reg_het2<1>}{{93}{106}{}{Doc-Start}{}}
\@writefile{snm}{\beamer@slide {reg_het2<1>}{106}}
\newlabel{reg_het2}{{93}{106}{}{Doc-Start}{}}
\@writefile{snm}{\beamer@slide {reg_het2}{106}}
\@writefile{nav}{\headcommand {\slideentry {0}{0}{94}{106/106}{}{0}}}
\@writefile{nav}{\headcommand {\beamer@framepages {106}{106}}}
\newlabel{sumstats_healthExp<1>}{{94}{107}{}{Doc-Start}{}}
\@writefile{snm}{\beamer@slide {sumstats_healthExp<1>}{107}}
\newlabel{sumstats_healthExp}{{94}{107}{}{Doc-Start}{}}
\@writefile{snm}{\beamer@slide {sumstats_healthExp}{107}}
\@writefile{nav}{\headcommand {\slideentry {0}{0}{95}{107/107}{}{0}}}
\@writefile{nav}{\headcommand {\beamer@framepages {107}{107}}}
\newlabel{sumstats_healthUps<1>}{{95}{108}{}{Doc-Start}{}}
\@writefile{snm}{\beamer@slide {sumstats_healthUps<1>}{108}}
\newlabel{sumstats_healthUps}{{95}{108}{}{Doc-Start}{}}
\@writefile{snm}{\beamer@slide {sumstats_healthUps}{108}}
\@writefile{nav}{\headcommand {\slideentry {0}{0}{96}{108/108}{}{0}}}
\@writefile{nav}{\headcommand {\beamer@framepages {108}{108}}}
\newlabel{reg_health2<1>}{{96}{109}{}{Doc-Start}{}}
\@writefile{snm}{\beamer@slide {reg_health2<1>}{109}}
\newlabel{reg_health2}{{96}{109}{}{Doc-Start}{}}
\@writefile{snm}{\beamer@slide {reg_health2}{109}}
\@writefile{nav}{\headcommand {\slideentry {0}{0}{97}{109/109}{}{0}}}
\@writefile{nav}{\headcommand {\beamer@framepages {109}{109}}}
\newlabel{reg_povertyRD<1>}{{97}{110}{}{Doc-Start}{}}
\@writefile{snm}{\beamer@slide {reg_povertyRD<1>}{110}}
\newlabel{reg_povertyRD}{{97}{110}{}{Doc-Start}{}}
\@writefile{snm}{\beamer@slide {reg_povertyRD}{110}}
\@writefile{nav}{\headcommand {\slideentry {0}{0}{98}{110/110}{}{0}}}
\@writefile{nav}{\headcommand {\beamer@framepages {110}{110}}}
\newlabel{titlesyear_plot<1>}{{98}{111}{}{Doc-Start}{}}
\@writefile{snm}{\beamer@slide {titlesyear_plot<1>}{111}}
\newlabel{titlesyear_plot}{{98}{111}{}{Doc-Start}{}}
\@writefile{snm}{\beamer@slide {titlesyear_plot}{111}}
\@writefile{nav}{\headcommand {\slideentry {0}{0}{99}{111/111}{}{0}}}
\@writefile{nav}{\headcommand {\beamer@framepages {111}{111}}}
\newlabel{reg_tit2014<1>}{{99}{112}{}{Doc-Start}{}}
\@writefile{snm}{\beamer@slide {reg_tit2014<1>}{112}}
\newlabel{reg_tit2014}{{99}{112}{}{Doc-Start}{}}
\@writefile{snm}{\beamer@slide {reg_tit2014}{112}}
\@writefile{nav}{\headcommand {\slideentry {0}{0}{100}{112/112}{}{0}}}
\@writefile{nav}{\headcommand {\beamer@framepages {112}{112}}}
\newlabel{reg_prod_raw<1>}{{100}{113}{}{Doc-Start}{}}
\@writefile{snm}{\beamer@slide {reg_prod_raw<1>}{113}}
\newlabel{reg_prod_raw}{{100}{113}{}{Doc-Start}{}}
\@writefile{snm}{\beamer@slide {reg_prod_raw}{113}}
\@writefile{nav}{\headcommand {\slideentry {0}{0}{101}{113/113}{}{0}}}
\@writefile{nav}{\headcommand {\beamer@framepages {113}{113}}}
\newlabel{eqn_health<1>}{{101}{114}{}{Doc-Start}{}}
\@writefile{snm}{\beamer@slide {eqn_health<1>}{114}}
\newlabel{eqn_health}{{101}{114}{}{Doc-Start}{}}
\@writefile{snm}{\beamer@slide {eqn_health}{114}}
\@writefile{nav}{\headcommand {\slideentry {0}{0}{102}{114/114}{}{0}}}
\@writefile{nav}{\headcommand {\beamer@framepages {114}{114}}}
\@writefile{nav}{\headcommand {\beamer@partpages {1}{114}}}
\@writefile{nav}{\headcommand {\beamer@subsectionpages {1}{114}}}
\@writefile{nav}{\headcommand {\beamer@sectionpages {1}{114}}}
\@writefile{nav}{\headcommand {\beamer@documentpages {114}}}
\@writefile{nav}{\headcommand {\def \inserttotalframenumber {101}}}
