\relax 
\providecommand\hyper@newdestlabel[2]{}
\providecommand\HyperFirstAtBeginDocument{\AtBeginDocument}
\HyperFirstAtBeginDocument{\ifx\hyper@anchor\@undefined
\global\let\oldcontentsline\contentsline
\gdef\contentsline#1#2#3#4{\oldcontentsline{#1}{#2}{#3}}
\global\let\oldnewlabel\newlabel
\gdef\newlabel#1#2{\newlabelxx{#1}#2}
\gdef\newlabelxx#1#2#3#4#5#6{\oldnewlabel{#1}{{#2}{#3}}}
\AtEndDocument{\ifx\hyper@anchor\@undefined
\let\contentsline\oldcontentsline
\let\newlabel\oldnewlabel
\fi}
\fi}
\global\let\hyper@last\relax 
\gdef\HyperFirstAtBeginDocument#1{#1}
\providecommand\HyField@AuxAddToFields[1]{}
\providecommand\HyField@AuxAddToCoFields[2]{}
\providecommand \oddpage@label [2]{}
\@writefile{toc}{\beamer@endinputifotherversion {3.36pt}}
\@writefile{nav}{\beamer@endinputifotherversion {3.36pt}}
\select@language{english}
\@writefile{toc}{\select@language{english}}
\@writefile{lof}{\select@language{english}}
\@writefile{lot}{\select@language{english}}
\@writefile{nav}{\headcommand {\slideentry {0}{0}{1}{1/1}{}{0}}}
\@writefile{nav}{\headcommand {\beamer@framepages {1}{1}}}
\@writefile{nav}{\headcommand {\slideentry {0}{0}{2}{2/2}{}{0}}}
\@writefile{nav}{\headcommand {\beamer@framepages {2}{2}}}
\@writefile{nav}{\headcommand {\slideentry {0}{0}{3}{3/3}{}{0}}}
\@writefile{nav}{\headcommand {\beamer@framepages {3}{3}}}
\@writefile{nav}{\headcommand {\slideentry {0}{0}{4}{4/4}{}{0}}}
\@writefile{nav}{\headcommand {\beamer@framepages {4}{4}}}
\@writefile{nav}{\headcommand {\slideentry {0}{0}{5}{5/5}{}{0}}}
\@writefile{nav}{\headcommand {\beamer@framepages {5}{5}}}
\newlabel{context<1>}{{6}{6}{}{Doc-Start}{}}
\@writefile{snm}{\beamer@slide {context<1>}{6}}
\newlabel{context}{{6}{6}{}{Doc-Start}{}}
\@writefile{snm}{\beamer@slide {context}{6}}
\@writefile{nav}{\headcommand {\slideentry {0}{0}{6}{6/6}{}{0}}}
\@writefile{nav}{\headcommand {\beamer@framepages {6}{6}}}
\@writefile{nav}{\headcommand {\slideentry {0}{0}{7}{7/7}{}{0}}}
\@writefile{nav}{\headcommand {\beamer@framepages {7}{7}}}
\@writefile{nav}{\headcommand {\slideentry {0}{0}{8}{8/8}{}{0}}}
\@writefile{nav}{\headcommand {\beamer@framepages {8}{8}}}
\newlabel{literature<1>}{{9}{9}{}{Doc-Start}{}}
\@writefile{snm}{\beamer@slide {literature<1>}{9}}
\newlabel{literature}{{9}{9}{}{Doc-Start}{}}
\@writefile{snm}{\beamer@slide {literature}{9}}
\@writefile{nav}{\headcommand {\slideentry {0}{0}{9}{9/9}{}{0}}}
\@writefile{nav}{\headcommand {\beamer@framepages {9}{9}}}
\newlabel{outline<1>}{{10}{10}{}{Doc-Start}{}}
\@writefile{snm}{\beamer@slide {outline<1>}{10}}
\newlabel{outline}{{10}{10}{}{Doc-Start}{}}
\@writefile{snm}{\beamer@slide {outline}{10}}
\@writefile{nav}{\headcommand {\slideentry {0}{0}{10}{10/10}{}{0}}}
\@writefile{nav}{\headcommand {\beamer@framepages {10}{10}}}
\newlabel{mining_Col<1>}{{11}{11}{}{Doc-Start}{}}
\@writefile{snm}{\beamer@slide {mining_Col<1>}{11}}
\newlabel{mining_Col}{{11}{11}{}{Doc-Start}{}}
\@writefile{snm}{\beamer@slide {mining_Col}{11}}
\@writefile{nav}{\headcommand {\slideentry {0}{0}{11}{11/11}{}{0}}}
\@writefile{nav}{\headcommand {\beamer@framepages {11}{11}}}
\newlabel{details_reform<1>}{{12}{12}{}{Doc-Start}{}}
\@writefile{snm}{\beamer@slide {details_reform<1>}{12}}
\newlabel{details_reform}{{12}{12}{}{Doc-Start}{}}
\@writefile{snm}{\beamer@slide {details_reform}{12}}
\@writefile{nav}{\headcommand {\slideentry {0}{0}{12}{12/12}{}{0}}}
\@writefile{nav}{\headcommand {\beamer@framepages {12}{12}}}
\newlabel{outline2<1>}{{13}{13}{}{Doc-Start}{}}
\@writefile{snm}{\beamer@slide {outline2<1>}{13}}
\newlabel{outline2}{{13}{13}{}{Doc-Start}{}}
\@writefile{snm}{\beamer@slide {outline2}{13}}
\@writefile{nav}{\headcommand {\slideentry {0}{0}{13}{13/13}{}{0}}}
\@writefile{nav}{\headcommand {\beamer@framepages {13}{13}}}
\newlabel{model_overview<1>}{{14}{14}{}{Doc-Start}{}}
\@writefile{snm}{\beamer@slide {model_overview<1>}{14}}
\newlabel{model_overview}{{14}{14}{}{Doc-Start}{}}
\@writefile{snm}{\beamer@slide {model_overview}{14}}
\@writefile{nav}{\headcommand {\slideentry {0}{0}{14}{14/14}{}{0}}}
\@writefile{nav}{\headcommand {\beamer@framepages {14}{14}}}
\newlabel{thmod<1>}{{15}{15}{}{Doc-Start}{}}
\@writefile{snm}{\beamer@slide {thmod<1>}{15}}
\newlabel{thmod}{{15}{15}{}{Doc-Start}{}}
\@writefile{snm}{\beamer@slide {thmod}{15}}
\@writefile{nav}{\headcommand {\slideentry {0}{0}{15}{15/15}{}{0}}}
\@writefile{nav}{\headcommand {\beamer@framepages {15}{15}}}
\newlabel{graph_beta<1>}{{16}{16}{}{Doc-Start}{}}
\@writefile{snm}{\beamer@slide {graph_beta<1>}{16}}
\newlabel{graph_beta}{{16}{16}{}{Doc-Start}{}}
\@writefile{snm}{\beamer@slide {graph_beta}{16}}
\@writefile{nav}{\headcommand {\slideentry {0}{0}{16}{16/16}{}{0}}}
\@writefile{nav}{\headcommand {\beamer@framepages {16}{16}}}
\newlabel{graph_agPr<1>}{{17}{17}{}{Doc-Start}{}}
\@writefile{snm}{\beamer@slide {graph_agPr<1>}{17}}
\newlabel{graph_agPr}{{17}{17}{}{Doc-Start}{}}
\@writefile{snm}{\beamer@slide {graph_agPr}{17}}
\@writefile{nav}{\headcommand {\slideentry {0}{0}{17}{17/17}{}{0}}}
\@writefile{nav}{\headcommand {\beamer@framepages {17}{17}}}
\@writefile{nav}{\headcommand {\slideentry {0}{0}{18}{18/18}{}{0}}}
\@writefile{nav}{\headcommand {\beamer@framepages {18}{18}}}
\newlabel{prepare<1>}{{19}{19}{}{Doc-Start}{}}
\@writefile{snm}{\beamer@slide {prepare<1>}{19}}
\newlabel{prepare}{{19}{19}{}{Doc-Start}{}}
\@writefile{snm}{\beamer@slide {prepare}{19}}
\@writefile{nav}{\headcommand {\slideentry {0}{0}{19}{19/19}{}{0}}}
\@writefile{nav}{\headcommand {\beamer@framepages {19}{19}}}
\newlabel{graph_prepare<1>}{{20}{20}{}{Doc-Start}{}}
\@writefile{snm}{\beamer@slide {graph_prepare<1>}{20}}
\newlabel{graph_prepare}{{20}{20}{}{Doc-Start}{}}
\@writefile{snm}{\beamer@slide {graph_prepare}{20}}
\@writefile{nav}{\headcommand {\slideentry {0}{0}{20}{20/20}{}{0}}}
\@writefile{nav}{\headcommand {\beamer@framepages {20}{20}}}
\newlabel{algorithm<1>}{{21}{21}{}{Doc-Start}{}}
\@writefile{snm}{\beamer@slide {algorithm<1>}{21}}
\newlabel{algorithm}{{21}{21}{}{Doc-Start}{}}
\@writefile{snm}{\beamer@slide {algorithm}{21}}
\@writefile{nav}{\headcommand {\slideentry {0}{0}{21}{21/21}{}{0}}}
\@writefile{nav}{\headcommand {\beamer@framepages {21}{21}}}
\@writefile{nav}{\headcommand {\slideentry {0}{0}{22}{22/22}{}{0}}}
\@writefile{nav}{\headcommand {\beamer@framepages {22}{22}}}
\newlabel{ROC<1>}{{23}{23}{}{Doc-Start}{}}
\@writefile{snm}{\beamer@slide {ROC<1>}{23}}
\newlabel{ROC}{{23}{23}{}{Doc-Start}{}}
\@writefile{snm}{\beamer@slide {ROC}{23}}
\@writefile{nav}{\headcommand {\slideentry {0}{0}{23}{23/23}{}{0}}}
\@writefile{nav}{\headcommand {\beamer@framepages {23}{23}}}
\@writefile{nav}{\headcommand {\slideentry {0}{0}{24}{24/24}{}{0}}}
\@writefile{nav}{\headcommand {\beamer@framepages {24}{24}}}
\newlabel{graph_predlegal<1>}{{25}{25}{}{Doc-Start}{}}
\@writefile{snm}{\beamer@slide {graph_predlegal<1>}{25}}
\newlabel{graph_predlegal}{{25}{25}{}{Doc-Start}{}}
\@writefile{snm}{\beamer@slide {graph_predlegal}{25}}
\@writefile{nav}{\headcommand {\slideentry {0}{0}{25}{25/25}{}{0}}}
\@writefile{nav}{\headcommand {\beamer@framepages {25}{25}}}
\newlabel{predPeru<1>}{{26}{26}{}{Doc-Start}{}}
\@writefile{snm}{\beamer@slide {predPeru<1>}{26}}
\newlabel{predPeru}{{26}{26}{}{Doc-Start}{}}
\@writefile{snm}{\beamer@slide {predPeru}{26}}
\@writefile{nav}{\headcommand {\slideentry {0}{0}{26}{26/26}{}{0}}}
\@writefile{nav}{\headcommand {\beamer@framepages {26}{26}}}
\newlabel{dd_basico_mined<1>}{{27}{27}{}{Doc-Start}{}}
\@writefile{snm}{\beamer@slide {dd_basico_mined<1>}{27}}
\newlabel{dd_basico_mined}{{27}{27}{}{Doc-Start}{}}
\@writefile{snm}{\beamer@slide {dd_basico_mined}{27}}
\@writefile{nav}{\headcommand {\slideentry {0}{0}{27}{27/27}{}{0}}}
\@writefile{nav}{\headcommand {\beamer@framepages {27}{27}}}
\@writefile{nav}{\headcommand {\slideentry {0}{0}{28}{28/28}{}{0}}}
\@writefile{nav}{\headcommand {\beamer@framepages {28}{28}}}
\@writefile{nav}{\headcommand {\slideentry {0}{0}{29}{29/29}{}{0}}}
\@writefile{nav}{\headcommand {\beamer@framepages {29}{29}}}
\newlabel{sumstats_regvarperu<1>}{{30}{30}{}{Doc-Start}{}}
\@writefile{snm}{\beamer@slide {sumstats_regvarperu<1>}{30}}
\newlabel{sumstats_regvarperu}{{30}{30}{}{Doc-Start}{}}
\@writefile{snm}{\beamer@slide {sumstats_regvarperu}{30}}
\@writefile{nav}{\headcommand {\slideentry {0}{0}{30}{30/30}{}{0}}}
\@writefile{nav}{\headcommand {\beamer@framepages {30}{30}}}
\newlabel{reg_main<1>}{{31}{31}{}{Doc-Start}{}}
\@writefile{snm}{\beamer@slide {reg_main<1>}{31}}
\newlabel{reg_main}{{31}{31}{}{Doc-Start}{}}
\@writefile{snm}{\beamer@slide {reg_main}{31}}
\@writefile{nav}{\headcommand {\slideentry {0}{0}{31}{31/31}{}{0}}}
\@writefile{nav}{\headcommand {\beamer@framepages {31}{31}}}
\newlabel{reg_titulos<1>}{{32}{32}{}{Doc-Start}{}}
\@writefile{snm}{\beamer@slide {reg_titulos<1>}{32}}
\newlabel{reg_titulos}{{32}{32}{}{Doc-Start}{}}
\@writefile{snm}{\beamer@slide {reg_titulos}{32}}
\@writefile{nav}{\headcommand {\slideentry {0}{0}{32}{32/32}{}{0}}}
\@writefile{nav}{\headcommand {\beamer@framepages {32}{32}}}
\newlabel{reg_prod<1>}{{33}{33}{}{Doc-Start}{}}
\@writefile{snm}{\beamer@slide {reg_prod<1>}{33}}
\newlabel{reg_prod}{{33}{33}{}{Doc-Start}{}}
\@writefile{snm}{\beamer@slide {reg_prod}{33}}
\@writefile{nav}{\headcommand {\slideentry {0}{0}{33}{33/33}{}{0}}}
\@writefile{nav}{\headcommand {\beamer@framepages {33}{33}}}
\newlabel{intro_hetins<1>}{{34}{34}{}{Doc-Start}{}}
\@writefile{snm}{\beamer@slide {intro_hetins<1>}{34}}
\newlabel{intro_hetins}{{34}{34}{}{Doc-Start}{}}
\@writefile{snm}{\beamer@slide {intro_hetins}{34}}
\@writefile{nav}{\headcommand {\slideentry {0}{0}{34}{34/34}{}{0}}}
\@writefile{nav}{\headcommand {\beamer@framepages {34}{34}}}
\newlabel{balancestats_inst<1>}{{35}{35}{}{Doc-Start}{}}
\@writefile{snm}{\beamer@slide {balancestats_inst<1>}{35}}
\newlabel{balancestats_inst}{{35}{35}{}{Doc-Start}{}}
\@writefile{snm}{\beamer@slide {balancestats_inst}{35}}
\@writefile{nav}{\headcommand {\slideentry {0}{0}{35}{35/35}{}{0}}}
\@writefile{nav}{\headcommand {\beamer@framepages {35}{35}}}
\newlabel{het_plot<1>}{{36}{36}{}{Doc-Start}{}}
\@writefile{snm}{\beamer@slide {het_plot<1>}{36}}
\newlabel{het_plot}{{36}{36}{}{Doc-Start}{}}
\@writefile{snm}{\beamer@slide {het_plot}{36}}
\@writefile{nav}{\headcommand {\slideentry {0}{0}{36}{36/36}{}{0}}}
\@writefile{nav}{\headcommand {\beamer@framepages {36}{36}}}
\@writefile{nav}{\headcommand {\slideentry {0}{0}{37}{37/37}{}{0}}}
\@writefile{nav}{\headcommand {\beamer@framepages {37}{37}}}
\newlabel{context_health<1>}{{38}{38}{}{Doc-Start}{}}
\@writefile{snm}{\beamer@slide {context_health<1>}{38}}
\newlabel{context_health}{{38}{38}{}{Doc-Start}{}}
\@writefile{snm}{\beamer@slide {context_health}{38}}
\@writefile{nav}{\headcommand {\slideentry {0}{0}{38}{38/38}{}{0}}}
\@writefile{nav}{\headcommand {\beamer@framepages {38}{38}}}
\@writefile{nav}{\headcommand {\slideentry {0}{0}{39}{39/39}{}{0}}}
\@writefile{nav}{\headcommand {\beamer@framepages {39}{39}}}
\newlabel{reg_health<1>}{{40}{40}{}{Doc-Start}{}}
\@writefile{snm}{\beamer@slide {reg_health<1>}{40}}
\newlabel{reg_health}{{40}{40}{}{Doc-Start}{}}
\@writefile{snm}{\beamer@slide {reg_health}{40}}
\@writefile{nav}{\headcommand {\slideentry {0}{0}{40}{40/40}{}{0}}}
\@writefile{nav}{\headcommand {\beamer@framepages {40}{40}}}
\newlabel{model_convex<1>}{{41}{41}{}{Doc-Start}{}}
\@writefile{snm}{\beamer@slide {model_convex<1>}{41}}
\newlabel{model_convex}{{41}{41}{}{Doc-Start}{}}
\@writefile{snm}{\beamer@slide {model_convex}{41}}
\@writefile{nav}{\headcommand {\slideentry {0}{0}{41}{41/41}{}{0}}}
\@writefile{nav}{\headcommand {\beamer@framepages {41}{41}}}
\newlabel{reg_wl<1>}{{42}{42}{}{Doc-Start}{}}
\@writefile{snm}{\beamer@slide {reg_wl<1>}{42}}
\newlabel{reg_wl}{{42}{42}{}{Doc-Start}{}}
\@writefile{snm}{\beamer@slide {reg_wl}{42}}
\@writefile{nav}{\headcommand {\slideentry {0}{0}{42}{42/42}{}{0}}}
\@writefile{nav}{\headcommand {\beamer@framepages {42}{42}}}
\@writefile{nav}{\headcommand {\slideentry {0}{0}{43}{43/43}{}{0}}}
\@writefile{nav}{\headcommand {\beamer@framepages {43}{43}}}
\newlabel{discussion<1>}{{44}{44}{}{Doc-Start}{}}
\@writefile{snm}{\beamer@slide {discussion<1>}{44}}
\newlabel{discussion}{{44}{44}{}{Doc-Start}{}}
\@writefile{snm}{\beamer@slide {discussion}{44}}
\@writefile{nav}{\headcommand {\slideentry {0}{0}{44}{44/44}{}{0}}}
\@writefile{nav}{\headcommand {\beamer@framepages {44}{44}}}
\newlabel{costreform<1>}{{45}{45}{}{Doc-Start}{}}
\@writefile{snm}{\beamer@slide {costreform<1>}{45}}
\newlabel{costreform}{{45}{45}{}{Doc-Start}{}}
\@writefile{snm}{\beamer@slide {costreform}{45}}
\@writefile{nav}{\headcommand {\slideentry {0}{0}{45}{45/45}{}{0}}}
\@writefile{nav}{\headcommand {\beamer@framepages {45}{45}}}
\newlabel{healthcostreform<1>}{{46}{46}{}{Doc-Start}{}}
\@writefile{snm}{\beamer@slide {healthcostreform<1>}{46}}
\newlabel{healthcostreform}{{46}{46}{}{Doc-Start}{}}
\@writefile{snm}{\beamer@slide {healthcostreform}{46}}
\@writefile{nav}{\headcommand {\slideentry {0}{0}{46}{46/46}{}{0}}}
\@writefile{nav}{\headcommand {\beamer@framepages {46}{46}}}
\@writefile{nav}{\headcommand {\slideentry {0}{0}{47}{47/47}{}{0}}}
\@writefile{nav}{\headcommand {\beamer@framepages {47}{47}}}
\@writefile{nav}{\headcommand {\slideentry {0}{0}{48}{48/48}{}{0}}}
\@writefile{nav}{\headcommand {\beamer@framepages {48}{48}}}
\newlabel{example_wl<1>}{{48}{49}{}{Doc-Start}{}}
\@writefile{snm}{\beamer@slide {example_wl<1>}{49}}
\newlabel{example_wl}{{48}{49}{}{Doc-Start}{}}
\@writefile{snm}{\beamer@slide {example_wl}{49}}
\@writefile{nav}{\headcommand {\slideentry {0}{0}{49}{49/49}{}{0}}}
\@writefile{nav}{\headcommand {\beamer@framepages {49}{49}}}
\newlabel{roy_ineq<1>}{{49}{50}{}{Doc-Start}{}}
\@writefile{snm}{\beamer@slide {roy_ineq<1>}{50}}
\newlabel{roy_ineq}{{49}{50}{}{Doc-Start}{}}
\@writefile{snm}{\beamer@slide {roy_ineq}{50}}
\newlabel{Circle size proportional to population of the municipality}{{49}{50}{}{Doc-Start}{}}
\@writefile{snm}{\beamer@slide {Circle size proportional to population of the municipality}{50}}
\@writefile{nav}{\headcommand {\slideentry {0}{0}{50}{50/50}{}{0}}}
\@writefile{nav}{\headcommand {\beamer@framepages {50}{50}}}
\newlabel{formula<1>}{{50}{51}{}{Doc-Start}{}}
\@writefile{snm}{\beamer@slide {formula<1>}{51}}
\newlabel{formula}{{50}{51}{}{Doc-Start}{}}
\@writefile{snm}{\beamer@slide {formula}{51}}
\@writefile{nav}{\headcommand {\slideentry {0}{0}{51}{51/51}{}{0}}}
\@writefile{nav}{\headcommand {\beamer@framepages {51}{51}}}
\newlabel{thmod_prof<1>}{{51}{52}{}{Doc-Start}{}}
\@writefile{snm}{\beamer@slide {thmod_prof<1>}{52}}
\newlabel{thmod_prof}{{51}{52}{}{Doc-Start}{}}
\@writefile{snm}{\beamer@slide {thmod_prof}{52}}
\@writefile{nav}{\headcommand {\slideentry {0}{0}{52}{52/52}{}{0}}}
\@writefile{nav}{\headcommand {\beamer@framepages {52}{52}}}
\newlabel{model_linear<1>}{{52}{53}{}{Doc-Start}{}}
\@writefile{snm}{\beamer@slide {model_linear<1>}{53}}
\newlabel{model_linear}{{52}{53}{}{Doc-Start}{}}
\@writefile{snm}{\beamer@slide {model_linear}{53}}
\@writefile{nav}{\headcommand {\slideentry {0}{0}{53}{53/53}{}{0}}}
\@writefile{nav}{\headcommand {\beamer@framepages {53}{53}}}
\newlabel{model_f<1>}{{53}{54}{}{Doc-Start}{}}
\@writefile{snm}{\beamer@slide {model_f<1>}{54}}
\newlabel{model_f}{{53}{54}{}{Doc-Start}{}}
\@writefile{snm}{\beamer@slide {model_f}{54}}
\@writefile{nav}{\headcommand {\slideentry {0}{0}{54}{54/54}{}{0}}}
\@writefile{nav}{\headcommand {\beamer@framepages {54}{54}}}
\newlabel{model_parameters<1>}{{54}{55}{}{Doc-Start}{}}
\@writefile{snm}{\beamer@slide {model_parameters<1>}{55}}
\newlabel{model_parameters}{{54}{55}{}{Doc-Start}{}}
\@writefile{snm}{\beamer@slide {model_parameters}{55}}
\@writefile{nav}{\headcommand {\slideentry {0}{0}{55}{55/55}{}{0}}}
\@writefile{nav}{\headcommand {\beamer@framepages {55}{55}}}
\newlabel{graph_agf<1>}{{55}{56}{}{Doc-Start}{}}
\@writefile{snm}{\beamer@slide {graph_agf<1>}{56}}
\newlabel{graph_agf}{{55}{56}{}{Doc-Start}{}}
\@writefile{snm}{\beamer@slide {graph_agf}{56}}
\@writefile{nav}{\headcommand {\slideentry {0}{0}{56}{56/56}{}{0}}}
\@writefile{nav}{\headcommand {\beamer@framepages {56}{56}}}
\newlabel{remove_clouds<1>}{{56}{57}{}{Doc-Start}{}}
\@writefile{snm}{\beamer@slide {remove_clouds<1>}{57}}
\newlabel{remove_clouds}{{56}{57}{}{Doc-Start}{}}
\@writefile{snm}{\beamer@slide {remove_clouds}{57}}
\@writefile{nav}{\headcommand {\slideentry {0}{0}{57}{57/57}{}{0}}}
\@writefile{nav}{\headcommand {\beamer@framepages {57}{57}}}
\newlabel{reg_vs_trees<1>}{{57}{58}{}{Doc-Start}{}}
\@writefile{snm}{\beamer@slide {reg_vs_trees<1>}{58}}
\newlabel{reg_vs_trees}{{57}{58}{}{Doc-Start}{}}
\@writefile{snm}{\beamer@slide {reg_vs_trees}{58}}
\@writefile{nav}{\headcommand {\slideentry {0}{0}{58}{58/58}{}{0}}}
\@writefile{nav}{\headcommand {\beamer@framepages {58}{58}}}
\newlabel{varimportance<1>}{{58}{59}{}{Doc-Start}{}}
\@writefile{snm}{\beamer@slide {varimportance<1>}{59}}
\newlabel{varimportance}{{58}{59}{}{Doc-Start}{}}
\@writefile{snm}{\beamer@slide {varimportance}{59}}
\@writefile{nav}{\headcommand {\slideentry {0}{0}{59}{59/59}{}{0}}}
\@writefile{nav}{\headcommand {\beamer@framepages {59}{59}}}
\newlabel{erroranal<1>}{{59}{60}{}{Doc-Start}{}}
\@writefile{snm}{\beamer@slide {erroranal<1>}{60}}
\newlabel{erroranal}{{59}{60}{}{Doc-Start}{}}
\@writefile{snm}{\beamer@slide {erroranal}{60}}
\@writefile{nav}{\headcommand {\slideentry {0}{0}{60}{60/60}{}{0}}}
\@writefile{nav}{\headcommand {\beamer@framepages {60}{60}}}
\@writefile{nav}{\headcommand {\slideentry {0}{0}{61}{61/61}{}{0}}}
\@writefile{nav}{\headcommand {\beamer@framepages {61}{61}}}
\@input{R/mat_conf.aux}
\newlabel{mat_conf<1>}{{61}{62}{}{Doc-Start}{}}
\@writefile{snm}{\beamer@slide {mat_conf<1>}{62}}
\newlabel{mat_conf}{{61}{62}{}{Doc-Start}{}}
\@writefile{snm}{\beamer@slide {mat_conf}{62}}
\@writefile{nav}{\headcommand {\slideentry {0}{0}{62}{62/62}{}{0}}}
\@writefile{nav}{\headcommand {\beamer@framepages {62}{62}}}
\newlabel{sumstats_tprfpr<1>}{{62}{63}{}{Doc-Start}{}}
\@writefile{snm}{\beamer@slide {sumstats_tprfpr<1>}{63}}
\newlabel{sumstats_tprfpr}{{62}{63}{}{Doc-Start}{}}
\@writefile{snm}{\beamer@slide {sumstats_tprfpr}{63}}
\@writefile{nav}{\headcommand {\slideentry {0}{0}{63}{63/63}{}{0}}}
\@writefile{nav}{\headcommand {\beamer@framepages {63}{63}}}
\@writefile{nav}{\headcommand {\slideentry {0}{0}{64}{64/64}{}{0}}}
\@writefile{nav}{\headcommand {\beamer@framepages {64}{64}}}
\newlabel{dd_basico<1>}{{64}{65}{}{Doc-Start}{}}
\@writefile{snm}{\beamer@slide {dd_basico<1>}{65}}
\newlabel{dd_basico}{{64}{65}{}{Doc-Start}{}}
\@writefile{snm}{\beamer@slide {dd_basico}{65}}
\@writefile{nav}{\headcommand {\slideentry {0}{0}{65}{65/65}{}{0}}}
\@writefile{nav}{\headcommand {\beamer@framepages {65}{65}}}
\@writefile{nav}{\headcommand {\slideentry {0}{0}{66}{66/66}{}{0}}}
\@writefile{nav}{\headcommand {\beamer@framepages {66}{66}}}
\@writefile{nav}{\headcommand {\slideentry {0}{0}{67}{67/67}{}{0}}}
\@writefile{nav}{\headcommand {\beamer@framepages {67}{67}}}
\@writefile{nav}{\headcommand {\slideentry {0}{0}{68}{68/68}{}{0}}}
\@writefile{nav}{\headcommand {\beamer@framepages {68}{68}}}
\@writefile{nav}{\headcommand {\slideentry {0}{0}{69}{69/69}{}{0}}}
\@writefile{nav}{\headcommand {\beamer@framepages {69}{69}}}
\@writefile{nav}{\headcommand {\slideentry {0}{0}{70}{70/70}{}{0}}}
\@writefile{nav}{\headcommand {\beamer@framepages {70}{70}}}
\@writefile{nav}{\headcommand {\slideentry {0}{0}{71}{71/71}{}{0}}}
\@writefile{nav}{\headcommand {\beamer@framepages {71}{71}}}
\@writefile{nav}{\headcommand {\slideentry {0}{0}{72}{72/72}{}{0}}}
\@writefile{nav}{\headcommand {\beamer@framepages {72}{72}}}
\newlabel{dd_avanzado<1>}{{72}{73}{}{Doc-Start}{}}
\@writefile{snm}{\beamer@slide {dd_avanzado<1>}{73}}
\newlabel{dd_avanzado}{{72}{73}{}{Doc-Start}{}}
\@writefile{snm}{\beamer@slide {dd_avanzado}{73}}
\@writefile{nav}{\headcommand {\slideentry {0}{0}{73}{73/73}{}{0}}}
\@writefile{nav}{\headcommand {\beamer@framepages {73}{73}}}
\newlabel{dd_basico_mined_ally<1>}{{73}{74}{}{Doc-Start}{}}
\@writefile{snm}{\beamer@slide {dd_basico_mined_ally<1>}{74}}
\newlabel{dd_basico_mined_ally}{{73}{74}{}{Doc-Start}{}}
\@writefile{snm}{\beamer@slide {dd_basico_mined_ally}{74}}
\@writefile{nav}{\headcommand {\slideentry {0}{0}{74}{74/74}{}{0}}}
\@writefile{nav}{\headcommand {\beamer@framepages {74}{74}}}
\newlabel{dd_avanzado_minedperu<1>}{{74}{75}{}{Doc-Start}{}}
\@writefile{snm}{\beamer@slide {dd_avanzado_minedperu<1>}{75}}
\newlabel{dd_avanzado_minedperu}{{74}{75}{}{Doc-Start}{}}
\@writefile{snm}{\beamer@slide {dd_avanzado_minedperu}{75}}
\@writefile{nav}{\headcommand {\slideentry {0}{0}{75}{75/75}{}{0}}}
\@writefile{nav}{\headcommand {\beamer@framepages {75}{75}}}
\newlabel{gold_price<1>}{{75}{76}{}{Doc-Start}{}}
\@writefile{snm}{\beamer@slide {gold_price<1>}{76}}
\newlabel{gold_price}{{75}{76}{}{Doc-Start}{}}
\@writefile{snm}{\beamer@slide {gold_price}{76}}
\@writefile{nav}{\headcommand {\slideentry {0}{0}{76}{76/76}{}{0}}}
\@writefile{nav}{\headcommand {\beamer@framepages {76}{76}}}
\newlabel{sumstats_muni<1>}{{76}{77}{}{Doc-Start}{}}
\@writefile{snm}{\beamer@slide {sumstats_muni<1>}{77}}
\newlabel{sumstats_muni}{{76}{77}{}{Doc-Start}{}}
\@writefile{snm}{\beamer@slide {sumstats_muni}{77}}
\@writefile{nav}{\headcommand {\slideentry {0}{0}{77}{77/77}{}{0}}}
\@writefile{nav}{\headcommand {\beamer@framepages {77}{77}}}
\newlabel{sumstats_regvarmined<1>}{{77}{78}{}{Doc-Start}{}}
\@writefile{snm}{\beamer@slide {sumstats_regvarmined<1>}{78}}
\newlabel{sumstats_regvarmined}{{77}{78}{}{Doc-Start}{}}
\@writefile{snm}{\beamer@slide {sumstats_regvarmined}{78}}
\@writefile{nav}{\headcommand {\slideentry {0}{0}{78}{78/78}{}{0}}}
\@writefile{nav}{\headcommand {\beamer@framepages {78}{78}}}
\newlabel{balancestats_muni<1>}{{78}{79}{}{Doc-Start}{}}
\@writefile{snm}{\beamer@slide {balancestats_muni<1>}{79}}
\newlabel{balancestats_muni}{{78}{79}{}{Doc-Start}{}}
\@writefile{snm}{\beamer@slide {balancestats_muni}{79}}
\@writefile{nav}{\headcommand {\slideentry {0}{0}{79}{79/79}{}{0}}}
\@writefile{nav}{\headcommand {\beamer@framepages {79}{79}}}
\newlabel{balancestats_censed<1>}{{79}{80}{}{Doc-Start}{}}
\@writefile{snm}{\beamer@slide {balancestats_censed<1>}{80}}
\newlabel{balancestats_censed}{{79}{80}{}{Doc-Start}{}}
\@writefile{snm}{\beamer@slide {balancestats_censed}{80}}
\@writefile{nav}{\headcommand {\slideentry {0}{0}{80}{80/80}{}{0}}}
\@writefile{nav}{\headcommand {\beamer@framepages {80}{80}}}
\newlabel{emp_theo_pred<1>}{{80}{81}{}{Doc-Start}{}}
\@writefile{snm}{\beamer@slide {emp_theo_pred<1>}{81}}
\newlabel{emp_theo_pred}{{80}{81}{}{Doc-Start}{}}
\@writefile{snm}{\beamer@slide {emp_theo_pred}{81}}
\@writefile{nav}{\headcommand {\slideentry {0}{0}{81}{81/81}{}{0}}}
\@writefile{nav}{\headcommand {\beamer@framepages {81}{81}}}
\newlabel{sumstats_ftotalperu<1>}{{81}{82}{}{Doc-Start}{}}
\@writefile{snm}{\beamer@slide {sumstats_ftotalperu<1>}{82}}
\newlabel{sumstats_ftotalperu}{{81}{82}{}{Doc-Start}{}}
\@writefile{snm}{\beamer@slide {sumstats_ftotalperu}{82}}
\@writefile{nav}{\headcommand {\slideentry {0}{0}{82}{82/82}{}{0}}}
\@writefile{nav}{\headcommand {\beamer@framepages {82}{82}}}
\newlabel{sumstats_regvar<1>}{{82}{83}{}{Doc-Start}{}}
\@writefile{snm}{\beamer@slide {sumstats_regvar<1>}{83}}
\newlabel{sumstats_regvar}{{82}{83}{}{Doc-Start}{}}
\@writefile{snm}{\beamer@slide {sumstats_regvar}{83}}
\@writefile{nav}{\headcommand {\slideentry {0}{0}{83}{83/83}{}{0}}}
\@writefile{nav}{\headcommand {\beamer@framepages {83}{83}}}
\newlabel{reg_non_parametric<1>}{{83}{84}{}{Doc-Start}{}}
\@writefile{snm}{\beamer@slide {reg_non_parametric<1>}{84}}
\newlabel{reg_non_parametric}{{83}{84}{}{Doc-Start}{}}
\@writefile{snm}{\beamer@slide {reg_non_parametric}{84}}
\@writefile{nav}{\headcommand {\slideentry {0}{0}{84}{84/84}{}{0}}}
\@writefile{nav}{\headcommand {\beamer@framepages {84}{84}}}
\newlabel{altonji_mined<1>}{{84}{85}{}{Doc-Start}{}}
\@writefile{snm}{\beamer@slide {altonji_mined<1>}{85}}
\newlabel{altonji_mined}{{84}{85}{}{Doc-Start}{}}
\@writefile{snm}{\beamer@slide {altonji_mined}{85}}
\@writefile{nav}{\headcommand {\slideentry {0}{0}{85}{85/85}{}{0}}}
\@writefile{nav}{\headcommand {\beamer@framepages {85}{85}}}
\newlabel{reg_lasso<1>}{{85}{86}{}{Doc-Start}{}}
\@writefile{snm}{\beamer@slide {reg_lasso<1>}{86}}
\newlabel{reg_lasso}{{85}{86}{}{Doc-Start}{}}
\@writefile{snm}{\beamer@slide {reg_lasso}{86}}
\@writefile{nav}{\headcommand {\slideentry {0}{0}{86}{86/86}{}{0}}}
\@writefile{nav}{\headcommand {\beamer@framepages {86}{86}}}
\newlabel{reg_lasso_continuous<1>}{{86}{87}{}{Doc-Start}{}}
\@writefile{snm}{\beamer@slide {reg_lasso_continuous<1>}{87}}
\newlabel{reg_lasso_continuous}{{86}{87}{}{Doc-Start}{}}
\@writefile{snm}{\beamer@slide {reg_lasso_continuous}{87}}
\@writefile{nav}{\headcommand {\slideentry {0}{0}{87}{87/87}{}{0}}}
\@writefile{nav}{\headcommand {\beamer@framepages {87}{87}}}
\newlabel{reg_adj<1>}{{87}{88}{}{Doc-Start}{}}
\@writefile{snm}{\beamer@slide {reg_adj<1>}{88}}
\newlabel{reg_adj}{{87}{88}{}{Doc-Start}{}}
\@writefile{snm}{\beamer@slide {reg_adj}{88}}
\@writefile{nav}{\headcommand {\slideentry {0}{0}{88}{88/88}{}{0}}}
\@writefile{nav}{\headcommand {\beamer@framepages {88}{88}}}
\newlabel{reg_weights<1>}{{88}{89}{}{Doc-Start}{}}
\@writefile{snm}{\beamer@slide {reg_weights<1>}{89}}
\newlabel{reg_weights}{{88}{89}{}{Doc-Start}{}}
\@writefile{snm}{\beamer@slide {reg_weights}{89}}
\@writefile{nav}{\headcommand {\slideentry {0}{0}{89}{89/89}{}{0}}}
\@writefile{nav}{\headcommand {\beamer@framepages {89}{89}}}
\newlabel{reg_dummy_deptr<1>}{{89}{90}{}{Doc-Start}{}}
\@writefile{snm}{\beamer@slide {reg_dummy_deptr<1>}{90}}
\newlabel{reg_dummy_deptr}{{89}{90}{}{Doc-Start}{}}
\@writefile{snm}{\beamer@slide {reg_dummy_deptr}{90}}
\@writefile{nav}{\headcommand {\slideentry {0}{0}{90}{90/90}{}{0}}}
\@writefile{nav}{\headcommand {\beamer@framepages {90}{90}}}
\newlabel{reg_nocnew<1>}{{90}{91}{}{Doc-Start}{}}
\@writefile{snm}{\beamer@slide {reg_nocnew<1>}{91}}
\newlabel{reg_nocnew}{{90}{91}{}{Doc-Start}{}}
\@writefile{snm}{\beamer@slide {reg_nocnew}{91}}
\@writefile{nav}{\headcommand {\slideentry {0}{0}{91}{91/91}{}{0}}}
\@writefile{nav}{\headcommand {\beamer@framepages {91}{91}}}
\newlabel{reg_peruRD<1>}{{91}{92}{}{Doc-Start}{}}
\@writefile{snm}{\beamer@slide {reg_peruRD<1>}{92}}
\newlabel{reg_peruRD}{{91}{92}{}{Doc-Start}{}}
\@writefile{snm}{\beamer@slide {reg_peruRD}{92}}
\@writefile{nav}{\headcommand {\slideentry {0}{0}{92}{92/92}{}{0}}}
\@writefile{nav}{\headcommand {\beamer@framepages {92}{92}}}
\newlabel{reg_importance<1>}{{92}{93}{}{Doc-Start}{}}
\@writefile{snm}{\beamer@slide {reg_importance<1>}{93}}
\newlabel{reg_importance}{{92}{93}{}{Doc-Start}{}}
\@writefile{snm}{\beamer@slide {reg_importance}{93}}
\@writefile{nav}{\headcommand {\slideentry {0}{0}{93}{93/93}{}{0}}}
\@writefile{nav}{\headcommand {\beamer@framepages {93}{93}}}
\newlabel{reg_continuous_deptr<1>}{{93}{94}{}{Doc-Start}{}}
\@writefile{snm}{\beamer@slide {reg_continuous_deptr<1>}{94}}
\newlabel{reg_continuous_deptr}{{93}{94}{}{Doc-Start}{}}
\@writefile{snm}{\beamer@slide {reg_continuous_deptr}{94}}
\@writefile{nav}{\headcommand {\slideentry {0}{0}{94}{94/94}{}{0}}}
\@writefile{nav}{\headcommand {\beamer@framepages {94}{94}}}
\newlabel{dd_basico_titulos<1>}{{94}{95}{}{Doc-Start}{}}
\@writefile{snm}{\beamer@slide {dd_basico_titulos<1>}{95}}
\newlabel{dd_basico_titulos}{{94}{95}{}{Doc-Start}{}}
\@writefile{snm}{\beamer@slide {dd_basico_titulos}{95}}
\@writefile{nav}{\headcommand {\slideentry {0}{0}{95}{95/95}{}{0}}}
\@writefile{nav}{\headcommand {\beamer@framepages {95}{95}}}
\newlabel{causalforestexp<1>}{{95}{96}{}{Doc-Start}{}}
\@writefile{snm}{\beamer@slide {causalforestexp<1>}{96}}
\newlabel{causalforestexp}{{95}{96}{}{Doc-Start}{}}
\@writefile{snm}{\beamer@slide {causalforestexp}{96}}
\@writefile{nav}{\headcommand {\slideentry {0}{0}{96}{96/96}{}{0}}}
\@writefile{nav}{\headcommand {\beamer@framepages {96}{96}}}
\newlabel{reg_CFleaf<1>}{{96}{97}{}{Doc-Start}{}}
\@writefile{snm}{\beamer@slide {reg_CFleaf<1>}{97}}
\newlabel{reg_CFleaf}{{96}{97}{}{Doc-Start}{}}
\@writefile{snm}{\beamer@slide {reg_CFleaf}{97}}
\@writefile{nav}{\headcommand {\slideentry {0}{0}{97}{97/97}{}{0}}}
\@writefile{nav}{\headcommand {\beamer@framepages {97}{97}}}
\newlabel{reg_het1<1>}{{97}{98}{}{Doc-Start}{}}
\@writefile{snm}{\beamer@slide {reg_het1<1>}{98}}
\newlabel{reg_het1}{{97}{98}{}{Doc-Start}{}}
\@writefile{snm}{\beamer@slide {reg_het1}{98}}
\@writefile{nav}{\headcommand {\slideentry {0}{0}{98}{98/98}{}{0}}}
\@writefile{nav}{\headcommand {\beamer@framepages {98}{98}}}
\newlabel{reg_het2<1>}{{98}{99}{}{Doc-Start}{}}
\@writefile{snm}{\beamer@slide {reg_het2<1>}{99}}
\newlabel{reg_het2}{{98}{99}{}{Doc-Start}{}}
\@writefile{snm}{\beamer@slide {reg_het2}{99}}
\@writefile{nav}{\headcommand {\slideentry {0}{0}{99}{99/99}{}{0}}}
\@writefile{nav}{\headcommand {\beamer@framepages {99}{99}}}
\newlabel{sumstats_healthExp<1>}{{99}{100}{}{Doc-Start}{}}
\@writefile{snm}{\beamer@slide {sumstats_healthExp<1>}{100}}
\newlabel{sumstats_healthExp}{{99}{100}{}{Doc-Start}{}}
\@writefile{snm}{\beamer@slide {sumstats_healthExp}{100}}
\@writefile{nav}{\headcommand {\slideentry {0}{0}{100}{100/100}{}{0}}}
\@writefile{nav}{\headcommand {\beamer@framepages {100}{100}}}
\newlabel{sumstats_healthUps<1>}{{100}{101}{}{Doc-Start}{}}
\@writefile{snm}{\beamer@slide {sumstats_healthUps<1>}{101}}
\newlabel{sumstats_healthUps}{{100}{101}{}{Doc-Start}{}}
\@writefile{snm}{\beamer@slide {sumstats_healthUps}{101}}
\@writefile{nav}{\headcommand {\slideentry {0}{0}{101}{101/101}{}{0}}}
\@writefile{nav}{\headcommand {\beamer@framepages {101}{101}}}
\newlabel{reg_health2<1>}{{101}{102}{}{Doc-Start}{}}
\@writefile{snm}{\beamer@slide {reg_health2<1>}{102}}
\newlabel{reg_health2}{{101}{102}{}{Doc-Start}{}}
\@writefile{snm}{\beamer@slide {reg_health2}{102}}
\@writefile{nav}{\headcommand {\slideentry {0}{0}{102}{102/102}{}{0}}}
\@writefile{nav}{\headcommand {\beamer@framepages {102}{102}}}
\newlabel{reg_povertyRD<1>}{{102}{103}{}{Doc-Start}{}}
\@writefile{snm}{\beamer@slide {reg_povertyRD<1>}{103}}
\newlabel{reg_povertyRD}{{102}{103}{}{Doc-Start}{}}
\@writefile{snm}{\beamer@slide {reg_povertyRD}{103}}
\@writefile{nav}{\headcommand {\slideentry {0}{0}{103}{103/103}{}{0}}}
\@writefile{nav}{\headcommand {\beamer@framepages {103}{103}}}
\newlabel{titlesyear_plot<1>}{{103}{104}{}{Doc-Start}{}}
\@writefile{snm}{\beamer@slide {titlesyear_plot<1>}{104}}
\newlabel{titlesyear_plot}{{103}{104}{}{Doc-Start}{}}
\@writefile{snm}{\beamer@slide {titlesyear_plot}{104}}
\@writefile{nav}{\headcommand {\slideentry {0}{0}{104}{104/104}{}{0}}}
\@writefile{nav}{\headcommand {\beamer@framepages {104}{104}}}
\newlabel{reg_tit2014<1>}{{104}{105}{}{Doc-Start}{}}
\@writefile{snm}{\beamer@slide {reg_tit2014<1>}{105}}
\newlabel{reg_tit2014}{{104}{105}{}{Doc-Start}{}}
\@writefile{snm}{\beamer@slide {reg_tit2014}{105}}
\@writefile{nav}{\headcommand {\slideentry {0}{0}{105}{105/105}{}{0}}}
\@writefile{nav}{\headcommand {\beamer@framepages {105}{105}}}
\newlabel{reg_prod_raw<1>}{{105}{106}{}{Doc-Start}{}}
\@writefile{snm}{\beamer@slide {reg_prod_raw<1>}{106}}
\newlabel{reg_prod_raw}{{105}{106}{}{Doc-Start}{}}
\@writefile{snm}{\beamer@slide {reg_prod_raw}{106}}
\@writefile{nav}{\headcommand {\slideentry {0}{0}{106}{106/106}{}{0}}}
\@writefile{nav}{\headcommand {\beamer@framepages {106}{106}}}
\newlabel{eqn_health<1>}{{106}{107}{}{Doc-Start}{}}
\@writefile{snm}{\beamer@slide {eqn_health<1>}{107}}
\newlabel{eqn_health}{{106}{107}{}{Doc-Start}{}}
\@writefile{snm}{\beamer@slide {eqn_health}{107}}
\@writefile{nav}{\headcommand {\slideentry {0}{0}{107}{107/107}{}{0}}}
\@writefile{nav}{\headcommand {\beamer@framepages {107}{107}}}
\newlabel{reg_rwlw<1>}{{107}{108}{}{Doc-Start}{}}
\@writefile{snm}{\beamer@slide {reg_rwlw<1>}{108}}
\newlabel{reg_rwlw}{{107}{108}{}{Doc-Start}{}}
\@writefile{snm}{\beamer@slide {reg_rwlw}{108}}
\@writefile{nav}{\headcommand {\slideentry {0}{0}{108}{108/108}{}{0}}}
\@writefile{nav}{\headcommand {\beamer@framepages {108}{108}}}
\newlabel{reg_tasahomicides<1>}{{108}{109}{}{Doc-Start}{}}
\@writefile{snm}{\beamer@slide {reg_tasahomicides<1>}{109}}
\newlabel{reg_tasahomicides}{{108}{109}{}{Doc-Start}{}}
\@writefile{snm}{\beamer@slide {reg_tasahomicides}{109}}
\@writefile{nav}{\headcommand {\slideentry {0}{0}{109}{109/109}{}{0}}}
\@writefile{nav}{\headcommand {\beamer@framepages {109}{109}}}
\newlabel{reg_homicides<1>}{{109}{110}{}{Doc-Start}{}}
\@writefile{snm}{\beamer@slide {reg_homicides<1>}{110}}
\newlabel{reg_homicides}{{109}{110}{}{Doc-Start}{}}
\@writefile{snm}{\beamer@slide {reg_homicides}{110}}
\@writefile{nav}{\headcommand {\slideentry {0}{0}{110}{110/110}{}{0}}}
\@writefile{nav}{\headcommand {\beamer@framepages {110}{110}}}
\@writefile{nav}{\headcommand {\slideentry {0}{0}{111}{111/111}{}{0}}}
\@writefile{nav}{\headcommand {\beamer@framepages {111}{111}}}
\newlabel{reg_tmi<1>}{{111}{112}{}{Doc-Start}{}}
\@writefile{snm}{\beamer@slide {reg_tmi<1>}{112}}
\newlabel{reg_tmi}{{111}{112}{}{Doc-Start}{}}
\@writefile{snm}{\beamer@slide {reg_tmi}{112}}
\@writefile{nav}{\headcommand {\slideentry {0}{0}{112}{112/112}{}{0}}}
\@writefile{nav}{\headcommand {\beamer@framepages {112}{112}}}
\newlabel{reg_tribut<1>}{{112}{113}{}{Doc-Start}{}}
\@writefile{snm}{\beamer@slide {reg_tribut<1>}{113}}
\newlabel{reg_tribut}{{112}{113}{}{Doc-Start}{}}
\@writefile{snm}{\beamer@slide {reg_tribut}{113}}
\@writefile{nav}{\headcommand {\slideentry {0}{0}{113}{113/113}{}{0}}}
\@writefile{nav}{\headcommand {\beamer@framepages {113}{113}}}
\@writefile{nav}{\headcommand {\slideentry {0}{0}{114}{114/114}{}{0}}}
\@writefile{nav}{\headcommand {\beamer@framepages {114}{114}}}
\bibstyle{apacite}
\bibdata{bibille}
\@writefile{nav}{\headcommand {\slideentry {0}{0}{115}{115/115}{}{0}}}
\@writefile{nav}{\headcommand {\beamer@framepages {115}{115}}}
\@writefile{nav}{\headcommand {\beamer@partpages {1}{115}}}
\@writefile{nav}{\headcommand {\beamer@subsectionpages {1}{115}}}
\@writefile{nav}{\headcommand {\beamer@sectionpages {1}{115}}}
\@writefile{nav}{\headcommand {\beamer@documentpages {115}}}
\@writefile{nav}{\headcommand {\def \inserttotalframenumber {48}}}
