\beamer@endinputifotherversion {3.36pt}
\headcommand {\slideentry {0}{0}{1}{1/1}{}{0}}
\headcommand {\beamer@framepages {1}{1}}
\headcommand {\slideentry {0}{0}{2}{2/4}{}{0}}
\headcommand {\beamer@framepages {2}{4}}
\headcommand {\slideentry {0}{0}{3}{5/6}{}{0}}
\headcommand {\beamer@framepages {5}{6}}
\headcommand {\slideentry {0}{0}{4}{7/8}{}{0}}
\headcommand {\beamer@framepages {7}{8}}
\headcommand {\slideentry {0}{0}{5}{9/9}{}{0}}
\headcommand {\beamer@framepages {9}{9}}
\headcommand {\slideentry {0}{0}{6}{10/11}{}{0}}
\headcommand {\beamer@framepages {10}{11}}
\headcommand {\slideentry {0}{0}{7}{12/16}{}{0}}
\headcommand {\beamer@framepages {12}{16}}
\headcommand {\slideentry {0}{0}{8}{17/17}{}{0}}
\headcommand {\beamer@framepages {17}{17}}
\headcommand {\slideentry {0}{0}{9}{18/18}{}{0}}
\headcommand {\beamer@framepages {18}{18}}
\headcommand {\slideentry {0}{0}{10}{19/19}{}{0}}
\headcommand {\beamer@framepages {19}{19}}
\headcommand {\slideentry {0}{0}{11}{20/20}{}{0}}
\headcommand {\beamer@framepages {20}{20}}
\headcommand {\slideentry {0}{0}{12}{21/21}{}{0}}
\headcommand {\beamer@framepages {21}{21}}
\headcommand {\slideentry {0}{0}{13}{22/22}{}{0}}
\headcommand {\beamer@framepages {22}{22}}
\headcommand {\slideentry {0}{0}{14}{23/23}{}{0}}
\headcommand {\beamer@framepages {23}{23}}
\headcommand {\slideentry {0}{0}{15}{24/24}{}{0}}
\headcommand {\beamer@framepages {24}{24}}
\headcommand {\slideentry {0}{0}{16}{25/25}{}{0}}
\headcommand {\beamer@framepages {25}{25}}
\headcommand {\slideentry {0}{0}{17}{26/26}{}{0}}
\headcommand {\beamer@framepages {26}{26}}
\headcommand {\slideentry {0}{0}{18}{27/27}{}{0}}
\headcommand {\beamer@framepages {27}{27}}
\headcommand {\slideentry {0}{0}{19}{28/28}{}{0}}
\headcommand {\beamer@framepages {28}{28}}
\headcommand {\slideentry {0}{0}{20}{29/29}{}{0}}
\headcommand {\beamer@framepages {29}{29}}
\headcommand {\slideentry {0}{0}{21}{30/30}{}{0}}
\headcommand {\beamer@framepages {30}{30}}
\headcommand {\slideentry {0}{0}{22}{31/31}{}{0}}
\headcommand {\beamer@framepages {31}{31}}
\headcommand {\slideentry {0}{0}{23}{32/32}{}{0}}
\headcommand {\beamer@framepages {32}{32}}
\headcommand {\slideentry {0}{0}{24}{33/33}{}{0}}
\headcommand {\beamer@framepages {33}{33}}
\headcommand {\slideentry {0}{0}{25}{34/34}{}{0}}
\headcommand {\beamer@framepages {34}{34}}
\headcommand {\slideentry {0}{0}{26}{35/35}{}{0}}
\headcommand {\beamer@framepages {35}{35}}
\headcommand {\slideentry {0}{0}{27}{36/36}{}{0}}
\headcommand {\beamer@framepages {36}{36}}
\headcommand {\slideentry {0}{0}{28}{37/37}{}{0}}
\headcommand {\beamer@framepages {37}{37}}
\headcommand {\slideentry {0}{0}{29}{38/38}{}{0}}
\headcommand {\beamer@framepages {38}{38}}
\headcommand {\slideentry {0}{0}{30}{39/39}{}{0}}
\headcommand {\beamer@framepages {39}{39}}
\headcommand {\slideentry {0}{0}{31}{40/40}{}{0}}
\headcommand {\beamer@framepages {40}{40}}
\headcommand {\slideentry {0}{0}{32}{41/41}{}{0}}
\headcommand {\beamer@framepages {41}{41}}
\headcommand {\slideentry {0}{0}{33}{42/44}{}{0}}
\headcommand {\beamer@framepages {42}{44}}
\headcommand {\slideentry {0}{0}{34}{45/45}{}{0}}
\headcommand {\beamer@framepages {45}{45}}
\headcommand {\slideentry {0}{0}{35}{46/46}{}{0}}
\headcommand {\beamer@framepages {46}{46}}
\headcommand {\slideentry {0}{0}{36}{47/47}{}{0}}
\headcommand {\beamer@framepages {47}{47}}
\headcommand {\slideentry {0}{0}{37}{48/49}{}{0}}
\headcommand {\beamer@framepages {48}{49}}
\headcommand {\slideentry {0}{0}{38}{50/50}{}{0}}
\headcommand {\beamer@framepages {50}{50}}
\headcommand {\slideentry {0}{0}{39}{51/51}{}{0}}
\headcommand {\beamer@framepages {51}{51}}
\headcommand {\slideentry {0}{0}{40}{52/52}{}{0}}
\headcommand {\beamer@framepages {52}{52}}
\headcommand {\slideentry {0}{0}{41}{53/53}{}{0}}
\headcommand {\beamer@framepages {53}{53}}
\headcommand {\slideentry {0}{0}{42}{54/54}{}{0}}
\headcommand {\beamer@framepages {54}{54}}
\headcommand {\slideentry {0}{0}{43}{55/55}{}{0}}
\headcommand {\beamer@framepages {55}{55}}
\headcommand {\slideentry {0}{0}{44}{56/56}{}{0}}
\headcommand {\beamer@framepages {56}{56}}
\headcommand {\slideentry {0}{0}{45}{57/57}{}{0}}
\headcommand {\beamer@framepages {57}{57}}
\headcommand {\slideentry {0}{0}{46}{58/58}{}{0}}
\headcommand {\beamer@framepages {58}{58}}
\headcommand {\slideentry {0}{0}{47}{59/59}{}{0}}
\headcommand {\beamer@framepages {59}{59}}
\headcommand {\slideentry {0}{0}{48}{60/60}{}{0}}
\headcommand {\beamer@framepages {60}{60}}
\headcommand {\slideentry {0}{0}{49}{61/61}{}{0}}
\headcommand {\beamer@framepages {61}{61}}
\headcommand {\slideentry {0}{0}{50}{62/62}{}{0}}
\headcommand {\beamer@framepages {62}{62}}
\headcommand {\slideentry {0}{0}{51}{63/63}{}{0}}
\headcommand {\beamer@framepages {63}{63}}
\headcommand {\slideentry {0}{0}{52}{64/64}{}{0}}
\headcommand {\beamer@framepages {64}{64}}
\headcommand {\slideentry {0}{0}{53}{65/65}{}{0}}
\headcommand {\beamer@framepages {65}{65}}
\headcommand {\slideentry {0}{0}{54}{66/66}{}{0}}
\headcommand {\beamer@framepages {66}{66}}
\headcommand {\slideentry {0}{0}{55}{67/67}{}{0}}
\headcommand {\beamer@framepages {67}{67}}
\headcommand {\slideentry {0}{0}{56}{68/68}{}{0}}
\headcommand {\beamer@framepages {68}{68}}
\headcommand {\slideentry {0}{0}{57}{69/69}{}{0}}
\headcommand {\beamer@framepages {69}{69}}
\headcommand {\slideentry {0}{0}{58}{70/70}{}{0}}
\headcommand {\beamer@framepages {70}{70}}
\headcommand {\slideentry {0}{0}{59}{71/71}{}{0}}
\headcommand {\beamer@framepages {71}{71}}
\headcommand {\slideentry {0}{0}{60}{72/72}{}{0}}
\headcommand {\beamer@framepages {72}{72}}
\headcommand {\slideentry {0}{0}{61}{73/73}{}{0}}
\headcommand {\beamer@framepages {73}{73}}
\headcommand {\slideentry {0}{0}{62}{74/74}{}{0}}
\headcommand {\beamer@framepages {74}{74}}
\headcommand {\slideentry {0}{0}{63}{75/75}{}{0}}
\headcommand {\beamer@framepages {75}{75}}
\headcommand {\slideentry {0}{0}{64}{76/76}{}{0}}
\headcommand {\beamer@framepages {76}{76}}
\headcommand {\slideentry {0}{0}{65}{77/77}{}{0}}
\headcommand {\beamer@framepages {77}{77}}
\headcommand {\slideentry {0}{0}{66}{78/78}{}{0}}
\headcommand {\beamer@framepages {78}{78}}
\headcommand {\slideentry {0}{0}{67}{79/79}{}{0}}
\headcommand {\beamer@framepages {79}{79}}
\headcommand {\slideentry {0}{0}{68}{80/80}{}{0}}
\headcommand {\beamer@framepages {80}{80}}
\headcommand {\slideentry {0}{0}{69}{81/81}{}{0}}
\headcommand {\beamer@framepages {81}{81}}
\headcommand {\slideentry {0}{0}{70}{82/82}{}{0}}
\headcommand {\beamer@framepages {82}{82}}
\headcommand {\slideentry {0}{0}{71}{83/83}{}{0}}
\headcommand {\beamer@framepages {83}{83}}
\headcommand {\slideentry {0}{0}{72}{84/84}{}{0}}
\headcommand {\beamer@framepages {84}{84}}
\headcommand {\slideentry {0}{0}{73}{85/85}{}{0}}
\headcommand {\beamer@framepages {85}{85}}
\headcommand {\slideentry {0}{0}{74}{86/86}{}{0}}
\headcommand {\beamer@framepages {86}{86}}
\headcommand {\slideentry {0}{0}{75}{87/87}{}{0}}
\headcommand {\beamer@framepages {87}{87}}
\headcommand {\slideentry {0}{0}{76}{88/88}{}{0}}
\headcommand {\beamer@framepages {88}{88}}
\headcommand {\slideentry {0}{0}{77}{89/89}{}{0}}
\headcommand {\beamer@framepages {89}{89}}
\headcommand {\slideentry {0}{0}{78}{90/90}{}{0}}
\headcommand {\beamer@framepages {90}{90}}
\headcommand {\slideentry {0}{0}{79}{91/91}{}{0}}
\headcommand {\beamer@framepages {91}{91}}
\headcommand {\slideentry {0}{0}{80}{92/92}{}{0}}
\headcommand {\beamer@framepages {92}{92}}
\headcommand {\slideentry {0}{0}{81}{93/93}{}{0}}
\headcommand {\beamer@framepages {93}{93}}
\headcommand {\slideentry {0}{0}{82}{94/94}{}{0}}
\headcommand {\beamer@framepages {94}{94}}
\headcommand {\slideentry {0}{0}{83}{95/95}{}{0}}
\headcommand {\beamer@framepages {95}{95}}
\headcommand {\slideentry {0}{0}{84}{96/96}{}{0}}
\headcommand {\beamer@framepages {96}{96}}
\headcommand {\slideentry {0}{0}{85}{97/97}{}{0}}
\headcommand {\beamer@framepages {97}{97}}
\headcommand {\slideentry {0}{0}{86}{98/98}{}{0}}
\headcommand {\beamer@framepages {98}{98}}
\headcommand {\slideentry {0}{0}{87}{99/99}{}{0}}
\headcommand {\beamer@framepages {99}{99}}
\headcommand {\slideentry {0}{0}{88}{100/100}{}{0}}
\headcommand {\beamer@framepages {100}{100}}
\headcommand {\slideentry {0}{0}{89}{101/101}{}{0}}
\headcommand {\beamer@framepages {101}{101}}
\headcommand {\slideentry {0}{0}{90}{102/102}{}{0}}
\headcommand {\beamer@framepages {102}{102}}
\headcommand {\slideentry {0}{0}{91}{103/103}{}{0}}
\headcommand {\beamer@framepages {103}{103}}
\headcommand {\slideentry {0}{0}{92}{104/104}{}{0}}
\headcommand {\beamer@framepages {104}{104}}
\headcommand {\slideentry {0}{0}{93}{105/105}{}{0}}
\headcommand {\beamer@framepages {105}{105}}
\headcommand {\slideentry {0}{0}{94}{106/106}{}{0}}
\headcommand {\beamer@framepages {106}{106}}
\headcommand {\slideentry {0}{0}{95}{107/107}{}{0}}
\headcommand {\beamer@framepages {107}{107}}
\headcommand {\slideentry {0}{0}{96}{108/108}{}{0}}
\headcommand {\beamer@framepages {108}{108}}
\headcommand {\slideentry {0}{0}{97}{109/109}{}{0}}
\headcommand {\beamer@framepages {109}{109}}
\headcommand {\slideentry {0}{0}{98}{110/110}{}{0}}
\headcommand {\beamer@framepages {110}{110}}
\headcommand {\slideentry {0}{0}{99}{111/111}{}{0}}
\headcommand {\beamer@framepages {111}{111}}
\headcommand {\slideentry {0}{0}{100}{112/112}{}{0}}
\headcommand {\beamer@framepages {112}{112}}
\headcommand {\slideentry {0}{0}{101}{113/113}{}{0}}
\headcommand {\beamer@framepages {113}{113}}
\headcommand {\slideentry {0}{0}{102}{114/114}{}{0}}
\headcommand {\beamer@framepages {114}{114}}
\headcommand {\beamer@partpages {1}{114}}
\headcommand {\beamer@subsectionpages {1}{114}}
\headcommand {\beamer@sectionpages {1}{114}}
\headcommand {\beamer@documentpages {114}}
\headcommand {\def \inserttotalframenumber {101}}
