\relax 
\providecommand\hyper@newdestlabel[2]{}
\providecommand\HyperFirstAtBeginDocument{\AtBeginDocument}
\HyperFirstAtBeginDocument{\ifx\hyper@anchor\@undefined
\global\let\oldcontentsline\contentsline
\gdef\contentsline#1#2#3#4{\oldcontentsline{#1}{#2}{#3}}
\global\let\oldnewlabel\newlabel
\gdef\newlabel#1#2{\newlabelxx{#1}#2}
\gdef\newlabelxx#1#2#3#4#5#6{\oldnewlabel{#1}{{#2}{#3}}}
\AtEndDocument{\ifx\hyper@anchor\@undefined
\let\contentsline\oldcontentsline
\let\newlabel\oldnewlabel
\fi}
\fi}
\global\let\hyper@last\relax 
\gdef\HyperFirstAtBeginDocument#1{#1}
\providecommand\HyField@AuxAddToFields[1]{}
\providecommand\HyField@AuxAddToCoFields[2]{}
\providecommand \oddpage@label [2]{}
\@writefile{toc}{\beamer@endinputifotherversion {3.36pt}}
\@writefile{nav}{\beamer@endinputifotherversion {3.36pt}}
\select@language{english}
\@writefile{toc}{\select@language{english}}
\@writefile{lof}{\select@language{english}}
\@writefile{lot}{\select@language{english}}
\@writefile{nav}{\headcommand {\slideentry {0}{0}{1}{1/1}{}{0}}}
\@writefile{nav}{\headcommand {\beamer@framepages {1}{1}}}
\@writefile{nav}{\headcommand {\slideentry {0}{0}{2}{2/5}{}{0}}}
\@writefile{nav}{\headcommand {\beamer@framepages {2}{5}}}
\@writefile{nav}{\headcommand {\slideentry {0}{0}{3}{6/7}{}{0}}}
\@writefile{nav}{\headcommand {\beamer@framepages {6}{7}}}
\@writefile{nav}{\headcommand {\slideentry {0}{0}{4}{8/9}{}{0}}}
\@writefile{nav}{\headcommand {\beamer@framepages {8}{9}}}
\@writefile{nav}{\headcommand {\slideentry {0}{0}{5}{10/10}{}{0}}}
\@writefile{nav}{\headcommand {\beamer@framepages {10}{10}}}
\newlabel{context<1>}{{6}{11}{}{Doc-Start}{}}
\@writefile{snm}{\beamer@slide {context<1>}{11}}
\newlabel{context}{{6}{11}{}{Doc-Start}{}}
\@writefile{snm}{\beamer@slide {context}{11}}
\newlabel{context<2>}{{6}{12}{}{Doc-Start}{}}
\@writefile{snm}{\beamer@slide {context<2>}{12}}
\@writefile{nav}{\headcommand {\slideentry {0}{0}{6}{11/12}{}{0}}}
\@writefile{nav}{\headcommand {\beamer@framepages {11}{12}}}
\@writefile{nav}{\headcommand {\slideentry {0}{0}{7}{13/17}{}{0}}}
\@writefile{nav}{\headcommand {\beamer@framepages {13}{17}}}
\@writefile{nav}{\headcommand {\slideentry {0}{0}{8}{18/18}{}{0}}}
\@writefile{nav}{\headcommand {\beamer@framepages {18}{18}}}
\newlabel{literature<1>}{{9}{19}{}{Doc-Start}{}}
\@writefile{snm}{\beamer@slide {literature<1>}{19}}
\newlabel{literature}{{9}{19}{}{Doc-Start}{}}
\@writefile{snm}{\beamer@slide {literature}{19}}
\newlabel{literature<2>}{{9}{20}{}{Doc-Start}{}}
\@writefile{snm}{\beamer@slide {literature<2>}{20}}
\newlabel{literature<3>}{{9}{21}{}{Doc-Start}{}}
\@writefile{snm}{\beamer@slide {literature<3>}{21}}
\newlabel{literature<4>}{{9}{22}{}{Doc-Start}{}}
\@writefile{snm}{\beamer@slide {literature<4>}{22}}
\newlabel{literature<5>}{{9}{23}{}{Doc-Start}{}}
\@writefile{snm}{\beamer@slide {literature<5>}{23}}
\@writefile{nav}{\headcommand {\slideentry {0}{0}{9}{19/23}{}{0}}}
\@writefile{nav}{\headcommand {\beamer@framepages {19}{23}}}
\newlabel{outline<1>}{{10}{24}{}{Doc-Start}{}}
\@writefile{snm}{\beamer@slide {outline<1>}{24}}
\newlabel{outline}{{10}{24}{}{Doc-Start}{}}
\@writefile{snm}{\beamer@slide {outline}{24}}
\@writefile{nav}{\headcommand {\slideentry {0}{0}{10}{24/24}{}{0}}}
\@writefile{nav}{\headcommand {\beamer@framepages {24}{24}}}
\newlabel{mining_Col<1>}{{11}{25}{}{Doc-Start}{}}
\@writefile{snm}{\beamer@slide {mining_Col<1>}{25}}
\newlabel{mining_Col}{{11}{25}{}{Doc-Start}{}}
\@writefile{snm}{\beamer@slide {mining_Col}{25}}
\@writefile{nav}{\headcommand {\slideentry {0}{0}{11}{25/25}{}{0}}}
\@writefile{nav}{\headcommand {\beamer@framepages {25}{25}}}
\newlabel{details_reform<1>}{{12}{26}{}{Doc-Start}{}}
\@writefile{snm}{\beamer@slide {details_reform<1>}{26}}
\newlabel{details_reform}{{12}{26}{}{Doc-Start}{}}
\@writefile{snm}{\beamer@slide {details_reform}{26}}
\@writefile{nav}{\headcommand {\slideentry {0}{0}{12}{26/26}{}{0}}}
\@writefile{nav}{\headcommand {\beamer@framepages {26}{26}}}
\newlabel{outline2<1>}{{13}{27}{}{Doc-Start}{}}
\@writefile{snm}{\beamer@slide {outline2<1>}{27}}
\newlabel{outline2}{{13}{27}{}{Doc-Start}{}}
\@writefile{snm}{\beamer@slide {outline2}{27}}
\@writefile{nav}{\headcommand {\slideentry {0}{0}{13}{27/27}{}{0}}}
\@writefile{nav}{\headcommand {\beamer@framepages {27}{27}}}
\newlabel{model_overview<1>}{{14}{28}{}{Doc-Start}{}}
\@writefile{snm}{\beamer@slide {model_overview<1>}{28}}
\newlabel{model_overview}{{14}{28}{}{Doc-Start}{}}
\@writefile{snm}{\beamer@slide {model_overview}{28}}
\newlabel{model_overview<2>}{{14}{29}{}{Doc-Start}{}}
\@writefile{snm}{\beamer@slide {model_overview<2>}{29}}
\newlabel{model_overview<3>}{{14}{30}{}{Doc-Start}{}}
\@writefile{snm}{\beamer@slide {model_overview<3>}{30}}
\@writefile{nav}{\headcommand {\slideentry {0}{0}{14}{28/30}{}{0}}}
\@writefile{nav}{\headcommand {\beamer@framepages {28}{30}}}
\newlabel{thmod<1>}{{15}{31}{}{Doc-Start}{}}
\@writefile{snm}{\beamer@slide {thmod<1>}{31}}
\newlabel{thmod}{{15}{31}{}{Doc-Start}{}}
\@writefile{snm}{\beamer@slide {thmod}{31}}
\@writefile{nav}{\headcommand {\slideentry {0}{0}{15}{31/31}{}{0}}}
\@writefile{nav}{\headcommand {\beamer@framepages {31}{31}}}
\newlabel{graph_beta<1>}{{16}{32}{}{Doc-Start}{}}
\@writefile{snm}{\beamer@slide {graph_beta<1>}{32}}
\newlabel{graph_beta}{{16}{32}{}{Doc-Start}{}}
\@writefile{snm}{\beamer@slide {graph_beta}{32}}
\@writefile{nav}{\headcommand {\slideentry {0}{0}{16}{32/32}{}{0}}}
\@writefile{nav}{\headcommand {\beamer@framepages {32}{32}}}
\newlabel{graph_agPr<1>}{{17}{33}{}{Doc-Start}{}}
\@writefile{snm}{\beamer@slide {graph_agPr<1>}{33}}
\newlabel{graph_agPr}{{17}{33}{}{Doc-Start}{}}
\@writefile{snm}{\beamer@slide {graph_agPr}{33}}
\@writefile{nav}{\headcommand {\slideentry {0}{0}{17}{33/33}{}{0}}}
\@writefile{nav}{\headcommand {\beamer@framepages {33}{33}}}
\newlabel{model_convex<1>}{{18}{34}{}{Doc-Start}{}}
\@writefile{snm}{\beamer@slide {model_convex<1>}{34}}
\newlabel{model_convex}{{18}{34}{}{Doc-Start}{}}
\@writefile{snm}{\beamer@slide {model_convex}{34}}
\newlabel{model_convex<2>}{{18}{35}{}{Doc-Start}{}}
\@writefile{snm}{\beamer@slide {model_convex<2>}{35}}
\@writefile{nav}{\headcommand {\slideentry {0}{0}{18}{34/35}{}{0}}}
\@writefile{nav}{\headcommand {\beamer@framepages {34}{35}}}
\@writefile{nav}{\headcommand {\slideentry {0}{0}{19}{36/36}{}{0}}}
\@writefile{nav}{\headcommand {\beamer@framepages {36}{36}}}
\newlabel{prepare<1>}{{20}{37}{}{Doc-Start}{}}
\@writefile{snm}{\beamer@slide {prepare<1>}{37}}
\newlabel{prepare}{{20}{37}{}{Doc-Start}{}}
\@writefile{snm}{\beamer@slide {prepare}{37}}
\@writefile{nav}{\headcommand {\slideentry {0}{0}{20}{37/37}{}{0}}}
\@writefile{nav}{\headcommand {\beamer@framepages {37}{37}}}
\newlabel{graph_prepare<1>}{{21}{38}{}{Doc-Start}{}}
\@writefile{snm}{\beamer@slide {graph_prepare<1>}{38}}
\newlabel{graph_prepare}{{21}{38}{}{Doc-Start}{}}
\@writefile{snm}{\beamer@slide {graph_prepare}{38}}
\@writefile{nav}{\headcommand {\slideentry {0}{0}{21}{38/38}{}{0}}}
\@writefile{nav}{\headcommand {\beamer@framepages {38}{38}}}
\newlabel{algorithm<1>}{{22}{39}{}{Doc-Start}{}}
\@writefile{snm}{\beamer@slide {algorithm<1>}{39}}
\newlabel{algorithm}{{22}{39}{}{Doc-Start}{}}
\@writefile{snm}{\beamer@slide {algorithm}{39}}
\@writefile{nav}{\headcommand {\slideentry {0}{0}{22}{39/39}{}{0}}}
\@writefile{nav}{\headcommand {\beamer@framepages {39}{39}}}
\@writefile{nav}{\headcommand {\slideentry {0}{0}{23}{40/40}{}{0}}}
\@writefile{nav}{\headcommand {\beamer@framepages {40}{40}}}
\newlabel{ROC<1>}{{24}{41}{}{Doc-Start}{}}
\@writefile{snm}{\beamer@slide {ROC<1>}{41}}
\newlabel{ROC}{{24}{41}{}{Doc-Start}{}}
\@writefile{snm}{\beamer@slide {ROC}{41}}
\@writefile{nav}{\headcommand {\slideentry {0}{0}{24}{41/41}{}{0}}}
\@writefile{nav}{\headcommand {\beamer@framepages {41}{41}}}
\@writefile{nav}{\headcommand {\slideentry {0}{0}{25}{42/42}{}{0}}}
\@writefile{nav}{\headcommand {\beamer@framepages {42}{42}}}
\newlabel{graph_predlegal<1>}{{26}{43}{}{Doc-Start}{}}
\@writefile{snm}{\beamer@slide {graph_predlegal<1>}{43}}
\newlabel{graph_predlegal}{{26}{43}{}{Doc-Start}{}}
\@writefile{snm}{\beamer@slide {graph_predlegal}{43}}
\@writefile{nav}{\headcommand {\slideentry {0}{0}{26}{43/43}{}{0}}}
\@writefile{nav}{\headcommand {\beamer@framepages {43}{43}}}
\newlabel{predPeru<1>}{{27}{44}{}{Doc-Start}{}}
\@writefile{snm}{\beamer@slide {predPeru<1>}{44}}
\newlabel{predPeru}{{27}{44}{}{Doc-Start}{}}
\@writefile{snm}{\beamer@slide {predPeru}{44}}
\@writefile{nav}{\headcommand {\slideentry {0}{0}{27}{44/44}{}{0}}}
\@writefile{nav}{\headcommand {\beamer@framepages {44}{44}}}
\newlabel{dd_basico_mined_ally<1>}{{28}{45}{}{Doc-Start}{}}
\@writefile{snm}{\beamer@slide {dd_basico_mined_ally<1>}{45}}
\newlabel{dd_basico_mined_ally}{{28}{45}{}{Doc-Start}{}}
\@writefile{snm}{\beamer@slide {dd_basico_mined_ally}{45}}
\@writefile{nav}{\headcommand {\slideentry {0}{0}{28}{45/45}{}{0}}}
\@writefile{nav}{\headcommand {\beamer@framepages {45}{45}}}
\@writefile{nav}{\headcommand {\slideentry {0}{0}{29}{46/46}{}{0}}}
\@writefile{nav}{\headcommand {\beamer@framepages {46}{46}}}
\@writefile{nav}{\headcommand {\slideentry {0}{0}{30}{47/47}{}{0}}}
\@writefile{nav}{\headcommand {\beamer@framepages {47}{47}}}
\@writefile{nav}{\headcommand {\slideentry {0}{0}{31}{48/48}{}{0}}}
\@writefile{nav}{\headcommand {\beamer@framepages {48}{48}}}
\newlabel{reg_newarea<1>}{{32}{49}{}{Doc-Start}{}}
\@writefile{snm}{\beamer@slide {reg_newarea<1>}{49}}
\newlabel{reg_newarea}{{32}{49}{}{Doc-Start}{}}
\@writefile{snm}{\beamer@slide {reg_newarea}{49}}
\@writefile{nav}{\headcommand {\slideentry {0}{0}{32}{49/49}{}{0}}}
\@writefile{nav}{\headcommand {\beamer@framepages {49}{49}}}
\newlabel{reg_titulos<1>}{{33}{50}{}{Doc-Start}{}}
\@writefile{snm}{\beamer@slide {reg_titulos<1>}{50}}
\newlabel{reg_titulos}{{33}{50}{}{Doc-Start}{}}
\@writefile{snm}{\beamer@slide {reg_titulos}{50}}
\@writefile{nav}{\headcommand {\slideentry {0}{0}{33}{50/50}{}{0}}}
\@writefile{nav}{\headcommand {\beamer@framepages {50}{50}}}
\newlabel{reg_main<1>}{{34}{51}{}{Doc-Start}{}}
\@writefile{snm}{\beamer@slide {reg_main<1>}{51}}
\newlabel{reg_main}{{34}{51}{}{Doc-Start}{}}
\@writefile{snm}{\beamer@slide {reg_main}{51}}
\@writefile{nav}{\headcommand {\slideentry {0}{0}{34}{51/51}{}{0}}}
\@writefile{nav}{\headcommand {\beamer@framepages {51}{51}}}
\newlabel{intro_hetins<1>}{{35}{52}{}{Doc-Start}{}}
\@writefile{snm}{\beamer@slide {intro_hetins<1>}{52}}
\newlabel{intro_hetins}{{35}{52}{}{Doc-Start}{}}
\@writefile{snm}{\beamer@slide {intro_hetins}{52}}
\@writefile{nav}{\headcommand {\slideentry {0}{0}{35}{52/52}{}{0}}}
\@writefile{nav}{\headcommand {\beamer@framepages {52}{52}}}
\newlabel{het_plot<1>}{{36}{53}{}{Doc-Start}{}}
\@writefile{snm}{\beamer@slide {het_plot<1>}{53}}
\newlabel{het_plot}{{36}{53}{}{Doc-Start}{}}
\@writefile{snm}{\beamer@slide {het_plot}{53}}
\@writefile{nav}{\headcommand {\slideentry {0}{0}{36}{53/53}{}{0}}}
\@writefile{nav}{\headcommand {\beamer@framepages {53}{53}}}
\newlabel{reg_wl<1>}{{37}{54}{}{Doc-Start}{}}
\@writefile{snm}{\beamer@slide {reg_wl<1>}{54}}
\newlabel{reg_wl}{{37}{54}{}{Doc-Start}{}}
\@writefile{snm}{\beamer@slide {reg_wl}{54}}
\@writefile{nav}{\headcommand {\slideentry {0}{0}{37}{54/54}{}{0}}}
\@writefile{nav}{\headcommand {\beamer@framepages {54}{54}}}
\newlabel{reg_prod<1>}{{38}{55}{}{Doc-Start}{}}
\@writefile{snm}{\beamer@slide {reg_prod<1>}{55}}
\newlabel{reg_prod}{{38}{55}{}{Doc-Start}{}}
\@writefile{snm}{\beamer@slide {reg_prod}{55}}
\@writefile{nav}{\headcommand {\slideentry {0}{0}{38}{55/55}{}{0}}}
\@writefile{nav}{\headcommand {\beamer@framepages {55}{55}}}
\@writefile{nav}{\headcommand {\slideentry {0}{0}{39}{56/56}{}{0}}}
\@writefile{nav}{\headcommand {\beamer@framepages {56}{56}}}
\@writefile{nav}{\headcommand {\slideentry {0}{0}{40}{57/57}{}{0}}}
\@writefile{nav}{\headcommand {\beamer@framepages {57}{57}}}
\@writefile{nav}{\headcommand {\slideentry {0}{0}{41}{58/58}{}{0}}}
\@writefile{nav}{\headcommand {\beamer@framepages {58}{58}}}
\newlabel{context_health<1>}{{42}{59}{}{Doc-Start}{}}
\@writefile{snm}{\beamer@slide {context_health<1>}{59}}
\newlabel{context_health}{{42}{59}{}{Doc-Start}{}}
\@writefile{snm}{\beamer@slide {context_health}{59}}
\@writefile{nav}{\headcommand {\slideentry {0}{0}{42}{59/59}{}{0}}}
\@writefile{nav}{\headcommand {\beamer@framepages {59}{59}}}
\@writefile{nav}{\headcommand {\slideentry {0}{0}{43}{60/60}{}{0}}}
\@writefile{nav}{\headcommand {\beamer@framepages {60}{60}}}
\newlabel{reg_health<1>}{{44}{61}{}{Doc-Start}{}}
\@writefile{snm}{\beamer@slide {reg_health<1>}{61}}
\newlabel{reg_health}{{44}{61}{}{Doc-Start}{}}
\@writefile{snm}{\beamer@slide {reg_health}{61}}
\@writefile{nav}{\headcommand {\slideentry {0}{0}{44}{61/61}{}{0}}}
\@writefile{nav}{\headcommand {\beamer@framepages {61}{61}}}
\newlabel{reg_healthIVfs<1>}{{45}{62}{}{Doc-Start}{}}
\@writefile{snm}{\beamer@slide {reg_healthIVfs<1>}{62}}
\newlabel{reg_healthIVfs}{{45}{62}{}{Doc-Start}{}}
\@writefile{snm}{\beamer@slide {reg_healthIVfs}{62}}
\@writefile{nav}{\headcommand {\slideentry {0}{0}{45}{62/62}{}{0}}}
\@writefile{nav}{\headcommand {\beamer@framepages {62}{62}}}
\newlabel{reg_healthIVnsm<1>}{{46}{63}{}{Doc-Start}{}}
\@writefile{snm}{\beamer@slide {reg_healthIVnsm<1>}{63}}
\newlabel{reg_healthIVnsm}{{46}{63}{}{Doc-Start}{}}
\@writefile{snm}{\beamer@slide {reg_healthIVnsm}{63}}
\@writefile{nav}{\headcommand {\slideentry {0}{0}{46}{63/63}{}{0}}}
\@writefile{nav}{\headcommand {\beamer@framepages {63}{63}}}
\@writefile{nav}{\headcommand {\slideentry {0}{0}{47}{64/64}{}{0}}}
\@writefile{nav}{\headcommand {\beamer@framepages {64}{64}}}
\newlabel{discussion<1>}{{48}{65}{}{Doc-Start}{}}
\@writefile{snm}{\beamer@slide {discussion<1>}{65}}
\newlabel{discussion}{{48}{65}{}{Doc-Start}{}}
\@writefile{snm}{\beamer@slide {discussion}{65}}
\@writefile{nav}{\headcommand {\slideentry {0}{0}{48}{65/65}{}{0}}}
\@writefile{nav}{\headcommand {\beamer@framepages {65}{65}}}
\newlabel{costreform<1>}{{49}{66}{}{Doc-Start}{}}
\@writefile{snm}{\beamer@slide {costreform<1>}{66}}
\newlabel{costreform}{{49}{66}{}{Doc-Start}{}}
\@writefile{snm}{\beamer@slide {costreform}{66}}
\@writefile{nav}{\headcommand {\slideentry {0}{0}{49}{66/66}{}{0}}}
\@writefile{nav}{\headcommand {\beamer@framepages {66}{66}}}
\newlabel{healthcostreform<1>}{{50}{67}{}{Doc-Start}{}}
\@writefile{snm}{\beamer@slide {healthcostreform<1>}{67}}
\newlabel{healthcostreform}{{50}{67}{}{Doc-Start}{}}
\@writefile{snm}{\beamer@slide {healthcostreform}{67}}
\@writefile{nav}{\headcommand {\slideentry {0}{0}{50}{67/67}{}{0}}}
\@writefile{nav}{\headcommand {\beamer@framepages {67}{67}}}
\@writefile{nav}{\headcommand {\slideentry {0}{0}{51}{68/68}{}{0}}}
\@writefile{nav}{\headcommand {\beamer@framepages {68}{68}}}
\@writefile{nav}{\headcommand {\slideentry {0}{0}{52}{69/69}{}{0}}}
\@writefile{nav}{\headcommand {\beamer@framepages {69}{69}}}
\newlabel{roy_ineq<1>}{{52}{70}{}{Doc-Start}{}}
\@writefile{snm}{\beamer@slide {roy_ineq<1>}{70}}
\newlabel{roy_ineq}{{52}{70}{}{Doc-Start}{}}
\@writefile{snm}{\beamer@slide {roy_ineq}{70}}
\newlabel{Circle size proportional to population of the municipality}{{52}{70}{}{Doc-Start}{}}
\@writefile{snm}{\beamer@slide {Circle size proportional to population of the municipality}{70}}
\@writefile{nav}{\headcommand {\slideentry {0}{0}{53}{70/70}{}{0}}}
\@writefile{nav}{\headcommand {\beamer@framepages {70}{70}}}
\newlabel{formula<1>}{{53}{71}{}{Doc-Start}{}}
\@writefile{snm}{\beamer@slide {formula<1>}{71}}
\newlabel{formula}{{53}{71}{}{Doc-Start}{}}
\@writefile{snm}{\beamer@slide {formula}{71}}
\@writefile{nav}{\headcommand {\slideentry {0}{0}{54}{71/71}{}{0}}}
\@writefile{nav}{\headcommand {\beamer@framepages {71}{71}}}
\newlabel{example_wl<1>}{{54}{72}{}{Doc-Start}{}}
\@writefile{snm}{\beamer@slide {example_wl<1>}{72}}
\newlabel{example_wl}{{54}{72}{}{Doc-Start}{}}
\@writefile{snm}{\beamer@slide {example_wl}{72}}
\@writefile{nav}{\headcommand {\slideentry {0}{0}{55}{72/72}{}{0}}}
\@writefile{nav}{\headcommand {\beamer@framepages {72}{72}}}
\newlabel{thmod_prof<1>}{{55}{73}{}{Doc-Start}{}}
\@writefile{snm}{\beamer@slide {thmod_prof<1>}{73}}
\newlabel{thmod_prof}{{55}{73}{}{Doc-Start}{}}
\@writefile{snm}{\beamer@slide {thmod_prof}{73}}
\@writefile{nav}{\headcommand {\slideentry {0}{0}{56}{73/73}{}{0}}}
\@writefile{nav}{\headcommand {\beamer@framepages {73}{73}}}
\newlabel{model_parameters<1>}{{56}{74}{}{Doc-Start}{}}
\@writefile{snm}{\beamer@slide {model_parameters<1>}{74}}
\newlabel{model_parameters}{{56}{74}{}{Doc-Start}{}}
\@writefile{snm}{\beamer@slide {model_parameters}{74}}
\@writefile{nav}{\headcommand {\slideentry {0}{0}{57}{74/74}{}{0}}}
\@writefile{nav}{\headcommand {\beamer@framepages {74}{74}}}
\newlabel{model_linear<1>}{{57}{75}{}{Doc-Start}{}}
\@writefile{snm}{\beamer@slide {model_linear<1>}{75}}
\newlabel{model_linear}{{57}{75}{}{Doc-Start}{}}
\@writefile{snm}{\beamer@slide {model_linear}{75}}
\@writefile{nav}{\headcommand {\slideentry {0}{0}{58}{75/75}{}{0}}}
\@writefile{nav}{\headcommand {\beamer@framepages {75}{75}}}
\newlabel{model_f<1>}{{58}{76}{}{Doc-Start}{}}
\@writefile{snm}{\beamer@slide {model_f<1>}{76}}
\newlabel{model_f}{{58}{76}{}{Doc-Start}{}}
\@writefile{snm}{\beamer@slide {model_f}{76}}
\@writefile{nav}{\headcommand {\slideentry {0}{0}{59}{76/76}{}{0}}}
\@writefile{nav}{\headcommand {\beamer@framepages {76}{76}}}
\newlabel{remove_clouds<1>}{{59}{77}{}{Doc-Start}{}}
\@writefile{snm}{\beamer@slide {remove_clouds<1>}{77}}
\newlabel{remove_clouds}{{59}{77}{}{Doc-Start}{}}
\@writefile{snm}{\beamer@slide {remove_clouds}{77}}
\@writefile{nav}{\headcommand {\slideentry {0}{0}{60}{77/77}{}{0}}}
\@writefile{nav}{\headcommand {\beamer@framepages {77}{77}}}
\newlabel{balancestats_censed<1>}{{60}{78}{}{Doc-Start}{}}
\@writefile{snm}{\beamer@slide {balancestats_censed<1>}{78}}
\newlabel{balancestats_censed}{{60}{78}{}{Doc-Start}{}}
\@writefile{snm}{\beamer@slide {balancestats_censed}{78}}
\@writefile{nav}{\headcommand {\slideentry {0}{0}{61}{78/78}{}{0}}}
\@writefile{nav}{\headcommand {\beamer@framepages {78}{78}}}
\newlabel{reg_vs_trees<1>}{{61}{79}{}{Doc-Start}{}}
\@writefile{snm}{\beamer@slide {reg_vs_trees<1>}{79}}
\newlabel{reg_vs_trees}{{61}{79}{}{Doc-Start}{}}
\@writefile{snm}{\beamer@slide {reg_vs_trees}{79}}
\@writefile{nav}{\headcommand {\slideentry {0}{0}{62}{79/79}{}{0}}}
\@writefile{nav}{\headcommand {\beamer@framepages {79}{79}}}
\newlabel{varimportance<1>}{{62}{80}{}{Doc-Start}{}}
\@writefile{snm}{\beamer@slide {varimportance<1>}{80}}
\newlabel{varimportance}{{62}{80}{}{Doc-Start}{}}
\@writefile{snm}{\beamer@slide {varimportance}{80}}
\@writefile{nav}{\headcommand {\slideentry {0}{0}{63}{80/80}{}{0}}}
\@writefile{nav}{\headcommand {\beamer@framepages {80}{80}}}
\newlabel{erroranal<1>}{{63}{81}{}{Doc-Start}{}}
\@writefile{snm}{\beamer@slide {erroranal<1>}{81}}
\newlabel{erroranal}{{63}{81}{}{Doc-Start}{}}
\@writefile{snm}{\beamer@slide {erroranal}{81}}
\@writefile{nav}{\headcommand {\slideentry {0}{0}{64}{81/81}{}{0}}}
\@writefile{nav}{\headcommand {\beamer@framepages {81}{81}}}
\@writefile{nav}{\headcommand {\slideentry {0}{0}{65}{82/82}{}{0}}}
\@writefile{nav}{\headcommand {\beamer@framepages {82}{82}}}
\newlabel{sumstats_tprfpr<1>}{{65}{83}{}{Doc-Start}{}}
\@writefile{snm}{\beamer@slide {sumstats_tprfpr<1>}{83}}
\newlabel{sumstats_tprfpr}{{65}{83}{}{Doc-Start}{}}
\@writefile{snm}{\beamer@slide {sumstats_tprfpr}{83}}
\@writefile{nav}{\headcommand {\slideentry {0}{0}{66}{83/83}{}{0}}}
\@writefile{nav}{\headcommand {\beamer@framepages {83}{83}}}
\@input{R/mat_conf.aux}
\newlabel{mat_conf<1>}{{66}{84}{}{Doc-Start}{}}
\@writefile{snm}{\beamer@slide {mat_conf<1>}{84}}
\newlabel{mat_conf}{{66}{84}{}{Doc-Start}{}}
\@writefile{snm}{\beamer@slide {mat_conf}{84}}
\@writefile{nav}{\headcommand {\slideentry {0}{0}{67}{84/84}{}{0}}}
\@writefile{nav}{\headcommand {\beamer@framepages {84}{84}}}
\newlabel{dd_basico<1>}{{67}{85}{}{Doc-Start}{}}
\@writefile{snm}{\beamer@slide {dd_basico<1>}{85}}
\newlabel{dd_basico}{{67}{85}{}{Doc-Start}{}}
\@writefile{snm}{\beamer@slide {dd_basico}{85}}
\@writefile{nav}{\headcommand {\slideentry {0}{0}{68}{85/85}{}{0}}}
\@writefile{nav}{\headcommand {\beamer@framepages {85}{85}}}
\newlabel{partrend_wl<1>}{{68}{86}{}{Doc-Start}{}}
\@writefile{snm}{\beamer@slide {partrend_wl<1>}{86}}
\newlabel{partrend_wl}{{68}{86}{}{Doc-Start}{}}
\@writefile{snm}{\beamer@slide {partrend_wl}{86}}
\@writefile{nav}{\headcommand {\slideentry {0}{0}{69}{86/86}{}{0}}}
\@writefile{nav}{\headcommand {\beamer@framepages {86}{86}}}
\newlabel{partrend_colperu<1>}{{69}{87}{}{Doc-Start}{}}
\@writefile{snm}{\beamer@slide {partrend_colperu<1>}{87}}
\newlabel{partrend_colperu}{{69}{87}{}{Doc-Start}{}}
\@writefile{snm}{\beamer@slide {partrend_colperu}{87}}
\@writefile{nav}{\headcommand {\slideentry {0}{0}{70}{87/87}{}{0}}}
\@writefile{nav}{\headcommand {\beamer@framepages {87}{87}}}
\newlabel{gold_price<1>}{{70}{88}{}{Doc-Start}{}}
\@writefile{snm}{\beamer@slide {gold_price<1>}{88}}
\newlabel{gold_price}{{70}{88}{}{Doc-Start}{}}
\@writefile{snm}{\beamer@slide {gold_price}{88}}
\@writefile{nav}{\headcommand {\slideentry {0}{0}{71}{88/88}{}{0}}}
\@writefile{nav}{\headcommand {\beamer@framepages {88}{88}}}
\newlabel{dd_basico_mined<1>}{{71}{89}{}{Doc-Start}{}}
\@writefile{snm}{\beamer@slide {dd_basico_mined<1>}{89}}
\newlabel{dd_basico_mined}{{71}{89}{}{Doc-Start}{}}
\@writefile{snm}{\beamer@slide {dd_basico_mined}{89}}
\@writefile{nav}{\headcommand {\slideentry {0}{0}{72}{89/89}{}{0}}}
\@writefile{nav}{\headcommand {\beamer@framepages {89}{89}}}
\newlabel{sumstats_muni<1>}{{72}{90}{}{Doc-Start}{}}
\@writefile{snm}{\beamer@slide {sumstats_muni<1>}{90}}
\newlabel{sumstats_muni}{{72}{90}{}{Doc-Start}{}}
\@writefile{snm}{\beamer@slide {sumstats_muni}{90}}
\@writefile{nav}{\headcommand {\slideentry {0}{0}{73}{90/90}{}{0}}}
\@writefile{nav}{\headcommand {\beamer@framepages {90}{90}}}
\newlabel{sumstats_regvarmined<1>}{{73}{91}{}{Doc-Start}{}}
\@writefile{snm}{\beamer@slide {sumstats_regvarmined<1>}{91}}
\newlabel{sumstats_regvarmined}{{73}{91}{}{Doc-Start}{}}
\@writefile{snm}{\beamer@slide {sumstats_regvarmined}{91}}
\@writefile{nav}{\headcommand {\slideentry {0}{0}{74}{91/91}{}{0}}}
\@writefile{nav}{\headcommand {\beamer@framepages {91}{91}}}
\newlabel{balancestats_muni<1>}{{74}{92}{}{Doc-Start}{}}
\@writefile{snm}{\beamer@slide {balancestats_muni<1>}{92}}
\newlabel{balancestats_muni}{{74}{92}{}{Doc-Start}{}}
\@writefile{snm}{\beamer@slide {balancestats_muni}{92}}
\@writefile{nav}{\headcommand {\slideentry {0}{0}{75}{92/92}{}{0}}}
\@writefile{nav}{\headcommand {\beamer@framepages {92}{92}}}
\newlabel{emp_theo_pred<1>}{{75}{93}{}{Doc-Start}{}}
\@writefile{snm}{\beamer@slide {emp_theo_pred<1>}{93}}
\newlabel{emp_theo_pred}{{75}{93}{}{Doc-Start}{}}
\@writefile{snm}{\beamer@slide {emp_theo_pred}{93}}
\@writefile{nav}{\headcommand {\slideentry {0}{0}{76}{93/93}{}{0}}}
\@writefile{nav}{\headcommand {\beamer@framepages {93}{93}}}
\newlabel{sumstats_regvarperu<1>}{{76}{94}{}{Doc-Start}{}}
\@writefile{snm}{\beamer@slide {sumstats_regvarperu<1>}{94}}
\newlabel{sumstats_regvarperu}{{76}{94}{}{Doc-Start}{}}
\@writefile{snm}{\beamer@slide {sumstats_regvarperu}{94}}
\@writefile{nav}{\headcommand {\slideentry {0}{0}{77}{94/94}{}{0}}}
\@writefile{nav}{\headcommand {\beamer@framepages {94}{94}}}
\newlabel{sumstats_ftotalperu<1>}{{77}{95}{}{Doc-Start}{}}
\@writefile{snm}{\beamer@slide {sumstats_ftotalperu<1>}{95}}
\newlabel{sumstats_ftotalperu}{{77}{95}{}{Doc-Start}{}}
\@writefile{snm}{\beamer@slide {sumstats_ftotalperu}{95}}
\@writefile{nav}{\headcommand {\slideentry {0}{0}{78}{95/95}{}{0}}}
\@writefile{nav}{\headcommand {\beamer@framepages {95}{95}}}
\newlabel{sumstats_regvar<1>}{{78}{96}{}{Doc-Start}{}}
\@writefile{snm}{\beamer@slide {sumstats_regvar<1>}{96}}
\newlabel{sumstats_regvar}{{78}{96}{}{Doc-Start}{}}
\@writefile{snm}{\beamer@slide {sumstats_regvar}{96}}
\@writefile{nav}{\headcommand {\slideentry {0}{0}{79}{96/96}{}{0}}}
\@writefile{nav}{\headcommand {\beamer@framepages {96}{96}}}
\newlabel{reg_non_parametric<1>}{{79}{97}{}{Doc-Start}{}}
\@writefile{snm}{\beamer@slide {reg_non_parametric<1>}{97}}
\newlabel{reg_non_parametric}{{79}{97}{}{Doc-Start}{}}
\@writefile{snm}{\beamer@slide {reg_non_parametric}{97}}
\@writefile{nav}{\headcommand {\slideentry {0}{0}{80}{97/97}{}{0}}}
\@writefile{nav}{\headcommand {\beamer@framepages {97}{97}}}
\newlabel{reg_c12<1>}{{80}{98}{}{Doc-Start}{}}
\@writefile{snm}{\beamer@slide {reg_c12<1>}{98}}
\newlabel{reg_c12}{{80}{98}{}{Doc-Start}{}}
\@writefile{snm}{\beamer@slide {reg_c12}{98}}
\@writefile{nav}{\headcommand {\slideentry {0}{0}{81}{98/98}{}{0}}}
\@writefile{nav}{\headcommand {\beamer@framepages {98}{98}}}
\newlabel{legalization<1>}{{81}{99}{}{Doc-Start}{}}
\@writefile{snm}{\beamer@slide {legalization<1>}{99}}
\newlabel{legalization}{{81}{99}{}{Doc-Start}{}}
\@writefile{snm}{\beamer@slide {legalization}{99}}
\@writefile{nav}{\headcommand {\slideentry {0}{0}{82}{99/99}{}{0}}}
\@writefile{nav}{\headcommand {\beamer@framepages {99}{99}}}
\newlabel{altonji_mined<1>}{{82}{100}{}{Doc-Start}{}}
\@writefile{snm}{\beamer@slide {altonji_mined<1>}{100}}
\newlabel{altonji_mined}{{82}{100}{}{Doc-Start}{}}
\@writefile{snm}{\beamer@slide {altonji_mined}{100}}
\@writefile{nav}{\headcommand {\slideentry {0}{0}{83}{100/100}{}{0}}}
\@writefile{nav}{\headcommand {\beamer@framepages {100}{100}}}
\newlabel{reg_lasso<1>}{{83}{101}{}{Doc-Start}{}}
\@writefile{snm}{\beamer@slide {reg_lasso<1>}{101}}
\newlabel{reg_lasso}{{83}{101}{}{Doc-Start}{}}
\@writefile{snm}{\beamer@slide {reg_lasso}{101}}
\@writefile{nav}{\headcommand {\slideentry {0}{0}{84}{101/101}{}{0}}}
\@writefile{nav}{\headcommand {\beamer@framepages {101}{101}}}
\newlabel{reg_lasso_continuous<1>}{{84}{102}{}{Doc-Start}{}}
\@writefile{snm}{\beamer@slide {reg_lasso_continuous<1>}{102}}
\newlabel{reg_lasso_continuous}{{84}{102}{}{Doc-Start}{}}
\@writefile{snm}{\beamer@slide {reg_lasso_continuous}{102}}
\@writefile{nav}{\headcommand {\slideentry {0}{0}{85}{102/102}{}{0}}}
\@writefile{nav}{\headcommand {\beamer@framepages {102}{102}}}
\newlabel{reg_adj<1>}{{85}{103}{}{Doc-Start}{}}
\@writefile{snm}{\beamer@slide {reg_adj<1>}{103}}
\newlabel{reg_adj}{{85}{103}{}{Doc-Start}{}}
\@writefile{snm}{\beamer@slide {reg_adj}{103}}
\@writefile{nav}{\headcommand {\slideentry {0}{0}{86}{103/103}{}{0}}}
\@writefile{nav}{\headcommand {\beamer@framepages {103}{103}}}
\newlabel{reg_weights<1>}{{86}{104}{}{Doc-Start}{}}
\@writefile{snm}{\beamer@slide {reg_weights<1>}{104}}
\newlabel{reg_weights}{{86}{104}{}{Doc-Start}{}}
\@writefile{snm}{\beamer@slide {reg_weights}{104}}
\@writefile{nav}{\headcommand {\slideentry {0}{0}{87}{104/104}{}{0}}}
\@writefile{nav}{\headcommand {\beamer@framepages {104}{104}}}
\newlabel{reg_dummy_deptr<1>}{{87}{105}{}{Doc-Start}{}}
\@writefile{snm}{\beamer@slide {reg_dummy_deptr<1>}{105}}
\newlabel{reg_dummy_deptr}{{87}{105}{}{Doc-Start}{}}
\@writefile{snm}{\beamer@slide {reg_dummy_deptr}{105}}
\@writefile{nav}{\headcommand {\slideentry {0}{0}{88}{105/105}{}{0}}}
\@writefile{nav}{\headcommand {\beamer@framepages {105}{105}}}
\newlabel{reg_otherm<1>}{{88}{106}{}{Doc-Start}{}}
\@writefile{snm}{\beamer@slide {reg_otherm<1>}{106}}
\newlabel{reg_otherm}{{88}{106}{}{Doc-Start}{}}
\@writefile{snm}{\beamer@slide {reg_otherm}{106}}
\@writefile{nav}{\headcommand {\slideentry {0}{0}{89}{106/106}{}{0}}}
\@writefile{nav}{\headcommand {\beamer@framepages {106}{106}}}
\newlabel{reg_newarea<1>}{{89}{107}{}{Doc-Start}{}}
\@writefile{snm}{\beamer@slide {reg_newarea<1>}{107}}
\newlabel{reg_newarea}{{89}{107}{}{Doc-Start}{}}
\@writefile{snm}{\beamer@slide {reg_newarea}{107}}
\@writefile{nav}{\headcommand {\slideentry {0}{0}{90}{107/107}{}{0}}}
\@writefile{nav}{\headcommand {\beamer@framepages {107}{107}}}
\newlabel{reg_peruRD<1>}{{90}{108}{}{Doc-Start}{}}
\@writefile{snm}{\beamer@slide {reg_peruRD<1>}{108}}
\newlabel{reg_peruRD}{{90}{108}{}{Doc-Start}{}}
\@writefile{snm}{\beamer@slide {reg_peruRD}{108}}
\@writefile{nav}{\headcommand {\slideentry {0}{0}{91}{108/108}{}{0}}}
\@writefile{nav}{\headcommand {\beamer@framepages {108}{108}}}
\newlabel{reg_importance<1>}{{91}{109}{}{Doc-Start}{}}
\@writefile{snm}{\beamer@slide {reg_importance<1>}{109}}
\newlabel{reg_importance}{{91}{109}{}{Doc-Start}{}}
\@writefile{snm}{\beamer@slide {reg_importance}{109}}
\@writefile{nav}{\headcommand {\slideentry {0}{0}{92}{109/109}{}{0}}}
\@writefile{nav}{\headcommand {\beamer@framepages {109}{109}}}
\newlabel{reg_continuous_deptr<1>}{{92}{110}{}{Doc-Start}{}}
\@writefile{snm}{\beamer@slide {reg_continuous_deptr<1>}{110}}
\newlabel{reg_continuous_deptr}{{92}{110}{}{Doc-Start}{}}
\@writefile{snm}{\beamer@slide {reg_continuous_deptr}{110}}
\@writefile{nav}{\headcommand {\slideentry {0}{0}{93}{110/110}{}{0}}}
\@writefile{nav}{\headcommand {\beamer@framepages {110}{110}}}
\newlabel{dd_basico_titulos<1>}{{93}{111}{}{Doc-Start}{}}
\@writefile{snm}{\beamer@slide {dd_basico_titulos<1>}{111}}
\newlabel{dd_basico_titulos}{{93}{111}{}{Doc-Start}{}}
\@writefile{snm}{\beamer@slide {dd_basico_titulos}{111}}
\@writefile{nav}{\headcommand {\slideentry {0}{0}{94}{111/111}{}{0}}}
\@writefile{nav}{\headcommand {\beamer@framepages {111}{111}}}
\newlabel{causalforestexp<1>}{{94}{112}{}{Doc-Start}{}}
\@writefile{snm}{\beamer@slide {causalforestexp<1>}{112}}
\newlabel{causalforestexp}{{94}{112}{}{Doc-Start}{}}
\@writefile{snm}{\beamer@slide {causalforestexp}{112}}
\@writefile{nav}{\headcommand {\slideentry {0}{0}{95}{112/112}{}{0}}}
\@writefile{nav}{\headcommand {\beamer@framepages {112}{112}}}
\newlabel{reg_CFleaf<1>}{{95}{113}{}{Doc-Start}{}}
\@writefile{snm}{\beamer@slide {reg_CFleaf<1>}{113}}
\newlabel{reg_CFleaf}{{95}{113}{}{Doc-Start}{}}
\@writefile{snm}{\beamer@slide {reg_CFleaf}{113}}
\@writefile{nav}{\headcommand {\slideentry {0}{0}{96}{113/113}{}{0}}}
\@writefile{nav}{\headcommand {\beamer@framepages {113}{113}}}
\newlabel{balancestats_inst<1>}{{96}{114}{}{Doc-Start}{}}
\@writefile{snm}{\beamer@slide {balancestats_inst<1>}{114}}
\newlabel{balancestats_inst}{{96}{114}{}{Doc-Start}{}}
\@writefile{snm}{\beamer@slide {balancestats_inst}{114}}
\@writefile{nav}{\headcommand {\slideentry {0}{0}{97}{114/114}{}{0}}}
\@writefile{nav}{\headcommand {\beamer@framepages {114}{114}}}
\newlabel{reg_het1<1>}{{97}{115}{}{Doc-Start}{}}
\@writefile{snm}{\beamer@slide {reg_het1<1>}{115}}
\newlabel{reg_het1}{{97}{115}{}{Doc-Start}{}}
\@writefile{snm}{\beamer@slide {reg_het1}{115}}
\@writefile{nav}{\headcommand {\slideentry {0}{0}{98}{115/115}{}{0}}}
\@writefile{nav}{\headcommand {\beamer@framepages {115}{115}}}
\newlabel{reg_het2<1>}{{98}{116}{}{Doc-Start}{}}
\@writefile{snm}{\beamer@slide {reg_het2<1>}{116}}
\newlabel{reg_het2}{{98}{116}{}{Doc-Start}{}}
\@writefile{snm}{\beamer@slide {reg_het2}{116}}
\@writefile{nav}{\headcommand {\slideentry {0}{0}{99}{116/116}{}{0}}}
\@writefile{nav}{\headcommand {\beamer@framepages {116}{116}}}
\newlabel{sumstats_healthExp<1>}{{99}{117}{}{Doc-Start}{}}
\@writefile{snm}{\beamer@slide {sumstats_healthExp<1>}{117}}
\newlabel{sumstats_healthExp}{{99}{117}{}{Doc-Start}{}}
\@writefile{snm}{\beamer@slide {sumstats_healthExp}{117}}
\@writefile{nav}{\headcommand {\slideentry {0}{0}{100}{117/117}{}{0}}}
\@writefile{nav}{\headcommand {\beamer@framepages {117}{117}}}
\newlabel{sumstats_healthUps<1>}{{100}{118}{}{Doc-Start}{}}
\@writefile{snm}{\beamer@slide {sumstats_healthUps<1>}{118}}
\newlabel{sumstats_healthUps}{{100}{118}{}{Doc-Start}{}}
\@writefile{snm}{\beamer@slide {sumstats_healthUps}{118}}
\@writefile{nav}{\headcommand {\slideentry {0}{0}{101}{118/118}{}{0}}}
\@writefile{nav}{\headcommand {\beamer@framepages {118}{118}}}
\newlabel{reg_health2<1>}{{101}{119}{}{Doc-Start}{}}
\@writefile{snm}{\beamer@slide {reg_health2<1>}{119}}
\newlabel{reg_health2}{{101}{119}{}{Doc-Start}{}}
\@writefile{snm}{\beamer@slide {reg_health2}{119}}
\@writefile{nav}{\headcommand {\slideentry {0}{0}{102}{119/119}{}{0}}}
\@writefile{nav}{\headcommand {\beamer@framepages {119}{119}}}
\newlabel{reg_povertyRD<1>}{{102}{120}{}{Doc-Start}{}}
\@writefile{snm}{\beamer@slide {reg_povertyRD<1>}{120}}
\newlabel{reg_povertyRD}{{102}{120}{}{Doc-Start}{}}
\@writefile{snm}{\beamer@slide {reg_povertyRD}{120}}
\@writefile{nav}{\headcommand {\slideentry {0}{0}{103}{120/120}{}{0}}}
\@writefile{nav}{\headcommand {\beamer@framepages {120}{120}}}
\newlabel{titlesyear_plot<1>}{{103}{121}{}{Doc-Start}{}}
\@writefile{snm}{\beamer@slide {titlesyear_plot<1>}{121}}
\newlabel{titlesyear_plot}{{103}{121}{}{Doc-Start}{}}
\@writefile{snm}{\beamer@slide {titlesyear_plot}{121}}
\@writefile{nav}{\headcommand {\slideentry {0}{0}{104}{121/121}{}{0}}}
\@writefile{nav}{\headcommand {\beamer@framepages {121}{121}}}
\newlabel{reg_tit2014<1>}{{104}{122}{}{Doc-Start}{}}
\@writefile{snm}{\beamer@slide {reg_tit2014<1>}{122}}
\newlabel{reg_tit2014}{{104}{122}{}{Doc-Start}{}}
\@writefile{snm}{\beamer@slide {reg_tit2014}{122}}
\@writefile{nav}{\headcommand {\slideentry {0}{0}{105}{122/122}{}{0}}}
\@writefile{nav}{\headcommand {\beamer@framepages {122}{122}}}
\newlabel{reg_prod_raw<1>}{{105}{123}{}{Doc-Start}{}}
\@writefile{snm}{\beamer@slide {reg_prod_raw<1>}{123}}
\newlabel{reg_prod_raw}{{105}{123}{}{Doc-Start}{}}
\@writefile{snm}{\beamer@slide {reg_prod_raw}{123}}
\@writefile{nav}{\headcommand {\slideentry {0}{0}{106}{123/123}{}{0}}}
\@writefile{nav}{\headcommand {\beamer@framepages {123}{123}}}
\newlabel{eqn_health<1>}{{106}{124}{}{Doc-Start}{}}
\@writefile{snm}{\beamer@slide {eqn_health<1>}{124}}
\newlabel{eqn_health}{{106}{124}{}{Doc-Start}{}}
\@writefile{snm}{\beamer@slide {eqn_health}{124}}
\@writefile{nav}{\headcommand {\slideentry {0}{0}{107}{124/124}{}{0}}}
\@writefile{nav}{\headcommand {\beamer@framepages {124}{124}}}
\newlabel{reg_rwlw<1>}{{107}{125}{}{Doc-Start}{}}
\@writefile{snm}{\beamer@slide {reg_rwlw<1>}{125}}
\newlabel{reg_rwlw}{{107}{125}{}{Doc-Start}{}}
\@writefile{snm}{\beamer@slide {reg_rwlw}{125}}
\@writefile{nav}{\headcommand {\slideentry {0}{0}{108}{125/125}{}{0}}}
\@writefile{nav}{\headcommand {\beamer@framepages {125}{125}}}
\newlabel{reg_tasahomicides<1>}{{108}{126}{}{Doc-Start}{}}
\@writefile{snm}{\beamer@slide {reg_tasahomicides<1>}{126}}
\newlabel{reg_tasahomicides}{{108}{126}{}{Doc-Start}{}}
\@writefile{snm}{\beamer@slide {reg_tasahomicides}{126}}
\@writefile{nav}{\headcommand {\slideentry {0}{0}{109}{126/126}{}{0}}}
\@writefile{nav}{\headcommand {\beamer@framepages {126}{126}}}
\newlabel{reg_homicides<1>}{{109}{127}{}{Doc-Start}{}}
\@writefile{snm}{\beamer@slide {reg_homicides<1>}{127}}
\newlabel{reg_homicides}{{109}{127}{}{Doc-Start}{}}
\@writefile{snm}{\beamer@slide {reg_homicides}{127}}
\@writefile{nav}{\headcommand {\slideentry {0}{0}{110}{127/127}{}{0}}}
\@writefile{nav}{\headcommand {\beamer@framepages {127}{127}}}
\@writefile{nav}{\headcommand {\slideentry {0}{0}{111}{128/128}{}{0}}}
\@writefile{nav}{\headcommand {\beamer@framepages {128}{128}}}
\newlabel{reg_tmi<1>}{{111}{129}{}{Doc-Start}{}}
\@writefile{snm}{\beamer@slide {reg_tmi<1>}{129}}
\newlabel{reg_tmi}{{111}{129}{}{Doc-Start}{}}
\@writefile{snm}{\beamer@slide {reg_tmi}{129}}
\@writefile{nav}{\headcommand {\slideentry {0}{0}{112}{129/129}{}{0}}}
\@writefile{nav}{\headcommand {\beamer@framepages {129}{129}}}
\newlabel{reg_tribut<1>}{{112}{130}{}{Doc-Start}{}}
\@writefile{snm}{\beamer@slide {reg_tribut<1>}{130}}
\newlabel{reg_tribut}{{112}{130}{}{Doc-Start}{}}
\@writefile{snm}{\beamer@slide {reg_tribut}{130}}
\@writefile{nav}{\headcommand {\slideentry {0}{0}{113}{130/130}{}{0}}}
\@writefile{nav}{\headcommand {\beamer@framepages {130}{130}}}
\@writefile{nav}{\headcommand {\slideentry {0}{0}{114}{131/131}{}{0}}}
\@writefile{nav}{\headcommand {\beamer@framepages {131}{131}}}
\bibstyle{apacite}
\bibdata{bibille}
\@writefile{nav}{\headcommand {\slideentry {0}{0}{115}{132/132}{}{0}}}
\@writefile{nav}{\headcommand {\beamer@framepages {132}{132}}}
\@writefile{nav}{\headcommand {\beamer@partpages {1}{132}}}
\@writefile{nav}{\headcommand {\beamer@subsectionpages {1}{132}}}
\@writefile{nav}{\headcommand {\beamer@sectionpages {1}{132}}}
\@writefile{nav}{\headcommand {\beamer@documentpages {132}}}
\@writefile{nav}{\headcommand {\def \inserttotalframenumber {52}}}
