\relax 
\providecommand\hyper@newdestlabel[2]{}
\@setckpt{R/mat_conf}{
\setcounter{page}{97}
\setcounter{equation}{4}
\setcounter{enumi}{4}
\setcounter{enumii}{0}
\setcounter{enumiii}{0}
\setcounter{enumiv}{0}
\setcounter{footnote}{0}
\setcounter{mpfootnote}{0}
\setcounter{beamerpauses}{1}
\setcounter{bookmark@seq@number}{0}
\setcounter{lecture}{0}
\setcounter{part}{0}
\setcounter{section}{0}
\setcounter{subsection}{0}
\setcounter{subsubsection}{0}
\setcounter{subsectionslide}{81}
\setcounter{framenumber}{79}
\setcounter{figure}{0}
\setcounter{table}{0}
\setcounter{parentequation}{0}
\setcounter{theorem}{0}
\setcounter{BibCnt}{0}
\setcounter{r@tfl@t}{0}
\setcounter{section@level}{0}
\setcounter{float@type}{4}
\setcounter{maskedRefs}{0}
\setcounter{finalframe}{63}
}
