\relax 
\providecommand\hyper@newdestlabel[2]{}
\providecommand\HyperFirstAtBeginDocument{\AtBeginDocument}
\HyperFirstAtBeginDocument{\ifx\hyper@anchor\@undefined
\global\let\oldcontentsline\contentsline
\gdef\contentsline#1#2#3#4{\oldcontentsline{#1}{#2}{#3}}
\global\let\oldnewlabel\newlabel
\gdef\newlabel#1#2{\newlabelxx{#1}#2}
\gdef\newlabelxx#1#2#3#4#5#6{\oldnewlabel{#1}{{#2}{#3}}}
\AtEndDocument{\ifx\hyper@anchor\@undefined
\let\contentsline\oldcontentsline
\let\newlabel\oldnewlabel
\fi}
\fi}
\global\let\hyper@last\relax 
\gdef\HyperFirstAtBeginDocument#1{#1}
\providecommand\HyField@AuxAddToFields[1]{}
\providecommand\HyField@AuxAddToCoFields[2]{}
\providecommand \oddpage@label [2]{}
\select@language{english}
\@writefile{toc}{\select@language{english}}
\@writefile{lof}{\select@language{english}}
\@writefile{lot}{\select@language{english}}
\@writefile{nav}{\headcommand {\slideentry {0}{0}{1}{1/1}{}{0}}}
\@writefile{nav}{\headcommand {\beamer@framepages {1}{1}}}
\@writefile{nav}{\headcommand {\slideentry {0}{0}{2}{2/4}{}{0}}}
\@writefile{nav}{\headcommand {\beamer@framepages {2}{4}}}
\@writefile{nav}{\headcommand {\slideentry {0}{0}{3}{5/6}{}{0}}}
\@writefile{nav}{\headcommand {\beamer@framepages {5}{6}}}
\@writefile{nav}{\headcommand {\slideentry {0}{0}{4}{7/8}{}{0}}}
\@writefile{nav}{\headcommand {\beamer@framepages {7}{8}}}
\@writefile{nav}{\headcommand {\slideentry {0}{0}{5}{9/9}{}{0}}}
\@writefile{nav}{\headcommand {\beamer@framepages {9}{9}}}
\newlabel{context<1>}{{6}{10}{}{Doc-Start}{}}
\@writefile{snm}{\beamer@slide {context<1>}{10}}
\newlabel{context}{{6}{10}{}{Doc-Start}{}}
\@writefile{snm}{\beamer@slide {context}{10}}
\newlabel{context<2>}{{6}{11}{}{Doc-Start}{}}
\@writefile{snm}{\beamer@slide {context<2>}{11}}
\@writefile{nav}{\headcommand {\slideentry {0}{0}{6}{10/11}{}{0}}}
\@writefile{nav}{\headcommand {\beamer@framepages {10}{11}}}
\@writefile{nav}{\headcommand {\slideentry {0}{0}{7}{12/16}{}{0}}}
\@writefile{nav}{\headcommand {\beamer@framepages {12}{16}}}
\@writefile{nav}{\headcommand {\slideentry {0}{0}{8}{17/17}{}{0}}}
\@writefile{nav}{\headcommand {\beamer@framepages {17}{17}}}
\newlabel{prepare<1>}{{9}{18}{}{Doc-Start}{}}
\@writefile{snm}{\beamer@slide {prepare<1>}{18}}
\newlabel{prepare}{{9}{18}{}{Doc-Start}{}}
\@writefile{snm}{\beamer@slide {prepare}{18}}
\@writefile{nav}{\headcommand {\slideentry {0}{0}{9}{18/18}{}{0}}}
\@writefile{nav}{\headcommand {\beamer@framepages {18}{18}}}
\newlabel{graph_prepare<1>}{{10}{19}{}{Doc-Start}{}}
\@writefile{snm}{\beamer@slide {graph_prepare<1>}{19}}
\newlabel{graph_prepare}{{10}{19}{}{Doc-Start}{}}
\@writefile{snm}{\beamer@slide {graph_prepare}{19}}
\@writefile{nav}{\headcommand {\slideentry {0}{0}{10}{19/19}{}{0}}}
\@writefile{nav}{\headcommand {\beamer@framepages {19}{19}}}
\newlabel{challenges<1>}{{11}{20}{}{Doc-Start}{}}
\@writefile{snm}{\beamer@slide {challenges<1>}{20}}
\newlabel{challenges}{{11}{20}{}{Doc-Start}{}}
\@writefile{snm}{\beamer@slide {challenges}{20}}
\@writefile{nav}{\headcommand {\slideentry {0}{0}{11}{20/20}{}{0}}}
\@writefile{nav}{\headcommand {\beamer@framepages {20}{20}}}
\newlabel{whatRF<1>}{{12}{21}{}{Doc-Start}{}}
\@writefile{snm}{\beamer@slide {whatRF<1>}{21}}
\newlabel{whatRF}{{12}{21}{}{Doc-Start}{}}
\@writefile{snm}{\beamer@slide {whatRF}{21}}
\@writefile{nav}{\headcommand {\slideentry {0}{0}{12}{21/21}{}{0}}}
\@writefile{nav}{\headcommand {\beamer@framepages {21}{21}}}
\newlabel{whatRF<1>}{{13}{22}{}{Doc-Start}{}}
\@writefile{snm}{\beamer@slide {whatRF<1>}{22}}
\newlabel{whatRF}{{13}{22}{}{Doc-Start}{}}
\@writefile{snm}{\beamer@slide {whatRF}{22}}
\@writefile{nav}{\headcommand {\slideentry {0}{0}{13}{22/22}{}{0}}}
\@writefile{nav}{\headcommand {\beamer@framepages {22}{22}}}
\@writefile{nav}{\headcommand {\slideentry {0}{0}{14}{23/23}{}{0}}}
\@writefile{nav}{\headcommand {\beamer@framepages {23}{23}}}
\newlabel{ROC<1>}{{15}{24}{}{Doc-Start}{}}
\@writefile{snm}{\beamer@slide {ROC<1>}{24}}
\newlabel{ROC}{{15}{24}{}{Doc-Start}{}}
\@writefile{snm}{\beamer@slide {ROC}{24}}
\@writefile{nav}{\headcommand {\slideentry {0}{0}{15}{24/24}{}{0}}}
\@writefile{nav}{\headcommand {\beamer@framepages {24}{24}}}
\@writefile{nav}{\headcommand {\slideentry {0}{0}{16}{25/25}{}{0}}}
\@writefile{nav}{\headcommand {\beamer@framepages {25}{25}}}
\newlabel{graph_predlegal<1>}{{17}{26}{}{Doc-Start}{}}
\@writefile{snm}{\beamer@slide {graph_predlegal<1>}{26}}
\newlabel{graph_predlegal}{{17}{26}{}{Doc-Start}{}}
\@writefile{snm}{\beamer@slide {graph_predlegal}{26}}
\@writefile{nav}{\headcommand {\slideentry {0}{0}{17}{26/26}{}{0}}}
\@writefile{nav}{\headcommand {\beamer@framepages {26}{26}}}
\@writefile{nav}{\headcommand {\slideentry {0}{0}{18}{27/27}{}{0}}}
\@writefile{nav}{\headcommand {\beamer@framepages {27}{27}}}
\@writefile{nav}{\headcommand {\slideentry {0}{0}{19}{28/28}{}{0}}}
\@writefile{nav}{\headcommand {\beamer@framepages {28}{28}}}
\@writefile{nav}{\headcommand {\slideentry {0}{0}{20}{29/29}{}{0}}}
\@writefile{nav}{\headcommand {\beamer@framepages {29}{29}}}
\@writefile{nav}{\headcommand {\slideentry {0}{0}{21}{30/30}{}{0}}}
\@writefile{nav}{\headcommand {\beamer@framepages {30}{30}}}
\newlabel{reg_lasso_continuous<1>}{{22}{31}{}{Doc-Start}{}}
\@writefile{snm}{\beamer@slide {reg_lasso_continuous<1>}{31}}
\newlabel{reg_lasso_continuous}{{22}{31}{}{Doc-Start}{}}
\@writefile{snm}{\beamer@slide {reg_lasso_continuous}{31}}
\@writefile{nav}{\headcommand {\slideentry {0}{0}{22}{31/31}{}{0}}}
\@writefile{nav}{\headcommand {\beamer@framepages {31}{31}}}
\newlabel{het_plot<1>}{{23}{32}{}{Doc-Start}{}}
\@writefile{snm}{\beamer@slide {het_plot<1>}{32}}
\newlabel{het_plot}{{23}{32}{}{Doc-Start}{}}
\@writefile{snm}{\beamer@slide {het_plot}{32}}
\@writefile{nav}{\headcommand {\slideentry {0}{0}{23}{32/32}{}{0}}}
\@writefile{nav}{\headcommand {\beamer@framepages {32}{32}}}
\newlabel{reg_main<1>}{{24}{33}{}{Doc-Start}{}}
\@writefile{snm}{\beamer@slide {reg_main<1>}{33}}
\newlabel{reg_main}{{24}{33}{}{Doc-Start}{}}
\@writefile{snm}{\beamer@slide {reg_main}{33}}
\@writefile{nav}{\headcommand {\slideentry {0}{0}{24}{33/33}{}{0}}}
\@writefile{nav}{\headcommand {\beamer@framepages {33}{33}}}
\@writefile{nav}{\headcommand {\slideentry {0}{0}{25}{34/34}{}{0}}}
\@writefile{nav}{\headcommand {\beamer@framepages {34}{34}}}
\@writefile{nav}{\headcommand {\slideentry {0}{0}{26}{35/35}{}{0}}}
\@writefile{nav}{\headcommand {\beamer@framepages {35}{35}}}
\newlabel{reg_healthIVfs<1>}{{27}{36}{}{Doc-Start}{}}
\@writefile{snm}{\beamer@slide {reg_healthIVfs<1>}{36}}
\newlabel{reg_healthIVfs}{{27}{36}{}{Doc-Start}{}}
\@writefile{snm}{\beamer@slide {reg_healthIVfs}{36}}
\@writefile{nav}{\headcommand {\slideentry {0}{0}{27}{36/36}{}{0}}}
\@writefile{nav}{\headcommand {\beamer@framepages {36}{36}}}
\newlabel{reg_healthIVnsm<1>}{{28}{37}{}{Doc-Start}{}}
\@writefile{snm}{\beamer@slide {reg_healthIVnsm<1>}{37}}
\newlabel{reg_healthIVnsm}{{28}{37}{}{Doc-Start}{}}
\@writefile{snm}{\beamer@slide {reg_healthIVnsm}{37}}
\@writefile{nav}{\headcommand {\slideentry {0}{0}{28}{37/37}{}{0}}}
\@writefile{nav}{\headcommand {\beamer@framepages {37}{37}}}
\@writefile{nav}{\headcommand {\slideentry {0}{0}{29}{38/38}{}{0}}}
\@writefile{nav}{\headcommand {\beamer@framepages {38}{38}}}
\@writefile{nav}{\headcommand {\slideentry {0}{0}{30}{39/39}{}{0}}}
\@writefile{nav}{\headcommand {\beamer@framepages {39}{39}}}
\newlabel{outline<1>}{{30}{40}{}{Doc-Start}{}}
\@writefile{snm}{\beamer@slide {outline<1>}{40}}
\newlabel{outline}{{30}{40}{}{Doc-Start}{}}
\@writefile{snm}{\beamer@slide {outline}{40}}
\@writefile{nav}{\headcommand {\slideentry {0}{0}{31}{40/40}{}{0}}}
\@writefile{nav}{\headcommand {\beamer@framepages {40}{40}}}
\newlabel{mining_Col<1>}{{31}{41}{}{Doc-Start}{}}
\@writefile{snm}{\beamer@slide {mining_Col<1>}{41}}
\newlabel{mining_Col}{{31}{41}{}{Doc-Start}{}}
\@writefile{snm}{\beamer@slide {mining_Col}{41}}
\@writefile{nav}{\headcommand {\slideentry {0}{0}{32}{41/41}{}{0}}}
\@writefile{nav}{\headcommand {\beamer@framepages {41}{41}}}
\newlabel{details_reform<1>}{{32}{42}{}{Doc-Start}{}}
\@writefile{snm}{\beamer@slide {details_reform<1>}{42}}
\newlabel{details_reform}{{32}{42}{}{Doc-Start}{}}
\@writefile{snm}{\beamer@slide {details_reform}{42}}
\@writefile{nav}{\headcommand {\slideentry {0}{0}{33}{42/42}{}{0}}}
\@writefile{nav}{\headcommand {\beamer@framepages {42}{42}}}
\newlabel{outline2<1>}{{33}{43}{}{Doc-Start}{}}
\@writefile{snm}{\beamer@slide {outline2<1>}{43}}
\newlabel{outline2}{{33}{43}{}{Doc-Start}{}}
\@writefile{snm}{\beamer@slide {outline2}{43}}
\@writefile{nav}{\headcommand {\slideentry {0}{0}{34}{43/43}{}{0}}}
\@writefile{nav}{\headcommand {\beamer@framepages {43}{43}}}
\newlabel{model_overview<1>}{{34}{44}{}{Doc-Start}{}}
\@writefile{snm}{\beamer@slide {model_overview<1>}{44}}
\newlabel{model_overview}{{34}{44}{}{Doc-Start}{}}
\@writefile{snm}{\beamer@slide {model_overview}{44}}
\newlabel{model_overview<2>}{{34}{45}{}{Doc-Start}{}}
\@writefile{snm}{\beamer@slide {model_overview<2>}{45}}
\newlabel{model_overview<3>}{{34}{46}{}{Doc-Start}{}}
\@writefile{snm}{\beamer@slide {model_overview<3>}{46}}
\@writefile{nav}{\headcommand {\slideentry {0}{0}{35}{44/46}{}{0}}}
\@writefile{nav}{\headcommand {\beamer@framepages {44}{46}}}
\newlabel{thmod<1>}{{35}{47}{}{Doc-Start}{}}
\@writefile{snm}{\beamer@slide {thmod<1>}{47}}
\newlabel{thmod}{{35}{47}{}{Doc-Start}{}}
\@writefile{snm}{\beamer@slide {thmod}{47}}
\@writefile{nav}{\headcommand {\slideentry {0}{0}{36}{47/47}{}{0}}}
\@writefile{nav}{\headcommand {\beamer@framepages {47}{47}}}
\newlabel{th_preds12<1>}{{36}{48}{}{Doc-Start}{}}
\@writefile{snm}{\beamer@slide {th_preds12<1>}{48}}
\newlabel{th_preds12}{{36}{48}{}{Doc-Start}{}}
\@writefile{snm}{\beamer@slide {th_preds12}{48}}
\@writefile{nav}{\headcommand {\slideentry {0}{0}{37}{48/48}{}{0}}}
\@writefile{nav}{\headcommand {\beamer@framepages {48}{48}}}
\newlabel{model_linear<1>}{{37}{49}{}{Doc-Start}{}}
\@writefile{snm}{\beamer@slide {model_linear<1>}{49}}
\newlabel{model_linear}{{37}{49}{}{Doc-Start}{}}
\@writefile{snm}{\beamer@slide {model_linear}{49}}
\@writefile{nav}{\headcommand {\slideentry {0}{0}{38}{49/49}{}{0}}}
\@writefile{nav}{\headcommand {\beamer@framepages {49}{49}}}
\newlabel{model_convex<1>}{{38}{50}{}{Doc-Start}{}}
\@writefile{snm}{\beamer@slide {model_convex<1>}{50}}
\newlabel{model_convex}{{38}{50}{}{Doc-Start}{}}
\@writefile{snm}{\beamer@slide {model_convex}{50}}
\@writefile{nav}{\headcommand {\slideentry {0}{0}{39}{50/50}{}{0}}}
\@writefile{nav}{\headcommand {\beamer@framepages {50}{50}}}
\@writefile{nav}{\headcommand {\slideentry {0}{0}{40}{51/51}{}{0}}}
\@writefile{nav}{\headcommand {\beamer@framepages {51}{51}}}
\newlabel{dd_basico_mined_ally<1>}{{40}{52}{}{Doc-Start}{}}
\@writefile{snm}{\beamer@slide {dd_basico_mined_ally<1>}{52}}
\newlabel{dd_basico_mined_ally}{{40}{52}{}{Doc-Start}{}}
\@writefile{snm}{\beamer@slide {dd_basico_mined_ally}{52}}
\@writefile{nav}{\headcommand {\slideentry {0}{0}{41}{52/52}{}{0}}}
\@writefile{nav}{\headcommand {\beamer@framepages {52}{52}}}
\@writefile{nav}{\headcommand {\slideentry {0}{0}{42}{53/53}{}{0}}}
\@writefile{nav}{\headcommand {\beamer@framepages {53}{53}}}
\@writefile{nav}{\headcommand {\slideentry {0}{0}{43}{54/54}{}{0}}}
\@writefile{nav}{\headcommand {\beamer@framepages {54}{54}}}
\@writefile{nav}{\headcommand {\slideentry {0}{0}{44}{55/55}{}{0}}}
\@writefile{nav}{\headcommand {\beamer@framepages {55}{55}}}
\newlabel{reg_newarea<1>}{{44}{56}{}{Doc-Start}{}}
\@writefile{snm}{\beamer@slide {reg_newarea<1>}{56}}
\newlabel{reg_newarea}{{44}{56}{}{Doc-Start}{}}
\@writefile{snm}{\beamer@slide {reg_newarea}{56}}
\@writefile{nav}{\headcommand {\slideentry {0}{0}{45}{56/56}{}{0}}}
\@writefile{nav}{\headcommand {\beamer@framepages {56}{56}}}
\newlabel{reg_main<1>}{{45}{57}{}{Doc-Start}{}}
\@writefile{snm}{\beamer@slide {reg_main<1>}{57}}
\newlabel{reg_main}{{45}{57}{}{Doc-Start}{}}
\@writefile{snm}{\beamer@slide {reg_main}{57}}
\@writefile{nav}{\headcommand {\slideentry {0}{0}{46}{57/57}{}{0}}}
\@writefile{nav}{\headcommand {\beamer@framepages {57}{57}}}
\newlabel{intro_hetins<1>}{{46}{58}{}{Doc-Start}{}}
\@writefile{snm}{\beamer@slide {intro_hetins<1>}{58}}
\newlabel{intro_hetins}{{46}{58}{}{Doc-Start}{}}
\@writefile{snm}{\beamer@slide {intro_hetins}{58}}
\@writefile{nav}{\headcommand {\slideentry {0}{0}{47}{58/58}{}{0}}}
\@writefile{nav}{\headcommand {\beamer@framepages {58}{58}}}
\newlabel{reg_hetins<1>}{{47}{59}{}{Doc-Start}{}}
\@writefile{snm}{\beamer@slide {reg_hetins<1>}{59}}
\newlabel{reg_hetins}{{47}{59}{}{Doc-Start}{}}
\@writefile{snm}{\beamer@slide {reg_hetins}{59}}
\@writefile{nav}{\headcommand {\slideentry {0}{0}{48}{59/59}{}{0}}}
\@writefile{nav}{\headcommand {\beamer@framepages {59}{59}}}
\newlabel{reg_wl<1>}{{48}{60}{}{Doc-Start}{}}
\@writefile{snm}{\beamer@slide {reg_wl<1>}{60}}
\newlabel{reg_wl}{{48}{60}{}{Doc-Start}{}}
\@writefile{snm}{\beamer@slide {reg_wl}{60}}
\@writefile{nav}{\headcommand {\slideentry {0}{0}{49}{60/60}{}{0}}}
\@writefile{nav}{\headcommand {\beamer@framepages {60}{60}}}
\newlabel{reg_prod<1>}{{49}{61}{}{Doc-Start}{}}
\@writefile{snm}{\beamer@slide {reg_prod<1>}{61}}
\newlabel{reg_prod}{{49}{61}{}{Doc-Start}{}}
\@writefile{snm}{\beamer@slide {reg_prod}{61}}
\@writefile{nav}{\headcommand {\slideentry {0}{0}{50}{61/61}{}{0}}}
\@writefile{nav}{\headcommand {\beamer@framepages {61}{61}}}
\@writefile{nav}{\headcommand {\slideentry {0}{0}{51}{62/62}{}{0}}}
\@writefile{nav}{\headcommand {\beamer@framepages {62}{62}}}
\@writefile{nav}{\headcommand {\slideentry {0}{0}{52}{63/63}{}{0}}}
\@writefile{nav}{\headcommand {\beamer@framepages {63}{63}}}
\@writefile{nav}{\headcommand {\slideentry {0}{0}{53}{64/64}{}{0}}}
\@writefile{nav}{\headcommand {\beamer@framepages {64}{64}}}
\newlabel{context_health<1>}{{53}{65}{}{Doc-Start}{}}
\@writefile{snm}{\beamer@slide {context_health<1>}{65}}
\newlabel{context_health}{{53}{65}{}{Doc-Start}{}}
\@writefile{snm}{\beamer@slide {context_health}{65}}
\@writefile{nav}{\headcommand {\slideentry {0}{0}{54}{65/65}{}{0}}}
\@writefile{nav}{\headcommand {\beamer@framepages {65}{65}}}
\@writefile{nav}{\headcommand {\slideentry {0}{0}{55}{66/66}{}{0}}}
\@writefile{nav}{\headcommand {\beamer@framepages {66}{66}}}
\newlabel{reg_health<1>}{{55}{67}{}{Doc-Start}{}}
\@writefile{snm}{\beamer@slide {reg_health<1>}{67}}
\newlabel{reg_health}{{55}{67}{}{Doc-Start}{}}
\@writefile{snm}{\beamer@slide {reg_health}{67}}
\@writefile{nav}{\headcommand {\slideentry {0}{0}{56}{67/67}{}{0}}}
\@writefile{nav}{\headcommand {\beamer@framepages {67}{67}}}
\newlabel{reg_healthIVfs<1>}{{56}{68}{}{Doc-Start}{}}
\@writefile{snm}{\beamer@slide {reg_healthIVfs<1>}{68}}
\newlabel{reg_healthIVfs}{{56}{68}{}{Doc-Start}{}}
\@writefile{snm}{\beamer@slide {reg_healthIVfs}{68}}
\@writefile{nav}{\headcommand {\slideentry {0}{0}{57}{68/68}{}{0}}}
\@writefile{nav}{\headcommand {\beamer@framepages {68}{68}}}
\newlabel{reg_healthIVnsm<1>}{{57}{69}{}{Doc-Start}{}}
\@writefile{snm}{\beamer@slide {reg_healthIVnsm<1>}{69}}
\newlabel{reg_healthIVnsm}{{57}{69}{}{Doc-Start}{}}
\@writefile{snm}{\beamer@slide {reg_healthIVnsm}{69}}
\@writefile{nav}{\headcommand {\slideentry {0}{0}{58}{69/69}{}{0}}}
\@writefile{nav}{\headcommand {\beamer@framepages {69}{69}}}
\@writefile{nav}{\headcommand {\slideentry {0}{0}{59}{70/70}{}{0}}}
\@writefile{nav}{\headcommand {\beamer@framepages {70}{70}}}
\newlabel{discussion<1>}{{59}{71}{}{Doc-Start}{}}
\@writefile{snm}{\beamer@slide {discussion<1>}{71}}
\newlabel{discussion}{{59}{71}{}{Doc-Start}{}}
\@writefile{snm}{\beamer@slide {discussion}{71}}
\@writefile{nav}{\headcommand {\slideentry {0}{0}{60}{71/71}{}{0}}}
\@writefile{nav}{\headcommand {\beamer@framepages {71}{71}}}
\newlabel{costreform<1>}{{60}{72}{}{Doc-Start}{}}
\@writefile{snm}{\beamer@slide {costreform<1>}{72}}
\newlabel{costreform}{{60}{72}{}{Doc-Start}{}}
\@writefile{snm}{\beamer@slide {costreform}{72}}
\@writefile{nav}{\headcommand {\slideentry {0}{0}{61}{72/72}{}{0}}}
\@writefile{nav}{\headcommand {\beamer@framepages {72}{72}}}
\newlabel{healthcostreform<1>}{{61}{73}{}{Doc-Start}{}}
\@writefile{snm}{\beamer@slide {healthcostreform<1>}{73}}
\newlabel{healthcostreform}{{61}{73}{}{Doc-Start}{}}
\@writefile{snm}{\beamer@slide {healthcostreform}{73}}
\@writefile{nav}{\headcommand {\slideentry {0}{0}{62}{73/73}{}{0}}}
\@writefile{nav}{\headcommand {\beamer@framepages {73}{73}}}
\@writefile{nav}{\headcommand {\slideentry {0}{0}{63}{74/74}{}{0}}}
\@writefile{nav}{\headcommand {\beamer@framepages {74}{74}}}
\@writefile{nav}{\headcommand {\slideentry {0}{0}{64}{75/75}{}{0}}}
\@writefile{nav}{\headcommand {\beamer@framepages {75}{75}}}
\newlabel{reg_titulos<1>}{{63}{76}{}{Doc-Start}{}}
\@writefile{snm}{\beamer@slide {reg_titulos<1>}{76}}
\newlabel{reg_titulos}{{63}{76}{}{Doc-Start}{}}
\@writefile{snm}{\beamer@slide {reg_titulos}{76}}
\@writefile{nav}{\headcommand {\slideentry {0}{0}{65}{76/76}{}{0}}}
\@writefile{nav}{\headcommand {\beamer@framepages {76}{76}}}
\newlabel{roy_ineq<1>}{{64}{77}{}{Doc-Start}{}}
\@writefile{snm}{\beamer@slide {roy_ineq<1>}{77}}
\newlabel{roy_ineq}{{64}{77}{}{Doc-Start}{}}
\@writefile{snm}{\beamer@slide {roy_ineq}{77}}
\newlabel{Circle size proportional to population of the municipality}{{64}{77}{}{Doc-Start}{}}
\@writefile{snm}{\beamer@slide {Circle size proportional to population of the municipality}{77}}
\@writefile{nav}{\headcommand {\slideentry {0}{0}{66}{77/77}{}{0}}}
\@writefile{nav}{\headcommand {\beamer@framepages {77}{77}}}
\newlabel{formula<1>}{{65}{78}{}{Doc-Start}{}}
\@writefile{snm}{\beamer@slide {formula<1>}{78}}
\newlabel{formula}{{65}{78}{}{Doc-Start}{}}
\@writefile{snm}{\beamer@slide {formula}{78}}
\@writefile{nav}{\headcommand {\slideentry {0}{0}{67}{78/78}{}{0}}}
\@writefile{nav}{\headcommand {\beamer@framepages {78}{78}}}
\newlabel{example_wl<1>}{{66}{79}{}{Doc-Start}{}}
\@writefile{snm}{\beamer@slide {example_wl<1>}{79}}
\newlabel{example_wl}{{66}{79}{}{Doc-Start}{}}
\@writefile{snm}{\beamer@slide {example_wl}{79}}
\@writefile{nav}{\headcommand {\slideentry {0}{0}{68}{79/79}{}{0}}}
\@writefile{nav}{\headcommand {\beamer@framepages {79}{79}}}
\newlabel{graph_beta<1>}{{67}{80}{}{Doc-Start}{}}
\@writefile{snm}{\beamer@slide {graph_beta<1>}{80}}
\newlabel{graph_beta}{{67}{80}{}{Doc-Start}{}}
\@writefile{snm}{\beamer@slide {graph_beta}{80}}
\@writefile{nav}{\headcommand {\slideentry {0}{0}{69}{80/80}{}{0}}}
\@writefile{nav}{\headcommand {\beamer@framepages {80}{80}}}
\newlabel{graph_agPr<1>}{{68}{81}{}{Doc-Start}{}}
\@writefile{snm}{\beamer@slide {graph_agPr<1>}{81}}
\newlabel{graph_agPr}{{68}{81}{}{Doc-Start}{}}
\@writefile{snm}{\beamer@slide {graph_agPr}{81}}
\@writefile{nav}{\headcommand {\slideentry {0}{0}{70}{81/81}{}{0}}}
\@writefile{nav}{\headcommand {\beamer@framepages {81}{81}}}
\newlabel{thmod_prof<1>}{{69}{82}{}{Doc-Start}{}}
\@writefile{snm}{\beamer@slide {thmod_prof<1>}{82}}
\newlabel{thmod_prof}{{69}{82}{}{Doc-Start}{}}
\@writefile{snm}{\beamer@slide {thmod_prof}{82}}
\@writefile{nav}{\headcommand {\slideentry {0}{0}{71}{82/82}{}{0}}}
\@writefile{nav}{\headcommand {\beamer@framepages {82}{82}}}
\newlabel{model_parameters<1>}{{70}{83}{}{Doc-Start}{}}
\@writefile{snm}{\beamer@slide {model_parameters<1>}{83}}
\newlabel{model_parameters}{{70}{83}{}{Doc-Start}{}}
\@writefile{snm}{\beamer@slide {model_parameters}{83}}
\@writefile{nav}{\headcommand {\slideentry {0}{0}{72}{83/83}{}{0}}}
\@writefile{nav}{\headcommand {\beamer@framepages {83}{83}}}
\newlabel{model_f<1>}{{71}{84}{}{Doc-Start}{}}
\@writefile{snm}{\beamer@slide {model_f<1>}{84}}
\newlabel{model_f}{{71}{84}{}{Doc-Start}{}}
\@writefile{snm}{\beamer@slide {model_f}{84}}
\@writefile{nav}{\headcommand {\slideentry {0}{0}{73}{84/84}{}{0}}}
\@writefile{nav}{\headcommand {\beamer@framepages {84}{84}}}
\newlabel{remove_clouds<1>}{{72}{85}{}{Doc-Start}{}}
\@writefile{snm}{\beamer@slide {remove_clouds<1>}{85}}
\newlabel{remove_clouds}{{72}{85}{}{Doc-Start}{}}
\@writefile{snm}{\beamer@slide {remove_clouds}{85}}
\@writefile{nav}{\headcommand {\slideentry {0}{0}{74}{85/85}{}{0}}}
\@writefile{nav}{\headcommand {\beamer@framepages {85}{85}}}
\newlabel{balancestats_censed<1>}{{73}{86}{}{Doc-Start}{}}
\@writefile{snm}{\beamer@slide {balancestats_censed<1>}{86}}
\newlabel{balancestats_censed}{{73}{86}{}{Doc-Start}{}}
\@writefile{snm}{\beamer@slide {balancestats_censed}{86}}
\@writefile{nav}{\headcommand {\slideentry {0}{0}{75}{86/86}{}{0}}}
\@writefile{nav}{\headcommand {\beamer@framepages {86}{86}}}
\newlabel{reg_vs_trees<1>}{{74}{87}{}{Doc-Start}{}}
\@writefile{snm}{\beamer@slide {reg_vs_trees<1>}{87}}
\newlabel{reg_vs_trees}{{74}{87}{}{Doc-Start}{}}
\@writefile{snm}{\beamer@slide {reg_vs_trees}{87}}
\@writefile{nav}{\headcommand {\slideentry {0}{0}{76}{87/87}{}{0}}}
\@writefile{nav}{\headcommand {\beamer@framepages {87}{87}}}
\newlabel{varimportance<1>}{{75}{88}{}{Doc-Start}{}}
\@writefile{snm}{\beamer@slide {varimportance<1>}{88}}
\newlabel{varimportance}{{75}{88}{}{Doc-Start}{}}
\@writefile{snm}{\beamer@slide {varimportance}{88}}
\@writefile{nav}{\headcommand {\slideentry {0}{0}{77}{88/88}{}{0}}}
\@writefile{nav}{\headcommand {\beamer@framepages {88}{88}}}
\newlabel{erroranal<1>}{{76}{89}{}{Doc-Start}{}}
\@writefile{snm}{\beamer@slide {erroranal<1>}{89}}
\newlabel{erroranal}{{76}{89}{}{Doc-Start}{}}
\@writefile{snm}{\beamer@slide {erroranal}{89}}
\@writefile{nav}{\headcommand {\slideentry {0}{0}{78}{89/89}{}{0}}}
\@writefile{nav}{\headcommand {\beamer@framepages {89}{89}}}
\@writefile{nav}{\headcommand {\slideentry {0}{0}{79}{90/90}{}{0}}}
\@writefile{nav}{\headcommand {\beamer@framepages {90}{90}}}
\newlabel{sumstats_tprfpr<1>}{{78}{91}{}{Doc-Start}{}}
\@writefile{snm}{\beamer@slide {sumstats_tprfpr<1>}{91}}
\newlabel{sumstats_tprfpr}{{78}{91}{}{Doc-Start}{}}
\@writefile{snm}{\beamer@slide {sumstats_tprfpr}{91}}
\@writefile{nav}{\headcommand {\slideentry {0}{0}{80}{91/91}{}{0}}}
\@writefile{nav}{\headcommand {\beamer@framepages {91}{91}}}
\@input{R/mat_conf.aux}
\newlabel{mat_conf<1>}{{79}{92}{}{Doc-Start}{}}
\@writefile{snm}{\beamer@slide {mat_conf<1>}{92}}
\newlabel{mat_conf}{{79}{92}{}{Doc-Start}{}}
\@writefile{snm}{\beamer@slide {mat_conf}{92}}
\@writefile{nav}{\headcommand {\slideentry {0}{0}{81}{92/92}{}{0}}}
\@writefile{nav}{\headcommand {\beamer@framepages {92}{92}}}
\newlabel{dd_basico<1>}{{80}{93}{}{Doc-Start}{}}
\@writefile{snm}{\beamer@slide {dd_basico<1>}{93}}
\newlabel{dd_basico}{{80}{93}{}{Doc-Start}{}}
\@writefile{snm}{\beamer@slide {dd_basico}{93}}
\@writefile{nav}{\headcommand {\slideentry {0}{0}{82}{93/93}{}{0}}}
\@writefile{nav}{\headcommand {\beamer@framepages {93}{93}}}
\newlabel{partrend_wl<1>}{{81}{94}{}{Doc-Start}{}}
\@writefile{snm}{\beamer@slide {partrend_wl<1>}{94}}
\newlabel{partrend_wl}{{81}{94}{}{Doc-Start}{}}
\@writefile{snm}{\beamer@slide {partrend_wl}{94}}
\@writefile{nav}{\headcommand {\slideentry {0}{0}{83}{94/94}{}{0}}}
\@writefile{nav}{\headcommand {\beamer@framepages {94}{94}}}
\newlabel{partrend_colperu<1>}{{82}{95}{}{Doc-Start}{}}
\@writefile{snm}{\beamer@slide {partrend_colperu<1>}{95}}
\newlabel{partrend_colperu}{{82}{95}{}{Doc-Start}{}}
\@writefile{snm}{\beamer@slide {partrend_colperu}{95}}
\@writefile{nav}{\headcommand {\slideentry {0}{0}{84}{95/95}{}{0}}}
\@writefile{nav}{\headcommand {\beamer@framepages {95}{95}}}
\newlabel{gold_price<1>}{{83}{96}{}{Doc-Start}{}}
\@writefile{snm}{\beamer@slide {gold_price<1>}{96}}
\newlabel{gold_price}{{83}{96}{}{Doc-Start}{}}
\@writefile{snm}{\beamer@slide {gold_price}{96}}
\@writefile{nav}{\headcommand {\slideentry {0}{0}{85}{96/96}{}{0}}}
\@writefile{nav}{\headcommand {\beamer@framepages {96}{96}}}
\newlabel{dd_basico_mined<1>}{{84}{97}{}{Doc-Start}{}}
\@writefile{snm}{\beamer@slide {dd_basico_mined<1>}{97}}
\newlabel{dd_basico_mined}{{84}{97}{}{Doc-Start}{}}
\@writefile{snm}{\beamer@slide {dd_basico_mined}{97}}
\@writefile{nav}{\headcommand {\slideentry {0}{0}{86}{97/97}{}{0}}}
\@writefile{nav}{\headcommand {\beamer@framepages {97}{97}}}
\newlabel{sumstats_muni<1>}{{85}{98}{}{Doc-Start}{}}
\@writefile{snm}{\beamer@slide {sumstats_muni<1>}{98}}
\newlabel{sumstats_muni}{{85}{98}{}{Doc-Start}{}}
\@writefile{snm}{\beamer@slide {sumstats_muni}{98}}
\@writefile{nav}{\headcommand {\slideentry {0}{0}{87}{98/98}{}{0}}}
\@writefile{nav}{\headcommand {\beamer@framepages {98}{98}}}
\newlabel{sumstats_regvarmined<1>}{{86}{99}{}{Doc-Start}{}}
\@writefile{snm}{\beamer@slide {sumstats_regvarmined<1>}{99}}
\newlabel{sumstats_regvarmined}{{86}{99}{}{Doc-Start}{}}
\@writefile{snm}{\beamer@slide {sumstats_regvarmined}{99}}
\@writefile{nav}{\headcommand {\slideentry {0}{0}{88}{99/99}{}{0}}}
\@writefile{nav}{\headcommand {\beamer@framepages {99}{99}}}
\newlabel{balancestats_muni<1>}{{87}{100}{}{Doc-Start}{}}
\@writefile{snm}{\beamer@slide {balancestats_muni<1>}{100}}
\newlabel{balancestats_muni}{{87}{100}{}{Doc-Start}{}}
\@writefile{snm}{\beamer@slide {balancestats_muni}{100}}
\@writefile{nav}{\headcommand {\slideentry {0}{0}{89}{100/100}{}{0}}}
\@writefile{nav}{\headcommand {\beamer@framepages {100}{100}}}
\newlabel{sumstats_regvarperu<1>}{{88}{101}{}{Doc-Start}{}}
\@writefile{snm}{\beamer@slide {sumstats_regvarperu<1>}{101}}
\newlabel{sumstats_regvarperu}{{88}{101}{}{Doc-Start}{}}
\@writefile{snm}{\beamer@slide {sumstats_regvarperu}{101}}
\@writefile{nav}{\headcommand {\slideentry {0}{0}{90}{101/101}{}{0}}}
\@writefile{nav}{\headcommand {\beamer@framepages {101}{101}}}
\newlabel{sumstats_ftotalperu<1>}{{89}{102}{}{Doc-Start}{}}
\@writefile{snm}{\beamer@slide {sumstats_ftotalperu<1>}{102}}
\newlabel{sumstats_ftotalperu}{{89}{102}{}{Doc-Start}{}}
\@writefile{snm}{\beamer@slide {sumstats_ftotalperu}{102}}
\@writefile{nav}{\headcommand {\slideentry {0}{0}{91}{102/102}{}{0}}}
\@writefile{nav}{\headcommand {\beamer@framepages {102}{102}}}
\newlabel{reg_non_parametric<1>}{{90}{103}{}{Doc-Start}{}}
\@writefile{snm}{\beamer@slide {reg_non_parametric<1>}{103}}
\newlabel{reg_non_parametric}{{90}{103}{}{Doc-Start}{}}
\@writefile{snm}{\beamer@slide {reg_non_parametric}{103}}
\@writefile{nav}{\headcommand {\slideentry {0}{0}{92}{103/103}{}{0}}}
\@writefile{nav}{\headcommand {\beamer@framepages {103}{103}}}
\newlabel{reg_c12<1>}{{91}{104}{}{Doc-Start}{}}
\@writefile{snm}{\beamer@slide {reg_c12<1>}{104}}
\newlabel{reg_c12}{{91}{104}{}{Doc-Start}{}}
\@writefile{snm}{\beamer@slide {reg_c12}{104}}
\@writefile{nav}{\headcommand {\slideentry {0}{0}{93}{104/104}{}{0}}}
\@writefile{nav}{\headcommand {\beamer@framepages {104}{104}}}
\newlabel{reg_probpixmined<1>}{{92}{105}{}{Doc-Start}{}}
\@writefile{snm}{\beamer@slide {reg_probpixmined<1>}{105}}
\newlabel{reg_probpixmined}{{92}{105}{}{Doc-Start}{}}
\@writefile{snm}{\beamer@slide {reg_probpixmined}{105}}
\@writefile{nav}{\headcommand {\slideentry {0}{0}{94}{105/105}{}{0}}}
\@writefile{nav}{\headcommand {\beamer@framepages {105}{105}}}
\newlabel{legalization<1>}{{93}{106}{}{Doc-Start}{}}
\@writefile{snm}{\beamer@slide {legalization<1>}{106}}
\newlabel{legalization}{{93}{106}{}{Doc-Start}{}}
\@writefile{snm}{\beamer@slide {legalization}{106}}
\@writefile{nav}{\headcommand {\slideentry {0}{0}{95}{106/106}{}{0}}}
\@writefile{nav}{\headcommand {\beamer@framepages {106}{106}}}
\newlabel{altonji_mined<1>}{{94}{107}{}{Doc-Start}{}}
\@writefile{snm}{\beamer@slide {altonji_mined<1>}{107}}
\newlabel{altonji_mined}{{94}{107}{}{Doc-Start}{}}
\@writefile{snm}{\beamer@slide {altonji_mined}{107}}
\@writefile{nav}{\headcommand {\slideentry {0}{0}{96}{107/107}{}{0}}}
\@writefile{nav}{\headcommand {\beamer@framepages {107}{107}}}
\newlabel{reg_adj<1>}{{95}{108}{}{Doc-Start}{}}
\@writefile{snm}{\beamer@slide {reg_adj<1>}{108}}
\newlabel{reg_adj}{{95}{108}{}{Doc-Start}{}}
\@writefile{snm}{\beamer@slide {reg_adj}{108}}
\@writefile{nav}{\headcommand {\slideentry {0}{0}{97}{108/108}{}{0}}}
\@writefile{nav}{\headcommand {\beamer@framepages {108}{108}}}
\newlabel{reg_weights<1>}{{96}{109}{}{Doc-Start}{}}
\@writefile{snm}{\beamer@slide {reg_weights<1>}{109}}
\newlabel{reg_weights}{{96}{109}{}{Doc-Start}{}}
\@writefile{snm}{\beamer@slide {reg_weights}{109}}
\@writefile{nav}{\headcommand {\slideentry {0}{0}{98}{109/109}{}{0}}}
\@writefile{nav}{\headcommand {\beamer@framepages {109}{109}}}
\newlabel{reg_dummy_deptr<1>}{{97}{110}{}{Doc-Start}{}}
\@writefile{snm}{\beamer@slide {reg_dummy_deptr<1>}{110}}
\newlabel{reg_dummy_deptr}{{97}{110}{}{Doc-Start}{}}
\@writefile{snm}{\beamer@slide {reg_dummy_deptr}{110}}
\@writefile{nav}{\headcommand {\slideentry {0}{0}{99}{110/110}{}{0}}}
\@writefile{nav}{\headcommand {\beamer@framepages {110}{110}}}
\newlabel{reg_otherm<1>}{{98}{111}{}{Doc-Start}{}}
\@writefile{snm}{\beamer@slide {reg_otherm<1>}{111}}
\newlabel{reg_otherm}{{98}{111}{}{Doc-Start}{}}
\@writefile{snm}{\beamer@slide {reg_otherm}{111}}
\@writefile{nav}{\headcommand {\slideentry {0}{0}{100}{111/111}{}{0}}}
\@writefile{nav}{\headcommand {\beamer@framepages {111}{111}}}
\newlabel{reg_newarea<1>}{{99}{112}{}{Doc-Start}{}}
\@writefile{snm}{\beamer@slide {reg_newarea<1>}{112}}
\newlabel{reg_newarea}{{99}{112}{}{Doc-Start}{}}
\@writefile{snm}{\beamer@slide {reg_newarea}{112}}
\@writefile{nav}{\headcommand {\slideentry {0}{0}{101}{112/112}{}{0}}}
\@writefile{nav}{\headcommand {\beamer@framepages {112}{112}}}
\newlabel{reg_peruRD<1>}{{100}{113}{}{Doc-Start}{}}
\@writefile{snm}{\beamer@slide {reg_peruRD<1>}{113}}
\newlabel{reg_peruRD}{{100}{113}{}{Doc-Start}{}}
\@writefile{snm}{\beamer@slide {reg_peruRD}{113}}
\@writefile{nav}{\headcommand {\slideentry {0}{0}{102}{113/113}{}{0}}}
\@writefile{nav}{\headcommand {\beamer@framepages {113}{113}}}
\newlabel{dd_basico_titulos<1>}{{101}{114}{}{Doc-Start}{}}
\@writefile{snm}{\beamer@slide {dd_basico_titulos<1>}{114}}
\newlabel{dd_basico_titulos}{{101}{114}{}{Doc-Start}{}}
\@writefile{snm}{\beamer@slide {dd_basico_titulos}{114}}
\@writefile{nav}{\headcommand {\slideentry {0}{0}{103}{114/114}{}{0}}}
\@writefile{nav}{\headcommand {\beamer@framepages {114}{114}}}
\newlabel{balancestats_inst<1>}{{102}{115}{}{Doc-Start}{}}
\@writefile{snm}{\beamer@slide {balancestats_inst<1>}{115}}
\newlabel{balancestats_inst}{{102}{115}{}{Doc-Start}{}}
\@writefile{snm}{\beamer@slide {balancestats_inst}{115}}
\@writefile{nav}{\headcommand {\slideentry {0}{0}{104}{115/115}{}{0}}}
\@writefile{nav}{\headcommand {\beamer@framepages {115}{115}}}
\newlabel{het_plot<1>}{{103}{116}{}{Doc-Start}{}}
\@writefile{snm}{\beamer@slide {het_plot<1>}{116}}
\newlabel{het_plot}{{103}{116}{}{Doc-Start}{}}
\@writefile{snm}{\beamer@slide {het_plot}{116}}
\@writefile{nav}{\headcommand {\slideentry {0}{0}{105}{116/116}{}{0}}}
\@writefile{nav}{\headcommand {\beamer@framepages {116}{116}}}
\newlabel{reg_het1<1>}{{104}{117}{}{Doc-Start}{}}
\@writefile{snm}{\beamer@slide {reg_het1<1>}{117}}
\newlabel{reg_het1}{{104}{117}{}{Doc-Start}{}}
\@writefile{snm}{\beamer@slide {reg_het1}{117}}
\@writefile{nav}{\headcommand {\slideentry {0}{0}{106}{117/117}{}{0}}}
\@writefile{nav}{\headcommand {\beamer@framepages {117}{117}}}
\newlabel{reg_het2<1>}{{105}{118}{}{Doc-Start}{}}
\@writefile{snm}{\beamer@slide {reg_het2<1>}{118}}
\newlabel{reg_het2}{{105}{118}{}{Doc-Start}{}}
\@writefile{snm}{\beamer@slide {reg_het2}{118}}
\@writefile{nav}{\headcommand {\slideentry {0}{0}{107}{118/118}{}{0}}}
\@writefile{nav}{\headcommand {\beamer@framepages {118}{118}}}
\newlabel{sumstats_healthExp<1>}{{106}{119}{}{Doc-Start}{}}
\@writefile{snm}{\beamer@slide {sumstats_healthExp<1>}{119}}
\newlabel{sumstats_healthExp}{{106}{119}{}{Doc-Start}{}}
\@writefile{snm}{\beamer@slide {sumstats_healthExp}{119}}
\@writefile{nav}{\headcommand {\slideentry {0}{0}{108}{119/119}{}{0}}}
\@writefile{nav}{\headcommand {\beamer@framepages {119}{119}}}
\newlabel{sumstats_healthUps<1>}{{107}{120}{}{Doc-Start}{}}
\@writefile{snm}{\beamer@slide {sumstats_healthUps<1>}{120}}
\newlabel{sumstats_healthUps}{{107}{120}{}{Doc-Start}{}}
\@writefile{snm}{\beamer@slide {sumstats_healthUps}{120}}
\@writefile{nav}{\headcommand {\slideentry {0}{0}{109}{120/120}{}{0}}}
\@writefile{nav}{\headcommand {\beamer@framepages {120}{120}}}
\newlabel{reg_health2<1>}{{108}{121}{}{Doc-Start}{}}
\@writefile{snm}{\beamer@slide {reg_health2<1>}{121}}
\newlabel{reg_health2}{{108}{121}{}{Doc-Start}{}}
\@writefile{snm}{\beamer@slide {reg_health2}{121}}
\@writefile{nav}{\headcommand {\slideentry {0}{0}{110}{121/121}{}{0}}}
\@writefile{nav}{\headcommand {\beamer@framepages {121}{121}}}
\newlabel{reg_povertyRD<1>}{{109}{122}{}{Doc-Start}{}}
\@writefile{snm}{\beamer@slide {reg_povertyRD<1>}{122}}
\newlabel{reg_povertyRD}{{109}{122}{}{Doc-Start}{}}
\@writefile{snm}{\beamer@slide {reg_povertyRD}{122}}
\@writefile{nav}{\headcommand {\slideentry {0}{0}{111}{122/122}{}{0}}}
\@writefile{nav}{\headcommand {\beamer@framepages {122}{122}}}
\newlabel{titlesyear_plot<1>}{{110}{123}{}{Doc-Start}{}}
\@writefile{snm}{\beamer@slide {titlesyear_plot<1>}{123}}
\newlabel{titlesyear_plot}{{110}{123}{}{Doc-Start}{}}
\@writefile{snm}{\beamer@slide {titlesyear_plot}{123}}
\@writefile{nav}{\headcommand {\slideentry {0}{0}{112}{123/123}{}{0}}}
\@writefile{nav}{\headcommand {\beamer@framepages {123}{123}}}
\newlabel{reg_tit2014<1>}{{111}{124}{}{Doc-Start}{}}
\@writefile{snm}{\beamer@slide {reg_tit2014<1>}{124}}
\newlabel{reg_tit2014}{{111}{124}{}{Doc-Start}{}}
\@writefile{snm}{\beamer@slide {reg_tit2014}{124}}
\@writefile{nav}{\headcommand {\slideentry {0}{0}{113}{124/124}{}{0}}}
\@writefile{nav}{\headcommand {\beamer@framepages {124}{124}}}
\newlabel{reg_prod_raw<1>}{{112}{125}{}{Doc-Start}{}}
\@writefile{snm}{\beamer@slide {reg_prod_raw<1>}{125}}
\newlabel{reg_prod_raw}{{112}{125}{}{Doc-Start}{}}
\@writefile{snm}{\beamer@slide {reg_prod_raw}{125}}
\@writefile{nav}{\headcommand {\slideentry {0}{0}{114}{125/125}{}{0}}}
\@writefile{nav}{\headcommand {\beamer@framepages {125}{125}}}
\newlabel{eqn_health<1>}{{113}{126}{}{Doc-Start}{}}
\@writefile{snm}{\beamer@slide {eqn_health<1>}{126}}
\newlabel{eqn_health}{{113}{126}{}{Doc-Start}{}}
\@writefile{snm}{\beamer@slide {eqn_health}{126}}
\@writefile{nav}{\headcommand {\slideentry {0}{0}{115}{126/126}{}{0}}}
\@writefile{nav}{\headcommand {\beamer@framepages {126}{126}}}
\@writefile{nav}{\headcommand {\slideentry {0}{0}{116}{127/127}{}{0}}}
\@writefile{nav}{\headcommand {\beamer@framepages {127}{127}}}
\@writefile{nav}{\headcommand {\slideentry {0}{0}{117}{128/128}{}{0}}}
\@writefile{nav}{\headcommand {\beamer@framepages {128}{128}}}
\@writefile{nav}{\headcommand {\slideentry {0}{0}{118}{129/129}{}{0}}}
\@writefile{nav}{\headcommand {\beamer@framepages {129}{129}}}
\@writefile{nav}{\headcommand {\slideentry {0}{0}{119}{130/130}{}{0}}}
\@writefile{nav}{\headcommand {\beamer@framepages {130}{130}}}
\bibstyle{apacite}
\bibdata{bibille}
\@writefile{nav}{\headcommand {\slideentry {0}{0}{120}{131/131}{}{0}}}
\@writefile{nav}{\headcommand {\beamer@framepages {131}{131}}}
\@writefile{nav}{\headcommand {\beamer@partpages {1}{131}}}
\@writefile{nav}{\headcommand {\beamer@subsectionpages {1}{131}}}
\@writefile{nav}{\headcommand {\beamer@sectionpages {1}{131}}}
\@writefile{nav}{\headcommand {\beamer@documentpages {131}}}
\@writefile{nav}{\headcommand {\def \inserttotalframenumber {64}}}
