\relax 
\providecommand\hyper@newdestlabel[2]{}
\providecommand\HyperFirstAtBeginDocument{\AtBeginDocument}
\HyperFirstAtBeginDocument{\ifx\hyper@anchor\@undefined
\global\let\oldcontentsline\contentsline
\gdef\contentsline#1#2#3#4{\oldcontentsline{#1}{#2}{#3}}
\global\let\oldnewlabel\newlabel
\gdef\newlabel#1#2{\newlabelxx{#1}#2}
\gdef\newlabelxx#1#2#3#4#5#6{\oldnewlabel{#1}{{#2}{#3}}}
\AtEndDocument{\ifx\hyper@anchor\@undefined
\let\contentsline\oldcontentsline
\let\newlabel\oldnewlabel
\fi}
\fi}
\global\let\hyper@last\relax 
\gdef\HyperFirstAtBeginDocument#1{#1}
\providecommand\HyField@AuxAddToFields[1]{}
\providecommand\HyField@AuxAddToCoFields[2]{}
\providecommand \oddpage@label [2]{}
\select@language{english}
\@writefile{toc}{\select@language{english}}
\@writefile{lof}{\select@language{english}}
\@writefile{lot}{\select@language{english}}
\@writefile{nav}{\headcommand {\slideentry {0}{0}{1}{1/1}{}{0}}}
\@writefile{nav}{\headcommand {\beamer@framepages {1}{1}}}
\@writefile{nav}{\headcommand {\slideentry {0}{0}{2}{2/4}{}{0}}}
\@writefile{nav}{\headcommand {\beamer@framepages {2}{4}}}
\@writefile{nav}{\headcommand {\slideentry {0}{0}{3}{5/6}{}{0}}}
\@writefile{nav}{\headcommand {\beamer@framepages {5}{6}}}
\@writefile{nav}{\headcommand {\slideentry {0}{0}{4}{7/8}{}{0}}}
\@writefile{nav}{\headcommand {\beamer@framepages {7}{8}}}
\@writefile{nav}{\headcommand {\slideentry {0}{0}{5}{9/9}{}{0}}}
\@writefile{nav}{\headcommand {\beamer@framepages {9}{9}}}
\newlabel{context<1>}{{6}{10}{}{Doc-Start}{}}
\@writefile{snm}{\beamer@slide {context<1>}{10}}
\newlabel{context}{{6}{10}{}{Doc-Start}{}}
\@writefile{snm}{\beamer@slide {context}{10}}
\newlabel{context<2>}{{6}{11}{}{Doc-Start}{}}
\@writefile{snm}{\beamer@slide {context<2>}{11}}
\@writefile{nav}{\headcommand {\slideentry {0}{0}{6}{10/11}{}{0}}}
\@writefile{nav}{\headcommand {\beamer@framepages {10}{11}}}
\@writefile{nav}{\headcommand {\slideentry {0}{0}{7}{12/16}{}{0}}}
\@writefile{nav}{\headcommand {\beamer@framepages {12}{16}}}
\newlabel{literature<1>}{{8}{17}{}{Doc-Start}{}}
\@writefile{snm}{\beamer@slide {literature<1>}{17}}
\newlabel{literature}{{8}{17}{}{Doc-Start}{}}
\@writefile{snm}{\beamer@slide {literature}{17}}
\newlabel{literature<2>}{{8}{18}{}{Doc-Start}{}}
\@writefile{snm}{\beamer@slide {literature<2>}{18}}
\newlabel{literature<3>}{{8}{19}{}{Doc-Start}{}}
\@writefile{snm}{\beamer@slide {literature<3>}{19}}
\newlabel{literature<4>}{{8}{20}{}{Doc-Start}{}}
\@writefile{snm}{\beamer@slide {literature<4>}{20}}
\newlabel{literature<5>}{{8}{21}{}{Doc-Start}{}}
\@writefile{snm}{\beamer@slide {literature<5>}{21}}
\newlabel{literature<6>}{{8}{22}{}{Doc-Start}{}}
\@writefile{snm}{\beamer@slide {literature<6>}{22}}
\@writefile{nav}{\headcommand {\slideentry {0}{0}{8}{17/22}{}{0}}}
\@writefile{nav}{\headcommand {\beamer@framepages {17}{22}}}
\@writefile{nav}{\headcommand {\slideentry {0}{0}{9}{23/23}{}{0}}}
\@writefile{nav}{\headcommand {\beamer@framepages {23}{23}}}
\newlabel{thmod<1>}{{10}{24}{}{Doc-Start}{}}
\@writefile{snm}{\beamer@slide {thmod<1>}{24}}
\newlabel{thmod}{{10}{24}{}{Doc-Start}{}}
\@writefile{snm}{\beamer@slide {thmod}{24}}
\@writefile{nav}{\headcommand {\slideentry {0}{0}{10}{24/24}{}{0}}}
\@writefile{nav}{\headcommand {\beamer@framepages {24}{24}}}
\newlabel{th_preds12<1>}{{11}{25}{}{Doc-Start}{}}
\@writefile{snm}{\beamer@slide {th_preds12<1>}{25}}
\newlabel{th_preds12}{{11}{25}{}{Doc-Start}{}}
\@writefile{snm}{\beamer@slide {th_preds12}{25}}
\@writefile{nav}{\headcommand {\slideentry {0}{0}{11}{25/25}{}{0}}}
\@writefile{nav}{\headcommand {\beamer@framepages {25}{25}}}
\newlabel{th_preds34<1>}{{12}{26}{}{Doc-Start}{}}
\@writefile{snm}{\beamer@slide {th_preds34<1>}{26}}
\newlabel{th_preds34}{{12}{26}{}{Doc-Start}{}}
\@writefile{snm}{\beamer@slide {th_preds34}{26}}
\@writefile{nav}{\headcommand {\slideentry {0}{0}{12}{26/26}{}{0}}}
\@writefile{nav}{\headcommand {\beamer@framepages {26}{26}}}
\newlabel{graph_prepare<1>}{{13}{27}{}{Doc-Start}{}}
\@writefile{snm}{\beamer@slide {graph_prepare<1>}{27}}
\newlabel{graph_prepare}{{13}{27}{}{Doc-Start}{}}
\@writefile{snm}{\beamer@slide {graph_prepare}{27}}
\@writefile{nav}{\headcommand {\slideentry {0}{0}{13}{27/27}{}{0}}}
\@writefile{nav}{\headcommand {\beamer@framepages {27}{27}}}
\newlabel{training_testing<1>}{{14}{28}{}{Doc-Start}{}}
\@writefile{snm}{\beamer@slide {training_testing<1>}{28}}
\newlabel{training_testing}{{14}{28}{}{Doc-Start}{}}
\@writefile{snm}{\beamer@slide {training_testing}{28}}
\@writefile{nav}{\headcommand {\slideentry {0}{0}{14}{28/28}{}{0}}}
\@writefile{nav}{\headcommand {\beamer@framepages {28}{28}}}
\newlabel{graph_predlegal<1>}{{15}{29}{}{Doc-Start}{}}
\@writefile{snm}{\beamer@slide {graph_predlegal<1>}{29}}
\newlabel{graph_predlegal}{{15}{29}{}{Doc-Start}{}}
\@writefile{snm}{\beamer@slide {graph_predlegal}{29}}
\@writefile{nav}{\headcommand {\slideentry {0}{0}{15}{29/29}{}{0}}}
\@writefile{nav}{\headcommand {\beamer@framepages {29}{29}}}
\@writefile{nav}{\headcommand {\slideentry {0}{0}{16}{30/30}{}{0}}}
\@writefile{nav}{\headcommand {\beamer@framepages {30}{30}}}
\@writefile{nav}{\headcommand {\slideentry {0}{0}{17}{31/31}{}{0}}}
\@writefile{nav}{\headcommand {\beamer@framepages {31}{31}}}
\@writefile{nav}{\headcommand {\slideentry {0}{0}{18}{32/32}{}{0}}}
\@writefile{nav}{\headcommand {\beamer@framepages {32}{32}}}
\@writefile{nav}{\headcommand {\slideentry {0}{0}{19}{33/33}{}{0}}}
\@writefile{nav}{\headcommand {\beamer@framepages {33}{33}}}
\@writefile{nav}{\headcommand {\slideentry {0}{0}{20}{34/34}{}{0}}}
\@writefile{nav}{\headcommand {\beamer@framepages {34}{34}}}
\newlabel{het_plot<1>}{{21}{35}{}{Doc-Start}{}}
\@writefile{snm}{\beamer@slide {het_plot<1>}{35}}
\newlabel{het_plot}{{21}{35}{}{Doc-Start}{}}
\@writefile{snm}{\beamer@slide {het_plot}{35}}
\@writefile{nav}{\headcommand {\slideentry {0}{0}{21}{35/35}{}{0}}}
\@writefile{nav}{\headcommand {\beamer@framepages {35}{35}}}
\newlabel{reg_main<1>}{{22}{36}{}{Doc-Start}{}}
\@writefile{snm}{\beamer@slide {reg_main<1>}{36}}
\newlabel{reg_main}{{22}{36}{}{Doc-Start}{}}
\@writefile{snm}{\beamer@slide {reg_main}{36}}
\@writefile{nav}{\headcommand {\slideentry {0}{0}{22}{36/36}{}{0}}}
\@writefile{nav}{\headcommand {\beamer@framepages {36}{36}}}
\@writefile{nav}{\headcommand {\slideentry {0}{0}{23}{37/37}{}{0}}}
\@writefile{nav}{\headcommand {\beamer@framepages {37}{37}}}
\@writefile{nav}{\headcommand {\slideentry {0}{0}{24}{38/38}{}{0}}}
\@writefile{nav}{\headcommand {\beamer@framepages {38}{38}}}
\newlabel{reg_healthIVfs<1>}{{25}{39}{}{Doc-Start}{}}
\@writefile{snm}{\beamer@slide {reg_healthIVfs<1>}{39}}
\newlabel{reg_healthIVfs}{{25}{39}{}{Doc-Start}{}}
\@writefile{snm}{\beamer@slide {reg_healthIVfs}{39}}
\@writefile{nav}{\headcommand {\slideentry {0}{0}{25}{39/39}{}{0}}}
\@writefile{nav}{\headcommand {\beamer@framepages {39}{39}}}
\newlabel{reg_healthIVnsm<1>}{{26}{40}{}{Doc-Start}{}}
\@writefile{snm}{\beamer@slide {reg_healthIVnsm<1>}{40}}
\newlabel{reg_healthIVnsm}{{26}{40}{}{Doc-Start}{}}
\@writefile{snm}{\beamer@slide {reg_healthIVnsm}{40}}
\@writefile{nav}{\headcommand {\slideentry {0}{0}{26}{40/40}{}{0}}}
\@writefile{nav}{\headcommand {\beamer@framepages {40}{40}}}
\@writefile{nav}{\headcommand {\slideentry {0}{0}{27}{41/41}{}{0}}}
\@writefile{nav}{\headcommand {\beamer@framepages {41}{41}}}
\@writefile{nav}{\headcommand {\slideentry {0}{0}{28}{42/42}{}{0}}}
\@writefile{nav}{\headcommand {\beamer@framepages {42}{42}}}
\newlabel{outline<1>}{{28}{43}{}{Doc-Start}{}}
\@writefile{snm}{\beamer@slide {outline<1>}{43}}
\newlabel{outline}{{28}{43}{}{Doc-Start}{}}
\@writefile{snm}{\beamer@slide {outline}{43}}
\@writefile{nav}{\headcommand {\slideentry {0}{0}{29}{43/43}{}{0}}}
\@writefile{nav}{\headcommand {\beamer@framepages {43}{43}}}
\newlabel{mining_Col<1>}{{29}{44}{}{Doc-Start}{}}
\@writefile{snm}{\beamer@slide {mining_Col<1>}{44}}
\newlabel{mining_Col}{{29}{44}{}{Doc-Start}{}}
\@writefile{snm}{\beamer@slide {mining_Col}{44}}
\@writefile{nav}{\headcommand {\slideentry {0}{0}{30}{44/44}{}{0}}}
\@writefile{nav}{\headcommand {\beamer@framepages {44}{44}}}
\newlabel{details_reform<1>}{{30}{45}{}{Doc-Start}{}}
\@writefile{snm}{\beamer@slide {details_reform<1>}{45}}
\newlabel{details_reform}{{30}{45}{}{Doc-Start}{}}
\@writefile{snm}{\beamer@slide {details_reform}{45}}
\@writefile{nav}{\headcommand {\slideentry {0}{0}{31}{45/45}{}{0}}}
\@writefile{nav}{\headcommand {\beamer@framepages {45}{45}}}
\newlabel{outline2<1>}{{31}{46}{}{Doc-Start}{}}
\@writefile{snm}{\beamer@slide {outline2<1>}{46}}
\newlabel{outline2}{{31}{46}{}{Doc-Start}{}}
\@writefile{snm}{\beamer@slide {outline2}{46}}
\@writefile{nav}{\headcommand {\slideentry {0}{0}{32}{46/46}{}{0}}}
\@writefile{nav}{\headcommand {\beamer@framepages {46}{46}}}
\newlabel{model_overview<1>}{{32}{47}{}{Doc-Start}{}}
\@writefile{snm}{\beamer@slide {model_overview<1>}{47}}
\newlabel{model_overview}{{32}{47}{}{Doc-Start}{}}
\@writefile{snm}{\beamer@slide {model_overview}{47}}
\newlabel{model_overview<2>}{{32}{48}{}{Doc-Start}{}}
\@writefile{snm}{\beamer@slide {model_overview<2>}{48}}
\newlabel{model_overview<3>}{{32}{49}{}{Doc-Start}{}}
\@writefile{snm}{\beamer@slide {model_overview<3>}{49}}
\@writefile{nav}{\headcommand {\slideentry {0}{0}{33}{47/49}{}{0}}}
\@writefile{nav}{\headcommand {\beamer@framepages {47}{49}}}
\newlabel{thmod<1>}{{33}{50}{}{Doc-Start}{}}
\@writefile{snm}{\beamer@slide {thmod<1>}{50}}
\newlabel{thmod}{{33}{50}{}{Doc-Start}{}}
\@writefile{snm}{\beamer@slide {thmod}{50}}
\@writefile{nav}{\headcommand {\slideentry {0}{0}{34}{50/50}{}{0}}}
\@writefile{nav}{\headcommand {\beamer@framepages {50}{50}}}
\newlabel{th_preds12<1>}{{34}{51}{}{Doc-Start}{}}
\@writefile{snm}{\beamer@slide {th_preds12<1>}{51}}
\newlabel{th_preds12}{{34}{51}{}{Doc-Start}{}}
\@writefile{snm}{\beamer@slide {th_preds12}{51}}
\@writefile{nav}{\headcommand {\slideentry {0}{0}{35}{51/51}{}{0}}}
\@writefile{nav}{\headcommand {\beamer@framepages {51}{51}}}
\newlabel{model_linear<1>}{{35}{52}{}{Doc-Start}{}}
\@writefile{snm}{\beamer@slide {model_linear<1>}{52}}
\newlabel{model_linear}{{35}{52}{}{Doc-Start}{}}
\@writefile{snm}{\beamer@slide {model_linear}{52}}
\@writefile{nav}{\headcommand {\slideentry {0}{0}{36}{52/52}{}{0}}}
\@writefile{nav}{\headcommand {\beamer@framepages {52}{52}}}
\newlabel{model_convex<1>}{{36}{53}{}{Doc-Start}{}}
\@writefile{snm}{\beamer@slide {model_convex<1>}{53}}
\newlabel{model_convex}{{36}{53}{}{Doc-Start}{}}
\@writefile{snm}{\beamer@slide {model_convex}{53}}
\@writefile{nav}{\headcommand {\slideentry {0}{0}{37}{53/53}{}{0}}}
\@writefile{nav}{\headcommand {\beamer@framepages {53}{53}}}
\@writefile{nav}{\headcommand {\slideentry {0}{0}{38}{54/54}{}{0}}}
\@writefile{nav}{\headcommand {\beamer@framepages {54}{54}}}
\newlabel{prepare<1>}{{38}{55}{}{Doc-Start}{}}
\@writefile{snm}{\beamer@slide {prepare<1>}{55}}
\newlabel{prepare}{{38}{55}{}{Doc-Start}{}}
\@writefile{snm}{\beamer@slide {prepare}{55}}
\@writefile{nav}{\headcommand {\slideentry {0}{0}{39}{55/55}{}{0}}}
\@writefile{nav}{\headcommand {\beamer@framepages {55}{55}}}
\newlabel{graph_prepare<1>}{{39}{56}{}{Doc-Start}{}}
\@writefile{snm}{\beamer@slide {graph_prepare<1>}{56}}
\newlabel{graph_prepare}{{39}{56}{}{Doc-Start}{}}
\@writefile{snm}{\beamer@slide {graph_prepare}{56}}
\@writefile{nav}{\headcommand {\slideentry {0}{0}{40}{56/56}{}{0}}}
\@writefile{nav}{\headcommand {\beamer@framepages {56}{56}}}
\newlabel{challenges<1>}{{40}{57}{}{Doc-Start}{}}
\@writefile{snm}{\beamer@slide {challenges<1>}{57}}
\newlabel{challenges}{{40}{57}{}{Doc-Start}{}}
\@writefile{snm}{\beamer@slide {challenges}{57}}
\@writefile{nav}{\headcommand {\slideentry {0}{0}{41}{57/57}{}{0}}}
\@writefile{nav}{\headcommand {\beamer@framepages {57}{57}}}
\newlabel{whatRF<1>}{{41}{58}{}{Doc-Start}{}}
\@writefile{snm}{\beamer@slide {whatRF<1>}{58}}
\newlabel{whatRF}{{41}{58}{}{Doc-Start}{}}
\@writefile{snm}{\beamer@slide {whatRF}{58}}
\@writefile{nav}{\headcommand {\slideentry {0}{0}{42}{58/58}{}{0}}}
\@writefile{nav}{\headcommand {\beamer@framepages {58}{58}}}
\newlabel{whatRF<1>}{{42}{59}{}{Doc-Start}{}}
\@writefile{snm}{\beamer@slide {whatRF<1>}{59}}
\newlabel{whatRF}{{42}{59}{}{Doc-Start}{}}
\@writefile{snm}{\beamer@slide {whatRF}{59}}
\@writefile{nav}{\headcommand {\slideentry {0}{0}{43}{59/59}{}{0}}}
\@writefile{nav}{\headcommand {\beamer@framepages {59}{59}}}
\@writefile{nav}{\headcommand {\slideentry {0}{0}{44}{60/60}{}{0}}}
\@writefile{nav}{\headcommand {\beamer@framepages {60}{60}}}
\newlabel{ROC<1>}{{44}{61}{}{Doc-Start}{}}
\@writefile{snm}{\beamer@slide {ROC<1>}{61}}
\newlabel{ROC}{{44}{61}{}{Doc-Start}{}}
\@writefile{snm}{\beamer@slide {ROC}{61}}
\@writefile{nav}{\headcommand {\slideentry {0}{0}{45}{61/61}{}{0}}}
\@writefile{nav}{\headcommand {\beamer@framepages {61}{61}}}
\@writefile{nav}{\headcommand {\slideentry {0}{0}{46}{62/62}{}{0}}}
\@writefile{nav}{\headcommand {\beamer@framepages {62}{62}}}
\newlabel{graph_predlegal<1>}{{46}{63}{}{Doc-Start}{}}
\@writefile{snm}{\beamer@slide {graph_predlegal<1>}{63}}
\newlabel{graph_predlegal}{{46}{63}{}{Doc-Start}{}}
\@writefile{snm}{\beamer@slide {graph_predlegal}{63}}
\@writefile{nav}{\headcommand {\slideentry {0}{0}{47}{63/63}{}{0}}}
\@writefile{nav}{\headcommand {\beamer@framepages {63}{63}}}
\newlabel{dd_basico_mined_ally<1>}{{47}{64}{}{Doc-Start}{}}
\@writefile{snm}{\beamer@slide {dd_basico_mined_ally<1>}{64}}
\newlabel{dd_basico_mined_ally}{{47}{64}{}{Doc-Start}{}}
\@writefile{snm}{\beamer@slide {dd_basico_mined_ally}{64}}
\@writefile{nav}{\headcommand {\slideentry {0}{0}{48}{64/64}{}{0}}}
\@writefile{nav}{\headcommand {\beamer@framepages {64}{64}}}
\@writefile{nav}{\headcommand {\slideentry {0}{0}{49}{65/65}{}{0}}}
\@writefile{nav}{\headcommand {\beamer@framepages {65}{65}}}
\@writefile{nav}{\headcommand {\slideentry {0}{0}{50}{66/66}{}{0}}}
\@writefile{nav}{\headcommand {\beamer@framepages {66}{66}}}
\@writefile{nav}{\headcommand {\slideentry {0}{0}{51}{67/67}{}{0}}}
\@writefile{nav}{\headcommand {\beamer@framepages {67}{67}}}
\newlabel{reg_newarea<1>}{{51}{68}{}{Doc-Start}{}}
\@writefile{snm}{\beamer@slide {reg_newarea<1>}{68}}
\newlabel{reg_newarea}{{51}{68}{}{Doc-Start}{}}
\@writefile{snm}{\beamer@slide {reg_newarea}{68}}
\@writefile{nav}{\headcommand {\slideentry {0}{0}{52}{68/68}{}{0}}}
\@writefile{nav}{\headcommand {\beamer@framepages {68}{68}}}
\newlabel{reg_main<1>}{{52}{69}{}{Doc-Start}{}}
\@writefile{snm}{\beamer@slide {reg_main<1>}{69}}
\newlabel{reg_main}{{52}{69}{}{Doc-Start}{}}
\@writefile{snm}{\beamer@slide {reg_main}{69}}
\@writefile{nav}{\headcommand {\slideentry {0}{0}{53}{69/69}{}{0}}}
\@writefile{nav}{\headcommand {\beamer@framepages {69}{69}}}
\newlabel{intro_hetins<1>}{{53}{70}{}{Doc-Start}{}}
\@writefile{snm}{\beamer@slide {intro_hetins<1>}{70}}
\newlabel{intro_hetins}{{53}{70}{}{Doc-Start}{}}
\@writefile{snm}{\beamer@slide {intro_hetins}{70}}
\@writefile{nav}{\headcommand {\slideentry {0}{0}{54}{70/70}{}{0}}}
\@writefile{nav}{\headcommand {\beamer@framepages {70}{70}}}
\newlabel{reg_hetins<1>}{{54}{71}{}{Doc-Start}{}}
\@writefile{snm}{\beamer@slide {reg_hetins<1>}{71}}
\newlabel{reg_hetins}{{54}{71}{}{Doc-Start}{}}
\@writefile{snm}{\beamer@slide {reg_hetins}{71}}
\@writefile{nav}{\headcommand {\slideentry {0}{0}{55}{71/71}{}{0}}}
\@writefile{nav}{\headcommand {\beamer@framepages {71}{71}}}
\newlabel{reg_wl<1>}{{55}{72}{}{Doc-Start}{}}
\@writefile{snm}{\beamer@slide {reg_wl<1>}{72}}
\newlabel{reg_wl}{{55}{72}{}{Doc-Start}{}}
\@writefile{snm}{\beamer@slide {reg_wl}{72}}
\@writefile{nav}{\headcommand {\slideentry {0}{0}{56}{72/72}{}{0}}}
\@writefile{nav}{\headcommand {\beamer@framepages {72}{72}}}
\newlabel{reg_prod<1>}{{56}{73}{}{Doc-Start}{}}
\@writefile{snm}{\beamer@slide {reg_prod<1>}{73}}
\newlabel{reg_prod}{{56}{73}{}{Doc-Start}{}}
\@writefile{snm}{\beamer@slide {reg_prod}{73}}
\@writefile{nav}{\headcommand {\slideentry {0}{0}{57}{73/73}{}{0}}}
\@writefile{nav}{\headcommand {\beamer@framepages {73}{73}}}
\@writefile{nav}{\headcommand {\slideentry {0}{0}{58}{74/74}{}{0}}}
\@writefile{nav}{\headcommand {\beamer@framepages {74}{74}}}
\@writefile{nav}{\headcommand {\slideentry {0}{0}{59}{75/75}{}{0}}}
\@writefile{nav}{\headcommand {\beamer@framepages {75}{75}}}
\@writefile{nav}{\headcommand {\slideentry {0}{0}{60}{76/76}{}{0}}}
\@writefile{nav}{\headcommand {\beamer@framepages {76}{76}}}
\newlabel{context_health<1>}{{60}{77}{}{Doc-Start}{}}
\@writefile{snm}{\beamer@slide {context_health<1>}{77}}
\newlabel{context_health}{{60}{77}{}{Doc-Start}{}}
\@writefile{snm}{\beamer@slide {context_health}{77}}
\@writefile{nav}{\headcommand {\slideentry {0}{0}{61}{77/77}{}{0}}}
\@writefile{nav}{\headcommand {\beamer@framepages {77}{77}}}
\@writefile{nav}{\headcommand {\slideentry {0}{0}{62}{78/78}{}{0}}}
\@writefile{nav}{\headcommand {\beamer@framepages {78}{78}}}
\newlabel{reg_health<1>}{{62}{79}{}{Doc-Start}{}}
\@writefile{snm}{\beamer@slide {reg_health<1>}{79}}
\newlabel{reg_health}{{62}{79}{}{Doc-Start}{}}
\@writefile{snm}{\beamer@slide {reg_health}{79}}
\@writefile{nav}{\headcommand {\slideentry {0}{0}{63}{79/79}{}{0}}}
\@writefile{nav}{\headcommand {\beamer@framepages {79}{79}}}
\newlabel{reg_healthIVfs<1>}{{63}{80}{}{Doc-Start}{}}
\@writefile{snm}{\beamer@slide {reg_healthIVfs<1>}{80}}
\newlabel{reg_healthIVfs}{{63}{80}{}{Doc-Start}{}}
\@writefile{snm}{\beamer@slide {reg_healthIVfs}{80}}
\@writefile{nav}{\headcommand {\slideentry {0}{0}{64}{80/80}{}{0}}}
\@writefile{nav}{\headcommand {\beamer@framepages {80}{80}}}
\newlabel{reg_healthIVnsm<1>}{{64}{81}{}{Doc-Start}{}}
\@writefile{snm}{\beamer@slide {reg_healthIVnsm<1>}{81}}
\newlabel{reg_healthIVnsm}{{64}{81}{}{Doc-Start}{}}
\@writefile{snm}{\beamer@slide {reg_healthIVnsm}{81}}
\@writefile{nav}{\headcommand {\slideentry {0}{0}{65}{81/81}{}{0}}}
\@writefile{nav}{\headcommand {\beamer@framepages {81}{81}}}
\@writefile{nav}{\headcommand {\slideentry {0}{0}{66}{82/82}{}{0}}}
\@writefile{nav}{\headcommand {\beamer@framepages {82}{82}}}
\newlabel{discussion<1>}{{66}{83}{}{Doc-Start}{}}
\@writefile{snm}{\beamer@slide {discussion<1>}{83}}
\newlabel{discussion}{{66}{83}{}{Doc-Start}{}}
\@writefile{snm}{\beamer@slide {discussion}{83}}
\@writefile{nav}{\headcommand {\slideentry {0}{0}{67}{83/83}{}{0}}}
\@writefile{nav}{\headcommand {\beamer@framepages {83}{83}}}
\newlabel{costreform<1>}{{67}{84}{}{Doc-Start}{}}
\@writefile{snm}{\beamer@slide {costreform<1>}{84}}
\newlabel{costreform}{{67}{84}{}{Doc-Start}{}}
\@writefile{snm}{\beamer@slide {costreform}{84}}
\@writefile{nav}{\headcommand {\slideentry {0}{0}{68}{84/84}{}{0}}}
\@writefile{nav}{\headcommand {\beamer@framepages {84}{84}}}
\newlabel{healthcostreform<1>}{{68}{85}{}{Doc-Start}{}}
\@writefile{snm}{\beamer@slide {healthcostreform<1>}{85}}
\newlabel{healthcostreform}{{68}{85}{}{Doc-Start}{}}
\@writefile{snm}{\beamer@slide {healthcostreform}{85}}
\@writefile{nav}{\headcommand {\slideentry {0}{0}{69}{85/85}{}{0}}}
\@writefile{nav}{\headcommand {\beamer@framepages {85}{85}}}
\@writefile{nav}{\headcommand {\slideentry {0}{0}{70}{86/86}{}{0}}}
\@writefile{nav}{\headcommand {\beamer@framepages {86}{86}}}
\@writefile{nav}{\headcommand {\slideentry {0}{0}{71}{87/87}{}{0}}}
\@writefile{nav}{\headcommand {\beamer@framepages {87}{87}}}
\newlabel{reg_titulos<1>}{{70}{88}{}{Doc-Start}{}}
\@writefile{snm}{\beamer@slide {reg_titulos<1>}{88}}
\newlabel{reg_titulos}{{70}{88}{}{Doc-Start}{}}
\@writefile{snm}{\beamer@slide {reg_titulos}{88}}
\@writefile{nav}{\headcommand {\slideentry {0}{0}{72}{88/88}{}{0}}}
\@writefile{nav}{\headcommand {\beamer@framepages {88}{88}}}
\newlabel{roy_ineq<1>}{{71}{89}{}{Doc-Start}{}}
\@writefile{snm}{\beamer@slide {roy_ineq<1>}{89}}
\newlabel{roy_ineq}{{71}{89}{}{Doc-Start}{}}
\@writefile{snm}{\beamer@slide {roy_ineq}{89}}
\newlabel{Circle size proportional to population of the municipality}{{71}{89}{}{Doc-Start}{}}
\@writefile{snm}{\beamer@slide {Circle size proportional to population of the municipality}{89}}
\@writefile{nav}{\headcommand {\slideentry {0}{0}{73}{89/89}{}{0}}}
\@writefile{nav}{\headcommand {\beamer@framepages {89}{89}}}
\newlabel{formula<1>}{{72}{90}{}{Doc-Start}{}}
\@writefile{snm}{\beamer@slide {formula<1>}{90}}
\newlabel{formula}{{72}{90}{}{Doc-Start}{}}
\@writefile{snm}{\beamer@slide {formula}{90}}
\@writefile{nav}{\headcommand {\slideentry {0}{0}{74}{90/90}{}{0}}}
\@writefile{nav}{\headcommand {\beamer@framepages {90}{90}}}
\newlabel{example_wl<1>}{{73}{91}{}{Doc-Start}{}}
\@writefile{snm}{\beamer@slide {example_wl<1>}{91}}
\newlabel{example_wl}{{73}{91}{}{Doc-Start}{}}
\@writefile{snm}{\beamer@slide {example_wl}{91}}
\@writefile{nav}{\headcommand {\slideentry {0}{0}{75}{91/91}{}{0}}}
\@writefile{nav}{\headcommand {\beamer@framepages {91}{91}}}
\newlabel{graph_beta<1>}{{74}{92}{}{Doc-Start}{}}
\@writefile{snm}{\beamer@slide {graph_beta<1>}{92}}
\newlabel{graph_beta}{{74}{92}{}{Doc-Start}{}}
\@writefile{snm}{\beamer@slide {graph_beta}{92}}
\@writefile{nav}{\headcommand {\slideentry {0}{0}{76}{92/92}{}{0}}}
\@writefile{nav}{\headcommand {\beamer@framepages {92}{92}}}
\newlabel{graph_Pr<1>}{{75}{93}{}{Doc-Start}{}}
\@writefile{snm}{\beamer@slide {graph_Pr<1>}{93}}
\newlabel{graph_Pr}{{75}{93}{}{Doc-Start}{}}
\@writefile{snm}{\beamer@slide {graph_Pr}{93}}
\@writefile{nav}{\headcommand {\slideentry {0}{0}{77}{93/93}{}{0}}}
\@writefile{nav}{\headcommand {\beamer@framepages {93}{93}}}
\newlabel{thmod_prof<1>}{{76}{94}{}{Doc-Start}{}}
\@writefile{snm}{\beamer@slide {thmod_prof<1>}{94}}
\newlabel{thmod_prof}{{76}{94}{}{Doc-Start}{}}
\@writefile{snm}{\beamer@slide {thmod_prof}{94}}
\@writefile{nav}{\headcommand {\slideentry {0}{0}{78}{94/94}{}{0}}}
\@writefile{nav}{\headcommand {\beamer@framepages {94}{94}}}
\newlabel{model_parameters<1>}{{77}{95}{}{Doc-Start}{}}
\@writefile{snm}{\beamer@slide {model_parameters<1>}{95}}
\newlabel{model_parameters}{{77}{95}{}{Doc-Start}{}}
\@writefile{snm}{\beamer@slide {model_parameters}{95}}
\@writefile{nav}{\headcommand {\slideentry {0}{0}{79}{95/95}{}{0}}}
\@writefile{nav}{\headcommand {\beamer@framepages {95}{95}}}
\newlabel{model_f<1>}{{78}{96}{}{Doc-Start}{}}
\@writefile{snm}{\beamer@slide {model_f<1>}{96}}
\newlabel{model_f}{{78}{96}{}{Doc-Start}{}}
\@writefile{snm}{\beamer@slide {model_f}{96}}
\@writefile{nav}{\headcommand {\slideentry {0}{0}{80}{96/96}{}{0}}}
\@writefile{nav}{\headcommand {\beamer@framepages {96}{96}}}
\newlabel{remove_clouds<1>}{{79}{97}{}{Doc-Start}{}}
\@writefile{snm}{\beamer@slide {remove_clouds<1>}{97}}
\newlabel{remove_clouds}{{79}{97}{}{Doc-Start}{}}
\@writefile{snm}{\beamer@slide {remove_clouds}{97}}
\@writefile{nav}{\headcommand {\slideentry {0}{0}{81}{97/97}{}{0}}}
\@writefile{nav}{\headcommand {\beamer@framepages {97}{97}}}
\newlabel{balancestats_censed<1>}{{80}{98}{}{Doc-Start}{}}
\@writefile{snm}{\beamer@slide {balancestats_censed<1>}{98}}
\newlabel{balancestats_censed}{{80}{98}{}{Doc-Start}{}}
\@writefile{snm}{\beamer@slide {balancestats_censed}{98}}
\@writefile{nav}{\headcommand {\slideentry {0}{0}{82}{98/98}{}{0}}}
\@writefile{nav}{\headcommand {\beamer@framepages {98}{98}}}
\newlabel{reg_vs_trees<1>}{{81}{99}{}{Doc-Start}{}}
\@writefile{snm}{\beamer@slide {reg_vs_trees<1>}{99}}
\newlabel{reg_vs_trees}{{81}{99}{}{Doc-Start}{}}
\@writefile{snm}{\beamer@slide {reg_vs_trees}{99}}
\@writefile{nav}{\headcommand {\slideentry {0}{0}{83}{99/99}{}{0}}}
\@writefile{nav}{\headcommand {\beamer@framepages {99}{99}}}
\newlabel{varimportance<1>}{{82}{100}{}{Doc-Start}{}}
\@writefile{snm}{\beamer@slide {varimportance<1>}{100}}
\newlabel{varimportance}{{82}{100}{}{Doc-Start}{}}
\@writefile{snm}{\beamer@slide {varimportance}{100}}
\@writefile{nav}{\headcommand {\slideentry {0}{0}{84}{100/100}{}{0}}}
\@writefile{nav}{\headcommand {\beamer@framepages {100}{100}}}
\newlabel{erroranal<1>}{{83}{101}{}{Doc-Start}{}}
\@writefile{snm}{\beamer@slide {erroranal<1>}{101}}
\newlabel{erroranal}{{83}{101}{}{Doc-Start}{}}
\@writefile{snm}{\beamer@slide {erroranal}{101}}
\@writefile{nav}{\headcommand {\slideentry {0}{0}{85}{101/101}{}{0}}}
\@writefile{nav}{\headcommand {\beamer@framepages {101}{101}}}
\@writefile{nav}{\headcommand {\slideentry {0}{0}{86}{102/102}{}{0}}}
\@writefile{nav}{\headcommand {\beamer@framepages {102}{102}}}
\newlabel{sumstats_tprfpr<1>}{{85}{103}{}{Doc-Start}{}}
\@writefile{snm}{\beamer@slide {sumstats_tprfpr<1>}{103}}
\newlabel{sumstats_tprfpr}{{85}{103}{}{Doc-Start}{}}
\@writefile{snm}{\beamer@slide {sumstats_tprfpr}{103}}
\@writefile{nav}{\headcommand {\slideentry {0}{0}{87}{103/103}{}{0}}}
\@writefile{nav}{\headcommand {\beamer@framepages {103}{103}}}
\@input{R/mat_conf.aux}
\newlabel{mat_conf<1>}{{86}{104}{}{Doc-Start}{}}
\@writefile{snm}{\beamer@slide {mat_conf<1>}{104}}
\newlabel{mat_conf}{{86}{104}{}{Doc-Start}{}}
\@writefile{snm}{\beamer@slide {mat_conf}{104}}
\@writefile{nav}{\headcommand {\slideentry {0}{0}{88}{104/104}{}{0}}}
\@writefile{nav}{\headcommand {\beamer@framepages {104}{104}}}
\newlabel{dd_basico<1>}{{87}{105}{}{Doc-Start}{}}
\@writefile{snm}{\beamer@slide {dd_basico<1>}{105}}
\newlabel{dd_basico}{{87}{105}{}{Doc-Start}{}}
\@writefile{snm}{\beamer@slide {dd_basico}{105}}
\@writefile{nav}{\headcommand {\slideentry {0}{0}{89}{105/105}{}{0}}}
\@writefile{nav}{\headcommand {\beamer@framepages {105}{105}}}
\newlabel{partrend_wl<1>}{{88}{106}{}{Doc-Start}{}}
\@writefile{snm}{\beamer@slide {partrend_wl<1>}{106}}
\newlabel{partrend_wl}{{88}{106}{}{Doc-Start}{}}
\@writefile{snm}{\beamer@slide {partrend_wl}{106}}
\@writefile{nav}{\headcommand {\slideentry {0}{0}{90}{106/106}{}{0}}}
\@writefile{nav}{\headcommand {\beamer@framepages {106}{106}}}
\newlabel{partrend_colperu<1>}{{89}{107}{}{Doc-Start}{}}
\@writefile{snm}{\beamer@slide {partrend_colperu<1>}{107}}
\newlabel{partrend_colperu}{{89}{107}{}{Doc-Start}{}}
\@writefile{snm}{\beamer@slide {partrend_colperu}{107}}
\@writefile{nav}{\headcommand {\slideentry {0}{0}{91}{107/107}{}{0}}}
\@writefile{nav}{\headcommand {\beamer@framepages {107}{107}}}
\newlabel{gold_price<1>}{{90}{108}{}{Doc-Start}{}}
\@writefile{snm}{\beamer@slide {gold_price<1>}{108}}
\newlabel{gold_price}{{90}{108}{}{Doc-Start}{}}
\@writefile{snm}{\beamer@slide {gold_price}{108}}
\@writefile{nav}{\headcommand {\slideentry {0}{0}{92}{108/108}{}{0}}}
\@writefile{nav}{\headcommand {\beamer@framepages {108}{108}}}
\newlabel{dd_basico_mined<1>}{{91}{109}{}{Doc-Start}{}}
\@writefile{snm}{\beamer@slide {dd_basico_mined<1>}{109}}
\newlabel{dd_basico_mined}{{91}{109}{}{Doc-Start}{}}
\@writefile{snm}{\beamer@slide {dd_basico_mined}{109}}
\@writefile{nav}{\headcommand {\slideentry {0}{0}{93}{109/109}{}{0}}}
\@writefile{nav}{\headcommand {\beamer@framepages {109}{109}}}
\newlabel{sumstats_muni<1>}{{92}{110}{}{Doc-Start}{}}
\@writefile{snm}{\beamer@slide {sumstats_muni<1>}{110}}
\newlabel{sumstats_muni}{{92}{110}{}{Doc-Start}{}}
\@writefile{snm}{\beamer@slide {sumstats_muni}{110}}
\@writefile{nav}{\headcommand {\slideentry {0}{0}{94}{110/110}{}{0}}}
\@writefile{nav}{\headcommand {\beamer@framepages {110}{110}}}
\newlabel{sumstats_regvarmined<1>}{{93}{111}{}{Doc-Start}{}}
\@writefile{snm}{\beamer@slide {sumstats_regvarmined<1>}{111}}
\newlabel{sumstats_regvarmined}{{93}{111}{}{Doc-Start}{}}
\@writefile{snm}{\beamer@slide {sumstats_regvarmined}{111}}
\@writefile{nav}{\headcommand {\slideentry {0}{0}{95}{111/111}{}{0}}}
\@writefile{nav}{\headcommand {\beamer@framepages {111}{111}}}
\newlabel{balancestats_muni<1>}{{94}{112}{}{Doc-Start}{}}
\@writefile{snm}{\beamer@slide {balancestats_muni<1>}{112}}
\newlabel{balancestats_muni}{{94}{112}{}{Doc-Start}{}}
\@writefile{snm}{\beamer@slide {balancestats_muni}{112}}
\@writefile{nav}{\headcommand {\slideentry {0}{0}{96}{112/112}{}{0}}}
\@writefile{nav}{\headcommand {\beamer@framepages {112}{112}}}
\newlabel{sumstats_regvarperu<1>}{{95}{113}{}{Doc-Start}{}}
\@writefile{snm}{\beamer@slide {sumstats_regvarperu<1>}{113}}
\newlabel{sumstats_regvarperu}{{95}{113}{}{Doc-Start}{}}
\@writefile{snm}{\beamer@slide {sumstats_regvarperu}{113}}
\@writefile{nav}{\headcommand {\slideentry {0}{0}{97}{113/113}{}{0}}}
\@writefile{nav}{\headcommand {\beamer@framepages {113}{113}}}
\newlabel{sumstats_ftotalperu<1>}{{96}{114}{}{Doc-Start}{}}
\@writefile{snm}{\beamer@slide {sumstats_ftotalperu<1>}{114}}
\newlabel{sumstats_ftotalperu}{{96}{114}{}{Doc-Start}{}}
\@writefile{snm}{\beamer@slide {sumstats_ftotalperu}{114}}
\@writefile{nav}{\headcommand {\slideentry {0}{0}{98}{114/114}{}{0}}}
\@writefile{nav}{\headcommand {\beamer@framepages {114}{114}}}
\newlabel{reg_non_parametric<1>}{{97}{115}{}{Doc-Start}{}}
\@writefile{snm}{\beamer@slide {reg_non_parametric<1>}{115}}
\newlabel{reg_non_parametric}{{97}{115}{}{Doc-Start}{}}
\@writefile{snm}{\beamer@slide {reg_non_parametric}{115}}
\@writefile{nav}{\headcommand {\slideentry {0}{0}{99}{115/115}{}{0}}}
\@writefile{nav}{\headcommand {\beamer@framepages {115}{115}}}
\newlabel{reg_c12<1>}{{98}{116}{}{Doc-Start}{}}
\@writefile{snm}{\beamer@slide {reg_c12<1>}{116}}
\newlabel{reg_c12}{{98}{116}{}{Doc-Start}{}}
\@writefile{snm}{\beamer@slide {reg_c12}{116}}
\@writefile{nav}{\headcommand {\slideentry {0}{0}{100}{116/116}{}{0}}}
\@writefile{nav}{\headcommand {\beamer@framepages {116}{116}}}
\newlabel{reg_probpixmined<1>}{{99}{117}{}{Doc-Start}{}}
\@writefile{snm}{\beamer@slide {reg_probpixmined<1>}{117}}
\newlabel{reg_probpixmined}{{99}{117}{}{Doc-Start}{}}
\@writefile{snm}{\beamer@slide {reg_probpixmined}{117}}
\@writefile{nav}{\headcommand {\slideentry {0}{0}{101}{117/117}{}{0}}}
\@writefile{nav}{\headcommand {\beamer@framepages {117}{117}}}
\newlabel{legalization<1>}{{100}{118}{}{Doc-Start}{}}
\@writefile{snm}{\beamer@slide {legalization<1>}{118}}
\newlabel{legalization}{{100}{118}{}{Doc-Start}{}}
\@writefile{snm}{\beamer@slide {legalization}{118}}
\@writefile{nav}{\headcommand {\slideentry {0}{0}{102}{118/118}{}{0}}}
\@writefile{nav}{\headcommand {\beamer@framepages {118}{118}}}
\newlabel{altonji_mined<1>}{{101}{119}{}{Doc-Start}{}}
\@writefile{snm}{\beamer@slide {altonji_mined<1>}{119}}
\newlabel{altonji_mined}{{101}{119}{}{Doc-Start}{}}
\@writefile{snm}{\beamer@slide {altonji_mined}{119}}
\@writefile{nav}{\headcommand {\slideentry {0}{0}{103}{119/119}{}{0}}}
\@writefile{nav}{\headcommand {\beamer@framepages {119}{119}}}
\newlabel{reg_lasso<1>}{{102}{120}{}{Doc-Start}{}}
\@writefile{snm}{\beamer@slide {reg_lasso<1>}{120}}
\newlabel{reg_lasso}{{102}{120}{}{Doc-Start}{}}
\@writefile{snm}{\beamer@slide {reg_lasso}{120}}
\@writefile{nav}{\headcommand {\slideentry {0}{0}{104}{120/120}{}{0}}}
\@writefile{nav}{\headcommand {\beamer@framepages {120}{120}}}
\newlabel{reg_lasso_continuous<1>}{{103}{121}{}{Doc-Start}{}}
\@writefile{snm}{\beamer@slide {reg_lasso_continuous<1>}{121}}
\newlabel{reg_lasso_continuous}{{103}{121}{}{Doc-Start}{}}
\@writefile{snm}{\beamer@slide {reg_lasso_continuous}{121}}
\@writefile{nav}{\headcommand {\slideentry {0}{0}{105}{121/121}{}{0}}}
\@writefile{nav}{\headcommand {\beamer@framepages {121}{121}}}
\newlabel{reg_adj<1>}{{104}{122}{}{Doc-Start}{}}
\@writefile{snm}{\beamer@slide {reg_adj<1>}{122}}
\newlabel{reg_adj}{{104}{122}{}{Doc-Start}{}}
\@writefile{snm}{\beamer@slide {reg_adj}{122}}
\@writefile{nav}{\headcommand {\slideentry {0}{0}{106}{122/122}{}{0}}}
\@writefile{nav}{\headcommand {\beamer@framepages {122}{122}}}
\newlabel{reg_weights<1>}{{105}{123}{}{Doc-Start}{}}
\@writefile{snm}{\beamer@slide {reg_weights<1>}{123}}
\newlabel{reg_weights}{{105}{123}{}{Doc-Start}{}}
\@writefile{snm}{\beamer@slide {reg_weights}{123}}
\@writefile{nav}{\headcommand {\slideentry {0}{0}{107}{123/123}{}{0}}}
\@writefile{nav}{\headcommand {\beamer@framepages {123}{123}}}
\newlabel{reg_dummy_deptr<1>}{{106}{124}{}{Doc-Start}{}}
\@writefile{snm}{\beamer@slide {reg_dummy_deptr<1>}{124}}
\newlabel{reg_dummy_deptr}{{106}{124}{}{Doc-Start}{}}
\@writefile{snm}{\beamer@slide {reg_dummy_deptr}{124}}
\@writefile{nav}{\headcommand {\slideentry {0}{0}{108}{124/124}{}{0}}}
\@writefile{nav}{\headcommand {\beamer@framepages {124}{124}}}
\newlabel{reg_otherm<1>}{{107}{125}{}{Doc-Start}{}}
\@writefile{snm}{\beamer@slide {reg_otherm<1>}{125}}
\newlabel{reg_otherm}{{107}{125}{}{Doc-Start}{}}
\@writefile{snm}{\beamer@slide {reg_otherm}{125}}
\@writefile{nav}{\headcommand {\slideentry {0}{0}{109}{125/125}{}{0}}}
\@writefile{nav}{\headcommand {\beamer@framepages {125}{125}}}
\newlabel{reg_newarea<1>}{{108}{126}{}{Doc-Start}{}}
\@writefile{snm}{\beamer@slide {reg_newarea<1>}{126}}
\newlabel{reg_newarea}{{108}{126}{}{Doc-Start}{}}
\@writefile{snm}{\beamer@slide {reg_newarea}{126}}
\@writefile{nav}{\headcommand {\slideentry {0}{0}{110}{126/126}{}{0}}}
\@writefile{nav}{\headcommand {\beamer@framepages {126}{126}}}
\newlabel{reg_peruRD<1>}{{109}{127}{}{Doc-Start}{}}
\@writefile{snm}{\beamer@slide {reg_peruRD<1>}{127}}
\newlabel{reg_peruRD}{{109}{127}{}{Doc-Start}{}}
\@writefile{snm}{\beamer@slide {reg_peruRD}{127}}
\@writefile{nav}{\headcommand {\slideentry {0}{0}{111}{127/127}{}{0}}}
\@writefile{nav}{\headcommand {\beamer@framepages {127}{127}}}
\newlabel{dd_basico_titulos<1>}{{110}{128}{}{Doc-Start}{}}
\@writefile{snm}{\beamer@slide {dd_basico_titulos<1>}{128}}
\newlabel{dd_basico_titulos}{{110}{128}{}{Doc-Start}{}}
\@writefile{snm}{\beamer@slide {dd_basico_titulos}{128}}
\@writefile{nav}{\headcommand {\slideentry {0}{0}{112}{128/128}{}{0}}}
\@writefile{nav}{\headcommand {\beamer@framepages {128}{128}}}
\newlabel{balancestats_inst<1>}{{111}{129}{}{Doc-Start}{}}
\@writefile{snm}{\beamer@slide {balancestats_inst<1>}{129}}
\newlabel{balancestats_inst}{{111}{129}{}{Doc-Start}{}}
\@writefile{snm}{\beamer@slide {balancestats_inst}{129}}
\@writefile{nav}{\headcommand {\slideentry {0}{0}{113}{129/129}{}{0}}}
\@writefile{nav}{\headcommand {\beamer@framepages {129}{129}}}
\newlabel{het_plot<1>}{{112}{130}{}{Doc-Start}{}}
\@writefile{snm}{\beamer@slide {het_plot<1>}{130}}
\newlabel{het_plot}{{112}{130}{}{Doc-Start}{}}
\@writefile{snm}{\beamer@slide {het_plot}{130}}
\@writefile{nav}{\headcommand {\slideentry {0}{0}{114}{130/130}{}{0}}}
\@writefile{nav}{\headcommand {\beamer@framepages {130}{130}}}
\newlabel{reg_het1<1>}{{113}{131}{}{Doc-Start}{}}
\@writefile{snm}{\beamer@slide {reg_het1<1>}{131}}
\newlabel{reg_het1}{{113}{131}{}{Doc-Start}{}}
\@writefile{snm}{\beamer@slide {reg_het1}{131}}
\@writefile{nav}{\headcommand {\slideentry {0}{0}{115}{131/131}{}{0}}}
\@writefile{nav}{\headcommand {\beamer@framepages {131}{131}}}
\newlabel{reg_het2<1>}{{114}{132}{}{Doc-Start}{}}
\@writefile{snm}{\beamer@slide {reg_het2<1>}{132}}
\newlabel{reg_het2}{{114}{132}{}{Doc-Start}{}}
\@writefile{snm}{\beamer@slide {reg_het2}{132}}
\@writefile{nav}{\headcommand {\slideentry {0}{0}{116}{132/132}{}{0}}}
\@writefile{nav}{\headcommand {\beamer@framepages {132}{132}}}
\newlabel{sumstats_healthExp<1>}{{115}{133}{}{Doc-Start}{}}
\@writefile{snm}{\beamer@slide {sumstats_healthExp<1>}{133}}
\newlabel{sumstats_healthExp}{{115}{133}{}{Doc-Start}{}}
\@writefile{snm}{\beamer@slide {sumstats_healthExp}{133}}
\@writefile{nav}{\headcommand {\slideentry {0}{0}{117}{133/133}{}{0}}}
\@writefile{nav}{\headcommand {\beamer@framepages {133}{133}}}
\newlabel{sumstats_healthUps<1>}{{116}{134}{}{Doc-Start}{}}
\@writefile{snm}{\beamer@slide {sumstats_healthUps<1>}{134}}
\newlabel{sumstats_healthUps}{{116}{134}{}{Doc-Start}{}}
\@writefile{snm}{\beamer@slide {sumstats_healthUps}{134}}
\@writefile{nav}{\headcommand {\slideentry {0}{0}{118}{134/134}{}{0}}}
\@writefile{nav}{\headcommand {\beamer@framepages {134}{134}}}
\newlabel{reg_health2<1>}{{117}{135}{}{Doc-Start}{}}
\@writefile{snm}{\beamer@slide {reg_health2<1>}{135}}
\newlabel{reg_health2}{{117}{135}{}{Doc-Start}{}}
\@writefile{snm}{\beamer@slide {reg_health2}{135}}
\@writefile{nav}{\headcommand {\slideentry {0}{0}{119}{135/135}{}{0}}}
\@writefile{nav}{\headcommand {\beamer@framepages {135}{135}}}
\newlabel{reg_povertyRD<1>}{{118}{136}{}{Doc-Start}{}}
\@writefile{snm}{\beamer@slide {reg_povertyRD<1>}{136}}
\newlabel{reg_povertyRD}{{118}{136}{}{Doc-Start}{}}
\@writefile{snm}{\beamer@slide {reg_povertyRD}{136}}
\@writefile{nav}{\headcommand {\slideentry {0}{0}{120}{136/136}{}{0}}}
\@writefile{nav}{\headcommand {\beamer@framepages {136}{136}}}
\newlabel{titlesyear_plot<1>}{{119}{137}{}{Doc-Start}{}}
\@writefile{snm}{\beamer@slide {titlesyear_plot<1>}{137}}
\newlabel{titlesyear_plot}{{119}{137}{}{Doc-Start}{}}
\@writefile{snm}{\beamer@slide {titlesyear_plot}{137}}
\@writefile{nav}{\headcommand {\slideentry {0}{0}{121}{137/137}{}{0}}}
\@writefile{nav}{\headcommand {\beamer@framepages {137}{137}}}
\newlabel{reg_tit2014<1>}{{120}{138}{}{Doc-Start}{}}
\@writefile{snm}{\beamer@slide {reg_tit2014<1>}{138}}
\newlabel{reg_tit2014}{{120}{138}{}{Doc-Start}{}}
\@writefile{snm}{\beamer@slide {reg_tit2014}{138}}
\@writefile{nav}{\headcommand {\slideentry {0}{0}{122}{138/138}{}{0}}}
\@writefile{nav}{\headcommand {\beamer@framepages {138}{138}}}
\newlabel{reg_prod_raw<1>}{{121}{139}{}{Doc-Start}{}}
\@writefile{snm}{\beamer@slide {reg_prod_raw<1>}{139}}
\newlabel{reg_prod_raw}{{121}{139}{}{Doc-Start}{}}
\@writefile{snm}{\beamer@slide {reg_prod_raw}{139}}
\@writefile{nav}{\headcommand {\slideentry {0}{0}{123}{139/139}{}{0}}}
\@writefile{nav}{\headcommand {\beamer@framepages {139}{139}}}
\newlabel{eqn_health<1>}{{122}{140}{}{Doc-Start}{}}
\@writefile{snm}{\beamer@slide {eqn_health<1>}{140}}
\newlabel{eqn_health}{{122}{140}{}{Doc-Start}{}}
\@writefile{snm}{\beamer@slide {eqn_health}{140}}
\@writefile{nav}{\headcommand {\slideentry {0}{0}{124}{140/140}{}{0}}}
\@writefile{nav}{\headcommand {\beamer@framepages {140}{140}}}
\@writefile{nav}{\headcommand {\slideentry {0}{0}{125}{141/141}{}{0}}}
\@writefile{nav}{\headcommand {\beamer@framepages {141}{141}}}
\@writefile{nav}{\headcommand {\slideentry {0}{0}{126}{142/142}{}{0}}}
\@writefile{nav}{\headcommand {\beamer@framepages {142}{142}}}
\@writefile{nav}{\headcommand {\slideentry {0}{0}{127}{143/143}{}{0}}}
\@writefile{nav}{\headcommand {\beamer@framepages {143}{143}}}
\@writefile{nav}{\headcommand {\slideentry {0}{0}{128}{144/144}{}{0}}}
\@writefile{nav}{\headcommand {\beamer@framepages {144}{144}}}
\bibstyle{apacite}
\bibdata{bibille}
\@writefile{nav}{\headcommand {\slideentry {0}{0}{129}{145/145}{}{0}}}
\@writefile{nav}{\headcommand {\beamer@framepages {145}{145}}}
\@writefile{nav}{\headcommand {\beamer@partpages {1}{145}}}
\@writefile{nav}{\headcommand {\beamer@subsectionpages {1}{145}}}
\@writefile{nav}{\headcommand {\beamer@sectionpages {1}{145}}}
\@writefile{nav}{\headcommand {\beamer@documentpages {145}}}
\@writefile{nav}{\headcommand {\def \inserttotalframenumber {71}}}
