\relax 
\providecommand\hyper@newdestlabel[2]{}
\providecommand\HyperFirstAtBeginDocument{\AtBeginDocument}
\HyperFirstAtBeginDocument{\ifx\hyper@anchor\@undefined
\global\let\oldcontentsline\contentsline
\gdef\contentsline#1#2#3#4{\oldcontentsline{#1}{#2}{#3}}
\global\let\oldnewlabel\newlabel
\gdef\newlabel#1#2{\newlabelxx{#1}#2}
\gdef\newlabelxx#1#2#3#4#5#6{\oldnewlabel{#1}{{#2}{#3}}}
\AtEndDocument{\ifx\hyper@anchor\@undefined
\let\contentsline\oldcontentsline
\let\newlabel\oldnewlabel
\fi}
\fi}
\global\let\hyper@last\relax 
\gdef\HyperFirstAtBeginDocument#1{#1}
\providecommand\HyField@AuxAddToFields[1]{}
\providecommand\HyField@AuxAddToCoFields[2]{}
\providecommand \oddpage@label [2]{}
\select@language{english}
\@writefile{toc}{\select@language{english}}
\@writefile{lof}{\select@language{english}}
\@writefile{lot}{\select@language{english}}
\@writefile{nav}{\headcommand {\slideentry {0}{0}{1}{1/1}{}{0}}}
\@writefile{nav}{\headcommand {\beamer@framepages {1}{1}}}
\@writefile{nav}{\headcommand {\slideentry {0}{0}{2}{2/2}{}{0}}}
\@writefile{nav}{\headcommand {\beamer@framepages {2}{2}}}
\@writefile{nav}{\headcommand {\slideentry {0}{0}{3}{3/4}{}{0}}}
\@writefile{nav}{\headcommand {\beamer@framepages {3}{4}}}
\@writefile{nav}{\headcommand {\slideentry {0}{0}{4}{5/6}{}{0}}}
\@writefile{nav}{\headcommand {\beamer@framepages {5}{6}}}
\@writefile{nav}{\headcommand {\slideentry {0}{0}{5}{7/7}{}{0}}}
\@writefile{nav}{\headcommand {\beamer@framepages {7}{7}}}
\newlabel{prepare<1>}{{6}{8}{}{Doc-Start}{}}
\@writefile{snm}{\beamer@slide {prepare<1>}{8}}
\newlabel{prepare}{{6}{8}{}{Doc-Start}{}}
\@writefile{snm}{\beamer@slide {prepare}{8}}
\@writefile{nav}{\headcommand {\slideentry {0}{0}{6}{8/8}{}{0}}}
\@writefile{nav}{\headcommand {\beamer@framepages {8}{8}}}
\newlabel{challenges<1>}{{7}{9}{}{Doc-Start}{}}
\@writefile{snm}{\beamer@slide {challenges<1>}{9}}
\newlabel{challenges}{{7}{9}{}{Doc-Start}{}}
\@writefile{snm}{\beamer@slide {challenges}{9}}
\@writefile{nav}{\headcommand {\slideentry {0}{0}{7}{9/9}{}{0}}}
\@writefile{nav}{\headcommand {\beamer@framepages {9}{9}}}
\newlabel{remove_clouds<1>}{{8}{10}{}{Doc-Start}{}}
\@writefile{snm}{\beamer@slide {remove_clouds<1>}{10}}
\newlabel{remove_clouds}{{8}{10}{}{Doc-Start}{}}
\@writefile{snm}{\beamer@slide {remove_clouds}{10}}
\@writefile{nav}{\headcommand {\slideentry {0}{0}{8}{10/10}{}{0}}}
\@writefile{nav}{\headcommand {\beamer@framepages {10}{10}}}
\newlabel{graph_prepare<1>}{{9}{11}{}{Doc-Start}{}}
\@writefile{snm}{\beamer@slide {graph_prepare<1>}{11}}
\newlabel{graph_prepare}{{9}{11}{}{Doc-Start}{}}
\@writefile{snm}{\beamer@slide {graph_prepare}{11}}
\@writefile{nav}{\headcommand {\slideentry {0}{0}{9}{11/11}{}{0}}}
\@writefile{nav}{\headcommand {\beamer@framepages {11}{11}}}
\newlabel{whatRF<1>}{{10}{12}{}{Doc-Start}{}}
\@writefile{snm}{\beamer@slide {whatRF<1>}{12}}
\newlabel{whatRF}{{10}{12}{}{Doc-Start}{}}
\@writefile{snm}{\beamer@slide {whatRF}{12}}
\@writefile{nav}{\headcommand {\slideentry {0}{0}{10}{12/12}{}{0}}}
\@writefile{nav}{\headcommand {\beamer@framepages {12}{12}}}
\newlabel{whatRF<1>}{{11}{13}{}{Doc-Start}{}}
\@writefile{snm}{\beamer@slide {whatRF<1>}{13}}
\newlabel{whatRF}{{11}{13}{}{Doc-Start}{}}
\@writefile{snm}{\beamer@slide {whatRF}{13}}
\@writefile{nav}{\headcommand {\slideentry {0}{0}{11}{13/13}{}{0}}}
\@writefile{nav}{\headcommand {\beamer@framepages {13}{13}}}
\@writefile{nav}{\headcommand {\slideentry {0}{0}{12}{14/14}{}{0}}}
\@writefile{nav}{\headcommand {\beamer@framepages {14}{14}}}
\newlabel{graph_predlegal<1>}{{13}{15}{}{Doc-Start}{}}
\@writefile{snm}{\beamer@slide {graph_predlegal<1>}{15}}
\newlabel{graph_predlegal}{{13}{15}{}{Doc-Start}{}}
\@writefile{snm}{\beamer@slide {graph_predlegal}{15}}
\@writefile{nav}{\headcommand {\slideentry {0}{0}{13}{15/15}{}{0}}}
\@writefile{nav}{\headcommand {\beamer@framepages {15}{15}}}
\@writefile{nav}{\headcommand {\slideentry {0}{0}{14}{16/16}{}{0}}}
\@writefile{nav}{\headcommand {\beamer@framepages {16}{16}}}
\@writefile{nav}{\headcommand {\slideentry {0}{0}{15}{17/17}{}{0}}}
\@writefile{nav}{\headcommand {\beamer@framepages {17}{17}}}
\@writefile{nav}{\headcommand {\slideentry {0}{0}{16}{18/18}{}{0}}}
\@writefile{nav}{\headcommand {\beamer@framepages {18}{18}}}
\@writefile{nav}{\headcommand {\beamer@partpages {1}{18}}}
\@writefile{nav}{\headcommand {\beamer@subsectionpages {1}{18}}}
\@writefile{nav}{\headcommand {\beamer@sectionpages {1}{18}}}
\@writefile{nav}{\headcommand {\beamer@documentpages {18}}}
\@writefile{nav}{\headcommand {\def \inserttotalframenumber {14}}}
