\relax 
\providecommand\hyper@newdestlabel[2]{}
\providecommand\HyperFirstAtBeginDocument{\AtBeginDocument}
\HyperFirstAtBeginDocument{\ifx\hyper@anchor\@undefined
\global\let\oldcontentsline\contentsline
\gdef\contentsline#1#2#3#4{\oldcontentsline{#1}{#2}{#3}}
\global\let\oldnewlabel\newlabel
\gdef\newlabel#1#2{\newlabelxx{#1}#2}
\gdef\newlabelxx#1#2#3#4#5#6{\oldnewlabel{#1}{{#2}{#3}}}
\AtEndDocument{\ifx\hyper@anchor\@undefined
\let\contentsline\oldcontentsline
\let\newlabel\oldnewlabel
\fi}
\fi}
\global\let\hyper@last\relax 
\gdef\HyperFirstAtBeginDocument#1{#1}
\providecommand\HyField@AuxAddToFields[1]{}
\providecommand\HyField@AuxAddToCoFields[2]{}
\providecommand \oddpage@label [2]{}
\select@language{english}
\@writefile{toc}{\select@language{english}}
\@writefile{lof}{\select@language{english}}
\@writefile{lot}{\select@language{english}}
\@writefile{nav}{\headcommand {\slideentry {0}{0}{1}{1/1}{}{0}}}
\@writefile{nav}{\headcommand {\beamer@framepages {1}{1}}}
\@writefile{nav}{\headcommand {\slideentry {0}{0}{2}{2/4}{}{0}}}
\@writefile{nav}{\headcommand {\beamer@framepages {2}{4}}}
\@writefile{nav}{\headcommand {\slideentry {0}{0}{3}{5/6}{}{0}}}
\@writefile{nav}{\headcommand {\beamer@framepages {5}{6}}}
\@writefile{nav}{\headcommand {\slideentry {0}{0}{4}{7/8}{}{0}}}
\@writefile{nav}{\headcommand {\beamer@framepages {7}{8}}}
\@writefile{nav}{\headcommand {\slideentry {0}{0}{5}{9/9}{}{0}}}
\@writefile{nav}{\headcommand {\beamer@framepages {9}{9}}}
\newlabel{context<1>}{{6}{10}{}{Doc-Start}{}}
\@writefile{snm}{\beamer@slide {context<1>}{10}}
\newlabel{context}{{6}{10}{}{Doc-Start}{}}
\@writefile{snm}{\beamer@slide {context}{10}}
\newlabel{context<2>}{{6}{11}{}{Doc-Start}{}}
\@writefile{snm}{\beamer@slide {context<2>}{11}}
\@writefile{nav}{\headcommand {\slideentry {0}{0}{6}{10/11}{}{0}}}
\@writefile{nav}{\headcommand {\beamer@framepages {10}{11}}}
\@writefile{nav}{\headcommand {\slideentry {0}{0}{7}{12/16}{}{0}}}
\@writefile{nav}{\headcommand {\beamer@framepages {12}{16}}}
\newlabel{literature<1>}{{8}{17}{}{Doc-Start}{}}
\@writefile{snm}{\beamer@slide {literature<1>}{17}}
\newlabel{literature}{{8}{17}{}{Doc-Start}{}}
\@writefile{snm}{\beamer@slide {literature}{17}}
\newlabel{literature<2>}{{8}{18}{}{Doc-Start}{}}
\@writefile{snm}{\beamer@slide {literature<2>}{18}}
\newlabel{literature<3>}{{8}{19}{}{Doc-Start}{}}
\@writefile{snm}{\beamer@slide {literature<3>}{19}}
\newlabel{literature<4>}{{8}{20}{}{Doc-Start}{}}
\@writefile{snm}{\beamer@slide {literature<4>}{20}}
\newlabel{literature<5>}{{8}{21}{}{Doc-Start}{}}
\@writefile{snm}{\beamer@slide {literature<5>}{21}}
\newlabel{literature<6>}{{8}{22}{}{Doc-Start}{}}
\@writefile{snm}{\beamer@slide {literature<6>}{22}}
\@writefile{nav}{\headcommand {\slideentry {0}{0}{8}{17/22}{}{0}}}
\@writefile{nav}{\headcommand {\beamer@framepages {17}{22}}}
\@writefile{nav}{\headcommand {\slideentry {0}{0}{9}{23/23}{}{0}}}
\@writefile{nav}{\headcommand {\beamer@framepages {23}{23}}}
\newlabel{graph_prepare<1>}{{10}{24}{}{Doc-Start}{}}
\@writefile{snm}{\beamer@slide {graph_prepare<1>}{24}}
\newlabel{graph_prepare}{{10}{24}{}{Doc-Start}{}}
\@writefile{snm}{\beamer@slide {graph_prepare}{24}}
\@writefile{nav}{\headcommand {\slideentry {0}{0}{10}{24/24}{}{0}}}
\@writefile{nav}{\headcommand {\beamer@framepages {24}{24}}}
\newlabel{training_testing<1>}{{11}{25}{}{Doc-Start}{}}
\@writefile{snm}{\beamer@slide {training_testing<1>}{25}}
\newlabel{training_testing}{{11}{25}{}{Doc-Start}{}}
\@writefile{snm}{\beamer@slide {training_testing}{25}}
\@writefile{nav}{\headcommand {\slideentry {0}{0}{11}{25/25}{}{0}}}
\@writefile{nav}{\headcommand {\beamer@framepages {25}{25}}}
\newlabel{graph_predlegal<1>}{{12}{26}{}{Doc-Start}{}}
\@writefile{snm}{\beamer@slide {graph_predlegal<1>}{26}}
\newlabel{graph_predlegal}{{12}{26}{}{Doc-Start}{}}
\@writefile{snm}{\beamer@slide {graph_predlegal}{26}}
\@writefile{nav}{\headcommand {\slideentry {0}{0}{12}{26/26}{}{0}}}
\@writefile{nav}{\headcommand {\beamer@framepages {26}{26}}}
\@writefile{nav}{\headcommand {\slideentry {0}{0}{13}{27/27}{}{0}}}
\@writefile{nav}{\headcommand {\beamer@framepages {27}{27}}}
\@writefile{nav}{\headcommand {\slideentry {0}{0}{14}{28/28}{}{0}}}
\@writefile{nav}{\headcommand {\beamer@framepages {28}{28}}}
\@writefile{nav}{\headcommand {\slideentry {0}{0}{15}{29/29}{}{0}}}
\@writefile{nav}{\headcommand {\beamer@framepages {29}{29}}}
\newlabel{het_plot<1>}{{16}{30}{}{Doc-Start}{}}
\@writefile{snm}{\beamer@slide {het_plot<1>}{30}}
\newlabel{het_plot}{{16}{30}{}{Doc-Start}{}}
\@writefile{snm}{\beamer@slide {het_plot}{30}}
\@writefile{nav}{\headcommand {\slideentry {0}{0}{16}{30/30}{}{0}}}
\@writefile{nav}{\headcommand {\beamer@framepages {30}{30}}}
\@writefile{nav}{\headcommand {\slideentry {0}{0}{17}{31/31}{}{0}}}
\@writefile{nav}{\headcommand {\beamer@framepages {31}{31}}}
\@writefile{nav}{\headcommand {\slideentry {0}{0}{18}{32/32}{}{0}}}
\@writefile{nav}{\headcommand {\beamer@framepages {32}{32}}}
\newlabel{reg_main<1>}{{19}{33}{}{Doc-Start}{}}
\@writefile{snm}{\beamer@slide {reg_main<1>}{33}}
\newlabel{reg_main}{{19}{33}{}{Doc-Start}{}}
\@writefile{snm}{\beamer@slide {reg_main}{33}}
\@writefile{nav}{\headcommand {\slideentry {0}{0}{19}{33/33}{}{0}}}
\@writefile{nav}{\headcommand {\beamer@framepages {33}{33}}}
\@writefile{nav}{\headcommand {\slideentry {0}{0}{20}{34/34}{}{0}}}
\@writefile{nav}{\headcommand {\beamer@framepages {34}{34}}}
\@writefile{nav}{\headcommand {\slideentry {0}{0}{21}{35/35}{}{0}}}
\@writefile{nav}{\headcommand {\beamer@framepages {35}{35}}}
\newlabel{reg_healthIVfs<1>}{{22}{36}{}{Doc-Start}{}}
\@writefile{snm}{\beamer@slide {reg_healthIVfs<1>}{36}}
\newlabel{reg_healthIVfs}{{22}{36}{}{Doc-Start}{}}
\@writefile{snm}{\beamer@slide {reg_healthIVfs}{36}}
\@writefile{nav}{\headcommand {\slideentry {0}{0}{22}{36/36}{}{0}}}
\@writefile{nav}{\headcommand {\beamer@framepages {36}{36}}}
\newlabel{reg_healthIVnsm<1>}{{23}{37}{}{Doc-Start}{}}
\@writefile{snm}{\beamer@slide {reg_healthIVnsm<1>}{37}}
\newlabel{reg_healthIVnsm}{{23}{37}{}{Doc-Start}{}}
\@writefile{snm}{\beamer@slide {reg_healthIVnsm}{37}}
\@writefile{nav}{\headcommand {\slideentry {0}{0}{23}{37/37}{}{0}}}
\@writefile{nav}{\headcommand {\beamer@framepages {37}{37}}}
\@writefile{nav}{\headcommand {\slideentry {0}{0}{24}{38/38}{}{0}}}
\@writefile{nav}{\headcommand {\beamer@framepages {38}{38}}}
\@writefile{nav}{\headcommand {\slideentry {0}{0}{25}{39/39}{}{0}}}
\@writefile{nav}{\headcommand {\beamer@framepages {39}{39}}}
\newlabel{outline<1>}{{25}{40}{}{Doc-Start}{}}
\@writefile{snm}{\beamer@slide {outline<1>}{40}}
\newlabel{outline}{{25}{40}{}{Doc-Start}{}}
\@writefile{snm}{\beamer@slide {outline}{40}}
\@writefile{nav}{\headcommand {\slideentry {0}{0}{26}{40/40}{}{0}}}
\@writefile{nav}{\headcommand {\beamer@framepages {40}{40}}}
\newlabel{mining_Col<1>}{{26}{41}{}{Doc-Start}{}}
\@writefile{snm}{\beamer@slide {mining_Col<1>}{41}}
\newlabel{mining_Col}{{26}{41}{}{Doc-Start}{}}
\@writefile{snm}{\beamer@slide {mining_Col}{41}}
\@writefile{nav}{\headcommand {\slideentry {0}{0}{27}{41/41}{}{0}}}
\@writefile{nav}{\headcommand {\beamer@framepages {41}{41}}}
\newlabel{details_reform<1>}{{27}{42}{}{Doc-Start}{}}
\@writefile{snm}{\beamer@slide {details_reform<1>}{42}}
\newlabel{details_reform}{{27}{42}{}{Doc-Start}{}}
\@writefile{snm}{\beamer@slide {details_reform}{42}}
\@writefile{nav}{\headcommand {\slideentry {0}{0}{28}{42/42}{}{0}}}
\@writefile{nav}{\headcommand {\beamer@framepages {42}{42}}}
\newlabel{outline2<1>}{{28}{43}{}{Doc-Start}{}}
\@writefile{snm}{\beamer@slide {outline2<1>}{43}}
\newlabel{outline2}{{28}{43}{}{Doc-Start}{}}
\@writefile{snm}{\beamer@slide {outline2}{43}}
\@writefile{nav}{\headcommand {\slideentry {0}{0}{29}{43/43}{}{0}}}
\@writefile{nav}{\headcommand {\beamer@framepages {43}{43}}}
\newlabel{model_overview<1>}{{29}{44}{}{Doc-Start}{}}
\@writefile{snm}{\beamer@slide {model_overview<1>}{44}}
\newlabel{model_overview}{{29}{44}{}{Doc-Start}{}}
\@writefile{snm}{\beamer@slide {model_overview}{44}}
\newlabel{model_overview<2>}{{29}{45}{}{Doc-Start}{}}
\@writefile{snm}{\beamer@slide {model_overview<2>}{45}}
\newlabel{model_overview<3>}{{29}{46}{}{Doc-Start}{}}
\@writefile{snm}{\beamer@slide {model_overview<3>}{46}}
\@writefile{nav}{\headcommand {\slideentry {0}{0}{30}{44/46}{}{0}}}
\@writefile{nav}{\headcommand {\beamer@framepages {44}{46}}}
\newlabel{thmod<1>}{{30}{47}{}{Doc-Start}{}}
\@writefile{snm}{\beamer@slide {thmod<1>}{47}}
\newlabel{thmod}{{30}{47}{}{Doc-Start}{}}
\@writefile{snm}{\beamer@slide {thmod}{47}}
\@writefile{nav}{\headcommand {\slideentry {0}{0}{31}{47/47}{}{0}}}
\@writefile{nav}{\headcommand {\beamer@framepages {47}{47}}}
\newlabel{th_preds12<1>}{{31}{48}{}{Doc-Start}{}}
\@writefile{snm}{\beamer@slide {th_preds12<1>}{48}}
\newlabel{th_preds12}{{31}{48}{}{Doc-Start}{}}
\@writefile{snm}{\beamer@slide {th_preds12}{48}}
\@writefile{nav}{\headcommand {\slideentry {0}{0}{32}{48/48}{}{0}}}
\@writefile{nav}{\headcommand {\beamer@framepages {48}{48}}}
\newlabel{model_linear<1>}{{32}{49}{}{Doc-Start}{}}
\@writefile{snm}{\beamer@slide {model_linear<1>}{49}}
\newlabel{model_linear}{{32}{49}{}{Doc-Start}{}}
\@writefile{snm}{\beamer@slide {model_linear}{49}}
\@writefile{nav}{\headcommand {\slideentry {0}{0}{33}{49/49}{}{0}}}
\@writefile{nav}{\headcommand {\beamer@framepages {49}{49}}}
\newlabel{model_convex<1>}{{33}{50}{}{Doc-Start}{}}
\@writefile{snm}{\beamer@slide {model_convex<1>}{50}}
\newlabel{model_convex}{{33}{50}{}{Doc-Start}{}}
\@writefile{snm}{\beamer@slide {model_convex}{50}}
\@writefile{nav}{\headcommand {\slideentry {0}{0}{34}{50/50}{}{0}}}
\@writefile{nav}{\headcommand {\beamer@framepages {50}{50}}}
\@writefile{nav}{\headcommand {\slideentry {0}{0}{35}{51/51}{}{0}}}
\@writefile{nav}{\headcommand {\beamer@framepages {51}{51}}}
\newlabel{prepare<1>}{{35}{52}{}{Doc-Start}{}}
\@writefile{snm}{\beamer@slide {prepare<1>}{52}}
\newlabel{prepare}{{35}{52}{}{Doc-Start}{}}
\@writefile{snm}{\beamer@slide {prepare}{52}}
\@writefile{nav}{\headcommand {\slideentry {0}{0}{36}{52/52}{}{0}}}
\@writefile{nav}{\headcommand {\beamer@framepages {52}{52}}}
\newlabel{graph_prepare<1>}{{36}{53}{}{Doc-Start}{}}
\@writefile{snm}{\beamer@slide {graph_prepare<1>}{53}}
\newlabel{graph_prepare}{{36}{53}{}{Doc-Start}{}}
\@writefile{snm}{\beamer@slide {graph_prepare}{53}}
\@writefile{nav}{\headcommand {\slideentry {0}{0}{37}{53/53}{}{0}}}
\@writefile{nav}{\headcommand {\beamer@framepages {53}{53}}}
\newlabel{challenges<1>}{{37}{54}{}{Doc-Start}{}}
\@writefile{snm}{\beamer@slide {challenges<1>}{54}}
\newlabel{challenges}{{37}{54}{}{Doc-Start}{}}
\@writefile{snm}{\beamer@slide {challenges}{54}}
\@writefile{nav}{\headcommand {\slideentry {0}{0}{38}{54/54}{}{0}}}
\@writefile{nav}{\headcommand {\beamer@framepages {54}{54}}}
\newlabel{whatRF<1>}{{38}{55}{}{Doc-Start}{}}
\@writefile{snm}{\beamer@slide {whatRF<1>}{55}}
\newlabel{whatRF}{{38}{55}{}{Doc-Start}{}}
\@writefile{snm}{\beamer@slide {whatRF}{55}}
\@writefile{nav}{\headcommand {\slideentry {0}{0}{39}{55/55}{}{0}}}
\@writefile{nav}{\headcommand {\beamer@framepages {55}{55}}}
\newlabel{whatRF<1>}{{39}{56}{}{Doc-Start}{}}
\@writefile{snm}{\beamer@slide {whatRF<1>}{56}}
\newlabel{whatRF}{{39}{56}{}{Doc-Start}{}}
\@writefile{snm}{\beamer@slide {whatRF}{56}}
\@writefile{nav}{\headcommand {\slideentry {0}{0}{40}{56/56}{}{0}}}
\@writefile{nav}{\headcommand {\beamer@framepages {56}{56}}}
\@writefile{nav}{\headcommand {\slideentry {0}{0}{41}{57/57}{}{0}}}
\@writefile{nav}{\headcommand {\beamer@framepages {57}{57}}}
\newlabel{ROC<1>}{{41}{58}{}{Doc-Start}{}}
\@writefile{snm}{\beamer@slide {ROC<1>}{58}}
\newlabel{ROC}{{41}{58}{}{Doc-Start}{}}
\@writefile{snm}{\beamer@slide {ROC}{58}}
\@writefile{nav}{\headcommand {\slideentry {0}{0}{42}{58/58}{}{0}}}
\@writefile{nav}{\headcommand {\beamer@framepages {58}{58}}}
\@writefile{nav}{\headcommand {\slideentry {0}{0}{43}{59/59}{}{0}}}
\@writefile{nav}{\headcommand {\beamer@framepages {59}{59}}}
\newlabel{graph_predlegal<1>}{{43}{60}{}{Doc-Start}{}}
\@writefile{snm}{\beamer@slide {graph_predlegal<1>}{60}}
\newlabel{graph_predlegal}{{43}{60}{}{Doc-Start}{}}
\@writefile{snm}{\beamer@slide {graph_predlegal}{60}}
\@writefile{nav}{\headcommand {\slideentry {0}{0}{44}{60/60}{}{0}}}
\@writefile{nav}{\headcommand {\beamer@framepages {60}{60}}}
\newlabel{dd_basico_mined_ally<1>}{{44}{61}{}{Doc-Start}{}}
\@writefile{snm}{\beamer@slide {dd_basico_mined_ally<1>}{61}}
\newlabel{dd_basico_mined_ally}{{44}{61}{}{Doc-Start}{}}
\@writefile{snm}{\beamer@slide {dd_basico_mined_ally}{61}}
\@writefile{nav}{\headcommand {\slideentry {0}{0}{45}{61/61}{}{0}}}
\@writefile{nav}{\headcommand {\beamer@framepages {61}{61}}}
\@writefile{nav}{\headcommand {\slideentry {0}{0}{46}{62/62}{}{0}}}
\@writefile{nav}{\headcommand {\beamer@framepages {62}{62}}}
\@writefile{nav}{\headcommand {\slideentry {0}{0}{47}{63/63}{}{0}}}
\@writefile{nav}{\headcommand {\beamer@framepages {63}{63}}}
\@writefile{nav}{\headcommand {\slideentry {0}{0}{48}{64/64}{}{0}}}
\@writefile{nav}{\headcommand {\beamer@framepages {64}{64}}}
\newlabel{reg_newarea<1>}{{48}{65}{}{Doc-Start}{}}
\@writefile{snm}{\beamer@slide {reg_newarea<1>}{65}}
\newlabel{reg_newarea}{{48}{65}{}{Doc-Start}{}}
\@writefile{snm}{\beamer@slide {reg_newarea}{65}}
\@writefile{nav}{\headcommand {\slideentry {0}{0}{49}{65/65}{}{0}}}
\@writefile{nav}{\headcommand {\beamer@framepages {65}{65}}}
\newlabel{reg_main<1>}{{49}{66}{}{Doc-Start}{}}
\@writefile{snm}{\beamer@slide {reg_main<1>}{66}}
\newlabel{reg_main}{{49}{66}{}{Doc-Start}{}}
\@writefile{snm}{\beamer@slide {reg_main}{66}}
\@writefile{nav}{\headcommand {\slideentry {0}{0}{50}{66/66}{}{0}}}
\@writefile{nav}{\headcommand {\beamer@framepages {66}{66}}}
\newlabel{intro_hetins<1>}{{50}{67}{}{Doc-Start}{}}
\@writefile{snm}{\beamer@slide {intro_hetins<1>}{67}}
\newlabel{intro_hetins}{{50}{67}{}{Doc-Start}{}}
\@writefile{snm}{\beamer@slide {intro_hetins}{67}}
\@writefile{nav}{\headcommand {\slideentry {0}{0}{51}{67/67}{}{0}}}
\@writefile{nav}{\headcommand {\beamer@framepages {67}{67}}}
\newlabel{reg_hetins<1>}{{51}{68}{}{Doc-Start}{}}
\@writefile{snm}{\beamer@slide {reg_hetins<1>}{68}}
\newlabel{reg_hetins}{{51}{68}{}{Doc-Start}{}}
\@writefile{snm}{\beamer@slide {reg_hetins}{68}}
\@writefile{nav}{\headcommand {\slideentry {0}{0}{52}{68/68}{}{0}}}
\@writefile{nav}{\headcommand {\beamer@framepages {68}{68}}}
\newlabel{reg_wl<1>}{{52}{69}{}{Doc-Start}{}}
\@writefile{snm}{\beamer@slide {reg_wl<1>}{69}}
\newlabel{reg_wl}{{52}{69}{}{Doc-Start}{}}
\@writefile{snm}{\beamer@slide {reg_wl}{69}}
\@writefile{nav}{\headcommand {\slideentry {0}{0}{53}{69/69}{}{0}}}
\@writefile{nav}{\headcommand {\beamer@framepages {69}{69}}}
\newlabel{reg_prod<1>}{{53}{70}{}{Doc-Start}{}}
\@writefile{snm}{\beamer@slide {reg_prod<1>}{70}}
\newlabel{reg_prod}{{53}{70}{}{Doc-Start}{}}
\@writefile{snm}{\beamer@slide {reg_prod}{70}}
\@writefile{nav}{\headcommand {\slideentry {0}{0}{54}{70/70}{}{0}}}
\@writefile{nav}{\headcommand {\beamer@framepages {70}{70}}}
\@writefile{nav}{\headcommand {\slideentry {0}{0}{55}{71/71}{}{0}}}
\@writefile{nav}{\headcommand {\beamer@framepages {71}{71}}}
\@writefile{nav}{\headcommand {\slideentry {0}{0}{56}{72/72}{}{0}}}
\@writefile{nav}{\headcommand {\beamer@framepages {72}{72}}}
\@writefile{nav}{\headcommand {\slideentry {0}{0}{57}{73/73}{}{0}}}
\@writefile{nav}{\headcommand {\beamer@framepages {73}{73}}}
\newlabel{context_health<1>}{{57}{74}{}{Doc-Start}{}}
\@writefile{snm}{\beamer@slide {context_health<1>}{74}}
\newlabel{context_health}{{57}{74}{}{Doc-Start}{}}
\@writefile{snm}{\beamer@slide {context_health}{74}}
\@writefile{nav}{\headcommand {\slideentry {0}{0}{58}{74/74}{}{0}}}
\@writefile{nav}{\headcommand {\beamer@framepages {74}{74}}}
\@writefile{nav}{\headcommand {\slideentry {0}{0}{59}{75/75}{}{0}}}
\@writefile{nav}{\headcommand {\beamer@framepages {75}{75}}}
\newlabel{reg_health<1>}{{59}{76}{}{Doc-Start}{}}
\@writefile{snm}{\beamer@slide {reg_health<1>}{76}}
\newlabel{reg_health}{{59}{76}{}{Doc-Start}{}}
\@writefile{snm}{\beamer@slide {reg_health}{76}}
\@writefile{nav}{\headcommand {\slideentry {0}{0}{60}{76/76}{}{0}}}
\@writefile{nav}{\headcommand {\beamer@framepages {76}{76}}}
\newlabel{reg_healthIVfs<1>}{{60}{77}{}{Doc-Start}{}}
\@writefile{snm}{\beamer@slide {reg_healthIVfs<1>}{77}}
\newlabel{reg_healthIVfs}{{60}{77}{}{Doc-Start}{}}
\@writefile{snm}{\beamer@slide {reg_healthIVfs}{77}}
\@writefile{nav}{\headcommand {\slideentry {0}{0}{61}{77/77}{}{0}}}
\@writefile{nav}{\headcommand {\beamer@framepages {77}{77}}}
\newlabel{reg_healthIVnsm<1>}{{61}{78}{}{Doc-Start}{}}
\@writefile{snm}{\beamer@slide {reg_healthIVnsm<1>}{78}}
\newlabel{reg_healthIVnsm}{{61}{78}{}{Doc-Start}{}}
\@writefile{snm}{\beamer@slide {reg_healthIVnsm}{78}}
\@writefile{nav}{\headcommand {\slideentry {0}{0}{62}{78/78}{}{0}}}
\@writefile{nav}{\headcommand {\beamer@framepages {78}{78}}}
\@writefile{nav}{\headcommand {\slideentry {0}{0}{63}{79/79}{}{0}}}
\@writefile{nav}{\headcommand {\beamer@framepages {79}{79}}}
\newlabel{discussion<1>}{{63}{80}{}{Doc-Start}{}}
\@writefile{snm}{\beamer@slide {discussion<1>}{80}}
\newlabel{discussion}{{63}{80}{}{Doc-Start}{}}
\@writefile{snm}{\beamer@slide {discussion}{80}}
\@writefile{nav}{\headcommand {\slideentry {0}{0}{64}{80/80}{}{0}}}
\@writefile{nav}{\headcommand {\beamer@framepages {80}{80}}}
\newlabel{costreform<1>}{{64}{81}{}{Doc-Start}{}}
\@writefile{snm}{\beamer@slide {costreform<1>}{81}}
\newlabel{costreform}{{64}{81}{}{Doc-Start}{}}
\@writefile{snm}{\beamer@slide {costreform}{81}}
\@writefile{nav}{\headcommand {\slideentry {0}{0}{65}{81/81}{}{0}}}
\@writefile{nav}{\headcommand {\beamer@framepages {81}{81}}}
\newlabel{healthcostreform<1>}{{65}{82}{}{Doc-Start}{}}
\@writefile{snm}{\beamer@slide {healthcostreform<1>}{82}}
\newlabel{healthcostreform}{{65}{82}{}{Doc-Start}{}}
\@writefile{snm}{\beamer@slide {healthcostreform}{82}}
\@writefile{nav}{\headcommand {\slideentry {0}{0}{66}{82/82}{}{0}}}
\@writefile{nav}{\headcommand {\beamer@framepages {82}{82}}}
\@writefile{nav}{\headcommand {\slideentry {0}{0}{67}{83/83}{}{0}}}
\@writefile{nav}{\headcommand {\beamer@framepages {83}{83}}}
\@writefile{nav}{\headcommand {\slideentry {0}{0}{68}{84/84}{}{0}}}
\@writefile{nav}{\headcommand {\beamer@framepages {84}{84}}}
\newlabel{reg_titulos<1>}{{67}{85}{}{Doc-Start}{}}
\@writefile{snm}{\beamer@slide {reg_titulos<1>}{85}}
\newlabel{reg_titulos}{{67}{85}{}{Doc-Start}{}}
\@writefile{snm}{\beamer@slide {reg_titulos}{85}}
\@writefile{nav}{\headcommand {\slideentry {0}{0}{69}{85/85}{}{0}}}
\@writefile{nav}{\headcommand {\beamer@framepages {85}{85}}}
\newlabel{roy_ineq<1>}{{68}{86}{}{Doc-Start}{}}
\@writefile{snm}{\beamer@slide {roy_ineq<1>}{86}}
\newlabel{roy_ineq}{{68}{86}{}{Doc-Start}{}}
\@writefile{snm}{\beamer@slide {roy_ineq}{86}}
\newlabel{Circle size proportional to population of the municipality}{{68}{86}{}{Doc-Start}{}}
\@writefile{snm}{\beamer@slide {Circle size proportional to population of the municipality}{86}}
\@writefile{nav}{\headcommand {\slideentry {0}{0}{70}{86/86}{}{0}}}
\@writefile{nav}{\headcommand {\beamer@framepages {86}{86}}}
\newlabel{formula<1>}{{69}{87}{}{Doc-Start}{}}
\@writefile{snm}{\beamer@slide {formula<1>}{87}}
\newlabel{formula}{{69}{87}{}{Doc-Start}{}}
\@writefile{snm}{\beamer@slide {formula}{87}}
\@writefile{nav}{\headcommand {\slideentry {0}{0}{71}{87/87}{}{0}}}
\@writefile{nav}{\headcommand {\beamer@framepages {87}{87}}}
\newlabel{example_wl<1>}{{70}{88}{}{Doc-Start}{}}
\@writefile{snm}{\beamer@slide {example_wl<1>}{88}}
\newlabel{example_wl}{{70}{88}{}{Doc-Start}{}}
\@writefile{snm}{\beamer@slide {example_wl}{88}}
\@writefile{nav}{\headcommand {\slideentry {0}{0}{72}{88/88}{}{0}}}
\@writefile{nav}{\headcommand {\beamer@framepages {88}{88}}}
\newlabel{graph_beta<1>}{{71}{89}{}{Doc-Start}{}}
\@writefile{snm}{\beamer@slide {graph_beta<1>}{89}}
\newlabel{graph_beta}{{71}{89}{}{Doc-Start}{}}
\@writefile{snm}{\beamer@slide {graph_beta}{89}}
\@writefile{nav}{\headcommand {\slideentry {0}{0}{73}{89/89}{}{0}}}
\@writefile{nav}{\headcommand {\beamer@framepages {89}{89}}}
\newlabel{graph_Pr<1>}{{72}{90}{}{Doc-Start}{}}
\@writefile{snm}{\beamer@slide {graph_Pr<1>}{90}}
\newlabel{graph_Pr}{{72}{90}{}{Doc-Start}{}}
\@writefile{snm}{\beamer@slide {graph_Pr}{90}}
\@writefile{nav}{\headcommand {\slideentry {0}{0}{74}{90/90}{}{0}}}
\@writefile{nav}{\headcommand {\beamer@framepages {90}{90}}}
\newlabel{thmod_prof<1>}{{73}{91}{}{Doc-Start}{}}
\@writefile{snm}{\beamer@slide {thmod_prof<1>}{91}}
\newlabel{thmod_prof}{{73}{91}{}{Doc-Start}{}}
\@writefile{snm}{\beamer@slide {thmod_prof}{91}}
\@writefile{nav}{\headcommand {\slideentry {0}{0}{75}{91/91}{}{0}}}
\@writefile{nav}{\headcommand {\beamer@framepages {91}{91}}}
\newlabel{model_parameters<1>}{{74}{92}{}{Doc-Start}{}}
\@writefile{snm}{\beamer@slide {model_parameters<1>}{92}}
\newlabel{model_parameters}{{74}{92}{}{Doc-Start}{}}
\@writefile{snm}{\beamer@slide {model_parameters}{92}}
\@writefile{nav}{\headcommand {\slideentry {0}{0}{76}{92/92}{}{0}}}
\@writefile{nav}{\headcommand {\beamer@framepages {92}{92}}}
\newlabel{model_f<1>}{{75}{93}{}{Doc-Start}{}}
\@writefile{snm}{\beamer@slide {model_f<1>}{93}}
\newlabel{model_f}{{75}{93}{}{Doc-Start}{}}
\@writefile{snm}{\beamer@slide {model_f}{93}}
\@writefile{nav}{\headcommand {\slideentry {0}{0}{77}{93/93}{}{0}}}
\@writefile{nav}{\headcommand {\beamer@framepages {93}{93}}}
\newlabel{remove_clouds<1>}{{76}{94}{}{Doc-Start}{}}
\@writefile{snm}{\beamer@slide {remove_clouds<1>}{94}}
\newlabel{remove_clouds}{{76}{94}{}{Doc-Start}{}}
\@writefile{snm}{\beamer@slide {remove_clouds}{94}}
\@writefile{nav}{\headcommand {\slideentry {0}{0}{78}{94/94}{}{0}}}
\@writefile{nav}{\headcommand {\beamer@framepages {94}{94}}}
\newlabel{balancestats_censed<1>}{{77}{95}{}{Doc-Start}{}}
\@writefile{snm}{\beamer@slide {balancestats_censed<1>}{95}}
\newlabel{balancestats_censed}{{77}{95}{}{Doc-Start}{}}
\@writefile{snm}{\beamer@slide {balancestats_censed}{95}}
\@writefile{nav}{\headcommand {\slideentry {0}{0}{79}{95/95}{}{0}}}
\@writefile{nav}{\headcommand {\beamer@framepages {95}{95}}}
\newlabel{reg_vs_trees<1>}{{78}{96}{}{Doc-Start}{}}
\@writefile{snm}{\beamer@slide {reg_vs_trees<1>}{96}}
\newlabel{reg_vs_trees}{{78}{96}{}{Doc-Start}{}}
\@writefile{snm}{\beamer@slide {reg_vs_trees}{96}}
\@writefile{nav}{\headcommand {\slideentry {0}{0}{80}{96/96}{}{0}}}
\@writefile{nav}{\headcommand {\beamer@framepages {96}{96}}}
\newlabel{varimportance<1>}{{79}{97}{}{Doc-Start}{}}
\@writefile{snm}{\beamer@slide {varimportance<1>}{97}}
\newlabel{varimportance}{{79}{97}{}{Doc-Start}{}}
\@writefile{snm}{\beamer@slide {varimportance}{97}}
\@writefile{nav}{\headcommand {\slideentry {0}{0}{81}{97/97}{}{0}}}
\@writefile{nav}{\headcommand {\beamer@framepages {97}{97}}}
\newlabel{erroranal<1>}{{80}{98}{}{Doc-Start}{}}
\@writefile{snm}{\beamer@slide {erroranal<1>}{98}}
\newlabel{erroranal}{{80}{98}{}{Doc-Start}{}}
\@writefile{snm}{\beamer@slide {erroranal}{98}}
\@writefile{nav}{\headcommand {\slideentry {0}{0}{82}{98/98}{}{0}}}
\@writefile{nav}{\headcommand {\beamer@framepages {98}{98}}}
\@writefile{nav}{\headcommand {\slideentry {0}{0}{83}{99/99}{}{0}}}
\@writefile{nav}{\headcommand {\beamer@framepages {99}{99}}}
\newlabel{sumstats_tprfpr<1>}{{82}{100}{}{Doc-Start}{}}
\@writefile{snm}{\beamer@slide {sumstats_tprfpr<1>}{100}}
\newlabel{sumstats_tprfpr}{{82}{100}{}{Doc-Start}{}}
\@writefile{snm}{\beamer@slide {sumstats_tprfpr}{100}}
\@writefile{nav}{\headcommand {\slideentry {0}{0}{84}{100/100}{}{0}}}
\@writefile{nav}{\headcommand {\beamer@framepages {100}{100}}}
\@input{R/mat_conf.aux}
\newlabel{mat_conf<1>}{{83}{101}{}{Doc-Start}{}}
\@writefile{snm}{\beamer@slide {mat_conf<1>}{101}}
\newlabel{mat_conf}{{83}{101}{}{Doc-Start}{}}
\@writefile{snm}{\beamer@slide {mat_conf}{101}}
\@writefile{nav}{\headcommand {\slideentry {0}{0}{85}{101/101}{}{0}}}
\@writefile{nav}{\headcommand {\beamer@framepages {101}{101}}}
\newlabel{dd_basico<1>}{{84}{102}{}{Doc-Start}{}}
\@writefile{snm}{\beamer@slide {dd_basico<1>}{102}}
\newlabel{dd_basico}{{84}{102}{}{Doc-Start}{}}
\@writefile{snm}{\beamer@slide {dd_basico}{102}}
\@writefile{nav}{\headcommand {\slideentry {0}{0}{86}{102/102}{}{0}}}
\@writefile{nav}{\headcommand {\beamer@framepages {102}{102}}}
\newlabel{partrend_wl<1>}{{85}{103}{}{Doc-Start}{}}
\@writefile{snm}{\beamer@slide {partrend_wl<1>}{103}}
\newlabel{partrend_wl}{{85}{103}{}{Doc-Start}{}}
\@writefile{snm}{\beamer@slide {partrend_wl}{103}}
\@writefile{nav}{\headcommand {\slideentry {0}{0}{87}{103/103}{}{0}}}
\@writefile{nav}{\headcommand {\beamer@framepages {103}{103}}}
\newlabel{partrend_colperu<1>}{{86}{104}{}{Doc-Start}{}}
\@writefile{snm}{\beamer@slide {partrend_colperu<1>}{104}}
\newlabel{partrend_colperu}{{86}{104}{}{Doc-Start}{}}
\@writefile{snm}{\beamer@slide {partrend_colperu}{104}}
\@writefile{nav}{\headcommand {\slideentry {0}{0}{88}{104/104}{}{0}}}
\@writefile{nav}{\headcommand {\beamer@framepages {104}{104}}}
\newlabel{gold_price<1>}{{87}{105}{}{Doc-Start}{}}
\@writefile{snm}{\beamer@slide {gold_price<1>}{105}}
\newlabel{gold_price}{{87}{105}{}{Doc-Start}{}}
\@writefile{snm}{\beamer@slide {gold_price}{105}}
\@writefile{nav}{\headcommand {\slideentry {0}{0}{89}{105/105}{}{0}}}
\@writefile{nav}{\headcommand {\beamer@framepages {105}{105}}}
\newlabel{dd_basico_mined<1>}{{88}{106}{}{Doc-Start}{}}
\@writefile{snm}{\beamer@slide {dd_basico_mined<1>}{106}}
\newlabel{dd_basico_mined}{{88}{106}{}{Doc-Start}{}}
\@writefile{snm}{\beamer@slide {dd_basico_mined}{106}}
\@writefile{nav}{\headcommand {\slideentry {0}{0}{90}{106/106}{}{0}}}
\@writefile{nav}{\headcommand {\beamer@framepages {106}{106}}}
\newlabel{sumstats_muni<1>}{{89}{107}{}{Doc-Start}{}}
\@writefile{snm}{\beamer@slide {sumstats_muni<1>}{107}}
\newlabel{sumstats_muni}{{89}{107}{}{Doc-Start}{}}
\@writefile{snm}{\beamer@slide {sumstats_muni}{107}}
\@writefile{nav}{\headcommand {\slideentry {0}{0}{91}{107/107}{}{0}}}
\@writefile{nav}{\headcommand {\beamer@framepages {107}{107}}}
\newlabel{sumstats_regvarmined<1>}{{90}{108}{}{Doc-Start}{}}
\@writefile{snm}{\beamer@slide {sumstats_regvarmined<1>}{108}}
\newlabel{sumstats_regvarmined}{{90}{108}{}{Doc-Start}{}}
\@writefile{snm}{\beamer@slide {sumstats_regvarmined}{108}}
\@writefile{nav}{\headcommand {\slideentry {0}{0}{92}{108/108}{}{0}}}
\@writefile{nav}{\headcommand {\beamer@framepages {108}{108}}}
\newlabel{balancestats_muni<1>}{{91}{109}{}{Doc-Start}{}}
\@writefile{snm}{\beamer@slide {balancestats_muni<1>}{109}}
\newlabel{balancestats_muni}{{91}{109}{}{Doc-Start}{}}
\@writefile{snm}{\beamer@slide {balancestats_muni}{109}}
\@writefile{nav}{\headcommand {\slideentry {0}{0}{93}{109/109}{}{0}}}
\@writefile{nav}{\headcommand {\beamer@framepages {109}{109}}}
\newlabel{sumstats_regvarperu<1>}{{92}{110}{}{Doc-Start}{}}
\@writefile{snm}{\beamer@slide {sumstats_regvarperu<1>}{110}}
\newlabel{sumstats_regvarperu}{{92}{110}{}{Doc-Start}{}}
\@writefile{snm}{\beamer@slide {sumstats_regvarperu}{110}}
\@writefile{nav}{\headcommand {\slideentry {0}{0}{94}{110/110}{}{0}}}
\@writefile{nav}{\headcommand {\beamer@framepages {110}{110}}}
\newlabel{sumstats_ftotalperu<1>}{{93}{111}{}{Doc-Start}{}}
\@writefile{snm}{\beamer@slide {sumstats_ftotalperu<1>}{111}}
\newlabel{sumstats_ftotalperu}{{93}{111}{}{Doc-Start}{}}
\@writefile{snm}{\beamer@slide {sumstats_ftotalperu}{111}}
\@writefile{nav}{\headcommand {\slideentry {0}{0}{95}{111/111}{}{0}}}
\@writefile{nav}{\headcommand {\beamer@framepages {111}{111}}}
\newlabel{reg_non_parametric<1>}{{94}{112}{}{Doc-Start}{}}
\@writefile{snm}{\beamer@slide {reg_non_parametric<1>}{112}}
\newlabel{reg_non_parametric}{{94}{112}{}{Doc-Start}{}}
\@writefile{snm}{\beamer@slide {reg_non_parametric}{112}}
\@writefile{nav}{\headcommand {\slideentry {0}{0}{96}{112/112}{}{0}}}
\@writefile{nav}{\headcommand {\beamer@framepages {112}{112}}}
\newlabel{reg_c12<1>}{{95}{113}{}{Doc-Start}{}}
\@writefile{snm}{\beamer@slide {reg_c12<1>}{113}}
\newlabel{reg_c12}{{95}{113}{}{Doc-Start}{}}
\@writefile{snm}{\beamer@slide {reg_c12}{113}}
\@writefile{nav}{\headcommand {\slideentry {0}{0}{97}{113/113}{}{0}}}
\@writefile{nav}{\headcommand {\beamer@framepages {113}{113}}}
\newlabel{reg_probpixmined<1>}{{96}{114}{}{Doc-Start}{}}
\@writefile{snm}{\beamer@slide {reg_probpixmined<1>}{114}}
\newlabel{reg_probpixmined}{{96}{114}{}{Doc-Start}{}}
\@writefile{snm}{\beamer@slide {reg_probpixmined}{114}}
\@writefile{nav}{\headcommand {\slideentry {0}{0}{98}{114/114}{}{0}}}
\@writefile{nav}{\headcommand {\beamer@framepages {114}{114}}}
\newlabel{legalization<1>}{{97}{115}{}{Doc-Start}{}}
\@writefile{snm}{\beamer@slide {legalization<1>}{115}}
\newlabel{legalization}{{97}{115}{}{Doc-Start}{}}
\@writefile{snm}{\beamer@slide {legalization}{115}}
\@writefile{nav}{\headcommand {\slideentry {0}{0}{99}{115/115}{}{0}}}
\@writefile{nav}{\headcommand {\beamer@framepages {115}{115}}}
\newlabel{altonji_mined<1>}{{98}{116}{}{Doc-Start}{}}
\@writefile{snm}{\beamer@slide {altonji_mined<1>}{116}}
\newlabel{altonji_mined}{{98}{116}{}{Doc-Start}{}}
\@writefile{snm}{\beamer@slide {altonji_mined}{116}}
\@writefile{nav}{\headcommand {\slideentry {0}{0}{100}{116/116}{}{0}}}
\@writefile{nav}{\headcommand {\beamer@framepages {116}{116}}}
\newlabel{reg_lasso<1>}{{99}{117}{}{Doc-Start}{}}
\@writefile{snm}{\beamer@slide {reg_lasso<1>}{117}}
\newlabel{reg_lasso}{{99}{117}{}{Doc-Start}{}}
\@writefile{snm}{\beamer@slide {reg_lasso}{117}}
\@writefile{nav}{\headcommand {\slideentry {0}{0}{101}{117/117}{}{0}}}
\@writefile{nav}{\headcommand {\beamer@framepages {117}{117}}}
\newlabel{reg_lasso_continuous<1>}{{100}{118}{}{Doc-Start}{}}
\@writefile{snm}{\beamer@slide {reg_lasso_continuous<1>}{118}}
\newlabel{reg_lasso_continuous}{{100}{118}{}{Doc-Start}{}}
\@writefile{snm}{\beamer@slide {reg_lasso_continuous}{118}}
\@writefile{nav}{\headcommand {\slideentry {0}{0}{102}{118/118}{}{0}}}
\@writefile{nav}{\headcommand {\beamer@framepages {118}{118}}}
\newlabel{reg_adj<1>}{{101}{119}{}{Doc-Start}{}}
\@writefile{snm}{\beamer@slide {reg_adj<1>}{119}}
\newlabel{reg_adj}{{101}{119}{}{Doc-Start}{}}
\@writefile{snm}{\beamer@slide {reg_adj}{119}}
\@writefile{nav}{\headcommand {\slideentry {0}{0}{103}{119/119}{}{0}}}
\@writefile{nav}{\headcommand {\beamer@framepages {119}{119}}}
\newlabel{reg_weights<1>}{{102}{120}{}{Doc-Start}{}}
\@writefile{snm}{\beamer@slide {reg_weights<1>}{120}}
\newlabel{reg_weights}{{102}{120}{}{Doc-Start}{}}
\@writefile{snm}{\beamer@slide {reg_weights}{120}}
\@writefile{nav}{\headcommand {\slideentry {0}{0}{104}{120/120}{}{0}}}
\@writefile{nav}{\headcommand {\beamer@framepages {120}{120}}}
\newlabel{reg_dummy_deptr<1>}{{103}{121}{}{Doc-Start}{}}
\@writefile{snm}{\beamer@slide {reg_dummy_deptr<1>}{121}}
\newlabel{reg_dummy_deptr}{{103}{121}{}{Doc-Start}{}}
\@writefile{snm}{\beamer@slide {reg_dummy_deptr}{121}}
\@writefile{nav}{\headcommand {\slideentry {0}{0}{105}{121/121}{}{0}}}
\@writefile{nav}{\headcommand {\beamer@framepages {121}{121}}}
\newlabel{reg_otherm<1>}{{104}{122}{}{Doc-Start}{}}
\@writefile{snm}{\beamer@slide {reg_otherm<1>}{122}}
\newlabel{reg_otherm}{{104}{122}{}{Doc-Start}{}}
\@writefile{snm}{\beamer@slide {reg_otherm}{122}}
\@writefile{nav}{\headcommand {\slideentry {0}{0}{106}{122/122}{}{0}}}
\@writefile{nav}{\headcommand {\beamer@framepages {122}{122}}}
\newlabel{reg_newarea<1>}{{105}{123}{}{Doc-Start}{}}
\@writefile{snm}{\beamer@slide {reg_newarea<1>}{123}}
\newlabel{reg_newarea}{{105}{123}{}{Doc-Start}{}}
\@writefile{snm}{\beamer@slide {reg_newarea}{123}}
\@writefile{nav}{\headcommand {\slideentry {0}{0}{107}{123/123}{}{0}}}
\@writefile{nav}{\headcommand {\beamer@framepages {123}{123}}}
\newlabel{reg_peruRD<1>}{{106}{124}{}{Doc-Start}{}}
\@writefile{snm}{\beamer@slide {reg_peruRD<1>}{124}}
\newlabel{reg_peruRD}{{106}{124}{}{Doc-Start}{}}
\@writefile{snm}{\beamer@slide {reg_peruRD}{124}}
\@writefile{nav}{\headcommand {\slideentry {0}{0}{108}{124/124}{}{0}}}
\@writefile{nav}{\headcommand {\beamer@framepages {124}{124}}}
\newlabel{dd_basico_titulos<1>}{{107}{125}{}{Doc-Start}{}}
\@writefile{snm}{\beamer@slide {dd_basico_titulos<1>}{125}}
\newlabel{dd_basico_titulos}{{107}{125}{}{Doc-Start}{}}
\@writefile{snm}{\beamer@slide {dd_basico_titulos}{125}}
\@writefile{nav}{\headcommand {\slideentry {0}{0}{109}{125/125}{}{0}}}
\@writefile{nav}{\headcommand {\beamer@framepages {125}{125}}}
\newlabel{balancestats_inst<1>}{{108}{126}{}{Doc-Start}{}}
\@writefile{snm}{\beamer@slide {balancestats_inst<1>}{126}}
\newlabel{balancestats_inst}{{108}{126}{}{Doc-Start}{}}
\@writefile{snm}{\beamer@slide {balancestats_inst}{126}}
\@writefile{nav}{\headcommand {\slideentry {0}{0}{110}{126/126}{}{0}}}
\@writefile{nav}{\headcommand {\beamer@framepages {126}{126}}}
\newlabel{het_plot<1>}{{109}{127}{}{Doc-Start}{}}
\@writefile{snm}{\beamer@slide {het_plot<1>}{127}}
\newlabel{het_plot}{{109}{127}{}{Doc-Start}{}}
\@writefile{snm}{\beamer@slide {het_plot}{127}}
\@writefile{nav}{\headcommand {\slideentry {0}{0}{111}{127/127}{}{0}}}
\@writefile{nav}{\headcommand {\beamer@framepages {127}{127}}}
\newlabel{reg_het1<1>}{{110}{128}{}{Doc-Start}{}}
\@writefile{snm}{\beamer@slide {reg_het1<1>}{128}}
\newlabel{reg_het1}{{110}{128}{}{Doc-Start}{}}
\@writefile{snm}{\beamer@slide {reg_het1}{128}}
\@writefile{nav}{\headcommand {\slideentry {0}{0}{112}{128/128}{}{0}}}
\@writefile{nav}{\headcommand {\beamer@framepages {128}{128}}}
\newlabel{reg_het2<1>}{{111}{129}{}{Doc-Start}{}}
\@writefile{snm}{\beamer@slide {reg_het2<1>}{129}}
\newlabel{reg_het2}{{111}{129}{}{Doc-Start}{}}
\@writefile{snm}{\beamer@slide {reg_het2}{129}}
\@writefile{nav}{\headcommand {\slideentry {0}{0}{113}{129/129}{}{0}}}
\@writefile{nav}{\headcommand {\beamer@framepages {129}{129}}}
\newlabel{sumstats_healthExp<1>}{{112}{130}{}{Doc-Start}{}}
\@writefile{snm}{\beamer@slide {sumstats_healthExp<1>}{130}}
\newlabel{sumstats_healthExp}{{112}{130}{}{Doc-Start}{}}
\@writefile{snm}{\beamer@slide {sumstats_healthExp}{130}}
\@writefile{nav}{\headcommand {\slideentry {0}{0}{114}{130/130}{}{0}}}
\@writefile{nav}{\headcommand {\beamer@framepages {130}{130}}}
\newlabel{sumstats_healthUps<1>}{{113}{131}{}{Doc-Start}{}}
\@writefile{snm}{\beamer@slide {sumstats_healthUps<1>}{131}}
\newlabel{sumstats_healthUps}{{113}{131}{}{Doc-Start}{}}
\@writefile{snm}{\beamer@slide {sumstats_healthUps}{131}}
\@writefile{nav}{\headcommand {\slideentry {0}{0}{115}{131/131}{}{0}}}
\@writefile{nav}{\headcommand {\beamer@framepages {131}{131}}}
\newlabel{reg_health2<1>}{{114}{132}{}{Doc-Start}{}}
\@writefile{snm}{\beamer@slide {reg_health2<1>}{132}}
\newlabel{reg_health2}{{114}{132}{}{Doc-Start}{}}
\@writefile{snm}{\beamer@slide {reg_health2}{132}}
\@writefile{nav}{\headcommand {\slideentry {0}{0}{116}{132/132}{}{0}}}
\@writefile{nav}{\headcommand {\beamer@framepages {132}{132}}}
\newlabel{reg_povertyRD<1>}{{115}{133}{}{Doc-Start}{}}
\@writefile{snm}{\beamer@slide {reg_povertyRD<1>}{133}}
\newlabel{reg_povertyRD}{{115}{133}{}{Doc-Start}{}}
\@writefile{snm}{\beamer@slide {reg_povertyRD}{133}}
\@writefile{nav}{\headcommand {\slideentry {0}{0}{117}{133/133}{}{0}}}
\@writefile{nav}{\headcommand {\beamer@framepages {133}{133}}}
\newlabel{titlesyear_plot<1>}{{116}{134}{}{Doc-Start}{}}
\@writefile{snm}{\beamer@slide {titlesyear_plot<1>}{134}}
\newlabel{titlesyear_plot}{{116}{134}{}{Doc-Start}{}}
\@writefile{snm}{\beamer@slide {titlesyear_plot}{134}}
\@writefile{nav}{\headcommand {\slideentry {0}{0}{118}{134/134}{}{0}}}
\@writefile{nav}{\headcommand {\beamer@framepages {134}{134}}}
\newlabel{reg_tit2014<1>}{{117}{135}{}{Doc-Start}{}}
\@writefile{snm}{\beamer@slide {reg_tit2014<1>}{135}}
\newlabel{reg_tit2014}{{117}{135}{}{Doc-Start}{}}
\@writefile{snm}{\beamer@slide {reg_tit2014}{135}}
\@writefile{nav}{\headcommand {\slideentry {0}{0}{119}{135/135}{}{0}}}
\@writefile{nav}{\headcommand {\beamer@framepages {135}{135}}}
\newlabel{reg_prod_raw<1>}{{118}{136}{}{Doc-Start}{}}
\@writefile{snm}{\beamer@slide {reg_prod_raw<1>}{136}}
\newlabel{reg_prod_raw}{{118}{136}{}{Doc-Start}{}}
\@writefile{snm}{\beamer@slide {reg_prod_raw}{136}}
\@writefile{nav}{\headcommand {\slideentry {0}{0}{120}{136/136}{}{0}}}
\@writefile{nav}{\headcommand {\beamer@framepages {136}{136}}}
\newlabel{eqn_health<1>}{{119}{137}{}{Doc-Start}{}}
\@writefile{snm}{\beamer@slide {eqn_health<1>}{137}}
\newlabel{eqn_health}{{119}{137}{}{Doc-Start}{}}
\@writefile{snm}{\beamer@slide {eqn_health}{137}}
\@writefile{nav}{\headcommand {\slideentry {0}{0}{121}{137/137}{}{0}}}
\@writefile{nav}{\headcommand {\beamer@framepages {137}{137}}}
\@writefile{nav}{\headcommand {\slideentry {0}{0}{122}{138/138}{}{0}}}
\@writefile{nav}{\headcommand {\beamer@framepages {138}{138}}}
\@writefile{nav}{\headcommand {\slideentry {0}{0}{123}{139/139}{}{0}}}
\@writefile{nav}{\headcommand {\beamer@framepages {139}{139}}}
\@writefile{nav}{\headcommand {\slideentry {0}{0}{124}{140/140}{}{0}}}
\@writefile{nav}{\headcommand {\beamer@framepages {140}{140}}}
\@writefile{nav}{\headcommand {\slideentry {0}{0}{125}{141/141}{}{0}}}
\@writefile{nav}{\headcommand {\beamer@framepages {141}{141}}}
\bibstyle{apacite}
\bibdata{bibille}
\@writefile{nav}{\headcommand {\slideentry {0}{0}{126}{142/142}{}{0}}}
\@writefile{nav}{\headcommand {\beamer@framepages {142}{142}}}
\@writefile{nav}{\headcommand {\beamer@partpages {1}{142}}}
\@writefile{nav}{\headcommand {\beamer@subsectionpages {1}{142}}}
\@writefile{nav}{\headcommand {\beamer@sectionpages {1}{142}}}
\@writefile{nav}{\headcommand {\beamer@documentpages {142}}}
\@writefile{nav}{\headcommand {\def \inserttotalframenumber {68}}}
