\relax 
\providecommand\hyper@newdestlabel[2]{}
\providecommand\HyperFirstAtBeginDocument{\AtBeginDocument}
\HyperFirstAtBeginDocument{\ifx\hyper@anchor\@undefined
\global\let\oldcontentsline\contentsline
\gdef\contentsline#1#2#3#4{\oldcontentsline{#1}{#2}{#3}}
\global\let\oldnewlabel\newlabel
\gdef\newlabel#1#2{\newlabelxx{#1}#2}
\gdef\newlabelxx#1#2#3#4#5#6{\oldnewlabel{#1}{{#2}{#3}}}
\AtEndDocument{\ifx\hyper@anchor\@undefined
\let\contentsline\oldcontentsline
\let\newlabel\oldnewlabel
\fi}
\fi}
\global\let\hyper@last\relax 
\gdef\HyperFirstAtBeginDocument#1{#1}
\providecommand\HyField@AuxAddToFields[1]{}
\providecommand\HyField@AuxAddToCoFields[2]{}
\providecommand \oddpage@label [2]{}
\select@language{english}
\@writefile{toc}{\select@language{english}}
\@writefile{lof}{\select@language{english}}
\@writefile{lot}{\select@language{english}}
\@writefile{nav}{\headcommand {\slideentry {0}{0}{1}{1/1}{}{0}}}
\@writefile{nav}{\headcommand {\beamer@framepages {1}{1}}}
\@writefile{nav}{\headcommand {\slideentry {0}{0}{2}{2/2}{}{0}}}
\@writefile{nav}{\headcommand {\beamer@framepages {2}{2}}}
\@writefile{nav}{\headcommand {\slideentry {0}{0}{3}{3/4}{}{0}}}
\@writefile{nav}{\headcommand {\beamer@framepages {3}{4}}}
\@writefile{nav}{\headcommand {\slideentry {0}{0}{4}{5/6}{}{0}}}
\@writefile{nav}{\headcommand {\beamer@framepages {5}{6}}}
\@writefile{nav}{\headcommand {\slideentry {0}{0}{5}{7/8}{}{0}}}
\@writefile{nav}{\headcommand {\beamer@framepages {7}{8}}}
\@writefile{nav}{\headcommand {\slideentry {0}{0}{6}{9/9}{}{0}}}
\@writefile{nav}{\headcommand {\beamer@framepages {9}{9}}}
\newlabel{context<1>}{{7}{10}{}{Doc-Start}{}}
\@writefile{snm}{\beamer@slide {context<1>}{10}}
\newlabel{context}{{7}{10}{}{Doc-Start}{}}
\@writefile{snm}{\beamer@slide {context}{10}}
\newlabel{context<2>}{{7}{11}{}{Doc-Start}{}}
\@writefile{snm}{\beamer@slide {context<2>}{11}}
\@writefile{nav}{\headcommand {\slideentry {0}{0}{7}{10/11}{}{0}}}
\@writefile{nav}{\headcommand {\beamer@framepages {10}{11}}}
\@writefile{nav}{\headcommand {\slideentry {0}{0}{8}{12/15}{}{0}}}
\@writefile{nav}{\headcommand {\beamer@framepages {12}{15}}}
\@writefile{nav}{\headcommand {\slideentry {0}{0}{9}{16/16}{}{0}}}
\@writefile{nav}{\headcommand {\beamer@framepages {16}{16}}}
\newlabel{prepare<1>}{{10}{17}{}{Doc-Start}{}}
\@writefile{snm}{\beamer@slide {prepare<1>}{17}}
\newlabel{prepare}{{10}{17}{}{Doc-Start}{}}
\@writefile{snm}{\beamer@slide {prepare}{17}}
\@writefile{nav}{\headcommand {\slideentry {0}{0}{10}{17/17}{}{0}}}
\@writefile{nav}{\headcommand {\beamer@framepages {17}{17}}}
\newlabel{remove_clouds<1>}{{11}{18}{}{Doc-Start}{}}
\@writefile{snm}{\beamer@slide {remove_clouds<1>}{18}}
\newlabel{remove_clouds}{{11}{18}{}{Doc-Start}{}}
\@writefile{snm}{\beamer@slide {remove_clouds}{18}}
\@writefile{nav}{\headcommand {\slideentry {0}{0}{11}{18/18}{}{0}}}
\@writefile{nav}{\headcommand {\beamer@framepages {18}{18}}}
\newlabel{graph_prepare<1>}{{12}{19}{}{Doc-Start}{}}
\@writefile{snm}{\beamer@slide {graph_prepare<1>}{19}}
\newlabel{graph_prepare}{{12}{19}{}{Doc-Start}{}}
\@writefile{snm}{\beamer@slide {graph_prepare}{19}}
\@writefile{nav}{\headcommand {\slideentry {0}{0}{12}{19/19}{}{0}}}
\@writefile{nav}{\headcommand {\beamer@framepages {19}{19}}}
\newlabel{challenges<1>}{{13}{20}{}{Doc-Start}{}}
\@writefile{snm}{\beamer@slide {challenges<1>}{20}}
\newlabel{challenges}{{13}{20}{}{Doc-Start}{}}
\@writefile{snm}{\beamer@slide {challenges}{20}}
\@writefile{nav}{\headcommand {\slideentry {0}{0}{13}{20/20}{}{0}}}
\@writefile{nav}{\headcommand {\beamer@framepages {20}{20}}}
\newlabel{reg_vs_trees<1>}{{14}{21}{}{Doc-Start}{}}
\@writefile{snm}{\beamer@slide {reg_vs_trees<1>}{21}}
\newlabel{reg_vs_trees}{{14}{21}{}{Doc-Start}{}}
\@writefile{snm}{\beamer@slide {reg_vs_trees}{21}}
\@writefile{nav}{\headcommand {\slideentry {0}{0}{14}{21/21}{}{0}}}
\@writefile{nav}{\headcommand {\beamer@framepages {21}{21}}}
\newlabel{varimportance<1>}{{15}{22}{}{Doc-Start}{}}
\@writefile{snm}{\beamer@slide {varimportance<1>}{22}}
\newlabel{varimportance}{{15}{22}{}{Doc-Start}{}}
\@writefile{snm}{\beamer@slide {varimportance}{22}}
\@writefile{nav}{\headcommand {\slideentry {0}{0}{15}{22/22}{}{0}}}
\@writefile{nav}{\headcommand {\beamer@framepages {22}{22}}}
\newlabel{whatRF<1>}{{16}{23}{}{Doc-Start}{}}
\@writefile{snm}{\beamer@slide {whatRF<1>}{23}}
\newlabel{whatRF}{{16}{23}{}{Doc-Start}{}}
\@writefile{snm}{\beamer@slide {whatRF}{23}}
\@writefile{nav}{\headcommand {\slideentry {0}{0}{16}{23/23}{}{0}}}
\@writefile{nav}{\headcommand {\beamer@framepages {23}{23}}}
\newlabel{whatRF<1>}{{17}{24}{}{Doc-Start}{}}
\@writefile{snm}{\beamer@slide {whatRF<1>}{24}}
\newlabel{whatRF}{{17}{24}{}{Doc-Start}{}}
\@writefile{snm}{\beamer@slide {whatRF}{24}}
\@writefile{nav}{\headcommand {\slideentry {0}{0}{17}{24/24}{}{0}}}
\@writefile{nav}{\headcommand {\beamer@framepages {24}{24}}}
\@writefile{nav}{\headcommand {\slideentry {0}{0}{18}{25/25}{}{0}}}
\@writefile{nav}{\headcommand {\beamer@framepages {25}{25}}}
\newlabel{ROC<1>}{{19}{26}{}{Doc-Start}{}}
\@writefile{snm}{\beamer@slide {ROC<1>}{26}}
\newlabel{ROC}{{19}{26}{}{Doc-Start}{}}
\@writefile{snm}{\beamer@slide {ROC}{26}}
\@writefile{nav}{\headcommand {\slideentry {0}{0}{19}{26/26}{}{0}}}
\@writefile{nav}{\headcommand {\beamer@framepages {26}{26}}}
\@writefile{nav}{\headcommand {\slideentry {0}{0}{20}{27/27}{}{0}}}
\@writefile{nav}{\headcommand {\beamer@framepages {27}{27}}}
\newlabel{graph_predlegal<1>}{{21}{28}{}{Doc-Start}{}}
\@writefile{snm}{\beamer@slide {graph_predlegal<1>}{28}}
\newlabel{graph_predlegal}{{21}{28}{}{Doc-Start}{}}
\@writefile{snm}{\beamer@slide {graph_predlegal}{28}}
\@writefile{nav}{\headcommand {\slideentry {0}{0}{21}{28/28}{}{0}}}
\@writefile{nav}{\headcommand {\beamer@framepages {28}{28}}}
\@writefile{nav}{\headcommand {\slideentry {0}{0}{22}{29/29}{}{0}}}
\@writefile{nav}{\headcommand {\beamer@framepages {29}{29}}}
\@writefile{nav}{\headcommand {\slideentry {0}{0}{23}{30/30}{}{0}}}
\@writefile{nav}{\headcommand {\beamer@framepages {30}{30}}}
\@writefile{nav}{\headcommand {\slideentry {0}{0}{24}{31/31}{}{0}}}
\@writefile{nav}{\headcommand {\beamer@framepages {31}{31}}}
\@writefile{nav}{\headcommand {\slideentry {0}{0}{25}{32/32}{}{0}}}
\@writefile{nav}{\headcommand {\beamer@framepages {32}{32}}}
\@writefile{nav}{\headcommand {\slideentry {0}{0}{26}{33/33}{}{0}}}
\@writefile{nav}{\headcommand {\beamer@framepages {33}{33}}}
\@writefile{nav}{\headcommand {\beamer@partpages {1}{33}}}
\@writefile{nav}{\headcommand {\beamer@subsectionpages {1}{33}}}
\@writefile{nav}{\headcommand {\beamer@sectionpages {1}{33}}}
\@writefile{nav}{\headcommand {\beamer@documentpages {33}}}
\@writefile{nav}{\headcommand {\def \inserttotalframenumber {24}}}
