\relax 
\providecommand\hyper@newdestlabel[2]{}
\providecommand\HyperFirstAtBeginDocument{\AtBeginDocument}
\HyperFirstAtBeginDocument{\ifx\hyper@anchor\@undefined
\global\let\oldcontentsline\contentsline
\gdef\contentsline#1#2#3#4{\oldcontentsline{#1}{#2}{#3}}
\global\let\oldnewlabel\newlabel
\gdef\newlabel#1#2{\newlabelxx{#1}#2}
\gdef\newlabelxx#1#2#3#4#5#6{\oldnewlabel{#1}{{#2}{#3}}}
\AtEndDocument{\ifx\hyper@anchor\@undefined
\let\contentsline\oldcontentsline
\let\newlabel\oldnewlabel
\fi}
\fi}
\global\let\hyper@last\relax 
\gdef\HyperFirstAtBeginDocument#1{#1}
\providecommand\HyField@AuxAddToFields[1]{}
\providecommand\HyField@AuxAddToCoFields[2]{}
\providecommand \oddpage@label [2]{}
\babel@aux{english}{}
\@writefile{nav}{\headcommand {\slideentry {0}{0}{1}{1/1}{}{0}}}
\@writefile{nav}{\headcommand {\beamer@framepages {1}{1}}}
\@writefile{nav}{\headcommand {\slideentry {0}{0}{2}{2/4}{}{0}}}
\@writefile{nav}{\headcommand {\beamer@framepages {2}{4}}}
\@writefile{nav}{\headcommand {\slideentry {0}{0}{3}{5/6}{}{0}}}
\@writefile{nav}{\headcommand {\beamer@framepages {5}{6}}}
\@writefile{nav}{\headcommand {\slideentry {0}{0}{4}{7/7}{}{0}}}
\@writefile{nav}{\headcommand {\beamer@framepages {7}{7}}}
\@writefile{nav}{\headcommand {\slideentry {0}{0}{5}{8/8}{}{0}}}
\@writefile{nav}{\headcommand {\beamer@framepages {8}{8}}}
\newlabel{context<1>}{{6}{9}{}{Doc-Start}{}}
\@writefile{snm}{\beamer@slide {context<1>}{9}}
\newlabel{context}{{6}{9}{}{Doc-Start}{}}
\@writefile{snm}{\beamer@slide {context}{9}}
\newlabel{context<2>}{{6}{10}{}{Doc-Start}{}}
\@writefile{snm}{\beamer@slide {context<2>}{10}}
\@writefile{nav}{\headcommand {\slideentry {0}{0}{6}{9/10}{}{0}}}
\@writefile{nav}{\headcommand {\beamer@framepages {9}{10}}}
\@writefile{nav}{\headcommand {\slideentry {0}{0}{7}{11/15}{}{0}}}
\@writefile{nav}{\headcommand {\beamer@framepages {11}{15}}}
\newlabel{graph_prepare<1>}{{8}{16}{}{Doc-Start}{}}
\@writefile{snm}{\beamer@slide {graph_prepare<1>}{16}}
\newlabel{graph_prepare}{{8}{16}{}{Doc-Start}{}}
\@writefile{snm}{\beamer@slide {graph_prepare}{16}}
\@writefile{nav}{\headcommand {\slideentry {0}{0}{8}{16/16}{}{0}}}
\@writefile{nav}{\headcommand {\beamer@framepages {16}{16}}}
\newlabel{training_testing<1>}{{9}{17}{}{Doc-Start}{}}
\@writefile{snm}{\beamer@slide {training_testing<1>}{17}}
\newlabel{training_testing}{{9}{17}{}{Doc-Start}{}}
\@writefile{snm}{\beamer@slide {training_testing}{17}}
\@writefile{nav}{\headcommand {\slideentry {0}{0}{9}{17/17}{}{0}}}
\@writefile{nav}{\headcommand {\beamer@framepages {17}{17}}}
\newlabel{graph_predlegal<1>}{{10}{18}{}{Doc-Start}{}}
\@writefile{snm}{\beamer@slide {graph_predlegal<1>}{18}}
\newlabel{graph_predlegal}{{10}{18}{}{Doc-Start}{}}
\@writefile{snm}{\beamer@slide {graph_predlegal}{18}}
\@writefile{nav}{\headcommand {\slideentry {0}{0}{10}{18/18}{}{0}}}
\@writefile{nav}{\headcommand {\beamer@framepages {18}{18}}}
\@writefile{nav}{\headcommand {\slideentry {0}{0}{11}{19/19}{}{0}}}
\@writefile{nav}{\headcommand {\beamer@framepages {19}{19}}}
\@writefile{nav}{\headcommand {\slideentry {0}{0}{12}{20/20}{}{0}}}
\@writefile{nav}{\headcommand {\beamer@framepages {20}{20}}}
\@writefile{nav}{\headcommand {\slideentry {0}{0}{13}{21/21}{}{0}}}
\@writefile{nav}{\headcommand {\beamer@framepages {21}{21}}}
\@writefile{nav}{\headcommand {\slideentry {0}{0}{14}{22/22}{}{0}}}
\@writefile{nav}{\headcommand {\beamer@framepages {22}{22}}}
\@writefile{nav}{\headcommand {\slideentry {0}{0}{15}{23/23}{}{0}}}
\@writefile{nav}{\headcommand {\beamer@framepages {23}{23}}}
\@writefile{nav}{\headcommand {\slideentry {0}{0}{16}{24/24}{}{0}}}
\@writefile{nav}{\headcommand {\beamer@framepages {24}{24}}}
\@writefile{nav}{\headcommand {\slideentry {0}{0}{17}{25/25}{}{0}}}
\@writefile{nav}{\headcommand {\beamer@framepages {25}{25}}}
\@writefile{nav}{\headcommand {\beamer@partpages {1}{25}}}
\@writefile{nav}{\headcommand {\beamer@subsectionpages {1}{25}}}
\@writefile{nav}{\headcommand {\beamer@sectionpages {1}{25}}}
\@writefile{nav}{\headcommand {\beamer@documentpages {25}}}
\@writefile{nav}{\headcommand {\gdef \inserttotalframenumber {17}}}
