\relax 
\providecommand\hyper@newdestlabel[2]{}
\providecommand\HyperFirstAtBeginDocument{\AtBeginDocument}
\HyperFirstAtBeginDocument{\ifx\hyper@anchor\@undefined
\global\let\oldcontentsline\contentsline
\gdef\contentsline#1#2#3#4{\oldcontentsline{#1}{#2}{#3}}
\global\let\oldnewlabel\newlabel
\gdef\newlabel#1#2{\newlabelxx{#1}#2}
\gdef\newlabelxx#1#2#3#4#5#6{\oldnewlabel{#1}{{#2}{#3}}}
\AtEndDocument{\ifx\hyper@anchor\@undefined
\let\contentsline\oldcontentsline
\let\newlabel\oldnewlabel
\fi}
\fi}
\global\let\hyper@last\relax 
\gdef\HyperFirstAtBeginDocument#1{#1}
\providecommand\HyField@AuxAddToFields[1]{}
\providecommand\HyField@AuxAddToCoFields[2]{}
\providecommand \oddpage@label [2]{}
\select@language{english}
\@writefile{toc}{\select@language{english}}
\@writefile{lof}{\select@language{english}}
\@writefile{lot}{\select@language{english}}
\@writefile{nav}{\headcommand {\slideentry {0}{0}{1}{1/1}{}{0}}}
\@writefile{nav}{\headcommand {\beamer@framepages {1}{1}}}
\@writefile{nav}{\headcommand {\slideentry {0}{0}{2}{2/4}{}{0}}}
\@writefile{nav}{\headcommand {\beamer@framepages {2}{4}}}
\@writefile{nav}{\headcommand {\slideentry {0}{0}{3}{5/6}{}{0}}}
\@writefile{nav}{\headcommand {\beamer@framepages {5}{6}}}
\@writefile{nav}{\headcommand {\slideentry {0}{0}{4}{7/7}{}{0}}}
\@writefile{nav}{\headcommand {\beamer@framepages {7}{7}}}
\newlabel{context<1>}{{5}{8}{}{Doc-Start}{}}
\@writefile{snm}{\beamer@slide {context<1>}{8}}
\newlabel{context}{{5}{8}{}{Doc-Start}{}}
\@writefile{snm}{\beamer@slide {context}{8}}
\newlabel{context<2>}{{5}{9}{}{Doc-Start}{}}
\@writefile{snm}{\beamer@slide {context<2>}{9}}
\@writefile{nav}{\headcommand {\slideentry {0}{0}{5}{8/9}{}{0}}}
\@writefile{nav}{\headcommand {\beamer@framepages {8}{9}}}
\@writefile{nav}{\headcommand {\slideentry {0}{0}{6}{10/14}{}{0}}}
\@writefile{nav}{\headcommand {\beamer@framepages {10}{14}}}
\@writefile{nav}{\headcommand {\slideentry {0}{0}{7}{15/15}{}{0}}}
\@writefile{nav}{\headcommand {\beamer@framepages {15}{15}}}
\newlabel{prepare<1>}{{8}{16}{}{Doc-Start}{}}
\@writefile{snm}{\beamer@slide {prepare<1>}{16}}
\newlabel{prepare}{{8}{16}{}{Doc-Start}{}}
\@writefile{snm}{\beamer@slide {prepare}{16}}
\@writefile{nav}{\headcommand {\slideentry {0}{0}{8}{16/16}{}{0}}}
\@writefile{nav}{\headcommand {\beamer@framepages {16}{16}}}
\newlabel{graph_prepare<1>}{{9}{17}{}{Doc-Start}{}}
\@writefile{snm}{\beamer@slide {graph_prepare<1>}{17}}
\newlabel{graph_prepare}{{9}{17}{}{Doc-Start}{}}
\@writefile{snm}{\beamer@slide {graph_prepare}{17}}
\@writefile{nav}{\headcommand {\slideentry {0}{0}{9}{17/17}{}{0}}}
\@writefile{nav}{\headcommand {\beamer@framepages {17}{17}}}
\newlabel{challenges<1>}{{10}{18}{}{Doc-Start}{}}
\@writefile{snm}{\beamer@slide {challenges<1>}{18}}
\newlabel{challenges}{{10}{18}{}{Doc-Start}{}}
\@writefile{snm}{\beamer@slide {challenges}{18}}
\@writefile{nav}{\headcommand {\slideentry {0}{0}{10}{18/18}{}{0}}}
\@writefile{nav}{\headcommand {\beamer@framepages {18}{18}}}
\newlabel{whatRF<1>}{{11}{19}{}{Doc-Start}{}}
\@writefile{snm}{\beamer@slide {whatRF<1>}{19}}
\newlabel{whatRF}{{11}{19}{}{Doc-Start}{}}
\@writefile{snm}{\beamer@slide {whatRF}{19}}
\@writefile{nav}{\headcommand {\slideentry {0}{0}{11}{19/19}{}{0}}}
\@writefile{nav}{\headcommand {\beamer@framepages {19}{19}}}
\newlabel{whatRF<1>}{{12}{20}{}{Doc-Start}{}}
\@writefile{snm}{\beamer@slide {whatRF<1>}{20}}
\newlabel{whatRF}{{12}{20}{}{Doc-Start}{}}
\@writefile{snm}{\beamer@slide {whatRF}{20}}
\@writefile{nav}{\headcommand {\slideentry {0}{0}{12}{20/20}{}{0}}}
\@writefile{nav}{\headcommand {\beamer@framepages {20}{20}}}
\@writefile{nav}{\headcommand {\slideentry {0}{0}{13}{21/21}{}{0}}}
\@writefile{nav}{\headcommand {\beamer@framepages {21}{21}}}
\newlabel{ROC<1>}{{14}{22}{}{Doc-Start}{}}
\@writefile{snm}{\beamer@slide {ROC<1>}{22}}
\newlabel{ROC}{{14}{22}{}{Doc-Start}{}}
\@writefile{snm}{\beamer@slide {ROC}{22}}
\@writefile{nav}{\headcommand {\slideentry {0}{0}{14}{22/22}{}{0}}}
\@writefile{nav}{\headcommand {\beamer@framepages {22}{22}}}
\@writefile{nav}{\headcommand {\slideentry {0}{0}{15}{23/23}{}{0}}}
\@writefile{nav}{\headcommand {\beamer@framepages {23}{23}}}
\newlabel{graph_predlegal<1>}{{16}{24}{}{Doc-Start}{}}
\@writefile{snm}{\beamer@slide {graph_predlegal<1>}{24}}
\newlabel{graph_predlegal}{{16}{24}{}{Doc-Start}{}}
\@writefile{snm}{\beamer@slide {graph_predlegal}{24}}
\@writefile{nav}{\headcommand {\slideentry {0}{0}{16}{24/24}{}{0}}}
\@writefile{nav}{\headcommand {\beamer@framepages {24}{24}}}
\@writefile{nav}{\headcommand {\slideentry {0}{0}{17}{25/25}{}{0}}}
\@writefile{nav}{\headcommand {\beamer@framepages {25}{25}}}
\newlabel{het_plot<1>}{{18}{26}{}{Doc-Start}{}}
\@writefile{snm}{\beamer@slide {het_plot<1>}{26}}
\newlabel{het_plot}{{18}{26}{}{Doc-Start}{}}
\@writefile{snm}{\beamer@slide {het_plot}{26}}
\@writefile{nav}{\headcommand {\slideentry {0}{0}{18}{26/26}{}{0}}}
\@writefile{nav}{\headcommand {\beamer@framepages {26}{26}}}
\newlabel{reg_main<1>}{{19}{27}{}{Doc-Start}{}}
\@writefile{snm}{\beamer@slide {reg_main<1>}{27}}
\newlabel{reg_main}{{19}{27}{}{Doc-Start}{}}
\@writefile{snm}{\beamer@slide {reg_main}{27}}
\@writefile{nav}{\headcommand {\slideentry {0}{0}{19}{27/27}{}{0}}}
\@writefile{nav}{\headcommand {\beamer@framepages {27}{27}}}
\@writefile{nav}{\headcommand {\slideentry {0}{0}{20}{28/28}{}{0}}}
\@writefile{nav}{\headcommand {\beamer@framepages {28}{28}}}
\newlabel{reg_healthIVfs<1>}{{21}{29}{}{Doc-Start}{}}
\@writefile{snm}{\beamer@slide {reg_healthIVfs<1>}{29}}
\newlabel{reg_healthIVfs}{{21}{29}{}{Doc-Start}{}}
\@writefile{snm}{\beamer@slide {reg_healthIVfs}{29}}
\@writefile{nav}{\headcommand {\slideentry {0}{0}{21}{29/29}{}{0}}}
\@writefile{nav}{\headcommand {\beamer@framepages {29}{29}}}
\newlabel{reg_healthIVnsm<1>}{{22}{30}{}{Doc-Start}{}}
\@writefile{snm}{\beamer@slide {reg_healthIVnsm<1>}{30}}
\newlabel{reg_healthIVnsm}{{22}{30}{}{Doc-Start}{}}
\@writefile{snm}{\beamer@slide {reg_healthIVnsm}{30}}
\@writefile{nav}{\headcommand {\slideentry {0}{0}{22}{30/30}{}{0}}}
\@writefile{nav}{\headcommand {\beamer@framepages {30}{30}}}
\@writefile{nav}{\headcommand {\slideentry {0}{0}{23}{31/31}{}{0}}}
\@writefile{nav}{\headcommand {\beamer@framepages {31}{31}}}
\@writefile{nav}{\headcommand {\slideentry {0}{0}{24}{32/32}{}{0}}}
\@writefile{nav}{\headcommand {\beamer@framepages {32}{32}}}
\newlabel{outline<1>}{{24}{33}{}{Doc-Start}{}}
\@writefile{snm}{\beamer@slide {outline<1>}{33}}
\newlabel{outline}{{24}{33}{}{Doc-Start}{}}
\@writefile{snm}{\beamer@slide {outline}{33}}
\@writefile{nav}{\headcommand {\slideentry {0}{0}{25}{33/33}{}{0}}}
\@writefile{nav}{\headcommand {\beamer@framepages {33}{33}}}
\newlabel{literature<1>}{{25}{34}{}{Doc-Start}{}}
\@writefile{snm}{\beamer@slide {literature<1>}{34}}
\newlabel{literature}{{25}{34}{}{Doc-Start}{}}
\@writefile{snm}{\beamer@slide {literature}{34}}
\newlabel{literature<2>}{{25}{35}{}{Doc-Start}{}}
\@writefile{snm}{\beamer@slide {literature<2>}{35}}
\newlabel{literature<3>}{{25}{36}{}{Doc-Start}{}}
\@writefile{snm}{\beamer@slide {literature<3>}{36}}
\newlabel{literature<4>}{{25}{37}{}{Doc-Start}{}}
\@writefile{snm}{\beamer@slide {literature<4>}{37}}
\newlabel{literature<5>}{{25}{38}{}{Doc-Start}{}}
\@writefile{snm}{\beamer@slide {literature<5>}{38}}
\newlabel{literature<6>}{{25}{39}{}{Doc-Start}{}}
\@writefile{snm}{\beamer@slide {literature<6>}{39}}
\@writefile{nav}{\headcommand {\slideentry {0}{0}{26}{34/39}{}{0}}}
\@writefile{nav}{\headcommand {\beamer@framepages {34}{39}}}
\newlabel{mining_Col<1>}{{26}{40}{}{Doc-Start}{}}
\@writefile{snm}{\beamer@slide {mining_Col<1>}{40}}
\newlabel{mining_Col}{{26}{40}{}{Doc-Start}{}}
\@writefile{snm}{\beamer@slide {mining_Col}{40}}
\@writefile{nav}{\headcommand {\slideentry {0}{0}{27}{40/40}{}{0}}}
\@writefile{nav}{\headcommand {\beamer@framepages {40}{40}}}
\newlabel{details_reform<1>}{{27}{41}{}{Doc-Start}{}}
\@writefile{snm}{\beamer@slide {details_reform<1>}{41}}
\newlabel{details_reform}{{27}{41}{}{Doc-Start}{}}
\@writefile{snm}{\beamer@slide {details_reform}{41}}
\@writefile{nav}{\headcommand {\slideentry {0}{0}{28}{41/41}{}{0}}}
\@writefile{nav}{\headcommand {\beamer@framepages {41}{41}}}
\@writefile{nav}{\headcommand {\slideentry {0}{0}{29}{42/42}{}{0}}}
\@writefile{nav}{\headcommand {\beamer@framepages {42}{42}}}
\newlabel{outline2<1>}{{29}{43}{}{Doc-Start}{}}
\@writefile{snm}{\beamer@slide {outline2<1>}{43}}
\newlabel{outline2}{{29}{43}{}{Doc-Start}{}}
\@writefile{snm}{\beamer@slide {outline2}{43}}
\@writefile{nav}{\headcommand {\slideentry {0}{0}{30}{43/43}{}{0}}}
\@writefile{nav}{\headcommand {\beamer@framepages {43}{43}}}
\newlabel{model_overview<1>}{{30}{44}{}{Doc-Start}{}}
\@writefile{snm}{\beamer@slide {model_overview<1>}{44}}
\newlabel{model_overview}{{30}{44}{}{Doc-Start}{}}
\@writefile{snm}{\beamer@slide {model_overview}{44}}
\newlabel{model_overview<2>}{{30}{45}{}{Doc-Start}{}}
\@writefile{snm}{\beamer@slide {model_overview<2>}{45}}
\newlabel{model_overview<3>}{{30}{46}{}{Doc-Start}{}}
\@writefile{snm}{\beamer@slide {model_overview<3>}{46}}
\@writefile{nav}{\headcommand {\slideentry {0}{0}{31}{44/46}{}{0}}}
\@writefile{nav}{\headcommand {\beamer@framepages {44}{46}}}
\newlabel{thmod<1>}{{31}{47}{}{Doc-Start}{}}
\@writefile{snm}{\beamer@slide {thmod<1>}{47}}
\newlabel{thmod}{{31}{47}{}{Doc-Start}{}}
\@writefile{snm}{\beamer@slide {thmod}{47}}
\@writefile{nav}{\headcommand {\slideentry {0}{0}{32}{47/47}{}{0}}}
\@writefile{nav}{\headcommand {\beamer@framepages {47}{47}}}
\newlabel{th_preds12<1>}{{32}{48}{}{Doc-Start}{}}
\@writefile{snm}{\beamer@slide {th_preds12<1>}{48}}
\newlabel{th_preds12}{{32}{48}{}{Doc-Start}{}}
\@writefile{snm}{\beamer@slide {th_preds12}{48}}
\@writefile{nav}{\headcommand {\slideentry {0}{0}{33}{48/48}{}{0}}}
\@writefile{nav}{\headcommand {\beamer@framepages {48}{48}}}
\newlabel{model_linear<1>}{{33}{49}{}{Doc-Start}{}}
\@writefile{snm}{\beamer@slide {model_linear<1>}{49}}
\newlabel{model_linear}{{33}{49}{}{Doc-Start}{}}
\@writefile{snm}{\beamer@slide {model_linear}{49}}
\@writefile{nav}{\headcommand {\slideentry {0}{0}{34}{49/49}{}{0}}}
\@writefile{nav}{\headcommand {\beamer@framepages {49}{49}}}
\newlabel{model_convex<1>}{{34}{50}{}{Doc-Start}{}}
\@writefile{snm}{\beamer@slide {model_convex<1>}{50}}
\newlabel{model_convex}{{34}{50}{}{Doc-Start}{}}
\@writefile{snm}{\beamer@slide {model_convex}{50}}
\@writefile{nav}{\headcommand {\slideentry {0}{0}{35}{50/50}{}{0}}}
\@writefile{nav}{\headcommand {\beamer@framepages {50}{50}}}
\@writefile{nav}{\headcommand {\slideentry {0}{0}{36}{51/51}{}{0}}}
\@writefile{nav}{\headcommand {\beamer@framepages {51}{51}}}
\newlabel{dd_basico_mined_ally<1>}{{36}{52}{}{Doc-Start}{}}
\@writefile{snm}{\beamer@slide {dd_basico_mined_ally<1>}{52}}
\newlabel{dd_basico_mined_ally}{{36}{52}{}{Doc-Start}{}}
\@writefile{snm}{\beamer@slide {dd_basico_mined_ally}{52}}
\@writefile{nav}{\headcommand {\slideentry {0}{0}{37}{52/52}{}{0}}}
\@writefile{nav}{\headcommand {\beamer@framepages {52}{52}}}
\@writefile{nav}{\headcommand {\slideentry {0}{0}{38}{53/53}{}{0}}}
\@writefile{nav}{\headcommand {\beamer@framepages {53}{53}}}
\@writefile{nav}{\headcommand {\slideentry {0}{0}{39}{54/54}{}{0}}}
\@writefile{nav}{\headcommand {\beamer@framepages {54}{54}}}
\@writefile{nav}{\headcommand {\slideentry {0}{0}{40}{55/55}{}{0}}}
\@writefile{nav}{\headcommand {\beamer@framepages {55}{55}}}
\newlabel{reg_newarea<1>}{{40}{56}{}{Doc-Start}{}}
\@writefile{snm}{\beamer@slide {reg_newarea<1>}{56}}
\newlabel{reg_newarea}{{40}{56}{}{Doc-Start}{}}
\@writefile{snm}{\beamer@slide {reg_newarea}{56}}
\@writefile{nav}{\headcommand {\slideentry {0}{0}{41}{56/56}{}{0}}}
\@writefile{nav}{\headcommand {\beamer@framepages {56}{56}}}
\newlabel{reg_main<1>}{{41}{57}{}{Doc-Start}{}}
\@writefile{snm}{\beamer@slide {reg_main<1>}{57}}
\newlabel{reg_main}{{41}{57}{}{Doc-Start}{}}
\@writefile{snm}{\beamer@slide {reg_main}{57}}
\@writefile{nav}{\headcommand {\slideentry {0}{0}{42}{57/57}{}{0}}}
\@writefile{nav}{\headcommand {\beamer@framepages {57}{57}}}
\newlabel{intro_hetins<1>}{{42}{58}{}{Doc-Start}{}}
\@writefile{snm}{\beamer@slide {intro_hetins<1>}{58}}
\newlabel{intro_hetins}{{42}{58}{}{Doc-Start}{}}
\@writefile{snm}{\beamer@slide {intro_hetins}{58}}
\@writefile{nav}{\headcommand {\slideentry {0}{0}{43}{58/58}{}{0}}}
\@writefile{nav}{\headcommand {\beamer@framepages {58}{58}}}
\newlabel{reg_hetins<1>}{{43}{59}{}{Doc-Start}{}}
\@writefile{snm}{\beamer@slide {reg_hetins<1>}{59}}
\newlabel{reg_hetins}{{43}{59}{}{Doc-Start}{}}
\@writefile{snm}{\beamer@slide {reg_hetins}{59}}
\@writefile{nav}{\headcommand {\slideentry {0}{0}{44}{59/59}{}{0}}}
\@writefile{nav}{\headcommand {\beamer@framepages {59}{59}}}
\newlabel{reg_wl<1>}{{44}{60}{}{Doc-Start}{}}
\@writefile{snm}{\beamer@slide {reg_wl<1>}{60}}
\newlabel{reg_wl}{{44}{60}{}{Doc-Start}{}}
\@writefile{snm}{\beamer@slide {reg_wl}{60}}
\@writefile{nav}{\headcommand {\slideentry {0}{0}{45}{60/60}{}{0}}}
\@writefile{nav}{\headcommand {\beamer@framepages {60}{60}}}
\newlabel{reg_prod<1>}{{45}{61}{}{Doc-Start}{}}
\@writefile{snm}{\beamer@slide {reg_prod<1>}{61}}
\newlabel{reg_prod}{{45}{61}{}{Doc-Start}{}}
\@writefile{snm}{\beamer@slide {reg_prod}{61}}
\@writefile{nav}{\headcommand {\slideentry {0}{0}{46}{61/61}{}{0}}}
\@writefile{nav}{\headcommand {\beamer@framepages {61}{61}}}
\@writefile{nav}{\headcommand {\slideentry {0}{0}{47}{62/62}{}{0}}}
\@writefile{nav}{\headcommand {\beamer@framepages {62}{62}}}
\@writefile{nav}{\headcommand {\slideentry {0}{0}{48}{63/63}{}{0}}}
\@writefile{nav}{\headcommand {\beamer@framepages {63}{63}}}
\@writefile{nav}{\headcommand {\slideentry {0}{0}{49}{64/64}{}{0}}}
\@writefile{nav}{\headcommand {\beamer@framepages {64}{64}}}
\newlabel{context_health<1>}{{49}{65}{}{Doc-Start}{}}
\@writefile{snm}{\beamer@slide {context_health<1>}{65}}
\newlabel{context_health}{{49}{65}{}{Doc-Start}{}}
\@writefile{snm}{\beamer@slide {context_health}{65}}
\@writefile{nav}{\headcommand {\slideentry {0}{0}{50}{65/65}{}{0}}}
\@writefile{nav}{\headcommand {\beamer@framepages {65}{65}}}
\@writefile{nav}{\headcommand {\slideentry {0}{0}{51}{66/66}{}{0}}}
\@writefile{nav}{\headcommand {\beamer@framepages {66}{66}}}
\newlabel{reg_health<1>}{{51}{67}{}{Doc-Start}{}}
\@writefile{snm}{\beamer@slide {reg_health<1>}{67}}
\newlabel{reg_health}{{51}{67}{}{Doc-Start}{}}
\@writefile{snm}{\beamer@slide {reg_health}{67}}
\@writefile{nav}{\headcommand {\slideentry {0}{0}{52}{67/67}{}{0}}}
\@writefile{nav}{\headcommand {\beamer@framepages {67}{67}}}
\newlabel{reg_healthIVfs<1>}{{52}{68}{}{Doc-Start}{}}
\@writefile{snm}{\beamer@slide {reg_healthIVfs<1>}{68}}
\newlabel{reg_healthIVfs}{{52}{68}{}{Doc-Start}{}}
\@writefile{snm}{\beamer@slide {reg_healthIVfs}{68}}
\@writefile{nav}{\headcommand {\slideentry {0}{0}{53}{68/68}{}{0}}}
\@writefile{nav}{\headcommand {\beamer@framepages {68}{68}}}
\newlabel{reg_healthIVnsm<1>}{{53}{69}{}{Doc-Start}{}}
\@writefile{snm}{\beamer@slide {reg_healthIVnsm<1>}{69}}
\newlabel{reg_healthIVnsm}{{53}{69}{}{Doc-Start}{}}
\@writefile{snm}{\beamer@slide {reg_healthIVnsm}{69}}
\@writefile{nav}{\headcommand {\slideentry {0}{0}{54}{69/69}{}{0}}}
\@writefile{nav}{\headcommand {\beamer@framepages {69}{69}}}
\@writefile{nav}{\headcommand {\slideentry {0}{0}{55}{70/70}{}{0}}}
\@writefile{nav}{\headcommand {\beamer@framepages {70}{70}}}
\newlabel{discussion<1>}{{55}{71}{}{Doc-Start}{}}
\@writefile{snm}{\beamer@slide {discussion<1>}{71}}
\newlabel{discussion}{{55}{71}{}{Doc-Start}{}}
\@writefile{snm}{\beamer@slide {discussion}{71}}
\@writefile{nav}{\headcommand {\slideentry {0}{0}{56}{71/71}{}{0}}}
\@writefile{nav}{\headcommand {\beamer@framepages {71}{71}}}
\newlabel{costreform<1>}{{56}{72}{}{Doc-Start}{}}
\@writefile{snm}{\beamer@slide {costreform<1>}{72}}
\newlabel{costreform}{{56}{72}{}{Doc-Start}{}}
\@writefile{snm}{\beamer@slide {costreform}{72}}
\@writefile{nav}{\headcommand {\slideentry {0}{0}{57}{72/72}{}{0}}}
\@writefile{nav}{\headcommand {\beamer@framepages {72}{72}}}
\newlabel{healthcostreform<1>}{{57}{73}{}{Doc-Start}{}}
\@writefile{snm}{\beamer@slide {healthcostreform<1>}{73}}
\newlabel{healthcostreform}{{57}{73}{}{Doc-Start}{}}
\@writefile{snm}{\beamer@slide {healthcostreform}{73}}
\@writefile{nav}{\headcommand {\slideentry {0}{0}{58}{73/73}{}{0}}}
\@writefile{nav}{\headcommand {\beamer@framepages {73}{73}}}
\@writefile{nav}{\headcommand {\slideentry {0}{0}{59}{74/74}{}{0}}}
\@writefile{nav}{\headcommand {\beamer@framepages {74}{74}}}
\@writefile{nav}{\headcommand {\slideentry {0}{0}{60}{75/75}{}{0}}}
\@writefile{nav}{\headcommand {\beamer@framepages {75}{75}}}
\newlabel{reg_titulos<1>}{{59}{76}{}{Doc-Start}{}}
\@writefile{snm}{\beamer@slide {reg_titulos<1>}{76}}
\newlabel{reg_titulos}{{59}{76}{}{Doc-Start}{}}
\@writefile{snm}{\beamer@slide {reg_titulos}{76}}
\@writefile{nav}{\headcommand {\slideentry {0}{0}{61}{76/76}{}{0}}}
\@writefile{nav}{\headcommand {\beamer@framepages {76}{76}}}
\newlabel{roy_ineq<1>}{{60}{77}{}{Doc-Start}{}}
\@writefile{snm}{\beamer@slide {roy_ineq<1>}{77}}
\newlabel{roy_ineq}{{60}{77}{}{Doc-Start}{}}
\@writefile{snm}{\beamer@slide {roy_ineq}{77}}
\newlabel{Circle size proportional to population of the municipality}{{60}{77}{}{Doc-Start}{}}
\@writefile{snm}{\beamer@slide {Circle size proportional to population of the municipality}{77}}
\@writefile{nav}{\headcommand {\slideentry {0}{0}{62}{77/77}{}{0}}}
\@writefile{nav}{\headcommand {\beamer@framepages {77}{77}}}
\newlabel{formula<1>}{{61}{78}{}{Doc-Start}{}}
\@writefile{snm}{\beamer@slide {formula<1>}{78}}
\newlabel{formula}{{61}{78}{}{Doc-Start}{}}
\@writefile{snm}{\beamer@slide {formula}{78}}
\@writefile{nav}{\headcommand {\slideentry {0}{0}{63}{78/78}{}{0}}}
\@writefile{nav}{\headcommand {\beamer@framepages {78}{78}}}
\newlabel{example_wl<1>}{{62}{79}{}{Doc-Start}{}}
\@writefile{snm}{\beamer@slide {example_wl<1>}{79}}
\newlabel{example_wl}{{62}{79}{}{Doc-Start}{}}
\@writefile{snm}{\beamer@slide {example_wl}{79}}
\@writefile{nav}{\headcommand {\slideentry {0}{0}{64}{79/79}{}{0}}}
\@writefile{nav}{\headcommand {\beamer@framepages {79}{79}}}
\newlabel{graph_beta<1>}{{63}{80}{}{Doc-Start}{}}
\@writefile{snm}{\beamer@slide {graph_beta<1>}{80}}
\newlabel{graph_beta}{{63}{80}{}{Doc-Start}{}}
\@writefile{snm}{\beamer@slide {graph_beta}{80}}
\@writefile{nav}{\headcommand {\slideentry {0}{0}{65}{80/80}{}{0}}}
\@writefile{nav}{\headcommand {\beamer@framepages {80}{80}}}
\newlabel{graph_agPr<1>}{{64}{81}{}{Doc-Start}{}}
\@writefile{snm}{\beamer@slide {graph_agPr<1>}{81}}
\newlabel{graph_agPr}{{64}{81}{}{Doc-Start}{}}
\@writefile{snm}{\beamer@slide {graph_agPr}{81}}
\@writefile{nav}{\headcommand {\slideentry {0}{0}{66}{81/81}{}{0}}}
\@writefile{nav}{\headcommand {\beamer@framepages {81}{81}}}
\newlabel{thmod_prof<1>}{{65}{82}{}{Doc-Start}{}}
\@writefile{snm}{\beamer@slide {thmod_prof<1>}{82}}
\newlabel{thmod_prof}{{65}{82}{}{Doc-Start}{}}
\@writefile{snm}{\beamer@slide {thmod_prof}{82}}
\@writefile{nav}{\headcommand {\slideentry {0}{0}{67}{82/82}{}{0}}}
\@writefile{nav}{\headcommand {\beamer@framepages {82}{82}}}
\newlabel{model_parameters<1>}{{66}{83}{}{Doc-Start}{}}
\@writefile{snm}{\beamer@slide {model_parameters<1>}{83}}
\newlabel{model_parameters}{{66}{83}{}{Doc-Start}{}}
\@writefile{snm}{\beamer@slide {model_parameters}{83}}
\@writefile{nav}{\headcommand {\slideentry {0}{0}{68}{83/83}{}{0}}}
\@writefile{nav}{\headcommand {\beamer@framepages {83}{83}}}
\newlabel{model_f<1>}{{67}{84}{}{Doc-Start}{}}
\@writefile{snm}{\beamer@slide {model_f<1>}{84}}
\newlabel{model_f}{{67}{84}{}{Doc-Start}{}}
\@writefile{snm}{\beamer@slide {model_f}{84}}
\@writefile{nav}{\headcommand {\slideentry {0}{0}{69}{84/84}{}{0}}}
\@writefile{nav}{\headcommand {\beamer@framepages {84}{84}}}
\newlabel{remove_clouds<1>}{{68}{85}{}{Doc-Start}{}}
\@writefile{snm}{\beamer@slide {remove_clouds<1>}{85}}
\newlabel{remove_clouds}{{68}{85}{}{Doc-Start}{}}
\@writefile{snm}{\beamer@slide {remove_clouds}{85}}
\@writefile{nav}{\headcommand {\slideentry {0}{0}{70}{85/85}{}{0}}}
\@writefile{nav}{\headcommand {\beamer@framepages {85}{85}}}
\newlabel{balancestats_censed<1>}{{69}{86}{}{Doc-Start}{}}
\@writefile{snm}{\beamer@slide {balancestats_censed<1>}{86}}
\newlabel{balancestats_censed}{{69}{86}{}{Doc-Start}{}}
\@writefile{snm}{\beamer@slide {balancestats_censed}{86}}
\@writefile{nav}{\headcommand {\slideentry {0}{0}{71}{86/86}{}{0}}}
\@writefile{nav}{\headcommand {\beamer@framepages {86}{86}}}
\newlabel{reg_vs_trees<1>}{{70}{87}{}{Doc-Start}{}}
\@writefile{snm}{\beamer@slide {reg_vs_trees<1>}{87}}
\newlabel{reg_vs_trees}{{70}{87}{}{Doc-Start}{}}
\@writefile{snm}{\beamer@slide {reg_vs_trees}{87}}
\@writefile{nav}{\headcommand {\slideentry {0}{0}{72}{87/87}{}{0}}}
\@writefile{nav}{\headcommand {\beamer@framepages {87}{87}}}
\newlabel{varimportance<1>}{{71}{88}{}{Doc-Start}{}}
\@writefile{snm}{\beamer@slide {varimportance<1>}{88}}
\newlabel{varimportance}{{71}{88}{}{Doc-Start}{}}
\@writefile{snm}{\beamer@slide {varimportance}{88}}
\@writefile{nav}{\headcommand {\slideentry {0}{0}{73}{88/88}{}{0}}}
\@writefile{nav}{\headcommand {\beamer@framepages {88}{88}}}
\newlabel{erroranal<1>}{{72}{89}{}{Doc-Start}{}}
\@writefile{snm}{\beamer@slide {erroranal<1>}{89}}
\newlabel{erroranal}{{72}{89}{}{Doc-Start}{}}
\@writefile{snm}{\beamer@slide {erroranal}{89}}
\@writefile{nav}{\headcommand {\slideentry {0}{0}{74}{89/89}{}{0}}}
\@writefile{nav}{\headcommand {\beamer@framepages {89}{89}}}
\@writefile{nav}{\headcommand {\slideentry {0}{0}{75}{90/90}{}{0}}}
\@writefile{nav}{\headcommand {\beamer@framepages {90}{90}}}
\newlabel{sumstats_tprfpr<1>}{{74}{91}{}{Doc-Start}{}}
\@writefile{snm}{\beamer@slide {sumstats_tprfpr<1>}{91}}
\newlabel{sumstats_tprfpr}{{74}{91}{}{Doc-Start}{}}
\@writefile{snm}{\beamer@slide {sumstats_tprfpr}{91}}
\@writefile{nav}{\headcommand {\slideentry {0}{0}{76}{91/91}{}{0}}}
\@writefile{nav}{\headcommand {\beamer@framepages {91}{91}}}
\@input{R/mat_conf.aux}
\newlabel{mat_conf<1>}{{75}{92}{}{Doc-Start}{}}
\@writefile{snm}{\beamer@slide {mat_conf<1>}{92}}
\newlabel{mat_conf}{{75}{92}{}{Doc-Start}{}}
\@writefile{snm}{\beamer@slide {mat_conf}{92}}
\@writefile{nav}{\headcommand {\slideentry {0}{0}{77}{92/92}{}{0}}}
\@writefile{nav}{\headcommand {\beamer@framepages {92}{92}}}
\newlabel{dd_basico<1>}{{76}{93}{}{Doc-Start}{}}
\@writefile{snm}{\beamer@slide {dd_basico<1>}{93}}
\newlabel{dd_basico}{{76}{93}{}{Doc-Start}{}}
\@writefile{snm}{\beamer@slide {dd_basico}{93}}
\@writefile{nav}{\headcommand {\slideentry {0}{0}{78}{93/93}{}{0}}}
\@writefile{nav}{\headcommand {\beamer@framepages {93}{93}}}
\newlabel{partrend_wl<1>}{{77}{94}{}{Doc-Start}{}}
\@writefile{snm}{\beamer@slide {partrend_wl<1>}{94}}
\newlabel{partrend_wl}{{77}{94}{}{Doc-Start}{}}
\@writefile{snm}{\beamer@slide {partrend_wl}{94}}
\@writefile{nav}{\headcommand {\slideentry {0}{0}{79}{94/94}{}{0}}}
\@writefile{nav}{\headcommand {\beamer@framepages {94}{94}}}
\newlabel{partrend_colperu<1>}{{78}{95}{}{Doc-Start}{}}
\@writefile{snm}{\beamer@slide {partrend_colperu<1>}{95}}
\newlabel{partrend_colperu}{{78}{95}{}{Doc-Start}{}}
\@writefile{snm}{\beamer@slide {partrend_colperu}{95}}
\@writefile{nav}{\headcommand {\slideentry {0}{0}{80}{95/95}{}{0}}}
\@writefile{nav}{\headcommand {\beamer@framepages {95}{95}}}
\newlabel{gold_price<1>}{{79}{96}{}{Doc-Start}{}}
\@writefile{snm}{\beamer@slide {gold_price<1>}{96}}
\newlabel{gold_price}{{79}{96}{}{Doc-Start}{}}
\@writefile{snm}{\beamer@slide {gold_price}{96}}
\@writefile{nav}{\headcommand {\slideentry {0}{0}{81}{96/96}{}{0}}}
\@writefile{nav}{\headcommand {\beamer@framepages {96}{96}}}
\newlabel{dd_basico_mined<1>}{{80}{97}{}{Doc-Start}{}}
\@writefile{snm}{\beamer@slide {dd_basico_mined<1>}{97}}
\newlabel{dd_basico_mined}{{80}{97}{}{Doc-Start}{}}
\@writefile{snm}{\beamer@slide {dd_basico_mined}{97}}
\@writefile{nav}{\headcommand {\slideentry {0}{0}{82}{97/97}{}{0}}}
\@writefile{nav}{\headcommand {\beamer@framepages {97}{97}}}
\newlabel{sumstats_muni<1>}{{81}{98}{}{Doc-Start}{}}
\@writefile{snm}{\beamer@slide {sumstats_muni<1>}{98}}
\newlabel{sumstats_muni}{{81}{98}{}{Doc-Start}{}}
\@writefile{snm}{\beamer@slide {sumstats_muni}{98}}
\@writefile{nav}{\headcommand {\slideentry {0}{0}{83}{98/98}{}{0}}}
\@writefile{nav}{\headcommand {\beamer@framepages {98}{98}}}
\newlabel{sumstats_regvarmined<1>}{{82}{99}{}{Doc-Start}{}}
\@writefile{snm}{\beamer@slide {sumstats_regvarmined<1>}{99}}
\newlabel{sumstats_regvarmined}{{82}{99}{}{Doc-Start}{}}
\@writefile{snm}{\beamer@slide {sumstats_regvarmined}{99}}
\@writefile{nav}{\headcommand {\slideentry {0}{0}{84}{99/99}{}{0}}}
\@writefile{nav}{\headcommand {\beamer@framepages {99}{99}}}
\newlabel{balancestats_muni<1>}{{83}{100}{}{Doc-Start}{}}
\@writefile{snm}{\beamer@slide {balancestats_muni<1>}{100}}
\newlabel{balancestats_muni}{{83}{100}{}{Doc-Start}{}}
\@writefile{snm}{\beamer@slide {balancestats_muni}{100}}
\@writefile{nav}{\headcommand {\slideentry {0}{0}{85}{100/100}{}{0}}}
\@writefile{nav}{\headcommand {\beamer@framepages {100}{100}}}
\newlabel{sumstats_regvarperu<1>}{{84}{101}{}{Doc-Start}{}}
\@writefile{snm}{\beamer@slide {sumstats_regvarperu<1>}{101}}
\newlabel{sumstats_regvarperu}{{84}{101}{}{Doc-Start}{}}
\@writefile{snm}{\beamer@slide {sumstats_regvarperu}{101}}
\@writefile{nav}{\headcommand {\slideentry {0}{0}{86}{101/101}{}{0}}}
\@writefile{nav}{\headcommand {\beamer@framepages {101}{101}}}
\newlabel{sumstats_ftotalperu<1>}{{85}{102}{}{Doc-Start}{}}
\@writefile{snm}{\beamer@slide {sumstats_ftotalperu<1>}{102}}
\newlabel{sumstats_ftotalperu}{{85}{102}{}{Doc-Start}{}}
\@writefile{snm}{\beamer@slide {sumstats_ftotalperu}{102}}
\@writefile{nav}{\headcommand {\slideentry {0}{0}{87}{102/102}{}{0}}}
\@writefile{nav}{\headcommand {\beamer@framepages {102}{102}}}
\newlabel{reg_non_parametric<1>}{{86}{103}{}{Doc-Start}{}}
\@writefile{snm}{\beamer@slide {reg_non_parametric<1>}{103}}
\newlabel{reg_non_parametric}{{86}{103}{}{Doc-Start}{}}
\@writefile{snm}{\beamer@slide {reg_non_parametric}{103}}
\@writefile{nav}{\headcommand {\slideentry {0}{0}{88}{103/103}{}{0}}}
\@writefile{nav}{\headcommand {\beamer@framepages {103}{103}}}
\newlabel{reg_c12<1>}{{87}{104}{}{Doc-Start}{}}
\@writefile{snm}{\beamer@slide {reg_c12<1>}{104}}
\newlabel{reg_c12}{{87}{104}{}{Doc-Start}{}}
\@writefile{snm}{\beamer@slide {reg_c12}{104}}
\@writefile{nav}{\headcommand {\slideentry {0}{0}{89}{104/104}{}{0}}}
\@writefile{nav}{\headcommand {\beamer@framepages {104}{104}}}
\newlabel{reg_probpixmined<1>}{{88}{105}{}{Doc-Start}{}}
\@writefile{snm}{\beamer@slide {reg_probpixmined<1>}{105}}
\newlabel{reg_probpixmined}{{88}{105}{}{Doc-Start}{}}
\@writefile{snm}{\beamer@slide {reg_probpixmined}{105}}
\@writefile{nav}{\headcommand {\slideentry {0}{0}{90}{105/105}{}{0}}}
\@writefile{nav}{\headcommand {\beamer@framepages {105}{105}}}
\newlabel{legalization<1>}{{89}{106}{}{Doc-Start}{}}
\@writefile{snm}{\beamer@slide {legalization<1>}{106}}
\newlabel{legalization}{{89}{106}{}{Doc-Start}{}}
\@writefile{snm}{\beamer@slide {legalization}{106}}
\@writefile{nav}{\headcommand {\slideentry {0}{0}{91}{106/106}{}{0}}}
\@writefile{nav}{\headcommand {\beamer@framepages {106}{106}}}
\newlabel{altonji_mined<1>}{{90}{107}{}{Doc-Start}{}}
\@writefile{snm}{\beamer@slide {altonji_mined<1>}{107}}
\newlabel{altonji_mined}{{90}{107}{}{Doc-Start}{}}
\@writefile{snm}{\beamer@slide {altonji_mined}{107}}
\@writefile{nav}{\headcommand {\slideentry {0}{0}{92}{107/107}{}{0}}}
\@writefile{nav}{\headcommand {\beamer@framepages {107}{107}}}
\newlabel{reg_lasso<1>}{{91}{108}{}{Doc-Start}{}}
\@writefile{snm}{\beamer@slide {reg_lasso<1>}{108}}
\newlabel{reg_lasso}{{91}{108}{}{Doc-Start}{}}
\@writefile{snm}{\beamer@slide {reg_lasso}{108}}
\@writefile{nav}{\headcommand {\slideentry {0}{0}{93}{108/108}{}{0}}}
\@writefile{nav}{\headcommand {\beamer@framepages {108}{108}}}
\newlabel{reg_lasso_continuous<1>}{{92}{109}{}{Doc-Start}{}}
\@writefile{snm}{\beamer@slide {reg_lasso_continuous<1>}{109}}
\newlabel{reg_lasso_continuous}{{92}{109}{}{Doc-Start}{}}
\@writefile{snm}{\beamer@slide {reg_lasso_continuous}{109}}
\@writefile{nav}{\headcommand {\slideentry {0}{0}{94}{109/109}{}{0}}}
\@writefile{nav}{\headcommand {\beamer@framepages {109}{109}}}
\newlabel{reg_adj<1>}{{93}{110}{}{Doc-Start}{}}
\@writefile{snm}{\beamer@slide {reg_adj<1>}{110}}
\newlabel{reg_adj}{{93}{110}{}{Doc-Start}{}}
\@writefile{snm}{\beamer@slide {reg_adj}{110}}
\@writefile{nav}{\headcommand {\slideentry {0}{0}{95}{110/110}{}{0}}}
\@writefile{nav}{\headcommand {\beamer@framepages {110}{110}}}
\newlabel{reg_weights<1>}{{94}{111}{}{Doc-Start}{}}
\@writefile{snm}{\beamer@slide {reg_weights<1>}{111}}
\newlabel{reg_weights}{{94}{111}{}{Doc-Start}{}}
\@writefile{snm}{\beamer@slide {reg_weights}{111}}
\@writefile{nav}{\headcommand {\slideentry {0}{0}{96}{111/111}{}{0}}}
\@writefile{nav}{\headcommand {\beamer@framepages {111}{111}}}
\newlabel{reg_dummy_deptr<1>}{{95}{112}{}{Doc-Start}{}}
\@writefile{snm}{\beamer@slide {reg_dummy_deptr<1>}{112}}
\newlabel{reg_dummy_deptr}{{95}{112}{}{Doc-Start}{}}
\@writefile{snm}{\beamer@slide {reg_dummy_deptr}{112}}
\@writefile{nav}{\headcommand {\slideentry {0}{0}{97}{112/112}{}{0}}}
\@writefile{nav}{\headcommand {\beamer@framepages {112}{112}}}
\newlabel{reg_otherm<1>}{{96}{113}{}{Doc-Start}{}}
\@writefile{snm}{\beamer@slide {reg_otherm<1>}{113}}
\newlabel{reg_otherm}{{96}{113}{}{Doc-Start}{}}
\@writefile{snm}{\beamer@slide {reg_otherm}{113}}
\@writefile{nav}{\headcommand {\slideentry {0}{0}{98}{113/113}{}{0}}}
\@writefile{nav}{\headcommand {\beamer@framepages {113}{113}}}
\newlabel{reg_newarea<1>}{{97}{114}{}{Doc-Start}{}}
\@writefile{snm}{\beamer@slide {reg_newarea<1>}{114}}
\newlabel{reg_newarea}{{97}{114}{}{Doc-Start}{}}
\@writefile{snm}{\beamer@slide {reg_newarea}{114}}
\@writefile{nav}{\headcommand {\slideentry {0}{0}{99}{114/114}{}{0}}}
\@writefile{nav}{\headcommand {\beamer@framepages {114}{114}}}
\newlabel{reg_peruRD<1>}{{98}{115}{}{Doc-Start}{}}
\@writefile{snm}{\beamer@slide {reg_peruRD<1>}{115}}
\newlabel{reg_peruRD}{{98}{115}{}{Doc-Start}{}}
\@writefile{snm}{\beamer@slide {reg_peruRD}{115}}
\@writefile{nav}{\headcommand {\slideentry {0}{0}{100}{115/115}{}{0}}}
\@writefile{nav}{\headcommand {\beamer@framepages {115}{115}}}
\newlabel{dd_basico_titulos<1>}{{99}{116}{}{Doc-Start}{}}
\@writefile{snm}{\beamer@slide {dd_basico_titulos<1>}{116}}
\newlabel{dd_basico_titulos}{{99}{116}{}{Doc-Start}{}}
\@writefile{snm}{\beamer@slide {dd_basico_titulos}{116}}
\@writefile{nav}{\headcommand {\slideentry {0}{0}{101}{116/116}{}{0}}}
\@writefile{nav}{\headcommand {\beamer@framepages {116}{116}}}
\newlabel{balancestats_inst<1>}{{100}{117}{}{Doc-Start}{}}
\@writefile{snm}{\beamer@slide {balancestats_inst<1>}{117}}
\newlabel{balancestats_inst}{{100}{117}{}{Doc-Start}{}}
\@writefile{snm}{\beamer@slide {balancestats_inst}{117}}
\@writefile{nav}{\headcommand {\slideentry {0}{0}{102}{117/117}{}{0}}}
\@writefile{nav}{\headcommand {\beamer@framepages {117}{117}}}
\newlabel{reg_het1<1>}{{101}{118}{}{Doc-Start}{}}
\@writefile{snm}{\beamer@slide {reg_het1<1>}{118}}
\newlabel{reg_het1}{{101}{118}{}{Doc-Start}{}}
\@writefile{snm}{\beamer@slide {reg_het1}{118}}
\@writefile{nav}{\headcommand {\slideentry {0}{0}{103}{118/118}{}{0}}}
\@writefile{nav}{\headcommand {\beamer@framepages {118}{118}}}
\newlabel{reg_het2<1>}{{102}{119}{}{Doc-Start}{}}
\@writefile{snm}{\beamer@slide {reg_het2<1>}{119}}
\newlabel{reg_het2}{{102}{119}{}{Doc-Start}{}}
\@writefile{snm}{\beamer@slide {reg_het2}{119}}
\@writefile{nav}{\headcommand {\slideentry {0}{0}{104}{119/119}{}{0}}}
\@writefile{nav}{\headcommand {\beamer@framepages {119}{119}}}
\newlabel{sumstats_healthExp<1>}{{103}{120}{}{Doc-Start}{}}
\@writefile{snm}{\beamer@slide {sumstats_healthExp<1>}{120}}
\newlabel{sumstats_healthExp}{{103}{120}{}{Doc-Start}{}}
\@writefile{snm}{\beamer@slide {sumstats_healthExp}{120}}
\@writefile{nav}{\headcommand {\slideentry {0}{0}{105}{120/120}{}{0}}}
\@writefile{nav}{\headcommand {\beamer@framepages {120}{120}}}
\newlabel{sumstats_healthUps<1>}{{104}{121}{}{Doc-Start}{}}
\@writefile{snm}{\beamer@slide {sumstats_healthUps<1>}{121}}
\newlabel{sumstats_healthUps}{{104}{121}{}{Doc-Start}{}}
\@writefile{snm}{\beamer@slide {sumstats_healthUps}{121}}
\@writefile{nav}{\headcommand {\slideentry {0}{0}{106}{121/121}{}{0}}}
\@writefile{nav}{\headcommand {\beamer@framepages {121}{121}}}
\newlabel{reg_health2<1>}{{105}{122}{}{Doc-Start}{}}
\@writefile{snm}{\beamer@slide {reg_health2<1>}{122}}
\newlabel{reg_health2}{{105}{122}{}{Doc-Start}{}}
\@writefile{snm}{\beamer@slide {reg_health2}{122}}
\@writefile{nav}{\headcommand {\slideentry {0}{0}{107}{122/122}{}{0}}}
\@writefile{nav}{\headcommand {\beamer@framepages {122}{122}}}
\newlabel{reg_povertyRD<1>}{{106}{123}{}{Doc-Start}{}}
\@writefile{snm}{\beamer@slide {reg_povertyRD<1>}{123}}
\newlabel{reg_povertyRD}{{106}{123}{}{Doc-Start}{}}
\@writefile{snm}{\beamer@slide {reg_povertyRD}{123}}
\@writefile{nav}{\headcommand {\slideentry {0}{0}{108}{123/123}{}{0}}}
\@writefile{nav}{\headcommand {\beamer@framepages {123}{123}}}
\newlabel{titlesyear_plot<1>}{{107}{124}{}{Doc-Start}{}}
\@writefile{snm}{\beamer@slide {titlesyear_plot<1>}{124}}
\newlabel{titlesyear_plot}{{107}{124}{}{Doc-Start}{}}
\@writefile{snm}{\beamer@slide {titlesyear_plot}{124}}
\@writefile{nav}{\headcommand {\slideentry {0}{0}{109}{124/124}{}{0}}}
\@writefile{nav}{\headcommand {\beamer@framepages {124}{124}}}
\newlabel{reg_tit2014<1>}{{108}{125}{}{Doc-Start}{}}
\@writefile{snm}{\beamer@slide {reg_tit2014<1>}{125}}
\newlabel{reg_tit2014}{{108}{125}{}{Doc-Start}{}}
\@writefile{snm}{\beamer@slide {reg_tit2014}{125}}
\@writefile{nav}{\headcommand {\slideentry {0}{0}{110}{125/125}{}{0}}}
\@writefile{nav}{\headcommand {\beamer@framepages {125}{125}}}
\newlabel{reg_prod_raw<1>}{{109}{126}{}{Doc-Start}{}}
\@writefile{snm}{\beamer@slide {reg_prod_raw<1>}{126}}
\newlabel{reg_prod_raw}{{109}{126}{}{Doc-Start}{}}
\@writefile{snm}{\beamer@slide {reg_prod_raw}{126}}
\@writefile{nav}{\headcommand {\slideentry {0}{0}{111}{126/126}{}{0}}}
\@writefile{nav}{\headcommand {\beamer@framepages {126}{126}}}
\newlabel{eqn_health<1>}{{110}{127}{}{Doc-Start}{}}
\@writefile{snm}{\beamer@slide {eqn_health<1>}{127}}
\newlabel{eqn_health}{{110}{127}{}{Doc-Start}{}}
\@writefile{snm}{\beamer@slide {eqn_health}{127}}
\@writefile{nav}{\headcommand {\slideentry {0}{0}{112}{127/127}{}{0}}}
\@writefile{nav}{\headcommand {\beamer@framepages {127}{127}}}
\@writefile{nav}{\headcommand {\slideentry {0}{0}{113}{128/128}{}{0}}}
\@writefile{nav}{\headcommand {\beamer@framepages {128}{128}}}
\@writefile{nav}{\headcommand {\slideentry {0}{0}{114}{129/129}{}{0}}}
\@writefile{nav}{\headcommand {\beamer@framepages {129}{129}}}
\@writefile{nav}{\headcommand {\slideentry {0}{0}{115}{130/130}{}{0}}}
\@writefile{nav}{\headcommand {\beamer@framepages {130}{130}}}
\@writefile{nav}{\headcommand {\slideentry {0}{0}{116}{131/131}{}{0}}}
\@writefile{nav}{\headcommand {\beamer@framepages {131}{131}}}
\bibstyle{apacite}
\bibdata{bibille}
\@writefile{nav}{\headcommand {\slideentry {0}{0}{117}{132/132}{}{0}}}
\@writefile{nav}{\headcommand {\beamer@framepages {132}{132}}}
\@writefile{nav}{\headcommand {\beamer@partpages {1}{132}}}
\@writefile{nav}{\headcommand {\beamer@subsectionpages {1}{132}}}
\@writefile{nav}{\headcommand {\beamer@sectionpages {1}{132}}}
\@writefile{nav}{\headcommand {\beamer@documentpages {132}}}
\@writefile{nav}{\headcommand {\def \inserttotalframenumber {60}}}
