\relax 
\providecommand\hyper@newdestlabel[2]{}
\providecommand\HyperFirstAtBeginDocument{\AtBeginDocument}
\HyperFirstAtBeginDocument{\ifx\hyper@anchor\@undefined
\global\let\oldcontentsline\contentsline
\gdef\contentsline#1#2#3#4{\oldcontentsline{#1}{#2}{#3}}
\global\let\oldnewlabel\newlabel
\gdef\newlabel#1#2{\newlabelxx{#1}#2}
\gdef\newlabelxx#1#2#3#4#5#6{\oldnewlabel{#1}{{#2}{#3}}}
\AtEndDocument{\ifx\hyper@anchor\@undefined
\let\contentsline\oldcontentsline
\let\newlabel\oldnewlabel
\fi}
\fi}
\global\let\hyper@last\relax 
\gdef\HyperFirstAtBeginDocument#1{#1}
\providecommand\HyField@AuxAddToFields[1]{}
\providecommand\HyField@AuxAddToCoFields[2]{}
\providecommand \oddpage@label [2]{}
\select@language{english}
\@writefile{toc}{\select@language{english}}
\@writefile{lof}{\select@language{english}}
\@writefile{lot}{\select@language{english}}
\@writefile{nav}{\headcommand {\slideentry {0}{0}{1}{1/1}{}{0}}}
\@writefile{nav}{\headcommand {\beamer@framepages {1}{1}}}
\@writefile{nav}{\headcommand {\slideentry {0}{0}{2}{2/4}{}{0}}}
\@writefile{nav}{\headcommand {\beamer@framepages {2}{4}}}
\@writefile{nav}{\headcommand {\slideentry {0}{0}{3}{5/6}{}{0}}}
\@writefile{nav}{\headcommand {\beamer@framepages {5}{6}}}
\@writefile{nav}{\headcommand {\slideentry {0}{0}{4}{7/8}{}{0}}}
\@writefile{nav}{\headcommand {\beamer@framepages {7}{8}}}
\@writefile{nav}{\headcommand {\slideentry {0}{0}{5}{9/9}{}{0}}}
\@writefile{nav}{\headcommand {\beamer@framepages {9}{9}}}
\newlabel{context<1>}{{6}{10}{}{Doc-Start}{}}
\@writefile{snm}{\beamer@slide {context<1>}{10}}
\newlabel{context}{{6}{10}{}{Doc-Start}{}}
\@writefile{snm}{\beamer@slide {context}{10}}
\newlabel{context<2>}{{6}{11}{}{Doc-Start}{}}
\@writefile{snm}{\beamer@slide {context<2>}{11}}
\@writefile{nav}{\headcommand {\slideentry {0}{0}{6}{10/11}{}{0}}}
\@writefile{nav}{\headcommand {\beamer@framepages {10}{11}}}
\@writefile{nav}{\headcommand {\slideentry {0}{0}{7}{12/16}{}{0}}}
\@writefile{nav}{\headcommand {\beamer@framepages {12}{16}}}
\@writefile{nav}{\headcommand {\slideentry {0}{0}{8}{17/17}{}{0}}}
\@writefile{nav}{\headcommand {\beamer@framepages {17}{17}}}
\newlabel{graph_prepare<1>}{{9}{18}{}{Doc-Start}{}}
\@writefile{snm}{\beamer@slide {graph_prepare<1>}{18}}
\newlabel{graph_prepare}{{9}{18}{}{Doc-Start}{}}
\@writefile{snm}{\beamer@slide {graph_prepare}{18}}
\@writefile{nav}{\headcommand {\slideentry {0}{0}{9}{18/18}{}{0}}}
\@writefile{nav}{\headcommand {\beamer@framepages {18}{18}}}
\newlabel{training_testing<1>}{{10}{19}{}{Doc-Start}{}}
\@writefile{snm}{\beamer@slide {training_testing<1>}{19}}
\newlabel{training_testing}{{10}{19}{}{Doc-Start}{}}
\@writefile{snm}{\beamer@slide {training_testing}{19}}
\@writefile{nav}{\headcommand {\slideentry {0}{0}{10}{19/19}{}{0}}}
\@writefile{nav}{\headcommand {\beamer@framepages {19}{19}}}
\newlabel{graph_predlegal<1>}{{11}{20}{}{Doc-Start}{}}
\@writefile{snm}{\beamer@slide {graph_predlegal<1>}{20}}
\newlabel{graph_predlegal}{{11}{20}{}{Doc-Start}{}}
\@writefile{snm}{\beamer@slide {graph_predlegal}{20}}
\@writefile{nav}{\headcommand {\slideentry {0}{0}{11}{20/20}{}{0}}}
\@writefile{nav}{\headcommand {\beamer@framepages {20}{20}}}
\@writefile{nav}{\headcommand {\slideentry {0}{0}{12}{21/21}{}{0}}}
\@writefile{nav}{\headcommand {\beamer@framepages {21}{21}}}
\newlabel{het_plot<1>}{{13}{22}{}{Doc-Start}{}}
\@writefile{snm}{\beamer@slide {het_plot<1>}{22}}
\newlabel{het_plot}{{13}{22}{}{Doc-Start}{}}
\@writefile{snm}{\beamer@slide {het_plot}{22}}
\@writefile{nav}{\headcommand {\slideentry {0}{0}{13}{22/22}{}{0}}}
\@writefile{nav}{\headcommand {\beamer@framepages {22}{22}}}
\newlabel{reg_main<1>}{{14}{23}{}{Doc-Start}{}}
\@writefile{snm}{\beamer@slide {reg_main<1>}{23}}
\newlabel{reg_main}{{14}{23}{}{Doc-Start}{}}
\@writefile{snm}{\beamer@slide {reg_main}{23}}
\@writefile{nav}{\headcommand {\slideentry {0}{0}{14}{23/23}{}{0}}}
\@writefile{nav}{\headcommand {\beamer@framepages {23}{23}}}
\@writefile{nav}{\headcommand {\slideentry {0}{0}{15}{24/24}{}{0}}}
\@writefile{nav}{\headcommand {\beamer@framepages {24}{24}}}
\newlabel{reg_healthIVfs<1>}{{16}{25}{}{Doc-Start}{}}
\@writefile{snm}{\beamer@slide {reg_healthIVfs<1>}{25}}
\newlabel{reg_healthIVfs}{{16}{25}{}{Doc-Start}{}}
\@writefile{snm}{\beamer@slide {reg_healthIVfs}{25}}
\@writefile{nav}{\headcommand {\slideentry {0}{0}{16}{25/25}{}{0}}}
\@writefile{nav}{\headcommand {\beamer@framepages {25}{25}}}
\newlabel{reg_healthIVnsm<1>}{{17}{26}{}{Doc-Start}{}}
\@writefile{snm}{\beamer@slide {reg_healthIVnsm<1>}{26}}
\newlabel{reg_healthIVnsm}{{17}{26}{}{Doc-Start}{}}
\@writefile{snm}{\beamer@slide {reg_healthIVnsm}{26}}
\@writefile{nav}{\headcommand {\slideentry {0}{0}{17}{26/26}{}{0}}}
\@writefile{nav}{\headcommand {\beamer@framepages {26}{26}}}
\@writefile{nav}{\headcommand {\slideentry {0}{0}{18}{27/27}{}{0}}}
\@writefile{nav}{\headcommand {\beamer@framepages {27}{27}}}
\@writefile{nav}{\headcommand {\slideentry {0}{0}{19}{28/28}{}{0}}}
\@writefile{nav}{\headcommand {\beamer@framepages {28}{28}}}
\newlabel{outline<1>}{{19}{29}{}{Doc-Start}{}}
\@writefile{snm}{\beamer@slide {outline<1>}{29}}
\newlabel{outline}{{19}{29}{}{Doc-Start}{}}
\@writefile{snm}{\beamer@slide {outline}{29}}
\@writefile{nav}{\headcommand {\slideentry {0}{0}{20}{29/29}{}{0}}}
\@writefile{nav}{\headcommand {\beamer@framepages {29}{29}}}
\newlabel{literature<1>}{{20}{30}{}{Doc-Start}{}}
\@writefile{snm}{\beamer@slide {literature<1>}{30}}
\newlabel{literature}{{20}{30}{}{Doc-Start}{}}
\@writefile{snm}{\beamer@slide {literature}{30}}
\newlabel{literature<2>}{{20}{31}{}{Doc-Start}{}}
\@writefile{snm}{\beamer@slide {literature<2>}{31}}
\newlabel{literature<3>}{{20}{32}{}{Doc-Start}{}}
\@writefile{snm}{\beamer@slide {literature<3>}{32}}
\newlabel{literature<4>}{{20}{33}{}{Doc-Start}{}}
\@writefile{snm}{\beamer@slide {literature<4>}{33}}
\newlabel{literature<5>}{{20}{34}{}{Doc-Start}{}}
\@writefile{snm}{\beamer@slide {literature<5>}{34}}
\newlabel{literature<6>}{{20}{35}{}{Doc-Start}{}}
\@writefile{snm}{\beamer@slide {literature<6>}{35}}
\@writefile{nav}{\headcommand {\slideentry {0}{0}{21}{30/35}{}{0}}}
\@writefile{nav}{\headcommand {\beamer@framepages {30}{35}}}
\newlabel{mining_Col<1>}{{21}{36}{}{Doc-Start}{}}
\@writefile{snm}{\beamer@slide {mining_Col<1>}{36}}
\newlabel{mining_Col}{{21}{36}{}{Doc-Start}{}}
\@writefile{snm}{\beamer@slide {mining_Col}{36}}
\@writefile{nav}{\headcommand {\slideentry {0}{0}{22}{36/36}{}{0}}}
\@writefile{nav}{\headcommand {\beamer@framepages {36}{36}}}
\newlabel{details_reform<1>}{{22}{37}{}{Doc-Start}{}}
\@writefile{snm}{\beamer@slide {details_reform<1>}{37}}
\newlabel{details_reform}{{22}{37}{}{Doc-Start}{}}
\@writefile{snm}{\beamer@slide {details_reform}{37}}
\@writefile{nav}{\headcommand {\slideentry {0}{0}{23}{37/37}{}{0}}}
\@writefile{nav}{\headcommand {\beamer@framepages {37}{37}}}
\@writefile{nav}{\headcommand {\slideentry {0}{0}{24}{38/38}{}{0}}}
\@writefile{nav}{\headcommand {\beamer@framepages {38}{38}}}
\newlabel{outline2<1>}{{24}{39}{}{Doc-Start}{}}
\@writefile{snm}{\beamer@slide {outline2<1>}{39}}
\newlabel{outline2}{{24}{39}{}{Doc-Start}{}}
\@writefile{snm}{\beamer@slide {outline2}{39}}
\@writefile{nav}{\headcommand {\slideentry {0}{0}{25}{39/39}{}{0}}}
\@writefile{nav}{\headcommand {\beamer@framepages {39}{39}}}
\newlabel{model_overview<1>}{{25}{40}{}{Doc-Start}{}}
\@writefile{snm}{\beamer@slide {model_overview<1>}{40}}
\newlabel{model_overview}{{25}{40}{}{Doc-Start}{}}
\@writefile{snm}{\beamer@slide {model_overview}{40}}
\newlabel{model_overview<2>}{{25}{41}{}{Doc-Start}{}}
\@writefile{snm}{\beamer@slide {model_overview<2>}{41}}
\newlabel{model_overview<3>}{{25}{42}{}{Doc-Start}{}}
\@writefile{snm}{\beamer@slide {model_overview<3>}{42}}
\@writefile{nav}{\headcommand {\slideentry {0}{0}{26}{40/42}{}{0}}}
\@writefile{nav}{\headcommand {\beamer@framepages {40}{42}}}
\newlabel{thmod<1>}{{26}{43}{}{Doc-Start}{}}
\@writefile{snm}{\beamer@slide {thmod<1>}{43}}
\newlabel{thmod}{{26}{43}{}{Doc-Start}{}}
\@writefile{snm}{\beamer@slide {thmod}{43}}
\@writefile{nav}{\headcommand {\slideentry {0}{0}{27}{43/43}{}{0}}}
\@writefile{nav}{\headcommand {\beamer@framepages {43}{43}}}
\newlabel{th_preds12<1>}{{27}{44}{}{Doc-Start}{}}
\@writefile{snm}{\beamer@slide {th_preds12<1>}{44}}
\newlabel{th_preds12}{{27}{44}{}{Doc-Start}{}}
\@writefile{snm}{\beamer@slide {th_preds12}{44}}
\@writefile{nav}{\headcommand {\slideentry {0}{0}{28}{44/44}{}{0}}}
\@writefile{nav}{\headcommand {\beamer@framepages {44}{44}}}
\newlabel{model_linear<1>}{{28}{45}{}{Doc-Start}{}}
\@writefile{snm}{\beamer@slide {model_linear<1>}{45}}
\newlabel{model_linear}{{28}{45}{}{Doc-Start}{}}
\@writefile{snm}{\beamer@slide {model_linear}{45}}
\@writefile{nav}{\headcommand {\slideentry {0}{0}{29}{45/45}{}{0}}}
\@writefile{nav}{\headcommand {\beamer@framepages {45}{45}}}
\newlabel{model_convex<1>}{{29}{46}{}{Doc-Start}{}}
\@writefile{snm}{\beamer@slide {model_convex<1>}{46}}
\newlabel{model_convex}{{29}{46}{}{Doc-Start}{}}
\@writefile{snm}{\beamer@slide {model_convex}{46}}
\@writefile{nav}{\headcommand {\slideentry {0}{0}{30}{46/46}{}{0}}}
\@writefile{nav}{\headcommand {\beamer@framepages {46}{46}}}
\@writefile{nav}{\headcommand {\slideentry {0}{0}{31}{47/47}{}{0}}}
\@writefile{nav}{\headcommand {\beamer@framepages {47}{47}}}
\newlabel{prepare<1>}{{31}{48}{}{Doc-Start}{}}
\@writefile{snm}{\beamer@slide {prepare<1>}{48}}
\newlabel{prepare}{{31}{48}{}{Doc-Start}{}}
\@writefile{snm}{\beamer@slide {prepare}{48}}
\@writefile{nav}{\headcommand {\slideentry {0}{0}{32}{48/48}{}{0}}}
\@writefile{nav}{\headcommand {\beamer@framepages {48}{48}}}
\newlabel{graph_prepare<1>}{{32}{49}{}{Doc-Start}{}}
\@writefile{snm}{\beamer@slide {graph_prepare<1>}{49}}
\newlabel{graph_prepare}{{32}{49}{}{Doc-Start}{}}
\@writefile{snm}{\beamer@slide {graph_prepare}{49}}
\@writefile{nav}{\headcommand {\slideentry {0}{0}{33}{49/49}{}{0}}}
\@writefile{nav}{\headcommand {\beamer@framepages {49}{49}}}
\newlabel{challenges<1>}{{33}{50}{}{Doc-Start}{}}
\@writefile{snm}{\beamer@slide {challenges<1>}{50}}
\newlabel{challenges}{{33}{50}{}{Doc-Start}{}}
\@writefile{snm}{\beamer@slide {challenges}{50}}
\@writefile{nav}{\headcommand {\slideentry {0}{0}{34}{50/50}{}{0}}}
\@writefile{nav}{\headcommand {\beamer@framepages {50}{50}}}
\newlabel{whatRF<1>}{{34}{51}{}{Doc-Start}{}}
\@writefile{snm}{\beamer@slide {whatRF<1>}{51}}
\newlabel{whatRF}{{34}{51}{}{Doc-Start}{}}
\@writefile{snm}{\beamer@slide {whatRF}{51}}
\@writefile{nav}{\headcommand {\slideentry {0}{0}{35}{51/51}{}{0}}}
\@writefile{nav}{\headcommand {\beamer@framepages {51}{51}}}
\newlabel{whatRF<1>}{{35}{52}{}{Doc-Start}{}}
\@writefile{snm}{\beamer@slide {whatRF<1>}{52}}
\newlabel{whatRF}{{35}{52}{}{Doc-Start}{}}
\@writefile{snm}{\beamer@slide {whatRF}{52}}
\@writefile{nav}{\headcommand {\slideentry {0}{0}{36}{52/52}{}{0}}}
\@writefile{nav}{\headcommand {\beamer@framepages {52}{52}}}
\@writefile{nav}{\headcommand {\slideentry {0}{0}{37}{53/53}{}{0}}}
\@writefile{nav}{\headcommand {\beamer@framepages {53}{53}}}
\newlabel{ROC<1>}{{37}{54}{}{Doc-Start}{}}
\@writefile{snm}{\beamer@slide {ROC<1>}{54}}
\newlabel{ROC}{{37}{54}{}{Doc-Start}{}}
\@writefile{snm}{\beamer@slide {ROC}{54}}
\@writefile{nav}{\headcommand {\slideentry {0}{0}{38}{54/54}{}{0}}}
\@writefile{nav}{\headcommand {\beamer@framepages {54}{54}}}
\@writefile{nav}{\headcommand {\slideentry {0}{0}{39}{55/55}{}{0}}}
\@writefile{nav}{\headcommand {\beamer@framepages {55}{55}}}
\newlabel{graph_predlegal<1>}{{39}{56}{}{Doc-Start}{}}
\@writefile{snm}{\beamer@slide {graph_predlegal<1>}{56}}
\newlabel{graph_predlegal}{{39}{56}{}{Doc-Start}{}}
\@writefile{snm}{\beamer@slide {graph_predlegal}{56}}
\@writefile{nav}{\headcommand {\slideentry {0}{0}{40}{56/56}{}{0}}}
\@writefile{nav}{\headcommand {\beamer@framepages {56}{56}}}
\newlabel{dd_basico_mined_ally<1>}{{40}{57}{}{Doc-Start}{}}
\@writefile{snm}{\beamer@slide {dd_basico_mined_ally<1>}{57}}
\newlabel{dd_basico_mined_ally}{{40}{57}{}{Doc-Start}{}}
\@writefile{snm}{\beamer@slide {dd_basico_mined_ally}{57}}
\@writefile{nav}{\headcommand {\slideentry {0}{0}{41}{57/57}{}{0}}}
\@writefile{nav}{\headcommand {\beamer@framepages {57}{57}}}
\@writefile{nav}{\headcommand {\slideentry {0}{0}{42}{58/58}{}{0}}}
\@writefile{nav}{\headcommand {\beamer@framepages {58}{58}}}
\@writefile{nav}{\headcommand {\slideentry {0}{0}{43}{59/59}{}{0}}}
\@writefile{nav}{\headcommand {\beamer@framepages {59}{59}}}
\@writefile{nav}{\headcommand {\slideentry {0}{0}{44}{60/60}{}{0}}}
\@writefile{nav}{\headcommand {\beamer@framepages {60}{60}}}
\newlabel{reg_newarea<1>}{{44}{61}{}{Doc-Start}{}}
\@writefile{snm}{\beamer@slide {reg_newarea<1>}{61}}
\newlabel{reg_newarea}{{44}{61}{}{Doc-Start}{}}
\@writefile{snm}{\beamer@slide {reg_newarea}{61}}
\@writefile{nav}{\headcommand {\slideentry {0}{0}{45}{61/61}{}{0}}}
\@writefile{nav}{\headcommand {\beamer@framepages {61}{61}}}
\newlabel{reg_main<1>}{{45}{62}{}{Doc-Start}{}}
\@writefile{snm}{\beamer@slide {reg_main<1>}{62}}
\newlabel{reg_main}{{45}{62}{}{Doc-Start}{}}
\@writefile{snm}{\beamer@slide {reg_main}{62}}
\@writefile{nav}{\headcommand {\slideentry {0}{0}{46}{62/62}{}{0}}}
\@writefile{nav}{\headcommand {\beamer@framepages {62}{62}}}
\newlabel{intro_hetins<1>}{{46}{63}{}{Doc-Start}{}}
\@writefile{snm}{\beamer@slide {intro_hetins<1>}{63}}
\newlabel{intro_hetins}{{46}{63}{}{Doc-Start}{}}
\@writefile{snm}{\beamer@slide {intro_hetins}{63}}
\@writefile{nav}{\headcommand {\slideentry {0}{0}{47}{63/63}{}{0}}}
\@writefile{nav}{\headcommand {\beamer@framepages {63}{63}}}
\newlabel{reg_hetins<1>}{{47}{64}{}{Doc-Start}{}}
\@writefile{snm}{\beamer@slide {reg_hetins<1>}{64}}
\newlabel{reg_hetins}{{47}{64}{}{Doc-Start}{}}
\@writefile{snm}{\beamer@slide {reg_hetins}{64}}
\@writefile{nav}{\headcommand {\slideentry {0}{0}{48}{64/64}{}{0}}}
\@writefile{nav}{\headcommand {\beamer@framepages {64}{64}}}
\newlabel{reg_wl<1>}{{48}{65}{}{Doc-Start}{}}
\@writefile{snm}{\beamer@slide {reg_wl<1>}{65}}
\newlabel{reg_wl}{{48}{65}{}{Doc-Start}{}}
\@writefile{snm}{\beamer@slide {reg_wl}{65}}
\@writefile{nav}{\headcommand {\slideentry {0}{0}{49}{65/65}{}{0}}}
\@writefile{nav}{\headcommand {\beamer@framepages {65}{65}}}
\newlabel{reg_prod<1>}{{49}{66}{}{Doc-Start}{}}
\@writefile{snm}{\beamer@slide {reg_prod<1>}{66}}
\newlabel{reg_prod}{{49}{66}{}{Doc-Start}{}}
\@writefile{snm}{\beamer@slide {reg_prod}{66}}
\@writefile{nav}{\headcommand {\slideentry {0}{0}{50}{66/66}{}{0}}}
\@writefile{nav}{\headcommand {\beamer@framepages {66}{66}}}
\@writefile{nav}{\headcommand {\slideentry {0}{0}{51}{67/67}{}{0}}}
\@writefile{nav}{\headcommand {\beamer@framepages {67}{67}}}
\@writefile{nav}{\headcommand {\slideentry {0}{0}{52}{68/68}{}{0}}}
\@writefile{nav}{\headcommand {\beamer@framepages {68}{68}}}
\@writefile{nav}{\headcommand {\slideentry {0}{0}{53}{69/69}{}{0}}}
\@writefile{nav}{\headcommand {\beamer@framepages {69}{69}}}
\newlabel{context_health<1>}{{53}{70}{}{Doc-Start}{}}
\@writefile{snm}{\beamer@slide {context_health<1>}{70}}
\newlabel{context_health}{{53}{70}{}{Doc-Start}{}}
\@writefile{snm}{\beamer@slide {context_health}{70}}
\@writefile{nav}{\headcommand {\slideentry {0}{0}{54}{70/70}{}{0}}}
\@writefile{nav}{\headcommand {\beamer@framepages {70}{70}}}
\@writefile{nav}{\headcommand {\slideentry {0}{0}{55}{71/71}{}{0}}}
\@writefile{nav}{\headcommand {\beamer@framepages {71}{71}}}
\newlabel{reg_health<1>}{{55}{72}{}{Doc-Start}{}}
\@writefile{snm}{\beamer@slide {reg_health<1>}{72}}
\newlabel{reg_health}{{55}{72}{}{Doc-Start}{}}
\@writefile{snm}{\beamer@slide {reg_health}{72}}
\@writefile{nav}{\headcommand {\slideentry {0}{0}{56}{72/72}{}{0}}}
\@writefile{nav}{\headcommand {\beamer@framepages {72}{72}}}
\newlabel{reg_healthIVfs<1>}{{56}{73}{}{Doc-Start}{}}
\@writefile{snm}{\beamer@slide {reg_healthIVfs<1>}{73}}
\newlabel{reg_healthIVfs}{{56}{73}{}{Doc-Start}{}}
\@writefile{snm}{\beamer@slide {reg_healthIVfs}{73}}
\@writefile{nav}{\headcommand {\slideentry {0}{0}{57}{73/73}{}{0}}}
\@writefile{nav}{\headcommand {\beamer@framepages {73}{73}}}
\newlabel{reg_healthIVnsm<1>}{{57}{74}{}{Doc-Start}{}}
\@writefile{snm}{\beamer@slide {reg_healthIVnsm<1>}{74}}
\newlabel{reg_healthIVnsm}{{57}{74}{}{Doc-Start}{}}
\@writefile{snm}{\beamer@slide {reg_healthIVnsm}{74}}
\@writefile{nav}{\headcommand {\slideentry {0}{0}{58}{74/74}{}{0}}}
\@writefile{nav}{\headcommand {\beamer@framepages {74}{74}}}
\@writefile{nav}{\headcommand {\slideentry {0}{0}{59}{75/75}{}{0}}}
\@writefile{nav}{\headcommand {\beamer@framepages {75}{75}}}
\newlabel{discussion<1>}{{59}{76}{}{Doc-Start}{}}
\@writefile{snm}{\beamer@slide {discussion<1>}{76}}
\newlabel{discussion}{{59}{76}{}{Doc-Start}{}}
\@writefile{snm}{\beamer@slide {discussion}{76}}
\@writefile{nav}{\headcommand {\slideentry {0}{0}{60}{76/76}{}{0}}}
\@writefile{nav}{\headcommand {\beamer@framepages {76}{76}}}
\newlabel{costreform<1>}{{60}{77}{}{Doc-Start}{}}
\@writefile{snm}{\beamer@slide {costreform<1>}{77}}
\newlabel{costreform}{{60}{77}{}{Doc-Start}{}}
\@writefile{snm}{\beamer@slide {costreform}{77}}
\@writefile{nav}{\headcommand {\slideentry {0}{0}{61}{77/77}{}{0}}}
\@writefile{nav}{\headcommand {\beamer@framepages {77}{77}}}
\newlabel{healthcostreform<1>}{{61}{78}{}{Doc-Start}{}}
\@writefile{snm}{\beamer@slide {healthcostreform<1>}{78}}
\newlabel{healthcostreform}{{61}{78}{}{Doc-Start}{}}
\@writefile{snm}{\beamer@slide {healthcostreform}{78}}
\@writefile{nav}{\headcommand {\slideentry {0}{0}{62}{78/78}{}{0}}}
\@writefile{nav}{\headcommand {\beamer@framepages {78}{78}}}
\@writefile{nav}{\headcommand {\slideentry {0}{0}{63}{79/79}{}{0}}}
\@writefile{nav}{\headcommand {\beamer@framepages {79}{79}}}
\@writefile{nav}{\headcommand {\slideentry {0}{0}{64}{80/80}{}{0}}}
\@writefile{nav}{\headcommand {\beamer@framepages {80}{80}}}
\newlabel{reg_titulos<1>}{{63}{81}{}{Doc-Start}{}}
\@writefile{snm}{\beamer@slide {reg_titulos<1>}{81}}
\newlabel{reg_titulos}{{63}{81}{}{Doc-Start}{}}
\@writefile{snm}{\beamer@slide {reg_titulos}{81}}
\@writefile{nav}{\headcommand {\slideentry {0}{0}{65}{81/81}{}{0}}}
\@writefile{nav}{\headcommand {\beamer@framepages {81}{81}}}
\newlabel{roy_ineq<1>}{{64}{82}{}{Doc-Start}{}}
\@writefile{snm}{\beamer@slide {roy_ineq<1>}{82}}
\newlabel{roy_ineq}{{64}{82}{}{Doc-Start}{}}
\@writefile{snm}{\beamer@slide {roy_ineq}{82}}
\newlabel{Circle size proportional to population of the municipality}{{64}{82}{}{Doc-Start}{}}
\@writefile{snm}{\beamer@slide {Circle size proportional to population of the municipality}{82}}
\@writefile{nav}{\headcommand {\slideentry {0}{0}{66}{82/82}{}{0}}}
\@writefile{nav}{\headcommand {\beamer@framepages {82}{82}}}
\newlabel{formula<1>}{{65}{83}{}{Doc-Start}{}}
\@writefile{snm}{\beamer@slide {formula<1>}{83}}
\newlabel{formula}{{65}{83}{}{Doc-Start}{}}
\@writefile{snm}{\beamer@slide {formula}{83}}
\@writefile{nav}{\headcommand {\slideentry {0}{0}{67}{83/83}{}{0}}}
\@writefile{nav}{\headcommand {\beamer@framepages {83}{83}}}
\newlabel{example_wl<1>}{{66}{84}{}{Doc-Start}{}}
\@writefile{snm}{\beamer@slide {example_wl<1>}{84}}
\newlabel{example_wl}{{66}{84}{}{Doc-Start}{}}
\@writefile{snm}{\beamer@slide {example_wl}{84}}
\@writefile{nav}{\headcommand {\slideentry {0}{0}{68}{84/84}{}{0}}}
\@writefile{nav}{\headcommand {\beamer@framepages {84}{84}}}
\newlabel{graph_beta<1>}{{67}{85}{}{Doc-Start}{}}
\@writefile{snm}{\beamer@slide {graph_beta<1>}{85}}
\newlabel{graph_beta}{{67}{85}{}{Doc-Start}{}}
\@writefile{snm}{\beamer@slide {graph_beta}{85}}
\@writefile{nav}{\headcommand {\slideentry {0}{0}{69}{85/85}{}{0}}}
\@writefile{nav}{\headcommand {\beamer@framepages {85}{85}}}
\newlabel{graph_agPr<1>}{{68}{86}{}{Doc-Start}{}}
\@writefile{snm}{\beamer@slide {graph_agPr<1>}{86}}
\newlabel{graph_agPr}{{68}{86}{}{Doc-Start}{}}
\@writefile{snm}{\beamer@slide {graph_agPr}{86}}
\@writefile{nav}{\headcommand {\slideentry {0}{0}{70}{86/86}{}{0}}}
\@writefile{nav}{\headcommand {\beamer@framepages {86}{86}}}
\newlabel{thmod_prof<1>}{{69}{87}{}{Doc-Start}{}}
\@writefile{snm}{\beamer@slide {thmod_prof<1>}{87}}
\newlabel{thmod_prof}{{69}{87}{}{Doc-Start}{}}
\@writefile{snm}{\beamer@slide {thmod_prof}{87}}
\@writefile{nav}{\headcommand {\slideentry {0}{0}{71}{87/87}{}{0}}}
\@writefile{nav}{\headcommand {\beamer@framepages {87}{87}}}
\newlabel{model_parameters<1>}{{70}{88}{}{Doc-Start}{}}
\@writefile{snm}{\beamer@slide {model_parameters<1>}{88}}
\newlabel{model_parameters}{{70}{88}{}{Doc-Start}{}}
\@writefile{snm}{\beamer@slide {model_parameters}{88}}
\@writefile{nav}{\headcommand {\slideentry {0}{0}{72}{88/88}{}{0}}}
\@writefile{nav}{\headcommand {\beamer@framepages {88}{88}}}
\newlabel{model_f<1>}{{71}{89}{}{Doc-Start}{}}
\@writefile{snm}{\beamer@slide {model_f<1>}{89}}
\newlabel{model_f}{{71}{89}{}{Doc-Start}{}}
\@writefile{snm}{\beamer@slide {model_f}{89}}
\@writefile{nav}{\headcommand {\slideentry {0}{0}{73}{89/89}{}{0}}}
\@writefile{nav}{\headcommand {\beamer@framepages {89}{89}}}
\newlabel{remove_clouds<1>}{{72}{90}{}{Doc-Start}{}}
\@writefile{snm}{\beamer@slide {remove_clouds<1>}{90}}
\newlabel{remove_clouds}{{72}{90}{}{Doc-Start}{}}
\@writefile{snm}{\beamer@slide {remove_clouds}{90}}
\@writefile{nav}{\headcommand {\slideentry {0}{0}{74}{90/90}{}{0}}}
\@writefile{nav}{\headcommand {\beamer@framepages {90}{90}}}
\newlabel{balancestats_censed<1>}{{73}{91}{}{Doc-Start}{}}
\@writefile{snm}{\beamer@slide {balancestats_censed<1>}{91}}
\newlabel{balancestats_censed}{{73}{91}{}{Doc-Start}{}}
\@writefile{snm}{\beamer@slide {balancestats_censed}{91}}
\@writefile{nav}{\headcommand {\slideentry {0}{0}{75}{91/91}{}{0}}}
\@writefile{nav}{\headcommand {\beamer@framepages {91}{91}}}
\newlabel{reg_vs_trees<1>}{{74}{92}{}{Doc-Start}{}}
\@writefile{snm}{\beamer@slide {reg_vs_trees<1>}{92}}
\newlabel{reg_vs_trees}{{74}{92}{}{Doc-Start}{}}
\@writefile{snm}{\beamer@slide {reg_vs_trees}{92}}
\@writefile{nav}{\headcommand {\slideentry {0}{0}{76}{92/92}{}{0}}}
\@writefile{nav}{\headcommand {\beamer@framepages {92}{92}}}
\newlabel{varimportance<1>}{{75}{93}{}{Doc-Start}{}}
\@writefile{snm}{\beamer@slide {varimportance<1>}{93}}
\newlabel{varimportance}{{75}{93}{}{Doc-Start}{}}
\@writefile{snm}{\beamer@slide {varimportance}{93}}
\@writefile{nav}{\headcommand {\slideentry {0}{0}{77}{93/93}{}{0}}}
\@writefile{nav}{\headcommand {\beamer@framepages {93}{93}}}
\newlabel{erroranal<1>}{{76}{94}{}{Doc-Start}{}}
\@writefile{snm}{\beamer@slide {erroranal<1>}{94}}
\newlabel{erroranal}{{76}{94}{}{Doc-Start}{}}
\@writefile{snm}{\beamer@slide {erroranal}{94}}
\@writefile{nav}{\headcommand {\slideentry {0}{0}{78}{94/94}{}{0}}}
\@writefile{nav}{\headcommand {\beamer@framepages {94}{94}}}
\@writefile{nav}{\headcommand {\slideentry {0}{0}{79}{95/95}{}{0}}}
\@writefile{nav}{\headcommand {\beamer@framepages {95}{95}}}
\newlabel{sumstats_tprfpr<1>}{{78}{96}{}{Doc-Start}{}}
\@writefile{snm}{\beamer@slide {sumstats_tprfpr<1>}{96}}
\newlabel{sumstats_tprfpr}{{78}{96}{}{Doc-Start}{}}
\@writefile{snm}{\beamer@slide {sumstats_tprfpr}{96}}
\@writefile{nav}{\headcommand {\slideentry {0}{0}{80}{96/96}{}{0}}}
\@writefile{nav}{\headcommand {\beamer@framepages {96}{96}}}
\@input{R/mat_conf.aux}
\newlabel{mat_conf<1>}{{79}{97}{}{Doc-Start}{}}
\@writefile{snm}{\beamer@slide {mat_conf<1>}{97}}
\newlabel{mat_conf}{{79}{97}{}{Doc-Start}{}}
\@writefile{snm}{\beamer@slide {mat_conf}{97}}
\@writefile{nav}{\headcommand {\slideentry {0}{0}{81}{97/97}{}{0}}}
\@writefile{nav}{\headcommand {\beamer@framepages {97}{97}}}
\newlabel{dd_basico<1>}{{80}{98}{}{Doc-Start}{}}
\@writefile{snm}{\beamer@slide {dd_basico<1>}{98}}
\newlabel{dd_basico}{{80}{98}{}{Doc-Start}{}}
\@writefile{snm}{\beamer@slide {dd_basico}{98}}
\@writefile{nav}{\headcommand {\slideentry {0}{0}{82}{98/98}{}{0}}}
\@writefile{nav}{\headcommand {\beamer@framepages {98}{98}}}
\newlabel{partrend_wl<1>}{{81}{99}{}{Doc-Start}{}}
\@writefile{snm}{\beamer@slide {partrend_wl<1>}{99}}
\newlabel{partrend_wl}{{81}{99}{}{Doc-Start}{}}
\@writefile{snm}{\beamer@slide {partrend_wl}{99}}
\@writefile{nav}{\headcommand {\slideentry {0}{0}{83}{99/99}{}{0}}}
\@writefile{nav}{\headcommand {\beamer@framepages {99}{99}}}
\newlabel{partrend_colperu<1>}{{82}{100}{}{Doc-Start}{}}
\@writefile{snm}{\beamer@slide {partrend_colperu<1>}{100}}
\newlabel{partrend_colperu}{{82}{100}{}{Doc-Start}{}}
\@writefile{snm}{\beamer@slide {partrend_colperu}{100}}
\@writefile{nav}{\headcommand {\slideentry {0}{0}{84}{100/100}{}{0}}}
\@writefile{nav}{\headcommand {\beamer@framepages {100}{100}}}
\newlabel{gold_price<1>}{{83}{101}{}{Doc-Start}{}}
\@writefile{snm}{\beamer@slide {gold_price<1>}{101}}
\newlabel{gold_price}{{83}{101}{}{Doc-Start}{}}
\@writefile{snm}{\beamer@slide {gold_price}{101}}
\@writefile{nav}{\headcommand {\slideentry {0}{0}{85}{101/101}{}{0}}}
\@writefile{nav}{\headcommand {\beamer@framepages {101}{101}}}
\newlabel{dd_basico_mined<1>}{{84}{102}{}{Doc-Start}{}}
\@writefile{snm}{\beamer@slide {dd_basico_mined<1>}{102}}
\newlabel{dd_basico_mined}{{84}{102}{}{Doc-Start}{}}
\@writefile{snm}{\beamer@slide {dd_basico_mined}{102}}
\@writefile{nav}{\headcommand {\slideentry {0}{0}{86}{102/102}{}{0}}}
\@writefile{nav}{\headcommand {\beamer@framepages {102}{102}}}
\newlabel{sumstats_muni<1>}{{85}{103}{}{Doc-Start}{}}
\@writefile{snm}{\beamer@slide {sumstats_muni<1>}{103}}
\newlabel{sumstats_muni}{{85}{103}{}{Doc-Start}{}}
\@writefile{snm}{\beamer@slide {sumstats_muni}{103}}
\@writefile{nav}{\headcommand {\slideentry {0}{0}{87}{103/103}{}{0}}}
\@writefile{nav}{\headcommand {\beamer@framepages {103}{103}}}
\newlabel{sumstats_regvarmined<1>}{{86}{104}{}{Doc-Start}{}}
\@writefile{snm}{\beamer@slide {sumstats_regvarmined<1>}{104}}
\newlabel{sumstats_regvarmined}{{86}{104}{}{Doc-Start}{}}
\@writefile{snm}{\beamer@slide {sumstats_regvarmined}{104}}
\@writefile{nav}{\headcommand {\slideentry {0}{0}{88}{104/104}{}{0}}}
\@writefile{nav}{\headcommand {\beamer@framepages {104}{104}}}
\newlabel{balancestats_muni<1>}{{87}{105}{}{Doc-Start}{}}
\@writefile{snm}{\beamer@slide {balancestats_muni<1>}{105}}
\newlabel{balancestats_muni}{{87}{105}{}{Doc-Start}{}}
\@writefile{snm}{\beamer@slide {balancestats_muni}{105}}
\@writefile{nav}{\headcommand {\slideentry {0}{0}{89}{105/105}{}{0}}}
\@writefile{nav}{\headcommand {\beamer@framepages {105}{105}}}
\newlabel{sumstats_regvarperu<1>}{{88}{106}{}{Doc-Start}{}}
\@writefile{snm}{\beamer@slide {sumstats_regvarperu<1>}{106}}
\newlabel{sumstats_regvarperu}{{88}{106}{}{Doc-Start}{}}
\@writefile{snm}{\beamer@slide {sumstats_regvarperu}{106}}
\@writefile{nav}{\headcommand {\slideentry {0}{0}{90}{106/106}{}{0}}}
\@writefile{nav}{\headcommand {\beamer@framepages {106}{106}}}
\newlabel{sumstats_ftotalperu<1>}{{89}{107}{}{Doc-Start}{}}
\@writefile{snm}{\beamer@slide {sumstats_ftotalperu<1>}{107}}
\newlabel{sumstats_ftotalperu}{{89}{107}{}{Doc-Start}{}}
\@writefile{snm}{\beamer@slide {sumstats_ftotalperu}{107}}
\@writefile{nav}{\headcommand {\slideentry {0}{0}{91}{107/107}{}{0}}}
\@writefile{nav}{\headcommand {\beamer@framepages {107}{107}}}
\newlabel{reg_non_parametric<1>}{{90}{108}{}{Doc-Start}{}}
\@writefile{snm}{\beamer@slide {reg_non_parametric<1>}{108}}
\newlabel{reg_non_parametric}{{90}{108}{}{Doc-Start}{}}
\@writefile{snm}{\beamer@slide {reg_non_parametric}{108}}
\@writefile{nav}{\headcommand {\slideentry {0}{0}{92}{108/108}{}{0}}}
\@writefile{nav}{\headcommand {\beamer@framepages {108}{108}}}
\newlabel{reg_c12<1>}{{91}{109}{}{Doc-Start}{}}
\@writefile{snm}{\beamer@slide {reg_c12<1>}{109}}
\newlabel{reg_c12}{{91}{109}{}{Doc-Start}{}}
\@writefile{snm}{\beamer@slide {reg_c12}{109}}
\@writefile{nav}{\headcommand {\slideentry {0}{0}{93}{109/109}{}{0}}}
\@writefile{nav}{\headcommand {\beamer@framepages {109}{109}}}
\newlabel{reg_probpixmined<1>}{{92}{110}{}{Doc-Start}{}}
\@writefile{snm}{\beamer@slide {reg_probpixmined<1>}{110}}
\newlabel{reg_probpixmined}{{92}{110}{}{Doc-Start}{}}
\@writefile{snm}{\beamer@slide {reg_probpixmined}{110}}
\@writefile{nav}{\headcommand {\slideentry {0}{0}{94}{110/110}{}{0}}}
\@writefile{nav}{\headcommand {\beamer@framepages {110}{110}}}
\newlabel{legalization<1>}{{93}{111}{}{Doc-Start}{}}
\@writefile{snm}{\beamer@slide {legalization<1>}{111}}
\newlabel{legalization}{{93}{111}{}{Doc-Start}{}}
\@writefile{snm}{\beamer@slide {legalization}{111}}
\@writefile{nav}{\headcommand {\slideentry {0}{0}{95}{111/111}{}{0}}}
\@writefile{nav}{\headcommand {\beamer@framepages {111}{111}}}
\newlabel{altonji_mined<1>}{{94}{112}{}{Doc-Start}{}}
\@writefile{snm}{\beamer@slide {altonji_mined<1>}{112}}
\newlabel{altonji_mined}{{94}{112}{}{Doc-Start}{}}
\@writefile{snm}{\beamer@slide {altonji_mined}{112}}
\@writefile{nav}{\headcommand {\slideentry {0}{0}{96}{112/112}{}{0}}}
\@writefile{nav}{\headcommand {\beamer@framepages {112}{112}}}
\newlabel{reg_lasso<1>}{{95}{113}{}{Doc-Start}{}}
\@writefile{snm}{\beamer@slide {reg_lasso<1>}{113}}
\newlabel{reg_lasso}{{95}{113}{}{Doc-Start}{}}
\@writefile{snm}{\beamer@slide {reg_lasso}{113}}
\@writefile{nav}{\headcommand {\slideentry {0}{0}{97}{113/113}{}{0}}}
\@writefile{nav}{\headcommand {\beamer@framepages {113}{113}}}
\newlabel{reg_lasso_continuous<1>}{{96}{114}{}{Doc-Start}{}}
\@writefile{snm}{\beamer@slide {reg_lasso_continuous<1>}{114}}
\newlabel{reg_lasso_continuous}{{96}{114}{}{Doc-Start}{}}
\@writefile{snm}{\beamer@slide {reg_lasso_continuous}{114}}
\@writefile{nav}{\headcommand {\slideentry {0}{0}{98}{114/114}{}{0}}}
\@writefile{nav}{\headcommand {\beamer@framepages {114}{114}}}
\newlabel{reg_adj<1>}{{97}{115}{}{Doc-Start}{}}
\@writefile{snm}{\beamer@slide {reg_adj<1>}{115}}
\newlabel{reg_adj}{{97}{115}{}{Doc-Start}{}}
\@writefile{snm}{\beamer@slide {reg_adj}{115}}
\@writefile{nav}{\headcommand {\slideentry {0}{0}{99}{115/115}{}{0}}}
\@writefile{nav}{\headcommand {\beamer@framepages {115}{115}}}
\newlabel{reg_weights<1>}{{98}{116}{}{Doc-Start}{}}
\@writefile{snm}{\beamer@slide {reg_weights<1>}{116}}
\newlabel{reg_weights}{{98}{116}{}{Doc-Start}{}}
\@writefile{snm}{\beamer@slide {reg_weights}{116}}
\@writefile{nav}{\headcommand {\slideentry {0}{0}{100}{116/116}{}{0}}}
\@writefile{nav}{\headcommand {\beamer@framepages {116}{116}}}
\newlabel{reg_dummy_deptr<1>}{{99}{117}{}{Doc-Start}{}}
\@writefile{snm}{\beamer@slide {reg_dummy_deptr<1>}{117}}
\newlabel{reg_dummy_deptr}{{99}{117}{}{Doc-Start}{}}
\@writefile{snm}{\beamer@slide {reg_dummy_deptr}{117}}
\@writefile{nav}{\headcommand {\slideentry {0}{0}{101}{117/117}{}{0}}}
\@writefile{nav}{\headcommand {\beamer@framepages {117}{117}}}
\newlabel{reg_otherm<1>}{{100}{118}{}{Doc-Start}{}}
\@writefile{snm}{\beamer@slide {reg_otherm<1>}{118}}
\newlabel{reg_otherm}{{100}{118}{}{Doc-Start}{}}
\@writefile{snm}{\beamer@slide {reg_otherm}{118}}
\@writefile{nav}{\headcommand {\slideentry {0}{0}{102}{118/118}{}{0}}}
\@writefile{nav}{\headcommand {\beamer@framepages {118}{118}}}
\newlabel{reg_newarea<1>}{{101}{119}{}{Doc-Start}{}}
\@writefile{snm}{\beamer@slide {reg_newarea<1>}{119}}
\newlabel{reg_newarea}{{101}{119}{}{Doc-Start}{}}
\@writefile{snm}{\beamer@slide {reg_newarea}{119}}
\@writefile{nav}{\headcommand {\slideentry {0}{0}{103}{119/119}{}{0}}}
\@writefile{nav}{\headcommand {\beamer@framepages {119}{119}}}
\newlabel{reg_peruRD<1>}{{102}{120}{}{Doc-Start}{}}
\@writefile{snm}{\beamer@slide {reg_peruRD<1>}{120}}
\newlabel{reg_peruRD}{{102}{120}{}{Doc-Start}{}}
\@writefile{snm}{\beamer@slide {reg_peruRD}{120}}
\@writefile{nav}{\headcommand {\slideentry {0}{0}{104}{120/120}{}{0}}}
\@writefile{nav}{\headcommand {\beamer@framepages {120}{120}}}
\newlabel{dd_basico_titulos<1>}{{103}{121}{}{Doc-Start}{}}
\@writefile{snm}{\beamer@slide {dd_basico_titulos<1>}{121}}
\newlabel{dd_basico_titulos}{{103}{121}{}{Doc-Start}{}}
\@writefile{snm}{\beamer@slide {dd_basico_titulos}{121}}
\@writefile{nav}{\headcommand {\slideentry {0}{0}{105}{121/121}{}{0}}}
\@writefile{nav}{\headcommand {\beamer@framepages {121}{121}}}
\newlabel{balancestats_inst<1>}{{104}{122}{}{Doc-Start}{}}
\@writefile{snm}{\beamer@slide {balancestats_inst<1>}{122}}
\newlabel{balancestats_inst}{{104}{122}{}{Doc-Start}{}}
\@writefile{snm}{\beamer@slide {balancestats_inst}{122}}
\@writefile{nav}{\headcommand {\slideentry {0}{0}{106}{122/122}{}{0}}}
\@writefile{nav}{\headcommand {\beamer@framepages {122}{122}}}
\newlabel{het_plot<1>}{{105}{123}{}{Doc-Start}{}}
\@writefile{snm}{\beamer@slide {het_plot<1>}{123}}
\newlabel{het_plot}{{105}{123}{}{Doc-Start}{}}
\@writefile{snm}{\beamer@slide {het_plot}{123}}
\@writefile{nav}{\headcommand {\slideentry {0}{0}{107}{123/123}{}{0}}}
\@writefile{nav}{\headcommand {\beamer@framepages {123}{123}}}
\newlabel{reg_het1<1>}{{106}{124}{}{Doc-Start}{}}
\@writefile{snm}{\beamer@slide {reg_het1<1>}{124}}
\newlabel{reg_het1}{{106}{124}{}{Doc-Start}{}}
\@writefile{snm}{\beamer@slide {reg_het1}{124}}
\@writefile{nav}{\headcommand {\slideentry {0}{0}{108}{124/124}{}{0}}}
\@writefile{nav}{\headcommand {\beamer@framepages {124}{124}}}
\newlabel{reg_het2<1>}{{107}{125}{}{Doc-Start}{}}
\@writefile{snm}{\beamer@slide {reg_het2<1>}{125}}
\newlabel{reg_het2}{{107}{125}{}{Doc-Start}{}}
\@writefile{snm}{\beamer@slide {reg_het2}{125}}
\@writefile{nav}{\headcommand {\slideentry {0}{0}{109}{125/125}{}{0}}}
\@writefile{nav}{\headcommand {\beamer@framepages {125}{125}}}
\newlabel{sumstats_healthExp<1>}{{108}{126}{}{Doc-Start}{}}
\@writefile{snm}{\beamer@slide {sumstats_healthExp<1>}{126}}
\newlabel{sumstats_healthExp}{{108}{126}{}{Doc-Start}{}}
\@writefile{snm}{\beamer@slide {sumstats_healthExp}{126}}
\@writefile{nav}{\headcommand {\slideentry {0}{0}{110}{126/126}{}{0}}}
\@writefile{nav}{\headcommand {\beamer@framepages {126}{126}}}
\newlabel{sumstats_healthUps<1>}{{109}{127}{}{Doc-Start}{}}
\@writefile{snm}{\beamer@slide {sumstats_healthUps<1>}{127}}
\newlabel{sumstats_healthUps}{{109}{127}{}{Doc-Start}{}}
\@writefile{snm}{\beamer@slide {sumstats_healthUps}{127}}
\@writefile{nav}{\headcommand {\slideentry {0}{0}{111}{127/127}{}{0}}}
\@writefile{nav}{\headcommand {\beamer@framepages {127}{127}}}
\newlabel{reg_health2<1>}{{110}{128}{}{Doc-Start}{}}
\@writefile{snm}{\beamer@slide {reg_health2<1>}{128}}
\newlabel{reg_health2}{{110}{128}{}{Doc-Start}{}}
\@writefile{snm}{\beamer@slide {reg_health2}{128}}
\@writefile{nav}{\headcommand {\slideentry {0}{0}{112}{128/128}{}{0}}}
\@writefile{nav}{\headcommand {\beamer@framepages {128}{128}}}
\newlabel{reg_povertyRD<1>}{{111}{129}{}{Doc-Start}{}}
\@writefile{snm}{\beamer@slide {reg_povertyRD<1>}{129}}
\newlabel{reg_povertyRD}{{111}{129}{}{Doc-Start}{}}
\@writefile{snm}{\beamer@slide {reg_povertyRD}{129}}
\@writefile{nav}{\headcommand {\slideentry {0}{0}{113}{129/129}{}{0}}}
\@writefile{nav}{\headcommand {\beamer@framepages {129}{129}}}
\newlabel{titlesyear_plot<1>}{{112}{130}{}{Doc-Start}{}}
\@writefile{snm}{\beamer@slide {titlesyear_plot<1>}{130}}
\newlabel{titlesyear_plot}{{112}{130}{}{Doc-Start}{}}
\@writefile{snm}{\beamer@slide {titlesyear_plot}{130}}
\@writefile{nav}{\headcommand {\slideentry {0}{0}{114}{130/130}{}{0}}}
\@writefile{nav}{\headcommand {\beamer@framepages {130}{130}}}
\newlabel{reg_tit2014<1>}{{113}{131}{}{Doc-Start}{}}
\@writefile{snm}{\beamer@slide {reg_tit2014<1>}{131}}
\newlabel{reg_tit2014}{{113}{131}{}{Doc-Start}{}}
\@writefile{snm}{\beamer@slide {reg_tit2014}{131}}
\@writefile{nav}{\headcommand {\slideentry {0}{0}{115}{131/131}{}{0}}}
\@writefile{nav}{\headcommand {\beamer@framepages {131}{131}}}
\newlabel{reg_prod_raw<1>}{{114}{132}{}{Doc-Start}{}}
\@writefile{snm}{\beamer@slide {reg_prod_raw<1>}{132}}
\newlabel{reg_prod_raw}{{114}{132}{}{Doc-Start}{}}
\@writefile{snm}{\beamer@slide {reg_prod_raw}{132}}
\@writefile{nav}{\headcommand {\slideentry {0}{0}{116}{132/132}{}{0}}}
\@writefile{nav}{\headcommand {\beamer@framepages {132}{132}}}
\newlabel{eqn_health<1>}{{115}{133}{}{Doc-Start}{}}
\@writefile{snm}{\beamer@slide {eqn_health<1>}{133}}
\newlabel{eqn_health}{{115}{133}{}{Doc-Start}{}}
\@writefile{snm}{\beamer@slide {eqn_health}{133}}
\@writefile{nav}{\headcommand {\slideentry {0}{0}{117}{133/133}{}{0}}}
\@writefile{nav}{\headcommand {\beamer@framepages {133}{133}}}
\@writefile{nav}{\headcommand {\slideentry {0}{0}{118}{134/134}{}{0}}}
\@writefile{nav}{\headcommand {\beamer@framepages {134}{134}}}
\@writefile{nav}{\headcommand {\slideentry {0}{0}{119}{135/135}{}{0}}}
\@writefile{nav}{\headcommand {\beamer@framepages {135}{135}}}
\@writefile{nav}{\headcommand {\slideentry {0}{0}{120}{136/136}{}{0}}}
\@writefile{nav}{\headcommand {\beamer@framepages {136}{136}}}
\@writefile{nav}{\headcommand {\slideentry {0}{0}{121}{137/137}{}{0}}}
\@writefile{nav}{\headcommand {\beamer@framepages {137}{137}}}
\bibstyle{apacite}
\bibdata{bibille}
\@writefile{nav}{\headcommand {\slideentry {0}{0}{122}{138/138}{}{0}}}
\@writefile{nav}{\headcommand {\beamer@framepages {138}{138}}}
\@writefile{nav}{\headcommand {\beamer@partpages {1}{138}}}
\@writefile{nav}{\headcommand {\beamer@subsectionpages {1}{138}}}
\@writefile{nav}{\headcommand {\beamer@sectionpages {1}{138}}}
\@writefile{nav}{\headcommand {\beamer@documentpages {138}}}
\@writefile{nav}{\headcommand {\def \inserttotalframenumber {64}}}
