This is BibTeX, Version 0.99dThe top-level auxiliary file: Blinded_paper.aux
The style file: apacite.bst
Database file #1: bibmin.bib
Warning--entry type for "CongresoRepublica2013" isn't style-file defined
--line 266 of file bibmin.bib
apacite.bst [2013/07/21 v6.03 APA bibliography style]
Warning--No address in Black2013
Warning--No journal in cdc2009
ptr=1, stack=

---the literal stack isn't empty for entry cdc2009
while executing---line 5079 of file apacite.bst
Warning--No journal in Veiga1997
Warning--No institution in EPA2013a
Warning--No address in EPA2013a
Warning--No address in McMahon2001
Warning--No address in UNEP2013
Warning--No institution in WorldBank2009
Warning--No address in WorldBank2009
Warning--No institution in WHO2006
Warning--No address in WHO2006
Warning--No institution in WHO2013
Warning--No address in WHO2013
(There was 1 error message)
