This is BibTeX, Version 0.99dThe top-level auxiliary file: Esici_SSP.aux
The style file: apacite.bst
Database file #1: bibille.bib
apacite.bst [2013/07/21 v6.03 APA bibliography style]
Warning--No address in Black2013
Warning--No journal in cdc2009
ptr=1, stack=

---the literal stack isn't empty for entry cdc2009
while executing---line 5079 of file apacite.bst
Warning--No institution in EPA2013a
Warning--No address in EPA2013a
Warning--No address in faber2016
Warning--No journal in MinMinas2003
Warning--No journal in Romero2015
(There was 1 error message)
