\relax 
\providecommand\hyper@newdestlabel[2]{}
\providecommand\HyperFirstAtBeginDocument{\AtBeginDocument}
\HyperFirstAtBeginDocument{\ifx\hyper@anchor\@undefined
\global\let\oldcontentsline\contentsline
\gdef\contentsline#1#2#3#4{\oldcontentsline{#1}{#2}{#3}}
\global\let\oldnewlabel\newlabel
\gdef\newlabel#1#2{\newlabelxx{#1}#2}
\gdef\newlabelxx#1#2#3#4#5#6{\oldnewlabel{#1}{{#2}{#3}}}
\AtEndDocument{\ifx\hyper@anchor\@undefined
\let\contentsline\oldcontentsline
\let\newlabel\oldnewlabel
\fi}
\fi}
\global\let\hyper@last\relax 
\gdef\HyperFirstAtBeginDocument#1{#1}
\providecommand\HyField@AuxAddToFields[1]{}
\providecommand\HyField@AuxAddToCoFields[2]{}
\providecommand\babel@aux[2]{}
\@nameuse{bbl@beforestart}
\babel@aux{english}{}
\@writefile{lot}{\contentsline {table}{\numberline {1}{\ignorespaces Colombia/Peru difference in difference\relax }}{1}{table.caption.1}\protected@file@percent }
\providecommand*\caption@xref[2]{\@setref\relax\@undefined{#1}}
\newlabel{tab:area_ilegal_col_peru_robust}{{1}{1}{Colombia/Peru difference in difference\relax }{table.caption.1}{}}
\@writefile{lot}{\contentsline {table}{\numberline {2}{\ignorespaces Mineral difference in difference\relax }}{1}{table.caption.2}\protected@file@percent }
\newlabel{tab:area_ilegal_mineral_robust}{{2}{1}{Mineral difference in difference\relax }{table.caption.2}{}}
\gdef \@abspage@last{1}
