\relax 
\providecommand\hyper@newdestlabel[2]{}
\providecommand\HyperFirstAtBeginDocument{\AtBeginDocument}
\HyperFirstAtBeginDocument{\ifx\hyper@anchor\@undefined
\global\let\oldcontentsline\contentsline
\gdef\contentsline#1#2#3#4{\oldcontentsline{#1}{#2}{#3}}
\global\let\oldnewlabel\newlabel
\gdef\newlabel#1#2{\newlabelxx{#1}#2}
\gdef\newlabelxx#1#2#3#4#5#6{\oldnewlabel{#1}{{#2}{#3}}}
\AtEndDocument{\ifx\hyper@anchor\@undefined
\let\contentsline\oldcontentsline
\let\newlabel\oldnewlabel
\fi}
\fi}
\global\let\hyper@last\relax 
\gdef\HyperFirstAtBeginDocument#1{#1}
\providecommand\HyField@AuxAddToFields[1]{}
\providecommand\HyField@AuxAddToCoFields[2]{}
\providecommand\babel@aux[2]{}
\@nameuse{bbl@beforestart}
\babel@aux{english}{}
\citation{Banerjeeetal2012}
\citation{Banerjeeetal2012}
\citation{SlemrodWeber2012}
\citation{FismanWei2004}
\citation{MinMinas2003}
\citation{anm2013}
\citation{junghun2018oecd}
\citation{Moisio2019}
\citation{OECD2019}
\citation{Slemrod2018}
\citation{Fedesarrollo2014}
\citation{SlemrodYitzhaki2002}
\citation{Sanchez2017}
\citation{caitreisman2004}
\citation{Slemrod2018}
\citation{Khanetal2016}
\citation{Gadenne2014}
\citation{Hoffmanetal2017}
\citation{Gadenne2017}
\citation{Zhuravskaya2000}
\citation{Falkinger1988}
\citation{Cullenetal2018}
\citation{Fletcher2019}
\citation{Burgess2012}
\citation{Lipscomb2013}
\citation{Swenson2011}
\citation{Asner2013}
\citation{ShapiroEynde2020}
\citation{Bellonietal2012}
\citation{AtheyImbens2016}
\citation{Foster2009}
\citation{Jayachandran2009}
\citation{Henderson2012}
\citation{Guiterasetal}
\citation{faber2016}
\citation{Idrobo2014}
\citation{Romero2015}
\@writefile{toc}{\contentsline {section}{\numberline {1}Introduction}{1}{section.1}\protected@file@percent }
\citation{WorldBank2017}
\citation{Asner2013}
\citation{anm2013}
\citation{Fedesarrollo2014}
\citation{MME2016}
\@writefile{toc}{\contentsline {section}{\numberline {2}Mining context and details of the reform}{6}{section.2}\protected@file@percent }
\newlabel{sec:context}{{2}{6}{Mining context and details of the reform}{section.2}{}}
\@writefile{toc}{\contentsline {subsection}{\numberline {2.1}Mining in Colombia}{6}{subsection.2.1}\protected@file@percent }
\citation{Martinez2019}
\citation{Martinez2019}
\citation{Decreto1747}
\citation{DNP(2007)}
\@writefile{toc}{\contentsline {subsection}{\numberline {2.2}The reform}{7}{subsection.2.2}\protected@file@percent }
\citation{unodc2016}
\citation{unodc2016}
\citation{unodc2016}
\citation{TGIATOC}
\citation{Semana2013}
\citation{Pardo2013}
\citation{Solarte2017}
\citation{ElEspectador2017}
\@writefile{toc}{\contentsline {subsection}{\numberline {2.3}Illegal mining}{8}{subsection.2.3}\protected@file@percent }
\citation{Burgess2012}
\@writefile{toc}{\contentsline {section}{\numberline {3}Theoretical framework}{10}{section.3}\protected@file@percent }
\newlabel{sec:model}{{3}{10}{Theoretical framework}{section.3}{}}
\@writefile{toc}{\contentsline {subsection}{\numberline {3.1}Setup}{12}{subsection.3.1}\protected@file@percent }
\newlabel{eq:SK}{{1}{12}{Setup}{equation.3.1}{}}
\newlabel{eq:yshileg}{{2}{12}{Setup}{equation.3.2}{}}
\citation{Brolloetal}
\@writefile{toc}{\contentsline {subsection}{\numberline {3.2}The effect of the reform on illegal mining}{13}{subsection.3.2}\protected@file@percent }
\newlabel{prep:increased}{{1}{13}{The effect of the reform on illegal mining}{prediction.1}{}}
\@writefile{toc}{\contentsline {subsection}{\numberline {3.3}Heterogeneous effects of the reform}{14}{subsection.3.3}\protected@file@percent }
\newlabel{eq:dSK}{{3}{14}{Heterogeneous effects of the reform}{equation.3.3}{}}
\newlabel{prep:heterogeneity_rate}{{2}{14}{Heterogeneous effects of the reform}{prediction.2}{}}
\citation{panelcede}
\newlabel{prep:heterogeneity_weak}{{3}{15}{Heterogeneous effects of the reform}{prediction.3}{}}
\newlabel{prep:heterogeneity_farc}{{4}{15}{Heterogeneous effects of the reform}{prediction.4}{}}
\@writefile{toc}{\contentsline {section}{\numberline {4}Data}{15}{section.4}\protected@file@percent }
\newlabel{sec:data}{{4}{15}{Data}{section.4}{}}
\citation{anm2013}
\citation{Hansen_etal}
\citation{Etter2006}
\citation{mlbible}
\citation{Oshrietal2018}
\citation{unodc2016}
\@writefile{toc}{\contentsline {subsection}{\numberline {4.1}Constructing the illegal mining panel}{16}{subsection.4.1}\protected@file@percent }
\citation{anm2013}
\citation{unodc2016}
\citation{rettberg2016golden}
\citation{baptiste2017greening}
\citation{Masse2018}
\@writefile{toc}{\contentsline {subsection}{\numberline {4.2}From pixel predictions to municipality panel}{19}{subsection.4.2}\protected@file@percent }
\newlabel{sec:muni_panel}{{4.2}{19}{From pixel predictions to municipality panel}{subsection.4.2}{}}
\@writefile{toc}{\contentsline {section}{\numberline {5}The effect of the reform on illegal mining}{20}{section.5}\protected@file@percent }
\newlabel{sec:area_results}{{5}{20}{The effect of the reform on illegal mining}{section.5}{}}
\@writefile{toc}{\contentsline {subsection}{\numberline {5.1}Identification strategies}{20}{subsection.5.1}\protected@file@percent }
\newlabel{subsec:IDstrategy}{{5.1}{20}{Identification strategies}{subsection.5.1}{}}
\citation{rambachan2019honest}
\newlabel{eq:regDD}{{4}{21}{Identification strategies}{equation.5.4}{}}
\citation{rambachan2019honest}
\newlabel{eq:regmunimi}{{5}{24}{Identification strategies}{equation.5.5}{}}
\citation{mlbible}
\citation{Bellonietal2012}
\newlabel{eq:regDDZ}{{6}{25}{Identification strategies}{equation.5.6}{}}
\@writefile{toc}{\contentsline {subsection}{\numberline {5.2}Prediction 1: Effect on the share of illegal mining}{25}{subsection.5.2}\protected@file@percent }
\newlabel{subsec:ID1results}{{5.2}{25}{Prediction 1: Effect on the share of illegal mining}{subsection.5.2}{}}
\@writefile{toc}{\contentsline {subsection}{\numberline {5.3}Prediction 2: Effect of the reform by mineral and royalty rate}{29}{subsection.5.3}\protected@file@percent }
\citation{panelcede}
\citation{panelcede}
\@writefile{toc}{\contentsline {subsection}{\numberline {5.4}Prediction 3: Effect of the reform in municipalities with lower national oversight}{30}{subsection.5.4}\protected@file@percent }
\citation{Gallegoetal2017}
\citation{LR2019}
\@writefile{toc}{\contentsline {subsection}{\numberline {5.5}Prediction 4: Effect of the reform in municipalities with illegal armed groups}{31}{subsection.5.5}\protected@file@percent }
\@writefile{toc}{\contentsline {subsection}{\numberline {5.6}Dollars lost to evasion after the reform}{31}{subsection.5.6}\protected@file@percent }
\citation{junghun2018oecd}
\@writefile{toc}{\contentsline {subsection}{\numberline {5.7}The optimal share of taxes for the local municipality}{32}{subsection.5.7}\protected@file@percent }
\bibstyle{apacite}
\bibdata{bibille}
\@writefile{toc}{\contentsline {section}{\numberline {6}Conclusions }{33}{section.6}\protected@file@percent }
\newlabel{sec:conc}{{6}{33}{Conclusions}{section.6}{}}
\bibcite{panelcede}{\citeauthoryear {Acevedo\ \BBA{} Bornacelly}{Acevedo\ \BBA{} Bornacelly}{{\APACyear {2014}}}}
\APACbibcite{panelcede}{\citeauthoryear {Acevedo\ \BBA{} Bornacelly}{Acevedo\ \BBA{} Bornacelly}{{\APACyear {2014}}}}
\bibcite{anm2013}{\citeauthoryear {{Agencia Nacional de Mineria}}{{Agencia Nacional de Mineria}}{{\APACyear {2013}}}}
\APACbibcite{anm2013}{\citeauthoryear {{Agencia Nacional de Mineria}}{{Agencia Nacional de Mineria}}{{\APACyear {2013}}}}
\bibcite{Asner2013}{\citeauthoryear {Asner, Llactayo, Tupayachi,{}\ \BBA{} Luna}{Asner\ \BOthers {.}}{{\APACyear {2013}}}}
\APACbibcite{Asner2013}{\citeauthoryear {Asner, Llactayo, Tupayachi,{}\ \BBA{} Luna}{Asner\ \BOthers {.}}{{\APACyear {2013}}}}
\bibcite{AtheyImbens2016}{\citeauthoryear {Athey\ \BBA{} Imbens}{Athey\ \BBA{} Imbens}{{\APACyear {2016}}}}
\APACbibcite{AtheyImbens2016}{\citeauthoryear {Athey\ \BBA{} Imbens}{Athey\ \BBA{} Imbens}{{\APACyear {2016}}}}
\bibcite{Banerjeeetal2012}{\citeauthoryear {Banerjee\ \BBA{} Hanna}{Banerjee\ \BBA{} Hanna}{{\APACyear {2012}}}}
\APACbibcite{Banerjeeetal2012}{\citeauthoryear {Banerjee\ \BBA{} Hanna}{Banerjee\ \BBA{} Hanna}{{\APACyear {2012}}}}
\bibcite{baptiste2017greening}{\citeauthoryear {Baptiste\ \BOthers {.}}{Baptiste\ \BOthers {.}}{{\APACyear {2017}}}}
\APACbibcite{baptiste2017greening}{\citeauthoryear {Baptiste\ \BOthers {.}}{Baptiste\ \BOthers {.}}{{\APACyear {2017}}}}
\bibcite{Bellonietal2012}{\citeauthoryear {Belloni, Chernozhukov,{}\ \BBA{} Hansen}{Belloni\ \BOthers {.}}{{\APACyear {2014}}}}
\APACbibcite{Bellonietal2012}{\citeauthoryear {Belloni, Chernozhukov,{}\ \BBA{} Hansen}{Belloni\ \BOthers {.}}{{\APACyear {2014}}}}
\bibcite{Brolloetal}{\citeauthoryear {Brollo, Nannicini, Perotti,{}\ \BBA{} Tabellini}{Brollo\ \BOthers {.}}{{\APACyear {2013}}}}
\APACbibcite{Brolloetal}{\citeauthoryear {Brollo, Nannicini, Perotti,{}\ \BBA{} Tabellini}{Brollo\ \BOthers {.}}{{\APACyear {2013}}}}
\bibcite{Burgess2012}{\citeauthoryear {Burgess, Hansen, Olken, Potapov,{}\ \BBA{} Sieber}{Burgess\ \BOthers {.}}{{\APACyear {2012}}}}
\APACbibcite{Burgess2012}{\citeauthoryear {Burgess, Hansen, Olken, Potapov,{}\ \BBA{} Sieber}{Burgess\ \BOthers {.}}{{\APACyear {2012}}}}
\@writefile{toc}{\contentsline {section}{References}{34}{section*.1}\protected@file@percent }
\bibcite{caitreisman2004}{\citeauthoryear {Cai\ \BBA{} Treisman}{Cai\ \BBA{} Treisman}{{\APACyear {2004}}}}
\APACbibcite{caitreisman2004}{\citeauthoryear {Cai\ \BBA{} Treisman}{Cai\ \BBA{} Treisman}{{\APACyear {2004}}}}
\bibcite{Cullenetal2018}{\citeauthoryear {Cullen, Turner,{}\ \BBA{} Washington}{Cullen\ \BOthers {.}}{{\APACyear {2018}}}}
\APACbibcite{Cullenetal2018}{\citeauthoryear {Cullen, Turner,{}\ \BBA{} Washington}{Cullen\ \BOthers {.}}{{\APACyear {2018}}}}
\bibcite{DNP(2007)}{\citeauthoryear {{Departamento Nacional de Planeaci\'on}}{{Departamento Nacional de Planeaci\'on}}{{\APACyear {2007}}}}
\APACbibcite{DNP(2007)}{\citeauthoryear {{Departamento Nacional de Planeaci\'on}}{{Departamento Nacional de Planeaci\'on}}{{\APACyear {2007}}}}
\bibcite{Echeverry2011}{\citeauthoryear {Echeverry, Alonso,{}\ \BBA{} Garc\'ia}{Echeverry\ \BOthers {.}}{{\APACyear {2011}}}}
\APACbibcite{Echeverry2011}{\citeauthoryear {Echeverry, Alonso,{}\ \BBA{} Garc\'ia}{Echeverry\ \BOthers {.}}{{\APACyear {2011}}}}
\bibcite{ElEspectador2017}{\citeauthoryear {{El Espectador}}{{El Espectador}}{{\APACyear {2017}}}}
\APACbibcite{ElEspectador2017}{\citeauthoryear {{El Espectador}}{{El Espectador}}{{\APACyear {2017}}}}
\bibcite{Etter2006}{\citeauthoryear {Etter}{Etter}{{\APACyear {2006}}}}
\APACbibcite{Etter2006}{\citeauthoryear {Etter}{Etter}{{\APACyear {2006}}}}
\bibcite{faber2016}{\citeauthoryear {Faber\ \BBA{} Gaubert}{Faber\ \BBA{} Gaubert}{{\APACyear {2019}}}}
\APACbibcite{faber2016}{\citeauthoryear {Faber\ \BBA{} Gaubert}{Faber\ \BBA{} Gaubert}{{\APACyear {2019}}}}
\bibcite{Falkinger1988}{\citeauthoryear {Falkinger\ \BOthers {.}}{Falkinger\ \BOthers {.}}{{\APACyear {1988}}}}
\APACbibcite{Falkinger1988}{\citeauthoryear {Falkinger\ \BOthers {.}}{Falkinger\ \BOthers {.}}{{\APACyear {1988}}}}
\bibcite{Fedesarrollo2014}{\citeauthoryear {Fedesarrollo}{Fedesarrollo}{{\APACyear {2014}}}}
\APACbibcite{Fedesarrollo2014}{\citeauthoryear {Fedesarrollo}{Fedesarrollo}{{\APACyear {2014}}}}
\bibcite{FismanWei2004}{\citeauthoryear {Fisman\ \BBA{} Wei}{Fisman\ \BBA{} Wei}{{\APACyear {2004}}}}
\APACbibcite{FismanWei2004}{\citeauthoryear {Fisman\ \BBA{} Wei}{Fisman\ \BBA{} Wei}{{\APACyear {2004}}}}
\bibcite{Fletcher2019}{\citeauthoryear {Fletcher\ \BBA{} Saavedra}{Fletcher\ \BBA{} Saavedra}{{\APACyear {2019}}}}
\APACbibcite{Fletcher2019}{\citeauthoryear {Fletcher\ \BBA{} Saavedra}{Fletcher\ \BBA{} Saavedra}{{\APACyear {2019}}}}
\bibcite{Foster2009}{\citeauthoryear {Foster, Gutierrez,{}\ \BBA{} Kumar}{Foster\ \BOthers {.}}{{\APACyear {2009}}}}
\APACbibcite{Foster2009}{\citeauthoryear {Foster, Gutierrez,{}\ \BBA{} Kumar}{Foster\ \BOthers {.}}{{\APACyear {2009}}}}
\bibcite{Gadenne2017}{\citeauthoryear {Gadenne}{Gadenne}{{\APACyear {2017}}}}
\APACbibcite{Gadenne2017}{\citeauthoryear {Gadenne}{Gadenne}{{\APACyear {2017}}}}
\bibcite{Gadenne2014}{\citeauthoryear {Gadenne\ \BBA{} Singhal}{Gadenne\ \BBA{} Singhal}{{\APACyear {2014}}}}
\APACbibcite{Gadenne2014}{\citeauthoryear {Gadenne\ \BBA{} Singhal}{Gadenne\ \BBA{} Singhal}{{\APACyear {2014}}}}
\bibcite{Gallegoetal2017}{\citeauthoryear {Gallego, Maldonado,{}\ \BBA{} Trujillo}{Gallego\ \BOthers {.}}{{\APACyear {2017}}}}
\APACbibcite{Gallegoetal2017}{\citeauthoryear {Gallego, Maldonado,{}\ \BBA{} Trujillo}{Gallego\ \BOthers {.}}{{\APACyear {2017}}}}
\bibcite{Giraldo2013}{\citeauthoryear {Giraldo}{Giraldo}{{\APACyear {2013}}}}
\APACbibcite{Giraldo2013}{\citeauthoryear {Giraldo}{Giraldo}{{\APACyear {2013}}}}
\bibcite{Guiterasetal}{\citeauthoryear {Guiteras, Jina,{}\ \BBA{} Mobarak}{Guiteras\ \BOthers {.}}{{\APACyear {2015}}}}
\APACbibcite{Guiterasetal}{\citeauthoryear {Guiteras, Jina,{}\ \BBA{} Mobarak}{Guiteras\ \BOthers {.}}{{\APACyear {2015}}}}
\bibcite{Hansen_etal}{\citeauthoryear {Hansen\ \BOthers {.}}{Hansen\ \BOthers {.}}{{\APACyear {2013}}}}
\APACbibcite{Hansen_etal}{\citeauthoryear {Hansen\ \BOthers {.}}{Hansen\ \BOthers {.}}{{\APACyear {2013}}}}
\bibcite{Henderson2012}{\citeauthoryear {Henderson, Storeygard,{}\ \BBA{} Weil}{Henderson\ \BOthers {.}}{{\APACyear {2012}}}}
\APACbibcite{Henderson2012}{\citeauthoryear {Henderson, Storeygard,{}\ \BBA{} Weil}{Henderson\ \BOthers {.}}{{\APACyear {2012}}}}
\bibcite{Hoffmanetal2017}{\citeauthoryear {Hoffman, Jakiela, Kremer,{}\ \BBA{} Sheely}{Hoffman\ \BOthers {.}}{{\APACyear {2017}}}}
\APACbibcite{Hoffmanetal2017}{\citeauthoryear {Hoffman, Jakiela, Kremer,{}\ \BBA{} Sheely}{Hoffman\ \BOthers {.}}{{\APACyear {2017}}}}
\bibcite{Idrobo2014}{\citeauthoryear {Idrobo, Mejia,{}\ \BBA{} Tribin}{Idrobo\ \BOthers {.}}{{\APACyear {2014}}}}
\APACbibcite{Idrobo2014}{\citeauthoryear {Idrobo, Mejia,{}\ \BBA{} Tribin}{Idrobo\ \BOthers {.}}{{\APACyear {2014}}}}
\bibcite{mlbible}{\citeauthoryear {James, Witten, Hastie,{}\ \BBA{} Tibshirani}{James\ \BOthers {.}}{{\APACyear {2014}}}}
\APACbibcite{mlbible}{\citeauthoryear {James, Witten, Hastie,{}\ \BBA{} Tibshirani}{James\ \BOthers {.}}{{\APACyear {2014}}}}
\bibcite{Jayachandran2009}{\citeauthoryear {Jayachandran}{Jayachandran}{{\APACyear {2009}}}}
\APACbibcite{Jayachandran2009}{\citeauthoryear {Jayachandran}{Jayachandran}{{\APACyear {2009}}}}
\bibcite{Jensen2007}{\citeauthoryear {Jensen}{Jensen}{{\APACyear {2007}}}}
\APACbibcite{Jensen2007}{\citeauthoryear {Jensen}{Jensen}{{\APACyear {2007}}}}
\bibcite{Khanetal2016}{\citeauthoryear {Khan, Khwaja,{}\ \BBA{} Olken}{Khan\ \BOthers {.}}{{\APACyear {2015}}}}
\APACbibcite{Khanetal2016}{\citeauthoryear {Khan, Khwaja,{}\ \BBA{} Olken}{Khan\ \BOthers {.}}{{\APACyear {2015}}}}
\bibcite{LR2019}{\citeauthoryear {{La Republica}}{{La Republica}}{{\APACyear {2019}}}}
\APACbibcite{LR2019}{\citeauthoryear {{La Republica}}{{La Republica}}{{\APACyear {2019}}}}
\bibcite{Lipscomb2013}{\citeauthoryear {Lipscomb\ \BBA{} Mobarak}{Lipscomb\ \BBA{} Mobarak}{{\APACyear {2016}}}}
\APACbibcite{Lipscomb2013}{\citeauthoryear {Lipscomb\ \BBA{} Mobarak}{Lipscomb\ \BBA{} Mobarak}{{\APACyear {2016}}}}
\bibcite{Martinez2019}{\citeauthoryear {Martinez}{Martinez}{{\APACyear {2019}}}}
\APACbibcite{Martinez2019}{\citeauthoryear {Martinez}{Martinez}{{\APACyear {2019}}}}
\bibcite{Masse2018}{\citeauthoryear {Massé\ \BBA{} Billon}{Massé\ \BBA{} Billon}{{\APACyear {2018}}}}
\APACbibcite{Masse2018}{\citeauthoryear {Massé\ \BBA{} Billon}{Massé\ \BBA{} Billon}{{\APACyear {2018}}}}
\bibcite{Decreto1747}{\citeauthoryear {{Ministerio de Minas y Energia}}{{Ministerio de Minas y Energia}}{{\APACyear {1995}}}}
\APACbibcite{Decreto1747}{\citeauthoryear {{Ministerio de Minas y Energia}}{{Ministerio de Minas y Energia}}{{\APACyear {1995}}}}
\bibcite{MinMinas2003}{\citeauthoryear {{Ministerio de Minas y Energia}}{{Ministerio de Minas y Energia}}{{\APACyear {2003}}}}
\APACbibcite{MinMinas2003}{\citeauthoryear {{Ministerio de Minas y Energia}}{{Ministerio de Minas y Energia}}{{\APACyear {2003}}}}
\bibcite{MME2011}{\citeauthoryear {{Ministerio de Minas y Energia}}{{Ministerio de Minas y Energia}}{{\APACyear {2011}}}}
\APACbibcite{MME2011}{\citeauthoryear {{Ministerio de Minas y Energia}}{{Ministerio de Minas y Energia}}{{\APACyear {2011}}}}
\bibcite{MME2016}{\citeauthoryear {{Ministerio de Minas y Energia}}{{Ministerio de Minas y Energia}}{{\APACyear {2016}}}}
\APACbibcite{MME2016}{\citeauthoryear {{Ministerio de Minas y Energia}}{{Ministerio de Minas y Energia}}{{\APACyear {2016}}}}
\bibcite{junghun2018oecd}{\citeauthoryear {{OECD}}{{OECD}}{{\APACyear {2018}}}}
\APACbibcite{junghun2018oecd}{\citeauthoryear {{OECD}}{{OECD}}{{\APACyear {2018}}}}
\bibcite{Moisio2019}{\citeauthoryear {{OECD}}{{OECD}}{{\APACyear {2019}}{\APACexlab {{\BCnt {1}}}}}}
\APACbibcite{Moisio2019}{\citeauthoryear {{OECD}}{{OECD}}{{\APACyear {2019}}{\APACexlab {{\BCnt {1}}}}}}
\bibcite{OECD2019}{\citeauthoryear {{OECD}}{{OECD}}{{\APACyear {2019}}{\APACexlab {{\BCnt {2}}}}}}
\APACbibcite{OECD2019}{\citeauthoryear {{OECD}}{{OECD}}{{\APACyear {2019}}{\APACexlab {{\BCnt {2}}}}}}
\bibcite{Oshrietal2018}{\citeauthoryear {Oshri\ \BOthers {.}}{Oshri\ \BOthers {.}}{{\APACyear {2018}}}}
\APACbibcite{Oshrietal2018}{\citeauthoryear {Oshri\ \BOthers {.}}{Oshri\ \BOthers {.}}{{\APACyear {2018}}}}
\bibcite{Pardo2013}{\citeauthoryear {Pardo}{Pardo}{{\APACyear {2013}}}}
\APACbibcite{Pardo2013}{\citeauthoryear {Pardo}{Pardo}{{\APACyear {2013}}}}
\bibcite{rambachan2019honest}{\citeauthoryear {Rambachan\ \BBA{} Roth}{Rambachan\ \BBA{} Roth}{{\APACyear {2020}}}}
\APACbibcite{rambachan2019honest}{\citeauthoryear {Rambachan\ \BBA{} Roth}{Rambachan\ \BBA{} Roth}{{\APACyear {2020}}}}
\bibcite{rettberg2016golden}{\citeauthoryear {Rettberg\ \BBA{} Ortiz-Riomalo}{Rettberg\ \BBA{} Ortiz-Riomalo}{{\APACyear {2016}}}}
\APACbibcite{rettberg2016golden}{\citeauthoryear {Rettberg\ \BBA{} Ortiz-Riomalo}{Rettberg\ \BBA{} Ortiz-Riomalo}{{\APACyear {2016}}}}
\bibcite{Romero2015}{\citeauthoryear {Romero\ \BBA{} Saavedra}{Romero\ \BBA{} Saavedra}{{\APACyear {2015}}}}
\APACbibcite{Romero2015}{\citeauthoryear {Romero\ \BBA{} Saavedra}{Romero\ \BBA{} Saavedra}{{\APACyear {2015}}}}
\bibcite{Sanchez2017}{\citeauthoryear {S\'anchez de~la Sierra}{S\'anchez de~la Sierra}{{\APACyear {2020}}}}
\APACbibcite{Sanchez2017}{\citeauthoryear {S\'anchez de~la Sierra}{S\'anchez de~la Sierra}{{\APACyear {2020}}}}
\bibcite{Semana2013}{\citeauthoryear {Semana}{Semana}{{\APACyear {2013}}}}
\APACbibcite{Semana2013}{\citeauthoryear {Semana}{Semana}{{\APACyear {2013}}}}
\bibcite{ShapiroEynde2020}{\citeauthoryear {Shapiro\ \BBA{} van~den Eynde}{Shapiro\ \BBA{} van~den Eynde}{{\APACyear {2020}}}}
\APACbibcite{ShapiroEynde2020}{\citeauthoryear {Shapiro\ \BBA{} van~den Eynde}{Shapiro\ \BBA{} van~den Eynde}{{\APACyear {2020}}}}
\bibcite{Slemrod2018}{\citeauthoryear {Slemrod}{Slemrod}{{\APACyear {2019}}}}
\APACbibcite{Slemrod2018}{\citeauthoryear {Slemrod}{Slemrod}{{\APACyear {2019}}}}
\bibcite{SlemrodWeber2012}{\citeauthoryear {Slemrod\ \BBA{} Weber}{Slemrod\ \BBA{} Weber}{{\APACyear {2012}}}}
\APACbibcite{SlemrodWeber2012}{\citeauthoryear {Slemrod\ \BBA{} Weber}{Slemrod\ \BBA{} Weber}{{\APACyear {2012}}}}
\bibcite{SlemrodYitzhaki2002}{\citeauthoryear {Slemrod\ \BBA{} Yitzhaki}{Slemrod\ \BBA{} Yitzhaki}{{\APACyear {2002}}}}
\APACbibcite{SlemrodYitzhaki2002}{\citeauthoryear {Slemrod\ \BBA{} Yitzhaki}{Slemrod\ \BBA{} Yitzhaki}{{\APACyear {2002}}}}
\bibcite{Solarte2017}{\citeauthoryear {Solarte}{Solarte}{{\APACyear {2017}}}}
\APACbibcite{Solarte2017}{\citeauthoryear {Solarte}{Solarte}{{\APACyear {2017}}}}
\bibcite{Swenson2011}{\citeauthoryear {Swenson, Carter, Domec,{}\ \BBA{} Delgado}{Swenson\ \BOthers {.}}{{\APACyear {2011}}}}
\APACbibcite{Swenson2011}{\citeauthoryear {Swenson, Carter, Domec,{}\ \BBA{} Delgado}{Swenson\ \BOthers {.}}{{\APACyear {2011}}}}
\bibcite{TGIATOC}{\citeauthoryear {{The Global Initiative Against Transnational Organized Crime}}{{The Global Initiative Against Transnational Organized Crime}}{{\APACyear {2016}}}}
\APACbibcite{TGIATOC}{\citeauthoryear {{The Global Initiative Against Transnational Organized Crime}}{{The Global Initiative Against Transnational Organized Crime}}{{\APACyear {2016}}}}
\bibcite{UPME2014}{\citeauthoryear {{Unidad de Planeaci\'on Minero Energ\'etica}}{{Unidad de Planeaci\'on Minero Energ\'etica}}{{\APACyear {2014}}}}
\APACbibcite{UPME2014}{\citeauthoryear {{Unidad de Planeaci\'on Minero Energ\'etica}}{{Unidad de Planeaci\'on Minero Energ\'etica}}{{\APACyear {2014}}}}
\bibcite{unodc2016}{\citeauthoryear {UNODC}{UNODC}{{\APACyear {2016}}}}
\APACbibcite{unodc2016}{\citeauthoryear {UNODC}{UNODC}{{\APACyear {2016}}}}
\bibcite{WorldBank2017}{\citeauthoryear {{World Bank}}{{World Bank}}{{\APACyear {2017}}}}
\APACbibcite{WorldBank2017}{\citeauthoryear {{World Bank}}{{World Bank}}{{\APACyear {2017}}}}
\bibcite{Zhuravskaya2000}{\citeauthoryear {Zhuravskaya}{Zhuravskaya}{{\APACyear {2000}}}}
\APACbibcite{Zhuravskaya2000}{\citeauthoryear {Zhuravskaya}{Zhuravskaya}{{\APACyear {2000}}}}
\@writefile{lof}{\contentsline {figure}{\numberline {1}{\ignorespaces Share of royalties for the local municipality and illegal mining\relax }}{40}{figure.caption.2}\protected@file@percent }
\providecommand*\caption@xref[2]{\@setref\relax\@undefined{#1}}
\newlabel{fig:th_IncreasingPrPen}{{1}{40}{Share of royalties for the local municipality and illegal mining\relax }{figure.caption.2}{}}
\@writefile{lof}{\contentsline {figure}{\numberline {2}{\ignorespaces Image of the footprint of a mine\relax }}{41}{figure.caption.3}\protected@file@percent }
\newlabel{fig:mine_highres}{{2}{41}{Image of the footprint of a mine\relax }{figure.caption.3}{}}
\@writefile{lof}{\contentsline {figure}{\numberline {3}{\ignorespaces Parallel trends between Colombia and Peru\relax }}{42}{figure.caption.4}\protected@file@percent }
\newlabel{fig:parallel_main}{{3}{42}{Parallel trends between Colombia and Peru\relax }{figure.caption.4}{}}
\newlabel{fig:partrends_colperu_raw}{{3a}{42}{Raw data\relax }{figure.caption.4}{}}
\newlabel{sub@fig:partrends_colperu_raw}{{a}{42}{Raw data\relax }{figure.caption.4}{}}
\newlabel{fig:partrends_colperu}{{3b}{42}{Event study\relax }{figure.caption.4}{}}
\newlabel{sub@fig:partrends_colperu}{{b}{42}{Event study\relax }{figure.caption.4}{}}
\@writefile{lof}{\contentsline {figure}{\numberline {4}{\ignorespaces Parallel trends between Gold and Coal\relax }}{43}{figure.caption.5}\protected@file@percent }
\newlabel{fig:partrends_munimi_alpha14_raw}{{4a}{43}{Raw data\relax }{figure.caption.5}{}}
\newlabel{sub@fig:partrends_munimi_alpha14_raw}{{a}{43}{Raw data\relax }{figure.caption.5}{}}
\newlabel{fig:partrends_munimi}{{4b}{43}{Event study for minerals regression\relax }{figure.caption.5}{}}
\newlabel{sub@fig:partrends_munimi}{{b}{43}{Event study for minerals regression\relax }{figure.caption.5}{}}
\@writefile{lot}{\contentsline {table}{\numberline {1}{\ignorespaces Summary statistics for municipalities used in the analysis\relax }}{44}{table.caption.6}\protected@file@percent }
\newlabel{tab:sumstats_muni}{{1}{44}{Summary statistics for municipalities used in the analysis\relax }{table.caption.6}{}}
\citation{unodc2016}
\@writefile{lot}{\contentsline {table}{\numberline {2}{\ignorespaces Confusion matrix of the mining detection model\relax }}{45}{table.caption.7}\protected@file@percent }
\newlabel{tab:conf_mat}{{2}{45}{Confusion matrix of the mining detection model\relax }{table.caption.7}{}}
\@writefile{lot}{\contentsline {table}{\numberline {3}{\ignorespaces Summary statistics, illegal mining panel\relax }}{46}{table.caption.8}\protected@file@percent }
\newlabel{tab:sumstats_regvar}{{3}{46}{Summary statistics, illegal mining panel\relax }{table.caption.8}{}}
\citation{panelcede}
\citation{panelcede}
\@writefile{lot}{\contentsline {table}{\numberline {4}{\ignorespaces Effect of the reform on illegal mining\relax }}{47}{table.caption.9}\protected@file@percent }
\newlabel{tab:fmined_reg}{{4}{47}{Effect of the reform on illegal mining\relax }{table.caption.9}{}}
\@writefile{lot}{\contentsline {table}{\numberline {5}{\ignorespaces Heterogeneous effects of the reform\relax }}{48}{table.caption.10}\protected@file@percent }
\newlabel{taba:het1_reg}{{5}{48}{Heterogeneous effects of the reform\relax }{table.caption.10}{}}
\@writefile{lot}{\contentsline {table}{\numberline {6}{\ignorespaces Effect of the reform on reported quantity\relax }}{49}{table.caption.11}\protected@file@percent }
\newlabel{tab:prod_reg}{{6}{49}{Effect of the reform on reported quantity\relax }{table.caption.11}{}}
\@writefile{lot}{\contentsline {table}{\numberline {7}{\ignorespaces Effect of the reform on illegal mining by mineral\relax }}{49}{table.caption.12}\protected@file@percent }
\newlabel{tab:munimi_reg}{{7}{49}{Effect of the reform on illegal mining by mineral\relax }{table.caption.12}{}}
\@writefile{lot}{\contentsline {table}{\numberline {8}{\ignorespaces Robustness of the illegal mining by mineral results \relax }}{50}{table.caption.13}\protected@file@percent }
\newlabel{tab:regMi_robust}{{8}{50}{Robustness of the illegal mining by mineral results \relax }{table.caption.13}{}}
\@writefile{lot}{\contentsline {table}{\numberline {9}{\ignorespaces Data to estimate dollars lost with the reform\relax }}{50}{table.caption.14}\protected@file@percent }
\newlabel{tab:dollarslost}{{9}{50}{Data to estimate dollars lost with the reform\relax }{table.caption.14}{}}
\@writefile{toc}{\contentsline {section}{Appendix \numberline {A}Additional Figures and Tables}{51}{appendix.a.A}\protected@file@percent }
\newlabel{sec:exttab}{{A}{51}{Additional Figures and Tables}{appendix.a.A}{}}
\@writefile{lof}{\contentsline {figure}{\numberline {A.1}{\ignorespaces Disciplinary procedures related to illegal mining against mayors and governors by year\relax }}{51}{figure.caption.15}\protected@file@percent }
\newlabel{fig:Procu_Ingerso_Alcalde}{{A.1}{51}{Disciplinary procedures related to illegal mining against mayors and governors by year\relax }{figure.caption.15}{}}
\@writefile{lof}{\contentsline {figure}{\numberline {A.2}{\ignorespaces ROC curve for the mining prediction model\relax }}{52}{figure.caption.16}\protected@file@percent }
\newlabel{fig:ROC}{{A.2}{52}{ROC curve for the mining prediction model\relax }{figure.caption.16}{}}
\@writefile{lof}{\contentsline {figure}{\numberline {A.3}{\ignorespaces ROC curve for the mining prediction model trained to predict gold mining\relax }}{53}{figure.caption.17}\protected@file@percent }
\newlabel{fig:ROC_unodc}{{A.3}{53}{ROC curve for the mining prediction model trained to predict gold mining\relax }{figure.caption.17}{}}
\citation{rambachan2019honest}
\@writefile{lof}{\contentsline {figure}{\numberline {A.4}{\ignorespaces Hierarchical clustering of neighbor countries by mineral production\relax }}{54}{figure.caption.18}\protected@file@percent }
\newlabel{fig:hclust}{{A.4}{54}{Hierarchical clustering of neighbor countries by mineral production\relax }{figure.caption.18}{}}
\citation{rambachan2019honest}
\@writefile{lof}{\contentsline {figure}{\numberline {A.5}{\ignorespaces Robustness of the difference-in-difference estimates of Prediction 1 to violations of the parallel trends assumption\relax }}{55}{figure.caption.19}\protected@file@percent }
\newlabel{fig:Roth_average_partrends_colperu}{{A.5}{55}{Robustness of the difference-in-difference estimates of Prediction 1 to violations of the parallel trends assumption\relax }{figure.caption.19}{}}
\@writefile{lof}{\contentsline {figure}{\numberline {A.6}{\ignorespaces Robustness of the difference-in-difference estimates of Prediction 2 to violations of the parallel trends assumption\relax }}{56}{figure.caption.20}\protected@file@percent }
\newlabel{fig:Roth_average_partrends_munimi_alpha14}{{A.6}{56}{Robustness of the difference-in-difference estimates of Prediction 2 to violations of the parallel trends assumption\relax }{figure.caption.20}{}}
\@writefile{lof}{\contentsline {figure}{\numberline {A.7}{\ignorespaces Parallel trends between Colombia and Peru in the area ($km^2$) of mining permits \relax }}{57}{figure.caption.21}\protected@file@percent }
\newlabel{fig:parallel_main_titulosarea_ha}{{A.7}{57}{Parallel trends between Colombia and Peru in the area ($km^2$) of mining permits \relax }{figure.caption.21}{}}
\newlabel{fig:partrends_colperu_raw_titulosarea_ha}{{A.7a}{57}{Raw data\relax }{figure.caption.21}{}}
\newlabel{sub@fig:partrends_colperu_raw_titulosarea_ha}{{a}{57}{Raw data\relax }{figure.caption.21}{}}
\newlabel{fig:partrends_colperu_titulosarea_ha}{{A.7b}{57}{Event study\relax }{figure.caption.21}{}}
\newlabel{sub@fig:partrends_colperu_titulosarea_ha}{{b}{57}{Event study\relax }{figure.caption.21}{}}
\@writefile{lof}{\contentsline {figure}{\numberline {A.8}{\ignorespaces Percentage of mined area mined illegally in Colombia and Peru, including 2015 and 2016\relax }}{58}{figure.caption.22}\protected@file@percent }
\newlabel{fig:partrends_colperu_1517}{{A.8}{58}{Percentage of mined area mined illegally in Colombia and Peru, including 2015 and 2016\relax }{figure.caption.22}{}}
\newlabel{fig:partrends_colperu_raw_1517}{{A.8a}{58}{Raw data\relax }{figure.caption.22}{}}
\newlabel{sub@fig:partrends_colperu_raw_1517}{{a}{58}{Raw data\relax }{figure.caption.22}{}}
\newlabel{fig:partrends_colperu_1517_b}{{A.8b}{58}{Event study\relax }{figure.caption.22}{}}
\newlabel{sub@fig:partrends_colperu_1517_b}{{b}{58}{Event study\relax }{figure.caption.22}{}}
\@writefile{lof}{\contentsline {figure}{\numberline {A.9}{\ignorespaces Percentage of mined area mined illegally in Colombia (Gold vs Coal), including 2015 and 2016\relax }}{59}{figure.caption.23}\protected@file@percent }
\newlabel{fig:partrends_munimi_1517}{{A.9}{59}{Percentage of mined area mined illegally in Colombia (Gold vs Coal), including 2015 and 2016\relax }{figure.caption.23}{}}
\newlabel{fig:partrends_munimi_alpha_1517_raw}{{A.9a}{59}{Raw data\relax }{figure.caption.23}{}}
\newlabel{sub@fig:partrends_munimi_alpha_1517_raw}{{a}{59}{Raw data\relax }{figure.caption.23}{}}
\newlabel{fig:partrends_munimi_alpha_1517}{{A.9b}{59}{Event study for minerals regression\relax }{figure.caption.23}{}}
\newlabel{sub@fig:partrends_munimi_alpha_1517}{{b}{59}{Event study for minerals regression\relax }{figure.caption.23}{}}
\@writefile{lof}{\contentsline {figure}{\numberline {A.10}{\ignorespaces Event study Colombia vs. Peru: concurrent permits\relax }}{60}{figure.caption.24}\protected@file@percent }
\newlabel{fig:partrends_tityear}{{A.10}{60}{Event study Colombia vs. Peru: concurrent permits\relax }{figure.caption.24}{}}
\@writefile{lot}{\contentsline {table}{\numberline {A.1}{\ignorespaces Royalties and municipality share by mineral\relax }}{61}{table.caption.25}\protected@file@percent }
\newlabel{taba:roy_by_min}{{A.1}{61}{Royalties and municipality share by mineral\relax }{table.caption.25}{}}
\@writefile{lot}{\contentsline {table}{\numberline {A.2}{\ignorespaces Change in armed groups homicide rate\relax }}{62}{table.caption.26}\protected@file@percent }
\newlabel{taboa:thomag_creg}{{A.2}{62}{Change in armed groups homicide rate\relax }{table.caption.26}{}}
\@writefile{lot}{\contentsline {table}{\numberline {A.3}{\ignorespaces Production of mineral commodities in 2013 \relax }}{62}{table.caption.27}\protected@file@percent }
\newlabel{taba:minby_country}{{A.3}{62}{Production of mineral commodities in 2013 \relax }{table.caption.27}{}}
\@writefile{lot}{\contentsline {table}{\numberline {A.4}{\ignorespaces Summary statistics for municipalities separated by censused status\relax }}{63}{table.caption.28}\protected@file@percent }
\newlabel{tab:sumstats_censed}{{A.4}{63}{Summary statistics for municipalities separated by censused status\relax }{table.caption.28}{}}
\@writefile{lot}{\contentsline {table}{\numberline {A.5}{\ignorespaces Mineral mined according to the mining Census\relax }}{63}{table.caption.29}\protected@file@percent }
\newlabel{taba:Censo_typeMineral}{{A.5}{63}{Mineral mined according to the mining Census\relax }{table.caption.29}{}}
\@writefile{lot}{\contentsline {table}{\numberline {A.6}{\ignorespaces Effect of the reform on illegal mining\relax }}{64}{table.caption.30}\protected@file@percent }
\newlabel{tab:fmined_reg_lag_2011}{{A.6}{64}{Effect of the reform on illegal mining\relax }{table.caption.30}{}}
\@writefile{lot}{\contentsline {table}{\numberline {A.7}{\ignorespaces Results of selecting optimal controls with Double Lasso procedure\relax }}{65}{table.caption.31}\protected@file@percent }
\newlabel{taba:lasso}{{A.7}{65}{Results of selecting optimal controls with Double Lasso procedure\relax }{table.caption.31}{}}
\@writefile{lot}{\contentsline {table}{\numberline {A.8}{\ignorespaces Robustness of the results to different specifications\relax }}{66}{table.caption.32}\protected@file@percent }
\newlabel{taba:reg_robust}{{A.8}{66}{Robustness of the results to different specifications\relax }{table.caption.32}{}}
\@writefile{lot}{\contentsline {table}{\numberline {A.9}{\ignorespaces Effect of the reform on illegal mining by mineral\relax }}{67}{table.caption.33}\protected@file@percent }
\newlabel{tab:munimi_reg_lagged}{{A.9}{67}{Effect of the reform on illegal mining by mineral\relax }{table.caption.33}{}}
\citation{Echeverry2011}
\@writefile{lot}{\contentsline {table}{\numberline {A.10}{\ignorespaces Effect of the reform on illegal mining by mineral\relax }}{68}{table.caption.34}\protected@file@percent }
\newlabel{taba:munimi_reg_rob}{{A.10}{68}{Effect of the reform on illegal mining by mineral\relax }{table.caption.34}{}}
\@writefile{toc}{\contentsline {section}{Appendix \numberline {B}Additional institutional background}{68}{appendix.a.B}\protected@file@percent }
\@writefile{toc}{\contentsline {subsection}{\numberline {B.1}Additional details of the reform in Colombia}{68}{subsection.a.B.1}\protected@file@percent }
\newlabel{sec:add_details}{{B.1}{68}{Additional details of the reform in Colombia}{subsection.a.B.1}{}}
\citation{MME2011}
\citation{UPME2014}
\@writefile{toc}{\contentsline {subsection}{\numberline {B.2}Suspension of new mining permit issuance}{69}{subsection.a.B.2}\protected@file@percent }
\newlabel{sec:mining_counter}{{B.2}{69}{Suspension of new mining permit issuance}{subsection.a.B.2}{}}
\citation{Fedesarrollo2014}
\citation{Giraldo2013}
\@writefile{toc}{\contentsline {section}{Appendix \numberline {C}Theoretical Framework}{70}{appendix.a.C}\protected@file@percent }
\@writefile{toc}{\contentsline {subsection}{\numberline {C.1}The decision to operate legally}{70}{subsection.a.C.1}\protected@file@percent }
\newlabel{sec:aThFr}{{C.1}{70}{The decision to operate legally}{subsection.a.C.1}{}}
\@writefile{toc}{\contentsline {subsection}{\numberline {C.2}The income effect of the reform}{72}{subsection.a.C.2}\protected@file@percent }
\@writefile{lof}{\contentsline {figure}{\numberline {C.1}{\ignorespaces Theoretical predictions of the income effect of the reform\relax }}{73}{figure.caption.35}\protected@file@percent }
\newlabel{figa:th_model}{{C.1}{73}{Theoretical predictions of the income effect of the reform\relax }{figure.caption.35}{}}
\@writefile{toc}{\contentsline {subsection}{\numberline {C.3}The optimal share of taxes for the local municipality}{73}{subsection.a.C.3}\protected@file@percent }
\newlabel{sec:aOptShare}{{C.3}{73}{The optimal share of taxes for the local municipality}{subsection.a.C.3}{}}
\citation{Gallegoetal2017}
\newlabel{eq:maxbeta}{{7}{74}{The optimal share of taxes for the local municipality}{equation.a.C.7}{}}
\newlabel{eq:lambda}{{8}{74}{The optimal share of taxes for the local municipality}{equation.a.C.8}{}}
\@writefile{toc}{\contentsline {section}{Appendix \numberline {D}Constructing the illegal mining data}{75}{appendix.a.D}\protected@file@percent }
\newlabel{sec:ilegaldata}{{D}{75}{Constructing the illegal mining data}{appendix.a.D}{}}
\@writefile{lof}{\contentsline {figure}{\numberline {D.1}{\ignorespaces Scenes (Path,row) from Landsat-7 covering Colombia\relax }}{75}{figure.caption.36}\protected@file@percent }
\newlabel{fig:pathrows}{{D.1}{75}{Scenes (Path,row) from Landsat-7 covering Colombia\relax }{figure.caption.36}{}}
\citation{Jensen2007}
\@writefile{lof}{\contentsline {figure}{\numberline {D.2}{\ignorespaces Creating a could-free mosaic\relax }}{76}{figure.caption.37}\protected@file@percent }
\newlabel{fig:Remove_clouds}{{D.2}{76}{Creating a could-free mosaic\relax }{figure.caption.37}{}}
\@writefile{lof}{\contentsline {figure}{\numberline {D.3}{\ignorespaces \relax }}{77}{figure.caption.38}\protected@file@percent }
\newlabel{fig:res_ex}{{D.3}{77}{\relax }{figure.caption.38}{}}
\citation{Hansen_etal}
\citation{Etter2006}
\citation{Hansen_etal}
\@writefile{lof}{\contentsline {figure}{\numberline {D.4}{\ignorespaces Visual representation of transforming the satellite data into a data frame \relax }}{78}{figure.caption.39}\protected@file@percent }
\newlabel{figa:raster_to_df}{{D.4}{78}{Visual representation of transforming the satellite data into a data frame \relax }{figure.caption.39}{}}
\@writefile{lof}{\contentsline {figure}{\numberline {D.5}{\ignorespaces Visual representation of training and testing data \relax }}{79}{figure.caption.40}\protected@file@percent }
\newlabel{figa:training_testing}{{D.5}{79}{Visual representation of training and testing data \relax }{figure.caption.40}{}}
\citation{anm2013}
\citation{anm2013}
\@writefile{lof}{\contentsline {figure}{\numberline {D.6}{\ignorespaces \relax }}{80}{figure.caption.41}\protected@file@percent }
\newlabel{fig:rf_varimportance}{{D.6}{80}{\relax }{figure.caption.41}{}}
\@writefile{lof}{\contentsline {figure}{\numberline {D.7}{\ignorespaces Mining potential\relax }}{81}{figure.caption.42}\protected@file@percent }
\newlabel{fig:PotencialMinero}{{D.7}{81}{Mining potential\relax }{figure.caption.42}{}}
\@writefile{toc}{\contentsline {subsection}{\numberline {D.1}Econometric analysis of the error term and implications for the optimal cutoff}{81}{subsection.a.D.1}\protected@file@percent }
\newlabel{subsec:opt_thres}{{D.1}{81}{Econometric analysis of the error term and implications for the optimal cutoff}{subsection.a.D.1}{}}
\newlabel{eq:adjpred}{{9}{82}{Econometric analysis of the error term and implications for the optimal cutoff}{equation.a.D.9}{}}
\newlabel{eq:optimalcut}{{10}{83}{Econometric analysis of the error term and implications for the optimal cutoff}{equation.a.D.10}{}}
\@writefile{toc}{\contentsline {subsection}{\numberline {D.2}Weak law of large numbers for correlated Bernoulli's random variables among pixels}{83}{subsection.a.D.2}\protected@file@percent }
\newlabel{asec:notiid}{{D.2}{83}{Weak law of large numbers for correlated Bernoulli's random variables among pixels}{subsection.a.D.2}{}}
\gdef \@abspage@last{84}
