\BOOKMARK [1][-]{section.1}{Introduction}{}% 1
\BOOKMARK [1][-]{section.2}{Colombian context and details of the reform}{}% 2
\BOOKMARK [1][-]{section.3}{Theoretical framework}{}% 3
\BOOKMARK [2][-]{subsection.3.1}{Setup}{section.3}% 4
\BOOKMARK [2][-]{subsection.3.2}{The effect of the reform on illegal mining}{section.3}% 5
\BOOKMARK [1][-]{section.4}{Data}{}% 6
\BOOKMARK [2][-]{subsection.4.1}{Constructing the illegal mining panel}{section.4}% 7
\BOOKMARK [2][-]{subsection.4.2}{Econometric analysis of the error term}{section.4}% 8
\BOOKMARK [2][-]{subsection.4.3}{From pixel predictions to municipality panel}{section.4}% 9
\BOOKMARK [1][-]{section.5}{Identification strategies}{}% 10
\BOOKMARK [1][-]{section.6}{Results}{}% 11
\BOOKMARK [2][-]{subsection.6.1}{Main results}{section.6}% 12
\BOOKMARK [1][-]{section.7}{Health externalities}{}% 13
\BOOKMARK [1][-]{section.8}{Conclusions }{}% 14
\BOOKMARK [1][-]{section*.1}{References}{}% 15
\BOOKMARK [1][-]{Appendix.a.A}{Appendix Additional Figures and Tables}{}% 16
\BOOKMARK [1][-]{Appendix.a.B}{Appendix Constructing the illegal mining data}{}% 17
\BOOKMARK [2][-]{subsection.a.B.1}{Weak law of large numbers for correlated Bernoulli's random variables among pixels}{Appendix.a.B}% 18
\BOOKMARK [1][-]{Appendix.a.C}{Appendix Further analysis}{}% 19
\BOOKMARK [2][-]{subsection.a.C.1}{Estimate dollars lost to evasion and health costs}{Appendix.a.C}% 20
\BOOKMARK [2][-]{subsection.a.C.2}{Heterogeneous treatment effects in loser municipalities}{Appendix.a.C}% 21
\BOOKMARK [2][-]{subsection.a.C.3}{Positive effects of the reform?}{Appendix.a.C}% 22
\BOOKMARK [2][-]{subsection.a.C.4}{Effects on municipalities with mineral resources and prone to satellite detection}{Appendix.a.C}% 23
\BOOKMARK [2][-]{subsection.a.C.5}{Endogenous response of municipalities to budget change}{Appendix.a.C}% 24
\BOOKMARK [1][-]{Appendix.a.D}{Appendix Online Appendix}{}% 25
