This is BibTeX, Version 0.99dThe top-level auxiliary file: Resumen_royalties_illegal.aux
The style file: apacite.bst
Database file #1: bibille.bib
Warning--entry type for "MinMinas2003" isn't style-file defined
--line 632 of file bibille.bib
apacite.bst [2013/07/21 v6.03 APA bibliography style]
(There was 1 warning)
