\relax 
\providecommand\hyper@newdestlabel[2]{}
\providecommand\HyperFirstAtBeginDocument{\AtBeginDocument}
\HyperFirstAtBeginDocument{\ifx\hyper@anchor\@undefined
\global\let\oldcontentsline\contentsline
\gdef\contentsline#1#2#3#4{\oldcontentsline{#1}{#2}{#3}}
\global\let\oldnewlabel\newlabel
\gdef\newlabel#1#2{\newlabelxx{#1}#2}
\gdef\newlabelxx#1#2#3#4#5#6{\oldnewlabel{#1}{{#2}{#3}}}
\AtEndDocument{\ifx\hyper@anchor\@undefined
\let\contentsline\oldcontentsline
\let\newlabel\oldnewlabel
\fi}
\fi}
\global\let\hyper@last\relax 
\gdef\HyperFirstAtBeginDocument#1{#1}
\providecommand\HyField@AuxAddToFields[1]{}
\providecommand\HyField@AuxAddToCoFields[2]{}
\select@language{english}
\@writefile{toc}{\select@language{english}}
\@writefile{lof}{\select@language{english}}
\@writefile{lot}{\select@language{english}}
\citation{Banerjeeetal2012}
\citation{Chetty2009}
\citation{Aragon2015}
\citation{Goltz2016}
\citation{Tolonen2015}
\citation{Banerjeeetal2012}
\citation{MinMinas2003}
\citation{caitreisman2004}
\citation{Khanetal2016}
\citation{Burgess2012}
\citation{Lipscomb2013}
\citation{Aragon2015}
\citation{Goltz2016}
\citation{Tolonen2015}
\citation{Bellonietal2012}
\citation{AtheyImbens2016}
\citation{Foster2009}
\citation{Jayachandran2009}
\citation{Henderson2012}
\citation{Guiterasetal}
\citation{faber2016}
\citation{Idrobo2014}
\citation{Romero2015}
\bibstyle{apacite}
\bibdata{bibille}
\bibcite{Aragon2015}{\citeauthoryear {Arag\'{o}n\ \BBA{} Rud}{Arag\'{o}n\ \BBA{} Rud}{{\APACyear {2015}}}}
\APACbibcite{Aragon2015}{\citeauthoryear {Arag\'{o}n\ \BBA{} Rud}{Arag\'{o}n\ \BBA{} Rud}{{\APACyear {2015}}}}
\bibcite{AtheyImbens2016}{\citeauthoryear {Athey\ \BBA{} Imbens}{Athey\ \BBA{} Imbens}{{\APACyear {2016}}}}
\APACbibcite{AtheyImbens2016}{\citeauthoryear {Athey\ \BBA{} Imbens}{Athey\ \BBA{} Imbens}{{\APACyear {2016}}}}
\bibcite{Banerjeeetal2012}{\citeauthoryear {Banerjee, Mullainathan,{}\ \BBA{} Hanna}{Banerjee\ \BOthers {.}}{{\APACyear {2012}}}}
\APACbibcite{Banerjeeetal2012}{\citeauthoryear {Banerjee, Mullainathan,{}\ \BBA{} Hanna}{Banerjee\ \BOthers {.}}{{\APACyear {2012}}}}
\bibcite{Bellonietal2012}{\citeauthoryear {Belloni, Chernozhukov,{}\ \BBA{} Hansen}{Belloni\ \BOthers {.}}{{\APACyear {2014}}}}
\APACbibcite{Bellonietal2012}{\citeauthoryear {Belloni, Chernozhukov,{}\ \BBA{} Hansen}{Belloni\ \BOthers {.}}{{\APACyear {2014}}}}
\bibcite{Burgess2012}{\citeauthoryear {Burgess, Hansen, Olken, Potapov,{}\ \BBA{} Sieber}{Burgess\ \BOthers {.}}{{\APACyear {2012}}}}
\APACbibcite{Burgess2012}{\citeauthoryear {Burgess, Hansen, Olken, Potapov,{}\ \BBA{} Sieber}{Burgess\ \BOthers {.}}{{\APACyear {2012}}}}
\bibcite{caitreisman2004}{\citeauthoryear {Cai\ \BBA{} Treisman}{Cai\ \BBA{} Treisman}{{\APACyear {2004}}}}
\APACbibcite{caitreisman2004}{\citeauthoryear {Cai\ \BBA{} Treisman}{Cai\ \BBA{} Treisman}{{\APACyear {2004}}}}
\@writefile{toc}{\contentsline {section}{References}{5}{section*.1}}
\bibcite{Chetty2009}{\citeauthoryear {Chetty}{Chetty}{{\APACyear {2009}}}}
\APACbibcite{Chetty2009}{\citeauthoryear {Chetty}{Chetty}{{\APACyear {2009}}}}
\bibcite{faber2016}{\citeauthoryear {Faber\ \BBA{} Gaubert}{Faber\ \BBA{} Gaubert}{{\APACyear {2016}}}}
\APACbibcite{faber2016}{\citeauthoryear {Faber\ \BBA{} Gaubert}{Faber\ \BBA{} Gaubert}{{\APACyear {2016}}}}
\bibcite{Foster2009}{\citeauthoryear {Foster, Gutierrez,{}\ \BBA{} Kumar}{Foster\ \BOthers {.}}{{\APACyear {2009}}}}
\APACbibcite{Foster2009}{\citeauthoryear {Foster, Gutierrez,{}\ \BBA{} Kumar}{Foster\ \BOthers {.}}{{\APACyear {2009}}}}
\bibcite{Guiterasetal}{\citeauthoryear {Guiteras, Jina,{}\ \BBA{} Mobarak}{Guiteras\ \BOthers {.}}{{\APACyear {2015}}}}
\APACbibcite{Guiterasetal}{\citeauthoryear {Guiteras, Jina,{}\ \BBA{} Mobarak}{Guiteras\ \BOthers {.}}{{\APACyear {2015}}}}
\bibcite{Henderson2012}{\citeauthoryear {Henderson, Storeygard,{}\ \BBA{} Weil}{Henderson\ \BOthers {.}}{{\APACyear {2012}}}}
\APACbibcite{Henderson2012}{\citeauthoryear {Henderson, Storeygard,{}\ \BBA{} Weil}{Henderson\ \BOthers {.}}{{\APACyear {2012}}}}
\bibcite{Idrobo2014}{\citeauthoryear {Idrobo, Mejia,{}\ \BBA{} Tribin}{Idrobo\ \BOthers {.}}{{\APACyear {2014}}}}
\APACbibcite{Idrobo2014}{\citeauthoryear {Idrobo, Mejia,{}\ \BBA{} Tribin}{Idrobo\ \BOthers {.}}{{\APACyear {2014}}}}
\bibcite{Jayachandran2009}{\citeauthoryear {Jayachandran}{Jayachandran}{{\APACyear {2009}}}}
\APACbibcite{Jayachandran2009}{\citeauthoryear {Jayachandran}{Jayachandran}{{\APACyear {2009}}}}
\bibcite{Khanetal2016}{\citeauthoryear {Khan, Khwaja,{}\ \BBA{} Olken}{Khan\ \BOthers {.}}{{\APACyear {2016}}}}
\APACbibcite{Khanetal2016}{\citeauthoryear {Khan, Khwaja,{}\ \BBA{} Olken}{Khan\ \BOthers {.}}{{\APACyear {2016}}}}
\bibcite{Lipscomb2013}{\citeauthoryear {Lipscomb\ \BBA{} Mobarak}{Lipscomb\ \BBA{} Mobarak}{{\APACyear {2013}}}}
\APACbibcite{Lipscomb2013}{\citeauthoryear {Lipscomb\ \BBA{} Mobarak}{Lipscomb\ \BBA{} Mobarak}{{\APACyear {2013}}}}
\bibcite{MinMinas2003}{\citeauthoryear {{Ministerio de Minas y Energia}}{{Ministerio de Minas y Energia}}{{\APACyear {2003}}}}
\APACbibcite{MinMinas2003}{\citeauthoryear {{Ministerio de Minas y Energia}}{{Ministerio de Minas y Energia}}{{\APACyear {2003}}}}
\bibcite{Romero2015}{\citeauthoryear {Romero\ \BBA{} Saavedra}{Romero\ \BBA{} Saavedra}{{\APACyear {2015}}}}
\APACbibcite{Romero2015}{\citeauthoryear {Romero\ \BBA{} Saavedra}{Romero\ \BBA{} Saavedra}{{\APACyear {2015}}}}
\bibcite{Tolonen2015}{\citeauthoryear {Tolonen}{Tolonen}{{\APACyear {2015}}}}
\APACbibcite{Tolonen2015}{\citeauthoryear {Tolonen}{Tolonen}{{\APACyear {2015}}}}
\bibcite{Goltz2016}{\citeauthoryear {von~der Goltz\ \BBA{} Barnwal}{von~der Goltz\ \BBA{} Barnwal}{{\APACyear {2016}}}}
\APACbibcite{Goltz2016}{\citeauthoryear {von~der Goltz\ \BBA{} Barnwal}{von~der Goltz\ \BBA{} Barnwal}{{\APACyear {2016}}}}
