This is BibTeX, Version 0.99dThe top-level auxiliary file: 201609_Rosario.aux
A level-1 auxiliary file: mat_conf.aux
The style file: apacite.bst
I couldn't open database file bibille.bib
---line 369 of file 201609_Rosario.aux
 : \bibdata{bibille
 :                 }
I'm skipping whatever remains of this command
I found no \citation commands---while reading file 201609_Rosario.aux
I found no database files---while reading file 201609_Rosario.aux
apacite.bst [2013/07/21 v6.03 APA bibliography style]
(There were 3 error messages)
