\relax 
\providecommand\hyper@newdestlabel[2]{}
\providecommand\HyperFirstAtBeginDocument{\AtBeginDocument}
\HyperFirstAtBeginDocument{\ifx\hyper@anchor\@undefined
\global\let\oldcontentsline\contentsline
\gdef\contentsline#1#2#3#4{\oldcontentsline{#1}{#2}{#3}}
\global\let\oldnewlabel\newlabel
\gdef\newlabel#1#2{\newlabelxx{#1}#2}
\gdef\newlabelxx#1#2#3#4#5#6{\oldnewlabel{#1}{{#2}{#3}}}
\AtEndDocument{\ifx\hyper@anchor\@undefined
\let\contentsline\oldcontentsline
\let\newlabel\oldnewlabel
\fi}
\fi}
\global\let\hyper@last\relax 
\gdef\HyperFirstAtBeginDocument#1{#1}
\providecommand\HyField@AuxAddToFields[1]{}
\providecommand\HyField@AuxAddToCoFields[2]{}
\providecommand \oddpage@label [2]{}
\@writefile{toc}{\beamer@endinputifotherversion {3.36pt}}
\@writefile{nav}{\beamer@endinputifotherversion {3.36pt}}
\select@language{english}
\@writefile{toc}{\select@language{english}}
\@writefile{lof}{\select@language{english}}
\@writefile{lot}{\select@language{english}}
\@writefile{nav}{\headcommand {\slideentry {0}{0}{1}{1/1}{}{0}}}
\@writefile{nav}{\headcommand {\beamer@framepages {1}{1}}}
\@writefile{nav}{\headcommand {\slideentry {0}{0}{2}{2/7}{}{0}}}
\@writefile{nav}{\headcommand {\beamer@framepages {2}{7}}}
\@writefile{nav}{\headcommand {\slideentry {0}{0}{3}{8/9}{}{0}}}
\@writefile{nav}{\headcommand {\beamer@framepages {8}{9}}}
\newlabel{context<1>}{{4}{10}{}{Doc-Start}{}}
\@writefile{snm}{\beamer@slide {context<1>}{10}}
\newlabel{context}{{4}{10}{}{Doc-Start}{}}
\@writefile{snm}{\beamer@slide {context}{10}}
\newlabel{context<2>}{{4}{11}{}{Doc-Start}{}}
\@writefile{snm}{\beamer@slide {context<2>}{11}}
\newlabel{context<3>}{{4}{12}{}{Doc-Start}{}}
\@writefile{snm}{\beamer@slide {context<3>}{12}}
\newlabel{context<4>}{{4}{13}{}{Doc-Start}{}}
\@writefile{snm}{\beamer@slide {context<4>}{13}}
\newlabel{context<5>}{{4}{14}{}{Doc-Start}{}}
\@writefile{snm}{\beamer@slide {context<5>}{14}}
\@writefile{nav}{\headcommand {\slideentry {0}{0}{4}{10/14}{}{0}}}
\@writefile{nav}{\headcommand {\beamer@framepages {10}{14}}}
\@writefile{nav}{\headcommand {\slideentry {0}{0}{5}{15/18}{}{0}}}
\@writefile{nav}{\headcommand {\beamer@framepages {15}{18}}}
\@writefile{nav}{\headcommand {\slideentry {0}{0}{6}{19/22}{}{0}}}
\@writefile{nav}{\headcommand {\beamer@framepages {19}{22}}}
\newlabel{outline<1>}{{7}{23}{}{Doc-Start}{}}
\@writefile{snm}{\beamer@slide {outline<1>}{23}}
\newlabel{outline}{{7}{23}{}{Doc-Start}{}}
\@writefile{snm}{\beamer@slide {outline}{23}}
\@writefile{nav}{\headcommand {\slideentry {0}{0}{7}{23/23}{}{0}}}
\@writefile{nav}{\headcommand {\beamer@framepages {23}{23}}}
\newlabel{details_reform<1>}{{8}{24}{}{Doc-Start}{}}
\@writefile{snm}{\beamer@slide {details_reform<1>}{24}}
\newlabel{details_reform}{{8}{24}{}{Doc-Start}{}}
\@writefile{snm}{\beamer@slide {details_reform}{24}}
\@writefile{nav}{\headcommand {\slideentry {0}{0}{8}{24/24}{}{0}}}
\@writefile{nav}{\headcommand {\beamer@framepages {24}{24}}}
\newlabel{outline2<1>}{{9}{25}{}{Doc-Start}{}}
\@writefile{snm}{\beamer@slide {outline2<1>}{25}}
\newlabel{outline2}{{9}{25}{}{Doc-Start}{}}
\@writefile{snm}{\beamer@slide {outline2}{25}}
\@writefile{nav}{\headcommand {\slideentry {0}{0}{9}{25/25}{}{0}}}
\@writefile{nav}{\headcommand {\beamer@framepages {25}{25}}}
\newlabel{model_overview<1>}{{10}{26}{}{Doc-Start}{}}
\@writefile{snm}{\beamer@slide {model_overview<1>}{26}}
\newlabel{model_overview}{{10}{26}{}{Doc-Start}{}}
\@writefile{snm}{\beamer@slide {model_overview}{26}}
\newlabel{model_overview<2>}{{10}{27}{}{Doc-Start}{}}
\@writefile{snm}{\beamer@slide {model_overview<2>}{27}}
\newlabel{model_overview<3>}{{10}{28}{}{Doc-Start}{}}
\@writefile{snm}{\beamer@slide {model_overview<3>}{28}}
\newlabel{model_overview<4>}{{10}{29}{}{Doc-Start}{}}
\@writefile{snm}{\beamer@slide {model_overview<4>}{29}}
\@writefile{nav}{\headcommand {\slideentry {0}{0}{10}{26/29}{}{0}}}
\@writefile{nav}{\headcommand {\beamer@framepages {26}{29}}}
\newlabel{thmod<1>}{{11}{30}{}{Doc-Start}{}}
\@writefile{snm}{\beamer@slide {thmod<1>}{30}}
\newlabel{thmod}{{11}{30}{}{Doc-Start}{}}
\@writefile{snm}{\beamer@slide {thmod}{30}}
\@writefile{nav}{\headcommand {\slideentry {0}{0}{11}{30/30}{}{0}}}
\@writefile{nav}{\headcommand {\beamer@framepages {30}{30}}}
\@writefile{nav}{\headcommand {\slideentry {0}{0}{12}{31/34}{}{0}}}
\@writefile{nav}{\headcommand {\beamer@framepages {31}{34}}}
\@writefile{nav}{\headcommand {\slideentry {0}{0}{13}{35/35}{}{0}}}
\@writefile{nav}{\headcommand {\beamer@framepages {35}{35}}}
\@writefile{nav}{\headcommand {\slideentry {0}{0}{14}{36/36}{}{0}}}
\@writefile{nav}{\headcommand {\beamer@framepages {36}{36}}}
\@writefile{nav}{\headcommand {\slideentry {0}{0}{15}{37/37}{}{0}}}
\@writefile{nav}{\headcommand {\beamer@framepages {37}{37}}}
\newlabel{model_convex<1>}{{16}{38}{}{Doc-Start}{}}
\@writefile{snm}{\beamer@slide {model_convex<1>}{38}}
\newlabel{model_convex}{{16}{38}{}{Doc-Start}{}}
\@writefile{snm}{\beamer@slide {model_convex}{38}}
\@writefile{nav}{\headcommand {\slideentry {0}{0}{16}{38/38}{}{0}}}
\@writefile{nav}{\headcommand {\beamer@framepages {38}{38}}}
\newlabel{model_ag<1>}{{17}{39}{}{Doc-Start}{}}
\@writefile{snm}{\beamer@slide {model_ag<1>}{39}}
\newlabel{model_ag}{{17}{39}{}{Doc-Start}{}}
\@writefile{snm}{\beamer@slide {model_ag}{39}}
\@writefile{nav}{\headcommand {\slideentry {0}{0}{17}{39/39}{}{0}}}
\@writefile{nav}{\headcommand {\beamer@framepages {39}{39}}}
\@writefile{nav}{\headcommand {\slideentry {0}{0}{18}{40/40}{}{0}}}
\@writefile{nav}{\headcommand {\beamer@framepages {40}{40}}}
\newlabel{prepare<1>}{{19}{41}{}{Doc-Start}{}}
\@writefile{snm}{\beamer@slide {prepare<1>}{41}}
\newlabel{prepare}{{19}{41}{}{Doc-Start}{}}
\@writefile{snm}{\beamer@slide {prepare}{41}}
\@writefile{nav}{\headcommand {\slideentry {0}{0}{19}{41/41}{}{0}}}
\@writefile{nav}{\headcommand {\beamer@framepages {41}{41}}}
\newlabel{algorithm<1>}{{20}{42}{}{Doc-Start}{}}
\@writefile{snm}{\beamer@slide {algorithm<1>}{42}}
\newlabel{algorithm}{{20}{42}{}{Doc-Start}{}}
\@writefile{snm}{\beamer@slide {algorithm}{42}}
\@writefile{nav}{\headcommand {\slideentry {0}{0}{20}{42/42}{}{0}}}
\@writefile{nav}{\headcommand {\beamer@framepages {42}{42}}}
\newlabel{ROC<1>}{{21}{43}{}{Doc-Start}{}}
\@writefile{snm}{\beamer@slide {ROC<1>}{43}}
\newlabel{ROC}{{21}{43}{}{Doc-Start}{}}
\@writefile{snm}{\beamer@slide {ROC}{43}}
\@writefile{nav}{\headcommand {\slideentry {0}{0}{21}{43/43}{}{0}}}
\@writefile{nav}{\headcommand {\beamer@framepages {43}{43}}}
\@input{mat_conf.aux}
\@writefile{nav}{\headcommand {\slideentry {0}{0}{22}{44/44}{}{0}}}
\@writefile{nav}{\headcommand {\beamer@framepages {44}{44}}}
\@writefile{nav}{\headcommand {\slideentry {0}{0}{23}{45/46}{}{0}}}
\@writefile{nav}{\headcommand {\beamer@framepages {45}{46}}}
\@writefile{nav}{\headcommand {\slideentry {0}{0}{24}{47/47}{}{0}}}
\@writefile{nav}{\headcommand {\beamer@framepages {47}{47}}}
\newlabel{eq:reg}{{1}{48}{}{Doc-Start}{}}
\@writefile{nav}{\headcommand {\slideentry {0}{0}{25}{48/48}{}{0}}}
\@writefile{nav}{\headcommand {\beamer@framepages {48}{48}}}
\newlabel{sumstats_regvar<1>}{{26}{49}{}{Doc-Start}{}}
\@writefile{snm}{\beamer@slide {sumstats_regvar<1>}{49}}
\newlabel{sumstats_regvar}{{26}{49}{}{Doc-Start}{}}
\@writefile{snm}{\beamer@slide {sumstats_regvar}{49}}
\@writefile{nav}{\headcommand {\slideentry {0}{0}{26}{49/49}{}{0}}}
\@writefile{nav}{\headcommand {\beamer@framepages {49}{49}}}
\@writefile{nav}{\headcommand {\slideentry {0}{0}{27}{50/50}{}{0}}}
\@writefile{nav}{\headcommand {\beamer@framepages {50}{50}}}
\newlabel{emp_theo_pred<1>}{{28}{51}{}{Doc-Start}{}}
\@writefile{snm}{\beamer@slide {emp_theo_pred<1>}{51}}
\newlabel{emp_theo_pred}{{28}{51}{}{Doc-Start}{}}
\@writefile{snm}{\beamer@slide {emp_theo_pred}{51}}
\@writefile{nav}{\headcommand {\slideentry {0}{0}{28}{51/51}{}{0}}}
\@writefile{nav}{\headcommand {\beamer@framepages {51}{51}}}
\newlabel{reg_main<1>}{{29}{52}{}{Doc-Start}{}}
\@writefile{snm}{\beamer@slide {reg_main<1>}{52}}
\newlabel{reg_main}{{29}{52}{}{Doc-Start}{}}
\@writefile{snm}{\beamer@slide {reg_main}{52}}
\@writefile{nav}{\headcommand {\slideentry {0}{0}{29}{52/52}{}{0}}}
\@writefile{nav}{\headcommand {\beamer@framepages {52}{52}}}
\newlabel{reg_continuous<1>}{{30}{53}{}{Doc-Start}{}}
\@writefile{snm}{\beamer@slide {reg_continuous<1>}{53}}
\newlabel{reg_continuous}{{30}{53}{}{Doc-Start}{}}
\@writefile{snm}{\beamer@slide {reg_continuous}{53}}
\@writefile{nav}{\headcommand {\slideentry {0}{0}{30}{53/53}{}{0}}}
\@writefile{nav}{\headcommand {\beamer@framepages {53}{53}}}
\newlabel{reg_prod<1>}{{31}{54}{}{Doc-Start}{}}
\@writefile{snm}{\beamer@slide {reg_prod<1>}{54}}
\newlabel{reg_prod}{{31}{54}{}{Doc-Start}{}}
\@writefile{snm}{\beamer@slide {reg_prod}{54}}
\@writefile{nav}{\headcommand {\slideentry {0}{0}{31}{54/54}{}{0}}}
\@writefile{nav}{\headcommand {\beamer@framepages {54}{54}}}
\newlabel{reg_violence<1>}{{32}{55}{}{Doc-Start}{}}
\@writefile{snm}{\beamer@slide {reg_violence<1>}{55}}
\newlabel{reg_violence}{{32}{55}{}{Doc-Start}{}}
\@writefile{snm}{\beamer@slide {reg_violence}{55}}
\@writefile{nav}{\headcommand {\slideentry {0}{0}{32}{55/55}{}{0}}}
\@writefile{nav}{\headcommand {\beamer@framepages {55}{55}}}
\newlabel{violencerwlw_reg_prop<1>}{{33}{56}{}{Doc-Start}{}}
\@writefile{snm}{\beamer@slide {violencerwlw_reg_prop<1>}{56}}
\newlabel{violencerwlw_reg_prop}{{33}{56}{}{Doc-Start}{}}
\@writefile{snm}{\beamer@slide {violencerwlw_reg_prop}{56}}
\@writefile{nav}{\headcommand {\slideentry {0}{0}{33}{56/56}{}{0}}}
\@writefile{nav}{\headcommand {\beamer@framepages {56}{56}}}
\newlabel{reg_mineral<1>}{{34}{57}{}{Doc-Start}{}}
\@writefile{snm}{\beamer@slide {reg_mineral<1>}{57}}
\newlabel{reg_mineral}{{34}{57}{}{Doc-Start}{}}
\@writefile{snm}{\beamer@slide {reg_mineral}{57}}
\@writefile{nav}{\headcommand {\slideentry {0}{0}{34}{57/57}{}{0}}}
\@writefile{nav}{\headcommand {\beamer@framepages {57}{57}}}
\@writefile{nav}{\headcommand {\slideentry {0}{0}{35}{58/58}{}{0}}}
\@writefile{nav}{\headcommand {\beamer@framepages {58}{58}}}
\@writefile{nav}{\headcommand {\slideentry {0}{0}{36}{59/59}{}{0}}}
\@writefile{nav}{\headcommand {\beamer@framepages {59}{59}}}
\newlabel{example_wl<1>}{{36}{60}{}{Doc-Start}{}}
\@writefile{snm}{\beamer@slide {example_wl<1>}{60}}
\newlabel{example_wl}{{36}{60}{}{Doc-Start}{}}
\@writefile{snm}{\beamer@slide {example_wl}{60}}
\@writefile{nav}{\headcommand {\slideentry {0}{0}{37}{60/60}{}{0}}}
\@writefile{nav}{\headcommand {\beamer@framepages {60}{60}}}
\newlabel{literature<1>}{{37}{61}{}{Doc-Start}{}}
\@writefile{snm}{\beamer@slide {literature<1>}{61}}
\newlabel{literature}{{37}{61}{}{Doc-Start}{}}
\@writefile{snm}{\beamer@slide {literature}{61}}
\@writefile{nav}{\headcommand {\slideentry {0}{0}{38}{61/61}{}{0}}}
\@writefile{nav}{\headcommand {\beamer@framepages {61}{61}}}
\newlabel{roy_ineq<1>}{{38}{62}{}{Doc-Start}{}}
\@writefile{snm}{\beamer@slide {roy_ineq<1>}{62}}
\newlabel{roy_ineq}{{38}{62}{}{Doc-Start}{}}
\@writefile{snm}{\beamer@slide {roy_ineq}{62}}
\newlabel{Circle size proportional to population of the municipality}{{38}{62}{}{Doc-Start}{}}
\@writefile{snm}{\beamer@slide {Circle size proportional to population of the municipality}{62}}
\@writefile{nav}{\headcommand {\slideentry {0}{0}{39}{62/62}{}{0}}}
\@writefile{nav}{\headcommand {\beamer@framepages {62}{62}}}
\newlabel{formula<1>}{{39}{63}{}{Doc-Start}{}}
\@writefile{snm}{\beamer@slide {formula<1>}{63}}
\newlabel{formula}{{39}{63}{}{Doc-Start}{}}
\@writefile{snm}{\beamer@slide {formula}{63}}
\@writefile{nav}{\headcommand {\slideentry {0}{0}{40}{63/63}{}{0}}}
\@writefile{nav}{\headcommand {\beamer@framepages {63}{63}}}
\newlabel{thmod_prof<1>}{{40}{64}{}{Doc-Start}{}}
\@writefile{snm}{\beamer@slide {thmod_prof<1>}{64}}
\newlabel{thmod_prof}{{40}{64}{}{Doc-Start}{}}
\@writefile{snm}{\beamer@slide {thmod_prof}{64}}
\@writefile{nav}{\headcommand {\slideentry {0}{0}{41}{64/64}{}{0}}}
\@writefile{nav}{\headcommand {\beamer@framepages {64}{64}}}
\newlabel{model_target<1>}{{41}{65}{}{Doc-Start}{}}
\@writefile{snm}{\beamer@slide {model_target<1>}{65}}
\newlabel{model_target}{{41}{65}{}{Doc-Start}{}}
\@writefile{snm}{\beamer@slide {model_target}{65}}
\@writefile{nav}{\headcommand {\slideentry {0}{0}{42}{65/65}{}{0}}}
\@writefile{nav}{\headcommand {\beamer@framepages {65}{65}}}
\newlabel{graph_agf<1>}{{42}{66}{}{Doc-Start}{}}
\@writefile{snm}{\beamer@slide {graph_agf<1>}{66}}
\newlabel{graph_agf}{{42}{66}{}{Doc-Start}{}}
\@writefile{snm}{\beamer@slide {graph_agf}{66}}
\@writefile{nav}{\headcommand {\slideentry {0}{0}{43}{66/66}{}{0}}}
\@writefile{nav}{\headcommand {\beamer@framepages {66}{66}}}
\newlabel{graph_agPr<1>}{{43}{67}{}{Doc-Start}{}}
\@writefile{snm}{\beamer@slide {graph_agPr<1>}{67}}
\newlabel{graph_agPr}{{43}{67}{}{Doc-Start}{}}
\@writefile{snm}{\beamer@slide {graph_agPr}{67}}
\@writefile{nav}{\headcommand {\slideentry {0}{0}{44}{67/67}{}{0}}}
\@writefile{nav}{\headcommand {\beamer@framepages {67}{67}}}
\@writefile{nav}{\headcommand {\slideentry {0}{0}{45}{68/68}{}{0}}}
\@writefile{nav}{\headcommand {\beamer@framepages {68}{68}}}
\newlabel{remove_clouds<1>}{{45}{69}{}{Doc-Start}{}}
\@writefile{snm}{\beamer@slide {remove_clouds<1>}{69}}
\newlabel{remove_clouds}{{45}{69}{}{Doc-Start}{}}
\@writefile{snm}{\beamer@slide {remove_clouds}{69}}
\@writefile{nav}{\headcommand {\slideentry {0}{0}{46}{69/69}{}{0}}}
\@writefile{nav}{\headcommand {\beamer@framepages {69}{69}}}
\newlabel{reg_vs_trees<1>}{{46}{70}{}{Doc-Start}{}}
\@writefile{snm}{\beamer@slide {reg_vs_trees<1>}{70}}
\newlabel{reg_vs_trees}{{46}{70}{}{Doc-Start}{}}
\@writefile{snm}{\beamer@slide {reg_vs_trees}{70}}
\@writefile{nav}{\headcommand {\slideentry {0}{0}{47}{70/70}{}{0}}}
\@writefile{nav}{\headcommand {\beamer@framepages {70}{70}}}
\newlabel{varimportance<1>}{{47}{71}{}{Doc-Start}{}}
\@writefile{snm}{\beamer@slide {varimportance<1>}{71}}
\newlabel{varimportance}{{47}{71}{}{Doc-Start}{}}
\@writefile{snm}{\beamer@slide {varimportance}{71}}
\@writefile{nav}{\headcommand {\slideentry {0}{0}{48}{71/71}{}{0}}}
\@writefile{nav}{\headcommand {\beamer@framepages {71}{71}}}
\newlabel{erroranal<1>}{{48}{72}{}{Doc-Start}{}}
\@writefile{snm}{\beamer@slide {erroranal<1>}{72}}
\newlabel{erroranal}{{48}{72}{}{Doc-Start}{}}
\@writefile{snm}{\beamer@slide {erroranal}{72}}
\@writefile{nav}{\headcommand {\slideentry {0}{0}{49}{72/72}{}{0}}}
\@writefile{nav}{\headcommand {\beamer@framepages {72}{72}}}
\@writefile{nav}{\headcommand {\slideentry {0}{0}{50}{73/73}{}{0}}}
\@writefile{nav}{\headcommand {\beamer@framepages {73}{73}}}
\@writefile{nav}{\headcommand {\slideentry {0}{0}{51}{74/74}{}{0}}}
\@writefile{nav}{\headcommand {\beamer@framepages {74}{74}}}
\@writefile{nav}{\headcommand {\slideentry {0}{0}{52}{75/75}{}{0}}}
\@writefile{nav}{\headcommand {\beamer@framepages {75}{75}}}
\@writefile{nav}{\headcommand {\slideentry {0}{0}{53}{76/76}{}{0}}}
\@writefile{nav}{\headcommand {\beamer@framepages {76}{76}}}
\@writefile{nav}{\headcommand {\slideentry {0}{0}{54}{77/77}{}{0}}}
\@writefile{nav}{\headcommand {\beamer@framepages {77}{77}}}
\@writefile{nav}{\headcommand {\slideentry {0}{0}{55}{78/78}{}{0}}}
\@writefile{nav}{\headcommand {\beamer@framepages {78}{78}}}
\@writefile{nav}{\headcommand {\slideentry {0}{0}{56}{79/79}{}{0}}}
\@writefile{nav}{\headcommand {\beamer@framepages {79}{79}}}
\newlabel{sumstats_regvarmined<1>}{{56}{80}{}{Doc-Start}{}}
\@writefile{snm}{\beamer@slide {sumstats_regvarmined<1>}{80}}
\newlabel{sumstats_regvarmined}{{56}{80}{}{Doc-Start}{}}
\@writefile{snm}{\beamer@slide {sumstats_regvarmined}{80}}
\@writefile{nav}{\headcommand {\slideentry {0}{0}{57}{80/80}{}{0}}}
\@writefile{nav}{\headcommand {\beamer@framepages {80}{80}}}
\newlabel{balancestats_muni<1>}{{57}{81}{}{Doc-Start}{}}
\@writefile{snm}{\beamer@slide {balancestats_muni<1>}{81}}
\newlabel{balancestats_muni}{{57}{81}{}{Doc-Start}{}}
\@writefile{snm}{\beamer@slide {balancestats_muni}{81}}
\@writefile{nav}{\headcommand {\slideentry {0}{0}{58}{81/81}{}{0}}}
\@writefile{nav}{\headcommand {\beamer@framepages {81}{81}}}
\newlabel{balancestats_censed<1>}{{58}{82}{}{Doc-Start}{}}
\@writefile{snm}{\beamer@slide {balancestats_censed<1>}{82}}
\newlabel{balancestats_censed}{{58}{82}{}{Doc-Start}{}}
\@writefile{snm}{\beamer@slide {balancestats_censed}{82}}
\@writefile{nav}{\headcommand {\slideentry {0}{0}{59}{82/82}{}{0}}}
\@writefile{nav}{\headcommand {\beamer@framepages {82}{82}}}
\newlabel{reg_adj<1>}{{59}{83}{}{Doc-Start}{}}
\@writefile{snm}{\beamer@slide {reg_adj<1>}{83}}
\newlabel{reg_adj}{{59}{83}{}{Doc-Start}{}}
\@writefile{snm}{\beamer@slide {reg_adj}{83}}
\@writefile{nav}{\headcommand {\slideentry {0}{0}{60}{83/83}{}{0}}}
\@writefile{nav}{\headcommand {\beamer@framepages {83}{83}}}
\newlabel{altonji<1>}{{60}{84}{}{Doc-Start}{}}
\@writefile{snm}{\beamer@slide {altonji<1>}{84}}
\newlabel{altonji}{{60}{84}{}{Doc-Start}{}}
\@writefile{snm}{\beamer@slide {altonji}{84}}
\@writefile{nav}{\headcommand {\slideentry {0}{0}{61}{84/84}{}{0}}}
\@writefile{nav}{\headcommand {\beamer@framepages {84}{84}}}
\newlabel{reg_lasso<1>}{{61}{85}{}{Doc-Start}{}}
\@writefile{snm}{\beamer@slide {reg_lasso<1>}{85}}
\newlabel{reg_lasso}{{61}{85}{}{Doc-Start}{}}
\@writefile{snm}{\beamer@slide {reg_lasso}{85}}
\@writefile{nav}{\headcommand {\slideentry {0}{0}{62}{85/85}{}{0}}}
\@writefile{nav}{\headcommand {\beamer@framepages {85}{85}}}
\newlabel{reg_weights<1>}{{62}{86}{}{Doc-Start}{}}
\@writefile{snm}{\beamer@slide {reg_weights<1>}{86}}
\newlabel{reg_weights}{{62}{86}{}{Doc-Start}{}}
\@writefile{snm}{\beamer@slide {reg_weights}{86}}
\@writefile{nav}{\headcommand {\slideentry {0}{0}{63}{86/86}{}{0}}}
\@writefile{nav}{\headcommand {\beamer@framepages {86}{86}}}
\newlabel{reg_importance<1>}{{63}{87}{}{Doc-Start}{}}
\@writefile{snm}{\beamer@slide {reg_importance<1>}{87}}
\newlabel{reg_importance}{{63}{87}{}{Doc-Start}{}}
\@writefile{snm}{\beamer@slide {reg_importance}{87}}
\@writefile{nav}{\headcommand {\slideentry {0}{0}{64}{87/87}{}{0}}}
\@writefile{nav}{\headcommand {\beamer@framepages {87}{87}}}
\newlabel{reg_AGpropmined<1>}{{64}{88}{}{Doc-Start}{}}
\@writefile{snm}{\beamer@slide {reg_AGpropmined<1>}{88}}
\newlabel{reg_AGpropmined}{{64}{88}{}{Doc-Start}{}}
\@writefile{snm}{\beamer@slide {reg_AGpropmined}{88}}
\@writefile{nav}{\headcommand {\slideentry {0}{0}{65}{88/88}{}{0}}}
\@writefile{nav}{\headcommand {\beamer@framepages {88}{88}}}
\newlabel{violencerwlw_reg_propmined<1>}{{65}{89}{}{Doc-Start}{}}
\@writefile{snm}{\beamer@slide {violencerwlw_reg_propmined<1>}{89}}
\newlabel{violencerwlw_reg_propmined}{{65}{89}{}{Doc-Start}{}}
\@writefile{snm}{\beamer@slide {violencerwlw_reg_propmined}{89}}
\@writefile{nav}{\headcommand {\slideentry {0}{0}{66}{89/89}{}{0}}}
\@writefile{nav}{\headcommand {\beamer@framepages {89}{89}}}
\newlabel{reg_tasahomicides<1>}{{66}{90}{}{Doc-Start}{}}
\@writefile{snm}{\beamer@slide {reg_tasahomicides<1>}{90}}
\newlabel{reg_tasahomicides}{{66}{90}{}{Doc-Start}{}}
\@writefile{snm}{\beamer@slide {reg_tasahomicides}{90}}
\@writefile{nav}{\headcommand {\slideentry {0}{0}{67}{90/90}{}{0}}}
\@writefile{nav}{\headcommand {\beamer@framepages {90}{90}}}
\newlabel{reg_homicides<1>}{{67}{91}{}{Doc-Start}{}}
\@writefile{snm}{\beamer@slide {reg_homicides<1>}{91}}
\newlabel{reg_homicides}{{67}{91}{}{Doc-Start}{}}
\@writefile{snm}{\beamer@slide {reg_homicides}{91}}
\@writefile{nav}{\headcommand {\slideentry {0}{0}{68}{91/91}{}{0}}}
\@writefile{nav}{\headcommand {\beamer@framepages {91}{91}}}
\@writefile{nav}{\headcommand {\slideentry {0}{0}{69}{92/92}{}{0}}}
\@writefile{nav}{\headcommand {\beamer@framepages {92}{92}}}
\newlabel{reg_tmi<1>}{{69}{93}{}{Doc-Start}{}}
\@writefile{snm}{\beamer@slide {reg_tmi<1>}{93}}
\newlabel{reg_tmi}{{69}{93}{}{Doc-Start}{}}
\@writefile{snm}{\beamer@slide {reg_tmi}{93}}
\@writefile{nav}{\headcommand {\slideentry {0}{0}{70}{93/93}{}{0}}}
\@writefile{nav}{\headcommand {\beamer@framepages {93}{93}}}
\newlabel{reg_tribut<1>}{{70}{94}{}{Doc-Start}{}}
\@writefile{snm}{\beamer@slide {reg_tribut<1>}{94}}
\newlabel{reg_tribut}{{70}{94}{}{Doc-Start}{}}
\@writefile{snm}{\beamer@slide {reg_tribut}{94}}
\@writefile{nav}{\headcommand {\slideentry {0}{0}{71}{94/94}{}{0}}}
\@writefile{nav}{\headcommand {\beamer@framepages {94}{94}}}
\@writefile{nav}{\headcommand {\slideentry {0}{0}{72}{95/95}{}{0}}}
\@writefile{nav}{\headcommand {\beamer@framepages {95}{95}}}
\bibstyle{apacite}
\bibdata{bibille}
\@writefile{nav}{\headcommand {\sectionentry {1}{}{96}{}{0}}}
\@writefile{nav}{\headcommand {\beamer@sectionpages {1}{95}}}
\@writefile{nav}{\headcommand {\beamer@subsectionpages {1}{95}}}
\@writefile{toc}{\contentsline {section}{}}
\@writefile{nav}{\headcommand {\slideentry {1}{0}{0}{96/96}{}{0}}}
\@writefile{nav}{\headcommand {\beamer@framepages {96}{96}}}
\@writefile{nav}{\headcommand {\beamer@partpages {1}{96}}}
\@writefile{nav}{\headcommand {\beamer@subsectionpages {1}{96}}}
\@writefile{nav}{\headcommand {\beamer@sectionpages {1}{96}}}
\@writefile{nav}{\headcommand {\beamer@documentpages {96}}}
\@writefile{nav}{\headcommand {\def \inserttotalframenumber {72}}}
