\relax 
\providecommand\hyper@newdestlabel[2]{}
\providecommand\HyperFirstAtBeginDocument{\AtBeginDocument}
\HyperFirstAtBeginDocument{\ifx\hyper@anchor\@undefined
\global\let\oldcontentsline\contentsline
\gdef\contentsline#1#2#3#4{\oldcontentsline{#1}{#2}{#3}}
\global\let\oldnewlabel\newlabel
\gdef\newlabel#1#2{\newlabelxx{#1}#2}
\gdef\newlabelxx#1#2#3#4#5#6{\oldnewlabel{#1}{{#2}{#3}}}
\AtEndDocument{\ifx\hyper@anchor\@undefined
\let\contentsline\oldcontentsline
\let\newlabel\oldnewlabel
\fi}
\fi}
\global\let\hyper@last\relax 
\gdef\HyperFirstAtBeginDocument#1{#1}
\providecommand\HyField@AuxAddToFields[1]{}
\providecommand\HyField@AuxAddToCoFields[2]{}
\citation{Swenson2011}
\citation{Asner2013}
\select@language{english}
\@writefile{toc}{\select@language{english}}
\@writefile{lof}{\select@language{english}}
\@writefile{lot}{\select@language{english}}
\@writefile{toc}{\contentsline {section}{\numberline {1}Overview}{1}{section.1}}
\@writefile{toc}{\contentsline {section}{\numberline {2}Background}{1}{section.2}}
\@writefile{lof}{\contentsline {figure}{\numberline {1}{\ignorespaces Royalties distribution before (left panel) and after (right panel) the reform of 2012.}}{1}{figure.1}}
\newlabel{fig:reforma}{{1}{1}{Royalties distribution before (left panel) and after (right panel) the reform of 2012}{figure.1}{}}
\citation{Idrobo2014}
\citation{Santos2014}
\bibstyle{apacite}
\bibdata{bibille}
\bibcite{Asner2013}{\citeauthoryear {Asner, Llactayo, Tupayachi,{}\ \BBA{} Luna}{Asner\ \BOthers {.}}{{\APACyear {2013}}}}
\APACbibcite{Asner2013}{\citeauthoryear {Asner, Llactayo, Tupayachi,{}\ \BBA{} Luna}{Asner\ \BOthers {.}}{{\APACyear {2013}}}}
\bibcite{Idrobo2014}{\citeauthoryear {Idrobo, Mejia,{}\ \BBA{} Tribin}{Idrobo\ \BOthers {.}}{{\APACyear {2014}}}}
\APACbibcite{Idrobo2014}{\citeauthoryear {Idrobo, Mejia,{}\ \BBA{} Tribin}{Idrobo\ \BOthers {.}}{{\APACyear {2014}}}}
\bibcite{Santos2014}{\citeauthoryear {Santos}{Santos}{{\APACyear {2014}}}}
\APACbibcite{Santos2014}{\citeauthoryear {Santos}{Santos}{{\APACyear {2014}}}}
\bibcite{Swenson2011}{\citeauthoryear {Swenson, Carter, Domec,{}\ \BBA{} Delgado}{Swenson\ \BOthers {.}}{{\APACyear {2011}}}}
\APACbibcite{Swenson2011}{\citeauthoryear {Swenson, Carter, Domec,{}\ \BBA{} Delgado}{Swenson\ \BOthers {.}}{{\APACyear {2011}}}}
\@writefile{toc}{\contentsline {section}{\numberline {3}Research plan}{2}{section.3}}
\@writefile{toc}{\contentsline {section}{References}{2}{section*.2}}
