This is BibTeX, Version 0.99dThe top-level auxiliary file: RomeroSaavedra_RoyaltiesMining_PDEL.aux
The style file: apacite.bst
Database file #1: bibille.bib
apacite.bst [2013/07/21 v6.03 APA bibliography style]
