\relax 
\providecommand\hyper@newdestlabel[2]{}
\providecommand\HyperFirstAtBeginDocument{\AtBeginDocument}
\HyperFirstAtBeginDocument{\ifx\hyper@anchor\@undefined
\global\let\oldcontentsline\contentsline
\gdef\contentsline#1#2#3#4{\oldcontentsline{#1}{#2}{#3}}
\global\let\oldnewlabel\newlabel
\gdef\newlabel#1#2{\newlabelxx{#1}#2}
\gdef\newlabelxx#1#2#3#4#5#6{\oldnewlabel{#1}{{#2}{#3}}}
\AtEndDocument{\ifx\hyper@anchor\@undefined
\let\contentsline\oldcontentsline
\let\newlabel\oldnewlabel
\fi}
\fi}
\global\let\hyper@last\relax 
\gdef\HyperFirstAtBeginDocument#1{#1}
\providecommand\HyField@AuxAddToFields[1]{}
\providecommand\HyField@AuxAddToCoFields[2]{}
\select@language{english}
\@writefile{toc}{\select@language{english}}
\@writefile{lof}{\select@language{english}}
\@writefile{lot}{\select@language{english}}
\citation{GAO}
\citation{TGIATOC}
\citation{Banerjeeetal2012}
\citation{MinMinas2003}
\citation{caitreisman2004}
\citation{Khanetal2016}
\citation{Burgess2012}
\citation{Lipscomb2013}
\citation{Eynde2015}
\citation{Bellonietal2012}
\citation{AtheyImbens2016}
\citation{Foster2009}
\citation{Jayachandran2009}
\citation{Henderson2012}
\citation{Guiterasetal}
\citation{faber2016}
\citation{Idrobo2014}
\citation{Romero2015}
\@writefile{toc}{\contentsline {chapter}{\numberline {1}Local incentives and national tax evasion: The response of illegal mining to a tax reform in Colombia}{1}{chapter.1}}
\@writefile{lof}{\addvspace {10\p@ }}
\@writefile{lot}{\addvspace {10\p@ }}
\@writefile{toc}{\contentsline {section}{\numberline {1.1}Introduction}{1}{section.1.1}}
\citation{Asner2013}
\citation{anm2013}
\citation{Fedesarrollo2014}
\citation{TGIATOC}
\citation{Masse2012}
\citation{Rudasetal2013}
\@writefile{toc}{\contentsline {section}{\numberline {1.2}Colombian context and details of the reform}{5}{section.1.2}}
\newlabel{sec:context}{{1.2}{5}{Colombian context and details of the reform}{section.1.2}{}}
\citation{Fedesarrollo2014b}
\citation{Giraldo2013}
\@writefile{toc}{\contentsline {section}{\numberline {1.3}Theoretical framework}{7}{section.1.3}}
\newlabel{sec:model}{{1.3}{7}{Theoretical framework}{section.1.3}{}}
\@writefile{toc}{\contentsline {subsection}{\numberline {1.3.1}Setup}{7}{subsection.1.3.1}}
\citation{Burgess2012}
\@writefile{toc}{\contentsline {subsection}{\numberline {1.3.2}The effect of the reform on illegal mining}{8}{subsection.1.3.2}}
\@writefile{toc}{\contentsline {subsection}{\numberline {1.3.3}Heterogeneous effects of the reform}{9}{subsection.1.3.3}}
\citation{Brolloetal}
\citation{panelcede}
\@writefile{toc}{\contentsline {section}{\numberline {1.4}Data}{11}{section.1.4}}
\newlabel{sec:data}{{1.4}{11}{Data}{section.1.4}{}}
\citation{Hansen_etal}
\citation{Etter2006}
\citation{mlbible}
\@writefile{lot}{\contentsline {table}{\numberline {1.1}{\ignorespaces Summary statistics for municipalities used in the analysis}}{12}{table.1.1}}
\newlabel{tab:sumstats_muni}{{1.1}{12}{Summary statistics for municipalities used in the analysis}{table.1.1}{}}
\@writefile{toc}{\contentsline {subsection}{\numberline {1.4.1}Constructing the illegal mining panel}{12}{subsection.1.4.1}}
\@writefile{lof}{\contentsline {figure}{\numberline {1.1}{\ignorespaces Image of a mine in the municipality of Remedios}}{13}{figure.1.1}}
\newlabel{fig:mine_highres}{{1.1}{13}{Image of a mine in the municipality of Remedios}{figure.1.1}{}}
\@writefile{lof}{\contentsline {figure}{\numberline {1.2}{\ignorespaces ROC curve for the mining prediction model.}}{15}{figure.1.2}}
\newlabel{fig:ROC}{{1.2}{15}{ROC curve for the mining prediction model}{figure.1.2}{}}
\@writefile{toc}{\contentsline {subsection}{\numberline {1.4.2}Econometric analysis of the error term and implications for the optimal cutoff}{15}{subsection.1.4.2}}
\newlabel{subsec:opt_thres}{{1.4.2}{15}{Econometric analysis of the error term and implications for the optimal cutoff}{subsection.1.4.2}{}}
\newlabel{eq:adjpred}{{1.1}{16}{Econometric analysis of the error term and implications for the optimal cutoff}{equation.1.4.1}{}}
\citation{unodc2016}
\citation{mlbible}
\@writefile{lot}{\contentsline {table}{\numberline {1.2}{\ignorespaces Confusion matrix for optimal threshold}}{17}{table.1.2}}
\newlabel{tab:conf_mat}{{1.2}{17}{Confusion matrix for optimal threshold}{table.1.2}{}}
\@writefile{toc}{\contentsline {subsection}{\numberline {1.4.3}From pixel predictions to municipality panel}{17}{subsection.1.4.3}}
\citation{unodc2016}
\citation{Maldonado2014}
\@writefile{lot}{\contentsline {table}{\numberline {1.3}{\ignorespaces Summary statistics, illegal mining municipality panel}}{18}{table.1.3}}
\newlabel{tab:sumstats_regvar}{{1.3}{18}{Summary statistics, illegal mining municipality panel}{table.1.3}{}}
\@writefile{toc}{\contentsline {section}{\numberline {1.5}The effect of the reform on illegal mining}{18}{section.1.5}}
\newlabel{sec:area_results}{{1.5}{18}{The effect of the reform on illegal mining}{section.1.5}{}}
\@writefile{toc}{\contentsline {subsection}{\numberline {1.5.1}Identification strategies}{18}{subsection.1.5.1}}
\newlabel{eq:reg1}{{1.2}{19}{Identification strategies}{equation.1.5.2}{}}
\newlabel{eq:reg2}{{1.3}{20}{Identification strategies}{equation.1.5.3}{}}
\newlabel{eq:reg3}{{1.4}{20}{Identification strategies}{equation.1.5.4}{}}
\@writefile{lof}{\contentsline {figure}{\numberline {1.3}{\ignorespaces Visual representation of parallel trends assumption}}{20}{figure.1.3}}
\newlabel{fig:diff_in_diff_avanzado_minedperu}{{1.3}{20}{Visual representation of parallel trends assumption}{figure.1.3}{}}
\@writefile{toc}{\contentsline {subsection}{\numberline {1.5.2}Main results}{20}{subsection.1.5.2}}
\@writefile{lof}{\contentsline {figure}{\numberline {1.4}{\ignorespaces Evolution of illegal mining in Colombia and Peru}}{21}{figure.1.4}}
\newlabel{fig:diff_in_diff_minedperu}{{1.4}{21}{Evolution of illegal mining in Colombia and Peru}{figure.1.4}{}}
\citation{mlbible}
\citation{Bellonietal2012}
\citation{altonji2005}
\citation{oster2013}
\@writefile{lot}{\contentsline {table}{\numberline {1.4}{\ignorespaces Effect of the reform on illegal mining}}{22}{table.1.4}}
\newlabel{tab:fmined_reg}{{1.4}{22}{Effect of the reform on illegal mining}{table.1.4}{}}
\citation{panelcede}
\citation{Gadenne2016}
\@writefile{lot}{\contentsline {table}{\numberline {1.5}{\ignorespaces Effect of the reform on reported quantity}}{24}{table.1.5}}
\newlabel{tab:prod_reg}{{1.5}{24}{Effect of the reform on reported quantity}{table.1.5}{}}
\@writefile{toc}{\contentsline {subsection}{\numberline {1.5.3}Heterogeneous effects of the reform}{24}{subsection.1.5.3}}
\@writefile{lot}{\contentsline {table}{\numberline {1.6}{\ignorespaces Results with percentage of budget loss}}{26}{table.1.6}}
\newlabel{taba:povertyRD_reg}{{1.6}{26}{Results with percentage of budget loss}{table.1.6}{}}
\citation{anm2013}
\citation{GUIZA2013}
\citation{Olivero2002}
\citation{Davidson2004}
\citation{EPA2013a}
\citation{Black2013}
\citation{cdc2009}
\citation{Moster2001}
\citation{Almond2005}
\citation{Romero2015}
\@writefile{toc}{\contentsline {section}{\numberline {1.6}Health effects}{27}{section.1.6}}
\newlabel{sec:health}{{1.6}{27}{Health effects}{section.1.6}{}}
\@writefile{toc}{\contentsline {subsection}{\numberline {1.6.1}Identification strategies}{28}{subsection.1.6.1}}
\newlabel{eq:reghealth}{{1.5}{28}{Identification strategies}{equation.1.6.5}{}}
\@writefile{toc}{\contentsline {subsection}{\numberline {1.6.2}Results}{29}{subsection.1.6.2}}
\@writefile{lot}{\contentsline {table}{\numberline {1.7}{\ignorespaces First stage predicting illegal mining upstream with the reform}}{29}{table.1.7}}
\newlabel{tab:fs_reg}{{1.7}{29}{First stage predicting illegal mining upstream with the reform}{table.1.7}{}}
\citation{ehrenstein2009}
\citation{psavelez1992}
\@writefile{lot}{\contentsline {table}{\numberline {1.8}{\ignorespaces Instrumental variable estimation with the reform}}{30}{table.1.8}}
\newlabel{tab:healthIV_reg}{{1.8}{30}{Instrumental variable estimation with the reform}{table.1.8}{}}
\@writefile{toc}{\contentsline {section}{\numberline {1.7}Conclusions }{30}{section.1.7}}
\newlabel{sec:conc}{{1.7}{30}{Conclusions}{section.1.7}{}}
\citation{McMahon2014}
\citation{Carson2010}
\citation{Harbaugh2002}
\citation{Almond2006}
\citation{Bharadwaj2013}
\citation{Almond2011}
\citation{Black2007}
\citation{CongresoRepublica2013}
\citation{Moster2001}
\citation{Almond2005}
\citation{Greenstone2015}
\citation{McMahon2001}
\citation{Aragon2015}
\citation{Aragon2013}
\citation{Goltz2014}
\citation{Goltz2014}
\citation{Tolonen2015}
\citation{Goltz2014}
\citation{Tolonen2015}
\citation{Almond2011a}
\citation{Schofield2015}
\@writefile{toc}{\contentsline {chapter}{\numberline {2}The Effects of Gold Mining on Newborns' Health}{32}{chapter.2}}
\@writefile{lof}{\addvspace {10\p@ }}
\@writefile{lot}{\addvspace {10\p@ }}
\@writefile{toc}{\contentsline {section}{\numberline {2.1}Introduction}{32}{section.2.1}}
\citation{Mol2001}
\citation{Pfeiffer1993}
\citation{Veiga1997}
\citation{GUIZA2013}
\citation{Pfeiffer1988}
\citation{Morel1998}
\citation{Mol2001}
\citation{GUIZA2013}
\citation{Olivero2002}
\citation{WHO2013}
\citation{WHO2013}
\citation{Davidson2004}
\citation{Mergler2007}
\citation{Davidson2004}
\citation{Counter2004}
\citation{Clarkson2003}
\citation{Davidson2004}
\citation{EPA2013a}
\citation{Black2013}
\citation{cdc2009}
\citation{Moster2001}
\citation{Almond2005}
\@writefile{toc}{\contentsline {section}{\numberline {2.2}Mercury and human health}{35}{section.2.2}}
\newlabel{sec:rev}{{2.2}{35}{Mercury and human health}{section.2.2}{}}
\@writefile{toc}{\contentsline {subsection}{\numberline {2.2.1}Mercury and amalgamation in gold mining}{35}{subsection.2.2.1}}
\@writefile{toc}{\contentsline {subsection}{\numberline {2.2.2}Health effects of mercury}{35}{subsection.2.2.2}}
\citation{ElEspectador2015}
\citation{ElEspectador2015a}
\citation{Cordy2011}
\citation{WorldBank2009}
\@writefile{toc}{\contentsline {section}{\numberline {2.3}Colombian context and data}{36}{section.2.3}}
\citation{Montgomery2000}
\citation{Ehrenstein2009}
\citation{WHO2006}
\@writefile{toc}{\contentsline {subsection}{\numberline {2.3.1}Data on mining activity}{37}{subsection.2.3.1}}
\newlabel{sec:miningdata}{{2.3.1}{37}{Data on mining activity}{subsection.2.3.1}{}}
\citation{WHO2006}
\@writefile{toc}{\contentsline {subsection}{\numberline {2.3.2}Data on newborns}{38}{subsection.2.3.2}}
\citation{Ibanez2014}
\@writefile{lot}{\contentsline {table}{\numberline {2.1}{\ignorespaces Summary statistics for births}}{39}{table.2.1}}
\newlabel{tab:sumBirths}{{2.1}{39}{Summary statistics for births}{table.2.1}{}}
\@writefile{toc}{\contentsline {section}{\numberline {2.4}Identification strategies}{39}{section.2.4}}
\newlabel{sec:meth_ch2}{{2.4}{39}{Identification strategies}{section.2.4}{}}
\@writefile{toc}{\contentsline {subsection}{\numberline {2.4.1}Spatial exposure to mining}{39}{subsection.2.4.1}}
\newlabel{sec:upstream_exp}{{2.4.1}{39}{Spatial exposure to mining}{subsection.2.4.1}{}}
\newlabel{eq:reg2_ch2}{{2.1}{39}{Spatial exposure to mining}{equation.2.4.1}{}}
\citation{ElColombiano2014}
\newlabel{eq:reg_event2}{{2.2}{40}{Spatial exposure to mining}{equation.2.4.2}{}}
\@writefile{toc}{\contentsline {subsection}{\numberline {2.4.2}Holy Week}{41}{subsection.2.4.2}}
\newlabel{sec:HW}{{2.4.2}{41}{Holy Week}{subsection.2.4.2}{}}
\newlabel{eq:regHW3d}{{2.3}{41}{Holy Week}{equation.2.4.3}{}}
\@writefile{toc}{\contentsline {section}{\numberline {2.5}Results}{42}{section.2.5}}
\newlabel{sec:results_ch2}{{2.5}{42}{Results}{section.2.5}{}}
\@writefile{toc}{\contentsline {subsection}{\numberline {2.5.1}Spatial exposure}{42}{subsection.2.5.1}}
\@writefile{lot}{\contentsline {table}{\numberline {2.2}{\ignorespaces Effect of proximity and river pollution exposure on birth outcomes}}{43}{table.2.2}}
\newlabel{tab:regTrace}{{2.2}{43}{Effect of proximity and river pollution exposure on birth outcomes}{table.2.2}{}}
\@writefile{lof}{\contentsline {figure}{\numberline {2.1}{\ignorespaces }}{44}{figure.2.1}}
\newlabel{fig:event_prox}{{2.1}{44}{}{figure.2.1}{}}
\@writefile{toc}{\contentsline {subsection}{\numberline {2.5.2}Holy Week}{44}{subsection.2.5.2}}
\@writefile{lot}{\contentsline {table}{\numberline {2.3}{\ignorespaces Increased mercury exposure in-utero due to Holy Week fish consumption}}{46}{table.2.3}}
\newlabel{tab:hwreg}{{2.3}{46}{Increased mercury exposure in-utero due to Holy Week fish consumption}{table.2.3}{}}
\@writefile{toc}{\contentsline {section}{\numberline {2.6}Robustness checks}{47}{section.2.6}}
\@writefile{toc}{\contentsline {subsection}{\numberline {2.6.1}Other measures of mining activity}{47}{subsection.2.6.1}}
\@writefile{toc}{\contentsline {subsection}{\numberline {2.6.2}Price of gold}{47}{subsection.2.6.2}}
\@writefile{toc}{\contentsline {subsection}{\numberline {2.6.3}Fiscal effect on municipalities}{47}{subsection.2.6.3}}
\@writefile{toc}{\contentsline {subsection}{\numberline {2.6.4}Birth and mother characteristics}{48}{subsection.2.6.4}}
\@writefile{toc}{\contentsline {subsection}{\numberline {2.6.5}Illegal mining}{48}{subsection.2.6.5}}
\@writefile{toc}{\contentsline {subsection}{\numberline {2.6.6}Using only the centroids of the mines}{49}{subsection.2.6.6}}
\@writefile{toc}{\contentsline {section}{\numberline {2.7}Conclusions and future work}{49}{section.2.7}}
\newlabel{sec:conc_ch2}{{2.7}{49}{Conclusions and future work}{section.2.7}{}}
\@writefile{toc}{\contentsline {chapter}{\numberline {3}The Daily Grind: Cash Needs, Labor Supply and Self-Contro}{50}{chapter.3}}
\@writefile{lof}{\addvspace {10\p@ }}
\@writefile{lot}{\addvspace {10\p@ }}
\@writefile{toc}{\contentsline {section}{\numberline {3.1}Introduction}{50}{section.3.1}}
\newlabel{sec:Sample-and-Data}{{3.2}{53}{Sample and Data}{section.3.2}{}}
\@writefile{toc}{\contentsline {section}{\numberline {3.2}Sample and Data}{53}{section.3.2}}
\newlabel{sub:Bike-Taxi-Driving}{{3.2.1}{53}{Bike-Taxi Driving}{subsection.3.2.1}{}}
\@writefile{toc}{\contentsline {subsection}{\numberline {3.2.1}Bike-Taxi Driving}{53}{subsection.3.2.1}}
\@writefile{toc}{\contentsline {subsection}{\numberline {3.2.2}Sampling Frame}{54}{subsection.3.2.2}}
\@writefile{toc}{\contentsline {subsection}{\numberline {3.2.3}Data}{54}{subsection.3.2.3}}
\@writefile{toc}{\contentsline {subsubsection}{Baseline Survey}{54}{section*.4}}
\@writefile{toc}{\contentsline {subsubsection}{Logs}{55}{section*.5}}
\@writefile{toc}{\contentsline {subsection}{\numberline {3.2.4}Experimental Income Shocks}{56}{subsection.3.2.4}}
\@writefile{toc}{\contentsline {subsection}{\numberline {3.2.5}Sample Characteristics}{56}{subsection.3.2.5}}
\@writefile{toc}{\contentsline {subsection}{\numberline {3.2.6}Summary Statistics from Logs}{57}{subsection.3.2.6}}
\@writefile{toc}{\contentsline {subsection}{\numberline {3.2.7}Correlates of needs}{58}{subsection.3.2.7}}
\newlabel{sec:Results}{{3.3}{60}{Results}{section.3.3}{}}
\@writefile{toc}{\contentsline {section}{\numberline {3.3}Results}{60}{section.3.3}}
\@writefile{toc}{\contentsline {subsection}{\numberline {3.3.1}Reduced form: Daily life events and labor supply}{60}{subsection.3.3.1}}
\newlabel{eq:2}{{3.2}{60}{Reduced form: Daily life events and labor supply}{equation.3.3.2}{}}
\@writefile{toc}{\contentsline {subsection}{\numberline {3.3.2}Reported Cash Need and Daily Labor Supply}{61}{subsection.3.3.2}}
\@writefile{toc}{\contentsline {subsubsection}{Cross-Sectional Evidence}{61}{section*.6}}
\@writefile{toc}{\contentsline {subsubsection}{Within-Driver Variation Across Days}{61}{section*.7}}
\@writefile{toc}{\contentsline {subsubsection}{Within-Driver, Within-Day Hazard Analysis}{63}{section*.8}}
\newlabel{eq:4}{{3.4}{64}{Within-Driver, Within-Day Hazard Analysis}{equation.3.3.4}{}}
\@writefile{toc}{\contentsline {subsection}{\numberline {3.3.3}Labor supply responses to earning opportunities}{65}{subsection.3.3.3}}
\newlabel{eq:5}{{3.5}{66}{Labor supply responses to earning opportunities}{equation.3.3.5}{}}
\newlabel{eq:6}{{3.6}{66}{Labor supply responses to earning opportunities}{equation.3.3.6}{}}
\newlabel{sec:Theoretical-CalibrationTheoretic-1}{{3.4}{68}{Economic Significance and Rationale}{section.3.4}{}}
\@writefile{toc}{\contentsline {section}{\numberline {3.4}Economic Significance and Rationale }{68}{section.3.4}}
\@writefile{toc}{\contentsline {subsection}{\numberline {3.4.1}Time costs of targeting}{68}{subsection.3.4.1}}
\@writefile{toc}{\contentsline {subsection}{\numberline {3.4.2}Proposed Model: Earned Income Targeting as Morphine}{68}{subsection.3.4.2}}
\@writefile{toc}{\contentsline {subsection}{\numberline {3.4.3}Calibration}{71}{subsection.3.4.3}}
\@writefile{toc}{\contentsline {subsection}{\numberline {3.4.4}Simulation Results}{72}{subsection.3.4.4}}
\newlabel{sub:Who-is-a}{{3.4.5}{75}{Who is a target earner?}{subsection.3.4.5}{}}
\@writefile{toc}{\contentsline {subsection}{\numberline {3.4.5}Who is a target earner?}{75}{subsection.3.4.5}}
\newlabel{sec:Alternate-hypotheses}{{3.5}{75}{Alternate hypotheses}{section.3.5}{}}
\@writefile{toc}{\contentsline {section}{\numberline {3.5}Alternate hypotheses}{75}{section.3.5}}
\@writefile{toc}{\contentsline {subsection}{\numberline {3.5.1}Risk Sharing}{76}{subsection.3.5.1}}
\@writefile{toc}{\contentsline {subsection}{\numberline {3.5.2}Intra-Household Issues}{76}{subsection.3.5.2}}
\newlabel{sec:DiscussionConclusion}{{3.6}{77}{Conclusion}{section.3.6}{}}
\@writefile{toc}{\contentsline {section}{\numberline {3.6}Conclusion}{77}{section.3.6}}
\@writefile{toc}{\contentsline {chapter}{\numberline {A}Appendix to Chapter 1}{91}{Appendix.1.A}}
\@writefile{lof}{\addvspace {10\p@ }}
\@writefile{lot}{\addvspace {10\p@ }}
\@writefile{toc}{\contentsline {section}{\numberline {A.1}Additional Figures and Tables}{91}{section.1.A.1}}
\newlabel{sec:exttab}{{A.1}{91}{Additional Figures and Tables}{section.1.A.1}{}}
\@writefile{lof}{\contentsline {figure}{\numberline {A.1}{\ignorespaces Theoretical predictions of the income effect of the reform}}{91}{figure.1.A.1}}
\newlabel{figa:th_model}{{A.1}{91}{Theoretical predictions of the income effect of the reform}{figure.1.A.1}{}}
\@writefile{lot}{\contentsline {table}{\numberline {A.1}{\ignorespaces Production of mineral commodities in 2013 }}{92}{table.1.A.1}}
\newlabel{taba:minby_country}{{A.1}{92}{Production of mineral commodities in 2013}{table.1.A.1}{}}
\@writefile{lot}{\contentsline {table}{\numberline {A.2}{\ignorespaces Summary statistics illegal mining as fraction of total municipality area}}{92}{table.1.A.2}}
\newlabel{taba:sumstats_ftotal}{{A.2}{92}{Summary statistics illegal mining as fraction of total municipality area}{table.1.A.2}{}}
\newlabel{fig:hetplot}{{A.2}{93}{Additional Figures and Tables}{figure.1.A.2}{}}
\@writefile{lof}{\contentsline {figure}{\numberline {A.2}{\ignorespaces Heterogeneous effects of the reform by different municipal characteristics}}{93}{figure.1.A.2}}
\@writefile{lot}{\contentsline {table}{\numberline {A.3}{\ignorespaces Results selecting optimal controls with Lasso style procedure}}{93}{table.1.A.3}}
\newlabel{taba:reg_newarea}{{A.3}{93}{Results selecting optimal controls with Lasso style procedure}{table.1.A.3}{}}
\@writefile{lot}{\contentsline {table}{\numberline {A.4}{\ignorespaces Results municipalities closer to the Colombian-Peru border}}{94}{table.1.A.4}}
\newlabel{taba:reg_peruRD}{{A.4}{94}{Results municipalities closer to the Colombian-Peru border}{table.1.A.4}{}}
\@writefile{lot}{\contentsline {table}{\numberline {A.5}{\ignorespaces Results using different cutoff for mining predictions}}{94}{table.1.A.5}}
\newlabel{taba:reg_c12}{{A.5}{94}{Results using different cutoff for mining predictions}{table.1.A.5}{}}
\@writefile{lot}{\contentsline {table}{\numberline {A.6}{\ignorespaces Results using pixels mined probabilities}}{95}{table.1.A.6}}
\newlabel{taba:reg_probpixmined}{{A.6}{95}{Results using pixels mined probabilities}{table.1.A.6}{}}
\@writefile{lot}{\contentsline {table}{\numberline {A.7}{\ignorespaces Results selecting optimal controls with Lasso style procedure}}{95}{table.1.A.7}}
\newlabel{taba:lasso}{{A.7}{95}{Results selecting optimal controls with Lasso style procedure}{table.1.A.7}{}}
\@writefile{lot}{\contentsline {table}{\numberline {A.8}{\ignorespaces Results using the adjusted measure of illegal mining}}{96}{table.1.A.8}}
\newlabel{taba:reg_adj}{{A.8}{96}{Results using the adjusted measure of illegal mining}{table.1.A.8}{}}
\@writefile{lot}{\contentsline {table}{\numberline {A.9}{\ignorespaces Results using other measures of illegal mining}}{97}{table.1.A.9}}
\newlabel{taba:reg_otherm}{{A.9}{97}{Results using other measures of illegal mining}{table.1.A.9}{}}
\@writefile{lot}{\contentsline {table}{\numberline {A.10}{\ignorespaces Results using weights by fraction of municipality analyzed}}{97}{table.1.A.10}}
\newlabel{taba:reg_weights}{{A.10}{97}{Results using weights by fraction of municipality analyzed}{table.1.A.10}{}}
\citation{Romero2015}
\@writefile{lot}{\contentsline {table}{\numberline {A.11}{\ignorespaces Results using state trends}}{98}{table.1.A.11}}
\newlabel{taba:reg_deptr}{{A.11}{98}{Results using state trends}{table.1.A.11}{}}
\@writefile{lot}{\contentsline {table}{\numberline {A.12}{\ignorespaces Differential health effects of legal and illegal mines}}{99}{table.1.A.12}}
\newlabel{tab:health_reg}{{A.12}{99}{Differential health effects of legal and illegal mines}{table.1.A.12}{}}
\@writefile{lot}{\contentsline {table}{\numberline {A.13}{\ignorespaces Differential health effects of legal and illegal mines}}{100}{table.1.A.13}}
\newlabel{taba:healthsize_reg}{{A.13}{100}{Differential health effects of legal and illegal mines}{table.1.A.13}{}}
\@writefile{toc}{\contentsline {section}{\numberline {A.2}Constructing the illegal mining data}{101}{section.1.A.2}}
\newlabel{sec:ilegaldata}{{A.2}{101}{Constructing the illegal mining data}{section.1.A.2}{}}
\newlabel{fig:pathrows}{{A.3}{101}{Constructing the illegal mining data}{figure.1.A.3}{}}
\@writefile{lof}{\contentsline {figure}{\numberline {A.3}{\ignorespaces Scenes (Path,row) from LANDSAT 7 covering Colombia}}{101}{figure.1.A.3}}
\citation{Jensen2007}
\@writefile{lof}{\contentsline {figure}{\numberline {A.4}{\ignorespaces }}{102}{figure.1.A.4}}
\newlabel{fig:res_ex}{{A.4}{102}{}{figure.1.A.4}{}}
\citation{Hansen_etal}
\citation{Etter2006}
\@writefile{lof}{\contentsline {figure}{\numberline {A.5}{\ignorespaces Visual representation of transforming the satellite data into a data frame }}{103}{figure.1.A.5}}
\newlabel{figa:raster_to_df}{{A.5}{103}{Visual representation of transforming the satellite data into a data frame}{figure.1.A.5}{}}
\@writefile{lof}{\contentsline {figure}{\numberline {A.6}{\ignorespaces Visual representation of training and testing data }}{104}{figure.1.A.6}}
\newlabel{figa:training_testing}{{A.6}{104}{Visual representation of training and testing data}{figure.1.A.6}{}}
\@writefile{lof}{\contentsline {figure}{\numberline {A.7}{\ignorespaces }}{105}{figure.1.A.7}}
\newlabel{fig:rf_varimportance}{{A.7}{105}{}{figure.1.A.7}{}}
\@writefile{lof}{\contentsline {figure}{\numberline {A.8}{\ignorespaces ROC curve for the mining prediction model trained with UNODC data.}}{106}{figure.1.A.8}}
\newlabel{fig:ROC_unodc}{{A.8}{106}{ROC curve for the mining prediction model trained with UNODC data}{figure.1.A.8}{}}
\@writefile{toc}{\contentsline {subsection}{\numberline {A.2.1}Weak law of large numbers for correlated Bernoulli's random variables among pixels}{106}{subsection.1.A.2.1}}
\citation{AtheyImbens2016}
\@writefile{toc}{\contentsline {section}{\numberline {A.3}Further analysis}{107}{section.1.A.3}}
\@writefile{toc}{\contentsline {subsection}{\numberline {A.3.1}Heterogeneous treatment effects in loser municipalities}{107}{subsection.1.A.3.1}}
\@writefile{lot}{\contentsline {table}{\numberline {A.14}{\ignorespaces Heterogeneous effects of the reform in loser municipalities}}{108}{table.1.A.14}}
\newlabel{tab:CFleaf_reg}{{A.14}{108}{Heterogeneous effects of the reform in loser municipalities}{table.1.A.14}{}}
\@writefile{toc}{\contentsline {subsection}{\numberline {A.3.2}Positive effects of the reform?}{108}{subsection.1.A.3.2}}
\@writefile{lot}{\contentsline {table}{\numberline {A.15}{\ignorespaces Change in infant mortality rate}}{109}{table.1.A.15}}
\newlabel{taba:tmi_reg}{{A.15}{109}{Change in infant mortality rate}{table.1.A.15}{}}
\@writefile{toc}{\contentsline {subsection}{\numberline {A.3.3}Effects on municipalities with mineral resources and prone to satellite detection}{109}{subsection.1.A.3.3}}
\@writefile{lot}{\contentsline {table}{\numberline {A.16}{\ignorespaces Results by satellite-prone municipalities}}{110}{table.1.A.16}}
\newlabel{taba:satprone_reg}{{A.16}{110}{Results by satellite-prone municipalities}{table.1.A.16}{}}
\@writefile{toc}{\contentsline {subsection}{\numberline {A.3.4}Endogenous response of municipalities to budget change}{110}{subsection.1.A.3.4}}
\@writefile{lot}{\contentsline {table}{\numberline {A.17}{\ignorespaces Endogenous response of municipalities to budget change}}{111}{table.1.A.17}}
\newlabel{taba:tribut_reg}{{A.17}{111}{Endogenous response of municipalities to budget change}{table.1.A.17}{}}
\@writefile{toc}{\contentsline {section}{\numberline {A.4}Online Appendix}{112}{section.1.A.4}}
\@writefile{lof}{\contentsline {figure}{\numberline {A.9}{\ignorespaces Evolution of illegal mining by winners and losers with the reform}}{112}{figure.1.A.9}}
\newlabel{fig:diff_in_diff_basico}{{A.9}{112}{Evolution of illegal mining by winners and losers with the reform}{figure.1.A.9}{}}
\@writefile{lot}{\contentsline {table}{\numberline {A.18}{\ignorespaces Summary statistics for municipalities separated by whether it was censused}}{113}{table.1.A.18}}
\newlabel{tab:sumstats_censed}{{A.18}{113}{Summary statistics for municipalities separated by whether it was censused}{table.1.A.18}{}}
\@writefile{lot}{\contentsline {table}{\numberline {A.19}{\ignorespaces Heterogeneous effects of the reform}}{114}{table.1.A.19}}
\newlabel{taba:het1_reg}{{A.19}{114}{Heterogeneous effects of the reform}{table.1.A.19}{}}
\@writefile{lot}{\contentsline {table}{\numberline {A.20}{\ignorespaces Heterogeneous effects of the reform}}{115}{table.1.A.20}}
\newlabel{taba:het2_reg}{{A.20}{115}{Heterogeneous effects of the reform}{table.1.A.20}{}}
\@writefile{lot}{\contentsline {table}{\numberline {A.21}{\ignorespaces Change in armed groups homicide rate}}{116}{table.1.A.21}}
\newlabel{taboa:thomag_reg}{{A.21}{116}{Change in armed groups homicide rate}{table.1.A.21}{}}
\@writefile{lot}{\contentsline {table}{\numberline {A.22}{\ignorespaces Change in armed groups homicide rate}}{116}{table.1.A.22}}
\newlabel{taboa:thomag_creg}{{A.22}{116}{Change in armed groups homicide rate}{table.1.A.22}{}}
\@writefile{lot}{\contentsline {table}{\numberline {A.23}{\ignorespaces Change in armed groups homicide rate}}{117}{table.1.A.23}}
\newlabel{taboa:homag_reg}{{A.23}{117}{Change in armed groups homicide rate}{table.1.A.23}{}}
\@writefile{lot}{\contentsline {table}{\numberline {A.24}{\ignorespaces Change in armed groups homicide rate}}{117}{table.1.A.24}}
\newlabel{taboa:homag_creg}{{A.24}{117}{Change in armed groups homicide rate}{table.1.A.24}{}}
\citation{Bose-OReilly2010}
\@writefile{toc}{\contentsline {chapter}{\numberline {B}Appendix to Chapter 2}{118}{Appendix.1.B}}
\@writefile{lof}{\addvspace {10\p@ }}
\@writefile{lot}{\addvspace {10\p@ }}
\@writefile{toc}{\contentsline {section}{\numberline {B.1}Continuous measures of pollution}{118}{section.1.B.1}}
\@writefile{toc}{\contentsline {section}{\numberline {B.2}Extra Tables}{120}{section.1.B.2}}
\newlabel{sec:exttab_ch2}{{B.2}{120}{Extra Tables}{section.1.B.2}{}}
\@writefile{lot}{\contentsline {table}{\numberline {B.1}{\ignorespaces Other measures of mining activity on birth outcomes}}{120}{table.1.B.1}}
\newlabel{tab:othermeas}{{B.1}{120}{Other measures of mining activity on birth outcomes}{table.1.B.1}{}}
\@writefile{lot}{\contentsline {table}{\numberline {B.2}{\ignorespaces Net effect of mining on APGAR scores for different measures of mining interacted with gold price}}{121}{table.1.B.2}}
\newlabel{tab:regprice}{{B.2}{121}{Net effect of mining on APGAR scores for different measures of mining interacted with gold price}{table.1.B.2}{}}
\@writefile{lot}{\contentsline {table}{\numberline {B.3}{\ignorespaces Effect of mining on muncipality budget and royaltie's income}}{122}{table.1.B.3}}
\newlabel{tab:regfiscal}{{B.3}{122}{Effect of mining on muncipality budget and royaltie's income}{table.1.B.3}{}}
\@writefile{lot}{\contentsline {table}{\numberline {B.4}{\ignorespaces Effect of mining on mother characteristics}}{123}{table.1.B.4}}
\newlabel{tab:mom_char_mining1}{{B.4}{123}{Effect of mining on mother characteristics}{table.1.B.4}{}}
\@writefile{lot}{\contentsline {table}{\numberline {B.5}{\ignorespaces Effect of mining on birth outcomes by illegal mining}}{124}{table.1.B.5}}
\newlabel{tab:illegalmeassure}{{B.5}{124}{Effect of mining on birth outcomes by illegal mining}{table.1.B.5}{}}
\@writefile{lot}{\contentsline {table}{\numberline {B.6}{\ignorespaces Summary statistics for mines}}{124}{table.1.B.6}}
\newlabel{tab:sumMines}{{B.6}{124}{Summary statistics for mines}{table.1.B.6}{}}
\@writefile{lot}{\contentsline {table}{\numberline {B.7}{\ignorespaces Effect of proximity and river pollution exposure on birth outcomes: Continous outcomes}}{125}{table.1.B.7}}
\newlabel{tab:main_cont}{{B.7}{125}{Effect of proximity and river pollution exposure on birth outcomes: Continous outcomes}{table.1.B.7}{}}
\@writefile{lot}{\contentsline {table}{\numberline {B.8}{\ignorespaces Effect of proximity and river pollution exposure on birth outcomes: Intensive margin}}{125}{table.1.B.8}}
\newlabel{tab:regIndividualMeasure}{{B.8}{125}{Effect of proximity and river pollution exposure on birth outcomes: Intensive margin}{table.1.B.8}{}}
\@writefile{lot}{\contentsline {table}{\numberline {B.9}{\ignorespaces Effect of proximity and river pollution exposure on birth outcomes}}{126}{table.1.B.9}}
\newlabel{tab:regTrace_Cent}{{B.9}{126}{Effect of proximity and river pollution exposure on birth outcomes}{table.1.B.9}{}}
\@writefile{toc}{\contentsline {section}{\numberline {B.3}Extra Figures}{127}{section.1.B.3}}
\newlabel{sec:extfig}{{B.3}{127}{Extra Figures}{section.1.B.3}{}}
\@writefile{lof}{\contentsline {figure}{\numberline {B.1}{\ignorespaces }}{127}{figure.1.B.1}}
\newlabel{fig:evolSalud}{{B.1}{127}{}{figure.1.B.1}{}}
\@writefile{lof}{\contentsline {figure}{\numberline {B.2}{\ignorespaces }}{128}{figure.1.B.2}}
\newlabel{fig:evol_mineria1}{{B.2}{128}{}{figure.1.B.2}{}}
\@writefile{lof}{\contentsline {figure}{\numberline {B.4}{\ignorespaces Proportion of births near and downstream from a mine - 5 KM buffer}}{129}{figure.1.B.4}}
\newlabel{fig:prop5}{{B.4}{129}{Proportion of births near and downstream from a mine - 5 KM buffer}{figure.1.B.4}{}}
\@writefile{lof}{\contentsline {figure}{\numberline {B.3}{\ignorespaces }}{129}{figure.1.B.3}}
\newlabel{fig:evol_mineria2}{{B.3}{129}{}{figure.1.B.3}{}}
\@writefile{lof}{\contentsline {figure}{\numberline {B.5}{\ignorespaces Proportion of births near and downstream from a mine - 10 KM buffer}}{130}{figure.1.B.5}}
\newlabel{fig:prop10}{{B.5}{130}{Proportion of births near and downstream from a mine - 10 KM buffer}{figure.1.B.5}{}}
\@writefile{lof}{\contentsline {figure}{\numberline {B.6}{\ignorespaces Proportion of births near and downstream from a mine - 20 KM buffer}}{130}{figure.1.B.6}}
\newlabel{fig:prop20}{{B.6}{130}{Proportion of births near and downstream from a mine - 20 KM buffer}{figure.1.B.6}{}}
\@writefile{toc}{\contentsline {subsection}{\numberline {B.3.1}Impacts of different levels of mining}{131}{subsection.1.B.3.1}}
\newlabel{eq:regdeciles}{{B.1}{131}{Impacts of different levels of mining}{equation.1.B.3.1}{}}
\@writefile{lof}{\contentsline {figure}{\numberline {B.7}{\ignorespaces Mined area and APGAR}}{132}{figure.1.B.7}}
\newlabel{fig:deciles}{{B.7}{132}{Mined area and APGAR}{figure.1.B.7}{}}
\@writefile{toc}{\contentsline {chapter}{\numberline {C}Appendix to Chapter 3}{133}{Appendix.1.C}}
\@writefile{lof}{\addvspace {10\p@ }}
\@writefile{lot}{\addvspace {10\p@ }}
\citation{*}
\bibstyle{apacite}
\bibdata{Bibliography}
\bibcite{a2011}{\citeauthoryear {Abeler\ \BBA{} Huffman}{Abeler\ \BBA{} Huffman}{{\APACyear {2011}}}}
\APACbibcite{a2011}{\citeauthoryear {Abeler\ \BBA{} Huffman}{Abeler\ \BBA{} Huffman}{{\APACyear {2011}}}}
\bibcite{panelcede}{\citeauthoryear {Acevedo\ \BBA{} Bornacelly}{Acevedo\ \BBA{} Bornacelly}{{\APACyear {2014}}}}
\APACbibcite{panelcede}{\citeauthoryear {Acevedo\ \BBA{} Bornacelly}{Acevedo\ \BBA{} Bornacelly}{{\APACyear {2014}}}}
\bibcite{a2015}{\citeauthoryear {Agarwal, Diao, Pan,{}\ \BBA{} Sing}{Agarwal\ \BOthers {.}}{{\APACyear {2015}}}}
\APACbibcite{a2015}{\citeauthoryear {Agarwal, Diao, Pan,{}\ \BBA{} Sing}{Agarwal\ \BOthers {.}}{{\APACyear {2015}}}}
\bibcite{anm2013}{\citeauthoryear {{Agencia Nacional Minera}}{{Agencia Nacional Minera}}{{\APACyear {2013}}}}
\APACbibcite{anm2013}{\citeauthoryear {{Agencia Nacional Minera}}{{Agencia Nacional Minera}}{{\APACyear {2013}}}}
\bibcite{Alatasetal2016}{\citeauthoryear {Alatas, Banerjee, Chandrasekhar, Hanna,{}\ \BBA{} Olken}{Alatas\ \BOthers {.}}{{\APACyear {2016}}}}
\APACbibcite{Alatasetal2016}{\citeauthoryear {Alatas, Banerjee, Chandrasekhar, Hanna,{}\ \BBA{} Olken}{Alatas\ \BOthers {.}}{{\APACyear {2016}}}}
\bibcite{Allen2015}{\citeauthoryear {Allen, Dechow, Pope,{}\ \BBA{} Wu}{Allen\ \BOthers {.}}{{\APACyear {2015}}}}
\APACbibcite{Allen2015}{\citeauthoryear {Allen, Dechow, Pope,{}\ \BBA{} Wu}{Allen\ \BOthers {.}}{{\APACyear {2015}}}}
\bibcite{Almond2006}{\citeauthoryear {Almond}{Almond}{{\APACyear {2006}}}}
\APACbibcite{Almond2006}{\citeauthoryear {Almond}{Almond}{{\APACyear {2006}}}}
\bibcite{Almond2005}{\citeauthoryear {Almond, Chay,{}\ \BBA{} Lee}{Almond\ \BOthers {.}}{{\APACyear {2005}}}}
\APACbibcite{Almond2005}{\citeauthoryear {Almond, Chay,{}\ \BBA{} Lee}{Almond\ \BOthers {.}}{{\APACyear {2005}}}}
\bibcite{Almond2011}{\citeauthoryear {Almond\ \BBA{} Currie}{Almond\ \BBA{} Currie}{{\APACyear {2011}}}}
\APACbibcite{Almond2011}{\citeauthoryear {Almond\ \BBA{} Currie}{Almond\ \BBA{} Currie}{{\APACyear {2011}}}}
\bibcite{Almond2011a}{\citeauthoryear {Almond\ \BBA{} Mazumder}{Almond\ \BBA{} Mazumder}{{\APACyear {2011}}}}
\APACbibcite{Almond2011a}{\citeauthoryear {Almond\ \BBA{} Mazumder}{Almond\ \BBA{} Mazumder}{{\APACyear {2011}}}}
\bibcite{altonji2005}{\citeauthoryear {Altonji, Elder,{}\ \BBA{} Taber}{Altonji\ \BOthers {.}}{{\APACyear {2005}}}}
\APACbibcite{altonji2005}{\citeauthoryear {Altonji, Elder,{}\ \BBA{} Taber}{Altonji\ \BOthers {.}}{{\APACyear {2005}}}}
\@writefile{toc}{\contentsline {chapter}{References}{149}{chapter*.14}}
\@writefile{toc}{\contentsline {chapter}{References}{149}{section*.15}}
\bibcite{a2014}{\citeauthoryear {Andersen, Brandon, Gneezy,{}\ \BBA{} List}{Andersen\ \BOthers {.}}{{\APACyear {2014}}}}
\APACbibcite{a2014}{\citeauthoryear {Andersen, Brandon, Gneezy,{}\ \BBA{} List}{Andersen\ \BOthers {.}}{{\APACyear {2014}}}}
\bibcite{AngristKugler2008}{\citeauthoryear {Angrist\ \BBA{} Kugler}{Angrist\ \BBA{} Kugler}{{\APACyear {2008}}}}
\APACbibcite{AngristKugler2008}{\citeauthoryear {Angrist\ \BBA{} Kugler}{Angrist\ \BBA{} Kugler}{{\APACyear {2008}}}}
\bibcite{Aragon2013}{\citeauthoryear {Arag\'{o}n\ \BBA{} Rud}{Arag\'{o}n\ \BBA{} Rud}{{\APACyear {2013}}}}
\APACbibcite{Aragon2013}{\citeauthoryear {Arag\'{o}n\ \BBA{} Rud}{Arag\'{o}n\ \BBA{} Rud}{{\APACyear {2013}}}}
\bibcite{Aragon2015}{\citeauthoryear {Arag\'{o}n\ \BBA{} Rud}{Arag\'{o}n\ \BBA{} Rud}{{\APACyear {2015}}}}
\APACbibcite{Aragon2015}{\citeauthoryear {Arag\'{o}n\ \BBA{} Rud}{Arag\'{o}n\ \BBA{} Rud}{{\APACyear {2015}}}}
\bibcite{Asner2013}{\citeauthoryear {Asner, Llactayo, Tupayachi,{}\ \BBA{} Luna}{Asner\ \BOthers {.}}{{\APACyear {2013}}}}
\APACbibcite{Asner2013}{\citeauthoryear {Asner, Llactayo, Tupayachi,{}\ \BBA{} Luna}{Asner\ \BOthers {.}}{{\APACyear {2013}}}}
\bibcite{AtheyImbens2016}{\citeauthoryear {Athey\ \BBA{} Imbens}{Athey\ \BBA{} Imbens}{{\APACyear {2016}}}}
\APACbibcite{AtheyImbens2016}{\citeauthoryear {Athey\ \BBA{} Imbens}{Athey\ \BBA{} Imbens}{{\APACyear {2016}}}}
\bibcite{Attfield2008}{\citeauthoryear {Attfield\ \BBA{} Kuempel}{Attfield\ \BBA{} Kuempel}{{\APACyear {2008}}}}
\APACbibcite{Attfield2008}{\citeauthoryear {Attfield\ \BBA{} Kuempel}{Attfield\ \BBA{} Kuempel}{{\APACyear {2008}}}}
\bibcite{aetal2015}{\citeauthoryear {Augenblick, Niederle,{}\ \BBA{} Sprenger}{Augenblick\ \BOthers {.}}{{\APACyear {2015}}}}
\APACbibcite{aetal2015}{\citeauthoryear {Augenblick, Niederle,{}\ \BBA{} Sprenger}{Augenblick\ \BOthers {.}}{{\APACyear {2015}}}}
\bibcite{Banerjeeetal2012}{\citeauthoryear {Banerjee, Mullainathan,{}\ \BBA{} Hanna}{Banerjee\ \BOthers {.}}{{\APACyear {2012}}}}
\APACbibcite{Banerjeeetal2012}{\citeauthoryear {Banerjee, Mullainathan,{}\ \BBA{} Hanna}{Banerjee\ \BOthers {.}}{{\APACyear {2012}}}}
\bibcite{Bastos2006}{\citeauthoryear {Bastos\ \BOthers {.}}{Bastos\ \BOthers {.}}{{\APACyear {2006}}}}
\APACbibcite{Bastos2006}{\citeauthoryear {Bastos\ \BOthers {.}}{Bastos\ \BOthers {.}}{{\APACyear {2006}}}}
\bibcite{BDG2012}{\citeauthoryear {{Behre Dolbear Group}}{{Behre Dolbear Group}}{{\APACyear {2012}}}}
\APACbibcite{BDG2012}{\citeauthoryear {{Behre Dolbear Group}}{{Behre Dolbear Group}}{{\APACyear {2012}}}}
\bibcite{Bellonietal2012}{\citeauthoryear {Belloni, Chernozhukov,{}\ \BBA{} Hansen}{Belloni\ \BOthers {.}}{{\APACyear {2014}}}}
\APACbibcite{Bellonietal2012}{\citeauthoryear {Belloni, Chernozhukov,{}\ \BBA{} Hansen}{Belloni\ \BOthers {.}}{{\APACyear {2014}}}}
\bibcite{Bharadwaj2013}{\citeauthoryear {Bharadwaj, L{\o }ken,{}\ \BBA{} Neilson}{Bharadwaj\ \BOthers {.}}{{\APACyear {2013}}}}
\APACbibcite{Bharadwaj2013}{\citeauthoryear {Bharadwaj, L{\o }ken,{}\ \BBA{} Neilson}{Bharadwaj\ \BOthers {.}}{{\APACyear {2013}}}}
\bibcite{Black2013}{\citeauthoryear {Black, B\"{u}tikofer, Devereux,{}\ \BBA{} Salvanes}{Black\ \BOthers {.}}{{\APACyear {2013}}}}
\APACbibcite{Black2013}{\citeauthoryear {Black, B\"{u}tikofer, Devereux,{}\ \BBA{} Salvanes}{Black\ \BOthers {.}}{{\APACyear {2013}}}}
\bibcite{Black2007}{\citeauthoryear {Black, Devereux,{}\ \BBA{} Salvanes}{Black\ \BOthers {.}}{{\APACyear {2007}}}}
\APACbibcite{Black2007}{\citeauthoryear {Black, Devereux,{}\ \BBA{} Salvanes}{Black\ \BOthers {.}}{{\APACyear {2007}}}}
\bibcite{b2004}{\citeauthoryear {Bonabou\ \BBA{} Tirole}{Bonabou\ \BBA{} Tirole}{{\APACyear {2004}}}}
\APACbibcite{b2004}{\citeauthoryear {Bonabou\ \BBA{} Tirole}{Bonabou\ \BBA{} Tirole}{{\APACyear {2004}}}}
\bibcite{Bose-OReilly2010}{\citeauthoryear {Bose-O'Reilly\ \BOthers {.}}{Bose-O'Reilly\ \BOthers {.}}{{\APACyear {2010}}}}
\APACbibcite{Bose-OReilly2010}{\citeauthoryear {Bose-O'Reilly\ \BOthers {.}}{Bose-O'Reilly\ \BOthers {.}}{{\APACyear {2010}}}}
\bibcite{Bose-OReilly2008}{\citeauthoryear {Bose-OReilly, Lettmeier, Gothe,{}\ \BOthers {.}}{Bose-OReilly, Lettmeier, Gothe,{}\ \BOthers {.}}{{\APACyear {2008}}}}
\APACbibcite{Bose-OReilly2008}{\citeauthoryear {Bose-OReilly, Lettmeier, Gothe,{}\ \BOthers {.}}{Bose-OReilly, Lettmeier, Gothe,{}\ \BOthers {.}}{{\APACyear {2008}}}}
\bibcite{Bose-OReilly2008a}{\citeauthoryear {Bose-OReilly, Lettmeier, Roider, Siebert,{}\ \BBA{} Drasch}{Bose-OReilly, Lettmeier, Roider,{}\ \BOthers {.}}{{\APACyear {2008}}}}
\APACbibcite{Bose-OReilly2008a}{\citeauthoryear {Bose-OReilly, Lettmeier, Roider, Siebert,{}\ \BBA{} Drasch}{Bose-OReilly, Lettmeier, Roider,{}\ \BOthers {.}}{{\APACyear {2008}}}}
\bibcite{Brolloetal}{\citeauthoryear {Brollo, Nannicini, Perotti,{}\ \BBA{} Tabellini}{Brollo\ \BOthers {.}}{{\APACyear {2013}}}}
\APACbibcite{Brolloetal}{\citeauthoryear {Brollo, Nannicini, Perotti,{}\ \BBA{} Tabellini}{Brollo\ \BOthers {.}}{{\APACyear {2013}}}}
\bibcite{Burgess2012}{\citeauthoryear {Burgess, Hansen, Olken, Potapov,{}\ \BBA{} Sieber}{Burgess\ \BOthers {.}}{{\APACyear {2012}}}}
\APACbibcite{Burgess2012}{\citeauthoryear {Burgess, Hansen, Olken, Potapov,{}\ \BBA{} Sieber}{Burgess\ \BOthers {.}}{{\APACyear {2012}}}}
\bibcite{Burligetal2016}{\citeauthoryear {Burlig, Knittel, Rapson, Reguant,{}\ \BBA{} Wolfram}{Burlig\ \BOthers {.}}{{\APACyear {2016}}}}
\APACbibcite{Burligetal2016}{\citeauthoryear {Burlig, Knittel, Rapson, Reguant,{}\ \BBA{} Wolfram}{Burlig\ \BOthers {.}}{{\APACyear {2016}}}}
\bibcite{caitreisman2004}{\citeauthoryear {Cai\ \BBA{} Treisman}{Cai\ \BBA{} Treisman}{{\APACyear {2004}}}}
\APACbibcite{caitreisman2004}{\citeauthoryear {Cai\ \BBA{} Treisman}{Cai\ \BBA{} Treisman}{{\APACyear {2004}}}}
\bibcite{c1997}{\citeauthoryear {Camerer, Babcock, Loewenstein,{}\ \BBA{} Thaler}{Camerer\ \BOthers {.}}{{\APACyear {1997}}}}
\APACbibcite{c1997}{\citeauthoryear {Camerer, Babcock, Loewenstein,{}\ \BBA{} Thaler}{Camerer\ \BOthers {.}}{{\APACyear {1997}}}}
\bibcite{Carson2010}{\citeauthoryear {Carson}{Carson}{{\APACyear {2010}}}}
\APACbibcite{Carson2010}{\citeauthoryear {Carson}{Carson}{{\APACyear {2010}}}}
\bibcite{cdc2009}{\citeauthoryear {{Center for Disease Control}}{{Center for Disease Control}}{{\APACyear {2009}}}}
\APACbibcite{cdc2009}{\citeauthoryear {{Center for Disease Control}}{{Center for Disease Control}}{{\APACyear {2009}}}}
\bibcite{Chakraborti2013}{\citeauthoryear {Chakraborti\ \BOthers {.}}{Chakraborti\ \BOthers {.}}{{\APACyear {2013}}}}
\APACbibcite{Chakraborti2013}{\citeauthoryear {Chakraborti\ \BOthers {.}}{Chakraborti\ \BOthers {.}}{{\APACyear {2013}}}}
\bibcite{chang2014}{\citeauthoryear {Chang\ \BBA{} Gross}{Chang\ \BBA{} Gross}{{\APACyear {2014}}}}
\APACbibcite{chang2014}{\citeauthoryear {Chang\ \BBA{} Gross}{Chang\ \BBA{} Gross}{{\APACyear {2014}}}}
\bibcite{c2015}{\citeauthoryear {Chen\ \BBA{} Sheldon}{Chen\ \BBA{} Sheldon}{{\APACyear {{\bibnodate {}}}}}}
\APACbibcite{c2015}{\citeauthoryear {Chen\ \BBA{} Sheldon}{Chen\ \BBA{} Sheldon}{{\APACyear {{\bibnodate {}}}}}}
\bibcite{chou}{\citeauthoryear {Chou}{Chou}{{\APACyear {2002}}}}
\APACbibcite{chou}{\citeauthoryear {Chou}{Chou}{{\APACyear {2002}}}}
\bibcite{Citpax}{\citeauthoryear {Citpax\ \BBA{} Internacional}{Citpax\ \BBA{} Internacional}{{\APACyear {2012}}}}
\APACbibcite{Citpax}{\citeauthoryear {Citpax\ \BBA{} Internacional}{Citpax\ \BBA{} Internacional}{{\APACyear {2012}}}}
\bibcite{Clarkson2003}{\citeauthoryear {Clarkson, Magos,{}\ \BBA{} Myers}{Clarkson\ \BOthers {.}}{{\APACyear {2003}}}}
\APACbibcite{Clarkson2003}{\citeauthoryear {Clarkson, Magos,{}\ \BBA{} Myers}{Clarkson\ \BOthers {.}}{{\APACyear {2003}}}}
\bibcite{Cleary1994}{\citeauthoryear {Cleary\ \BOthers {.}}{Cleary\ \BOthers {.}}{{\APACyear {1994}}}}
\APACbibcite{Cleary1994}{\citeauthoryear {Cleary\ \BOthers {.}}{Cleary\ \BOthers {.}}{{\APACyear {1994}}}}
\bibcite{CommitteeontheToxicologicalEffectsofMethylmercury2000}{\citeauthoryear {Committee on the Toxicological Effects~of Methylmercury\ \BBA{} Toxicology}{Committee on the Toxicological Effects~of Methylmercury\ \BBA{} Toxicology}{{\APACyear {2000}}}}
\APACbibcite{CommitteeontheToxicologicalEffectsofMethylmercury2000}{\citeauthoryear {Committee on the Toxicological Effects~of Methylmercury\ \BBA{} Toxicology}{Committee on the Toxicological Effects~of Methylmercury\ \BBA{} Toxicology}{{\APACyear {2000}}}}
\bibcite{CongresoRepublica1994}{\citeauthoryear {{Congreso de la Republica}}{{Congreso de la Republica}}{{\APACyear {1994}}}}
\APACbibcite{CongresoRepublica1994}{\citeauthoryear {{Congreso de la Republica}}{{Congreso de la Republica}}{{\APACyear {1994}}}}
\bibcite{CongresoRepublica2002}{\citeauthoryear {{Congreso de la Republica}}{{Congreso de la Republica}}{{\APACyear {2002}}}}
\APACbibcite{CongresoRepublica2002}{\citeauthoryear {{Congreso de la Republica}}{{Congreso de la Republica}}{{\APACyear {2002}}}}
\bibcite{CongresoRepublica2009}{\citeauthoryear {{Congreso de la Republica}}{{Congreso de la Republica}}{{\APACyear {2009}}}}
\APACbibcite{CongresoRepublica2009}{\citeauthoryear {{Congreso de la Republica}}{{Congreso de la Republica}}{{\APACyear {2009}}}}
\bibcite{CongresoRepublica2013}{\citeauthoryear {{Congreso de la Republica}}{{Congreso de la Republica}}{{\APACyear {2013}}}}
\APACbibcite{CongresoRepublica2013}{\citeauthoryear {{Congreso de la Republica}}{{Congreso de la Republica}}{{\APACyear {2013}}}}
\bibcite{Cordy2011}{\citeauthoryear {Cordy\ \BOthers {.}}{Cordy\ \BOthers {.}}{{\APACyear {2011}}}}
\APACbibcite{Cordy2011}{\citeauthoryear {Cordy\ \BOthers {.}}{Cordy\ \BOthers {.}}{{\APACyear {2011}}}}
\bibcite{Cortes-Maramba2006}{\citeauthoryear {Cortes-Maramba\ \BOthers {.}}{Cortes-Maramba\ \BOthers {.}}{{\APACyear {2006}}}}
\APACbibcite{Cortes-Maramba2006}{\citeauthoryear {Cortes-Maramba\ \BOthers {.}}{Cortes-Maramba\ \BOthers {.}}{{\APACyear {2006}}}}
\bibcite{Counter2004}{\citeauthoryear {Counter\ \BBA{} Buchanan}{Counter\ \BBA{} Buchanan}{{\APACyear {2004}}}}
\APACbibcite{Counter2004}{\citeauthoryear {Counter\ \BBA{} Buchanan}{Counter\ \BBA{} Buchanan}{{\APACyear {2004}}}}
\bibcite{c2011}{\citeauthoryear {Crawford\ \BBA{} Meng}{Crawford\ \BBA{} Meng}{{\APACyear {2011}}}}
\APACbibcite{c2011}{\citeauthoryear {Crawford\ \BBA{} Meng}{Crawford\ \BBA{} Meng}{{\APACyear {2011}}}}
\bibcite{Currie2009}{\citeauthoryear {Currie}{Currie}{{\APACyear {2009}}}}
\APACbibcite{Currie2009}{\citeauthoryear {Currie}{Currie}{{\APACyear {2009}}}}
\bibcite{d2016}{\citeauthoryear {Dalton, Ghosal,{}\ \BBA{} Mani}{Dalton\ \BOthers {.}}{{\APACyear {2016}}}}
\APACbibcite{d2016}{\citeauthoryear {Dalton, Ghosal,{}\ \BBA{} Mani}{Dalton\ \BOthers {.}}{{\APACyear {2016}}}}
\bibcite{Veiga1997}{\citeauthoryear {da Veiga}{da Veiga}{{\APACyear {1997}}}}
\APACbibcite{Veiga1997}{\citeauthoryear {da Veiga}{da Veiga}{{\APACyear {1997}}}}
\bibcite{Davidson2004}{\citeauthoryear {Davidson, Myers,{}\ \BBA{} Weiss}{Davidson\ \BOthers {.}}{{\APACyear {2004}}}}
\APACbibcite{Davidson2004}{\citeauthoryear {Davidson, Myers,{}\ \BBA{} Weiss}{Davidson\ \BOthers {.}}{{\APACyear {2004}}}}
\bibcite{demel2010}{\citeauthoryear {de Mel, Woodruff,{}\ \BBA{} McKenzie}{de Mel\ \BOthers {.}}{{\APACyear {2010}}}}
\APACbibcite{demel2010}{\citeauthoryear {de Mel, Woodruff,{}\ \BBA{} McKenzie}{de Mel\ \BOthers {.}}{{\APACyear {2010}}}}
\bibcite{Dube2013}{\citeauthoryear {Dube\ \BBA{} Vargas}{Dube\ \BBA{} Vargas}{{\APACyear {2013}}}}
\APACbibcite{Dube2013}{\citeauthoryear {Dube\ \BBA{} Vargas}{Dube\ \BBA{} Vargas}{{\APACyear {2013}}}}
\bibcite{dupasrob2013}{\citeauthoryear {Dupas\ \BBA{} Robinson}{Dupas\ \BBA{} Robinson}{{\APACyear {2013}}}}
\APACbibcite{dupasrob2013}{\citeauthoryear {Dupas\ \BBA{} Robinson}{Dupas\ \BBA{} Robinson}{{\APACyear {2013}}}}
\bibcite{frankenberg2003}{\citeauthoryear {Economic~shocks\ \BBA{} welfare}{Economic~shocks\ \BBA{} welfare}{{\APACyear {2003}}}}
\APACbibcite{frankenberg2003}{\citeauthoryear {Economic~shocks\ \BBA{} welfare}{Economic~shocks\ \BBA{} welfare}{{\APACyear {2003}}}}
\bibcite{ehrenstein2009}{\citeauthoryear {Ehrenstein}{Ehrenstein}{{\APACyear {2009}}}}
\APACbibcite{ehrenstein2009}{\citeauthoryear {Ehrenstein}{Ehrenstein}{{\APACyear {2009}}}}
\bibcite{ElColombiano2014}{\citeauthoryear {{El Colombiano}}{{El Colombiano}}{{\APACyear {2014}}}}
\APACbibcite{ElColombiano2014}{\citeauthoryear {{El Colombiano}}{{El Colombiano}}{{\APACyear {2014}}}}
\bibcite{ElEspectador2015a}{\citeauthoryear {{El Espectador}}{{El Espectador}}{{\APACyear {2015}}{\APACexlab {{\BCnt {1}}}}}}
\APACbibcite{ElEspectador2015a}{\citeauthoryear {{El Espectador}}{{El Espectador}}{{\APACyear {2015}}{\APACexlab {{\BCnt {1}}}}}}
\bibcite{ElEspectador2015}{\citeauthoryear {{El Espectador}}{{El Espectador}}{{\APACyear {2015}}{\APACexlab {{\BCnt {2}}}}}}
\APACbibcite{ElEspectador2015}{\citeauthoryear {{El Espectador}}{{El Espectador}}{{\APACyear {2015}}{\APACexlab {{\BCnt {2}}}}}}
\bibcite{ElTiempo2013}{\citeauthoryear {{El Tiempo}}{{El Tiempo}}{{\APACyear {2013}}}}
\APACbibcite{ElTiempo2013}{\citeauthoryear {{El Tiempo}}{{El Tiempo}}{{\APACyear {2013}}}}
\bibcite{EPA2013}{\citeauthoryear {{Environmental Protection Agency }}{{Environmental Protection Agency }}{{\APACyear {2013}}{\APACexlab {{\BCnt {1}}}}}}
\APACbibcite{EPA2013}{\citeauthoryear {{Environmental Protection Agency }}{{Environmental Protection Agency }}{{\APACyear {2013}}{\APACexlab {{\BCnt {1}}}}}}
\bibcite{EPA2013a}{\citeauthoryear {{Environmental Protection Agency }}{{Environmental Protection Agency }}{{\APACyear {2013}}{\APACexlab {{\BCnt {2}}}}}}
\APACbibcite{EPA2013a}{\citeauthoryear {{Environmental Protection Agency }}{{Environmental Protection Agency }}{{\APACyear {2013}}{\APACexlab {{\BCnt {2}}}}}}
\bibcite{Etter2006}{\citeauthoryear {Etter}{Etter}{{\APACyear {2006}}}}
\APACbibcite{Etter2006}{\citeauthoryear {Etter}{Etter}{{\APACyear {2006}}}}
\bibcite{faber2016}{\citeauthoryear {Faber\ \BBA{} Gaubert}{Faber\ \BBA{} Gaubert}{{\APACyear {2016}}}}
\APACbibcite{faber2016}{\citeauthoryear {Faber\ \BBA{} Gaubert}{Faber\ \BBA{} Gaubert}{{\APACyear {2016}}}}
\bibcite{farber2005}{\citeauthoryear {Farber}{Farber}{{\APACyear {2005}}}}
\APACbibcite{farber2005}{\citeauthoryear {Farber}{Farber}{{\APACyear {2005}}}}
\bibcite{farber2008}{\citeauthoryear {Farber}{Farber}{{\APACyear {2008}}}}
\APACbibcite{farber2008}{\citeauthoryear {Farber}{Farber}{{\APACyear {2008}}}}
\bibcite{farber2014}{\citeauthoryear {Farber}{Farber}{{\APACyear {2014}}}}
\APACbibcite{farber2014}{\citeauthoryear {Farber}{Farber}{{\APACyear {2014}}}}
\bibcite{Fedesarrollo2014b}{\citeauthoryear {Fedesarrollo}{Fedesarrollo}{{\APACyear {2014}}{\APACexlab {{\BCnt {1}}}}}}
\APACbibcite{Fedesarrollo2014b}{\citeauthoryear {Fedesarrollo}{Fedesarrollo}{{\APACyear {2014}}{\APACexlab {{\BCnt {1}}}}}}
\bibcite{Fedesarrollo2014}{\citeauthoryear {Fedesarrollo}{Fedesarrollo}{{\APACyear {2014}}{\APACexlab {{\BCnt {2}}}}}}
\APACbibcite{Fedesarrollo2014}{\citeauthoryear {Fedesarrollo}{Fedesarrollo}{{\APACyear {2014}}{\APACexlab {{\BCnt {2}}}}}}
\bibcite{fehr2007}{\citeauthoryear {Fehr\ \BBA{} Goette}{Fehr\ \BBA{} Goette}{{\APACyear {2007}}}}
\APACbibcite{fehr2007}{\citeauthoryear {Fehr\ \BBA{} Goette}{Fehr\ \BBA{} Goette}{{\APACyear {2007}}}}
\bibcite{Fernandez-Navarro2012}{\citeauthoryear {Fern{\'a}ndez-Navarro, Garc{\'\i }a-P{\'e}rez, Ramis, Boldo,{}\ \BBA{} L{\'o}pez-Abente}{Fern{\'a}ndez-Navarro\ \BOthers {.}}{{\APACyear {2012}}}}
\APACbibcite{Fernandez-Navarro2012}{\citeauthoryear {Fern{\'a}ndez-Navarro, Garc{\'\i }a-P{\'e}rez, Ramis, Boldo,{}\ \BBA{} L{\'o}pez-Abente}{Fern{\'a}ndez-Navarro\ \BOthers {.}}{{\APACyear {2012}}}}
\bibcite{Fitzgerald2007}{\citeauthoryear {Fitzgerald\ \BBA{} Lamborg}{Fitzgerald\ \BBA{} Lamborg}{{\APACyear {2007}}}}
\APACbibcite{Fitzgerald2007}{\citeauthoryear {Fitzgerald\ \BBA{} Lamborg}{Fitzgerald\ \BBA{} Lamborg}{{\APACyear {2007}}}}
\bibcite{Foster2009}{\citeauthoryear {Foster, Gutierrez,{}\ \BBA{} Kumar}{Foster\ \BOthers {.}}{{\APACyear {2009}}}}
\APACbibcite{Foster2009}{\citeauthoryear {Foster, Gutierrez,{}\ \BBA{} Kumar}{Foster\ \BOthers {.}}{{\APACyear {2009}}}}
\bibcite{Gadenne2016}{\citeauthoryear {Gadenne}{Gadenne}{{\APACyear {2016}}}}
\APACbibcite{Gadenne2016}{\citeauthoryear {Gadenne}{Gadenne}{{\APACyear {2016}}}}
\bibcite{Gagne2014}{\citeauthoryear {Gagne}{Gagne}{{\APACyear {2014}}}}
\APACbibcite{Gagne2014}{\citeauthoryear {Gagne}{Gagne}{{\APACyear {2014}}}}
\bibcite{GAO}{\citeauthoryear {GAO}{GAO}{{\APACyear {2016}}}}
\APACbibcite{GAO}{\citeauthoryear {GAO}{GAO}{{\APACyear {2016}}}}
\bibcite{gineetal2016}{\citeauthoryear {Gine, Martinez-Bravo,{}\ \BBA{} Vidal-Fernandez}{Gine\ \BOthers {.}}{{\APACyear {2016}}}}
\APACbibcite{gineetal2016}{\citeauthoryear {Gine, Martinez-Bravo,{}\ \BBA{} Vidal-Fernandez}{Gine\ \BOthers {.}}{{\APACyear {2016}}}}
\bibcite{Giraldo2013}{\citeauthoryear {Giraldo}{Giraldo}{{\APACyear {2013}}}}
\APACbibcite{Giraldo2013}{\citeauthoryear {Giraldo}{Giraldo}{{\APACyear {2013}}}}
\bibcite{goldberg2016}{\citeauthoryear {Goldberg}{Goldberg}{{\APACyear {2016}}}}
\APACbibcite{goldberg2016}{\citeauthoryear {Goldberg}{Goldberg}{{\APACyear {2016}}}}
\bibcite{Grandjean1999}{\citeauthoryear {Grandjean, White, Nielsen, Cleary,{}\ \BBA{} Santos}{Grandjean\ \BOthers {.}}{{\APACyear {1999}}}}
\APACbibcite{Grandjean1999}{\citeauthoryear {Grandjean, White, Nielsen, Cleary,{}\ \BBA{} Santos}{Grandjean\ \BOthers {.}}{{\APACyear {1999}}}}
\bibcite{Greenstone2015}{\citeauthoryear {Greenstone\ \BBA{} Jack}{Greenstone\ \BBA{} Jack}{{\APACyear {2015}}}}
\APACbibcite{Greenstone2015}{\citeauthoryear {Greenstone\ \BBA{} Jack}{Greenstone\ \BBA{} Jack}{{\APACyear {2015}}}}
\bibcite{guiterasetal2015}{\citeauthoryear {Guiteras, Jina,{}\ \BBA{} Mobarak}{Guiteras\ \BOthers {.}}{{\APACyear {2015}}{\APACexlab {{\BCnt {1}}}}}}
\APACbibcite{guiterasetal2015}{\citeauthoryear {Guiteras, Jina,{}\ \BBA{} Mobarak}{Guiteras\ \BOthers {.}}{{\APACyear {2015}}{\APACexlab {{\BCnt {1}}}}}}
\bibcite{Guiterasetal}{\citeauthoryear {Guiteras, Jina,{}\ \BBA{} Mobarak}{Guiteras\ \BOthers {.}}{{\APACyear {2015}}{\APACexlab {{\BCnt {2}}}}}}
\APACbibcite{Guiterasetal}{\citeauthoryear {Guiteras, Jina,{}\ \BBA{} Mobarak}{Guiteras\ \BOthers {.}}{{\APACyear {2015}}{\APACexlab {{\BCnt {2}}}}}}
\bibcite{GUIZA2013}{\citeauthoryear {Guiza\ \BBA{} Aristizabal}{Guiza\ \BBA{} Aristizabal}{{\APACyear {2013}}}}
\APACbibcite{GUIZA2013}{\citeauthoryear {Guiza\ \BBA{} Aristizabal}{Guiza\ \BBA{} Aristizabal}{{\APACyear {2013}}}}
\bibcite{g1992}{\citeauthoryear {Guth\ \BBA{} Yaari}{Guth\ \BBA{} Yaari}{{\APACyear {1992}}}}
\APACbibcite{g1992}{\citeauthoryear {Guth\ \BBA{} Yaari}{Guth\ \BBA{} Yaari}{{\APACyear {1992}}}}
\bibcite{Hagan2015}{\citeauthoryear {Hagan\ \BOthers {.}}{Hagan\ \BOthers {.}}{{\APACyear {2015}}}}
\APACbibcite{Hagan2015}{\citeauthoryear {Hagan\ \BOthers {.}}{Hagan\ \BOthers {.}}{{\APACyear {2015}}}}
\bibcite{Hansen_etal}{\citeauthoryear {Hansen\ \BOthers {.}}{Hansen\ \BOthers {.}}{{\APACyear {2013}}}}
\APACbibcite{Hansen_etal}{\citeauthoryear {Hansen\ \BOthers {.}}{Hansen\ \BOthers {.}}{{\APACyear {2013}}}}
\bibcite{Harbaugh2002}{\citeauthoryear {Harbaugh, Levinson,{}\ \BBA{} Wilson}{Harbaugh\ \BOthers {.}}{{\APACyear {2002}}}}
\APACbibcite{Harbaugh2002}{\citeauthoryear {Harbaugh, Levinson,{}\ \BBA{} Wilson}{Harbaugh\ \BOthers {.}}{{\APACyear {2002}}}}
\bibcite{Henderson2012}{\citeauthoryear {Henderson, Storeygard,{}\ \BBA{} Weil}{Henderson\ \BOthers {.}}{{\APACyear {2012}}}}
\APACbibcite{Henderson2012}{\citeauthoryear {Henderson, Storeygard,{}\ \BBA{} Weil}{Henderson\ \BOthers {.}}{{\APACyear {2012}}}}
\bibcite{Hilson2002}{\citeauthoryear {Hilson}{Hilson}{{\APACyear {2002}}}}
\APACbibcite{Hilson2002}{\citeauthoryear {Hilson}{Hilson}{{\APACyear {2002}}}}
\bibcite{Hilson2006}{\citeauthoryear {Hilson}{Hilson}{{\APACyear {2006}}}}
\APACbibcite{Hilson2006}{\citeauthoryear {Hilson}{Hilson}{{\APACyear {2006}}}}
\bibcite{Hinton2003}{\citeauthoryear {Hinton, Veiga,{}\ \BBA{} Beinhoff}{Hinton\ \BOthers {.}}{{\APACyear {2003}}}}
\APACbibcite{Hinton2003}{\citeauthoryear {Hinton, Veiga,{}\ \BBA{} Beinhoff}{Hinton\ \BOthers {.}}{{\APACyear {2003}}}}
\bibcite{Horton2013}{\citeauthoryear {Horton, Mortensen, Iossifova, Wald,{}\ \BBA{} Burgess}{Horton\ \BOthers {.}}{{\APACyear {2013}}}}
\APACbibcite{Horton2013}{\citeauthoryear {Horton, Mortensen, Iossifova, Wald,{}\ \BBA{} Burgess}{Horton\ \BOthers {.}}{{\APACyear {2013}}}}
\bibcite{Huertas2012}{\citeauthoryear {Huertas, Huertas, Izquierdo,{}\ \BBA{} Gonzalez}{Huertas\ \BOthers {.}}{{\APACyear {2012}}}}
\APACbibcite{Huertas2012}{\citeauthoryear {Huertas, Huertas, Izquierdo,{}\ \BBA{} Gonzalez}{Huertas\ \BOthers {.}}{{\APACyear {2012}}}}
\bibcite{Ibanez2014}{\citeauthoryear {Iba\~nez\ \BBA{} Laverde}{Iba\~nez\ \BBA{} Laverde}{{\APACyear {2014}}}}
\APACbibcite{Ibanez2014}{\citeauthoryear {Iba\~nez\ \BBA{} Laverde}{Iba\~nez\ \BBA{} Laverde}{{\APACyear {2014}}}}
\bibcite{Idrobo2014}{\citeauthoryear {Idrobo, Mejia,{}\ \BBA{} Tribin}{Idrobo\ \BOthers {.}}{{\APACyear {2014}}}}
\APACbibcite{Idrobo2014}{\citeauthoryear {Idrobo, Mejia,{}\ \BBA{} Tribin}{Idrobo\ \BOthers {.}}{{\APACyear {2014}}}}
\bibcite{IdroboN.2014}{\citeauthoryear {Idrobo~N.}{Idrobo~N.}{{\APACyear {2014}}}}
\APACbibcite{IdroboN.2014}{\citeauthoryear {Idrobo~N.}{Idrobo~N.}{{\APACyear {2014}}}}
\bibcite{Ikingura1996}{\citeauthoryear {Ikingura\ \BBA{} Akagi}{Ikingura\ \BBA{} Akagi}{{\APACyear {1996}}}}
\APACbibcite{Ikingura1996}{\citeauthoryear {Ikingura\ \BBA{} Akagi}{Ikingura\ \BBA{} Akagi}{{\APACyear {1996}}}}
\bibcite{INGEMMET2016}{\citeauthoryear {{INGEMMET}}{{INGEMMET}}{{\APACyear {2016}}}}
\APACbibcite{INGEMMET2016}{\citeauthoryear {{INGEMMET}}{{INGEMMET}}{{\APACyear {2016}}}}
\bibcite{mlbible}{\citeauthoryear {James, Witten, Hastie,{}\ \BBA{} Tibshirani}{James\ \BOthers {.}}{{\APACyear {2014}}}}
\APACbibcite{mlbible}{\citeauthoryear {James, Witten, Hastie,{}\ \BBA{} Tibshirani}{James\ \BOthers {.}}{{\APACyear {2014}}}}
\bibcite{jayachandran2006}{\citeauthoryear {Jayachandran}{Jayachandran}{{\APACyear {2006}}}}
\APACbibcite{jayachandran2006}{\citeauthoryear {Jayachandran}{Jayachandran}{{\APACyear {2006}}}}
\bibcite{Jayachandran2009}{\citeauthoryear {Jayachandran}{Jayachandran}{{\APACyear {2009}}}}
\APACbibcite{Jayachandran2009}{\citeauthoryear {Jayachandran}{Jayachandran}{{\APACyear {2009}}}}
\bibcite{Jayachandranetal2016}{\citeauthoryear {Jayachandran, de Laat, Lambin,{}\ \BBA{} Stanton}{Jayachandran\ \BOthers {.}}{{\APACyear {2016}}}}
\APACbibcite{Jayachandranetal2016}{\citeauthoryear {Jayachandran, de Laat, Lambin,{}\ \BBA{} Stanton}{Jayachandran\ \BOthers {.}}{{\APACyear {2016}}}}
\bibcite{Jennings1999}{\citeauthoryear {Jennings}{Jennings}{{\APACyear {1999}}}}
\APACbibcite{Jennings1999}{\citeauthoryear {Jennings}{Jennings}{{\APACyear {1999}}}}
\bibcite{Jensen2016}{\citeauthoryear {A.~Jensen}{A.~Jensen}{{\APACyear {2016}}}}
\APACbibcite{Jensen2016}{\citeauthoryear {A.~Jensen}{A.~Jensen}{{\APACyear {2016}}}}
\bibcite{Jensen2007}{\citeauthoryear {J.~Jensen}{J.~Jensen}{{\APACyear {2007}}}}
\APACbibcite{Jensen2007}{\citeauthoryear {J.~Jensen}{J.~Jensen}{{\APACyear {2007}}}}
\bibcite{Ji2011}{\citeauthoryear {Ji, Li, Wu, Gao,{}\ \BBA{} Ge}{Ji\ \BOthers {.}}{{\APACyear {2011}}}}
\APACbibcite{Ji2011}{\citeauthoryear {Ji, Li, Wu, Gao,{}\ \BBA{} Ge}{Ji\ \BOthers {.}}{{\APACyear {2011}}}}
\bibcite{kauretal2010}{\citeauthoryear {Kaur, Kremer,{}\ \BBA{} Mullainathan}{Kaur\ \BOthers {.}}{{\APACyear {2010}}}}
\APACbibcite{kauretal2010}{\citeauthoryear {Kaur, Kremer,{}\ \BBA{} Mullainathan}{Kaur\ \BOthers {.}}{{\APACyear {2010}}}}
\bibcite{kauretal2015}{\citeauthoryear {Kaur, Kremer,{}\ \BBA{} Mullainathan}{Kaur\ \BOthers {.}}{{\APACyear {2015}}}}
\APACbibcite{kauretal2015}{\citeauthoryear {Kaur, Kremer,{}\ \BBA{} Mullainathan}{Kaur\ \BOthers {.}}{{\APACyear {2015}}}}
\bibcite{Keniston2011}{\citeauthoryear {Keniston}{Keniston}{{\APACyear {2011}}}}
\APACbibcite{Keniston2011}{\citeauthoryear {Keniston}{Keniston}{{\APACyear {2011}}}}
\bibcite{Khanetal2016}{\citeauthoryear {Khan, Khwaja,{}\ \BBA{} Olken}{Khan\ \BOthers {.}}{{\APACyear {2016}}}}
\APACbibcite{Khanetal2016}{\citeauthoryear {Khan, Khwaja,{}\ \BBA{} Olken}{Khan\ \BOthers {.}}{{\APACyear {2016}}}}
\bibcite{Khanal2011}{\citeauthoryear {Khanal, Adhikary,{}\ \BBA{} Balusu}{Khanal\ \BOthers {.}}{{\APACyear {2011}}}}
\APACbibcite{Khanal2011}{\citeauthoryear {Khanal, Adhikary,{}\ \BBA{} Balusu}{Khanal\ \BOthers {.}}{{\APACyear {2011}}}}
\bibcite{kochar1995}{\citeauthoryear {Kochar}{Kochar}{{\APACyear {1995}}}}
\APACbibcite{kochar1995}{\citeauthoryear {Kochar}{Kochar}{{\APACyear {1995}}}}
\bibcite{kochar1999}{\citeauthoryear {Kochar}{Kochar}{{\APACyear {1999}}}}
\APACbibcite{kochar1999}{\citeauthoryear {Kochar}{Kochar}{{\APACyear {1999}}}}
\bibcite{kos2010}{\citeauthoryear {Koszegi}{Koszegi}{{\APACyear {2010}}}}
\APACbibcite{kos2010}{\citeauthoryear {Koszegi}{Koszegi}{{\APACyear {2010}}}}
\bibcite{kosrabin2006}{\citeauthoryear {Koszegi\ \BBA{} Rabin}{Koszegi\ \BBA{} Rabin}{{\APACyear {2006}}}}
\APACbibcite{kosrabin2006}{\citeauthoryear {Koszegi\ \BBA{} Rabin}{Koszegi\ \BBA{} Rabin}{{\APACyear {2006}}}}
\bibcite{kubatetal1998}{\citeauthoryear {Kubat, Holte,{}\ \BBA{} Matwin}{Kubat\ \BOthers {.}}{{\APACyear {1998}}}}
\APACbibcite{kubatetal1998}{\citeauthoryear {Kubat, Holte,{}\ \BBA{} Matwin}{Kubat\ \BOthers {.}}{{\APACyear {1998}}}}
\bibcite{kyllo1995}{\citeauthoryear {Kyllo\ \BBA{} Landers}{Kyllo\ \BBA{} Landers}{{\APACyear {1995}}}}
\APACbibcite{kyllo1995}{\citeauthoryear {Kyllo\ \BBA{} Landers}{Kyllo\ \BBA{} Landers}{{\APACyear {1995}}}}
\bibcite{LaVanguardia2013}{\citeauthoryear {{La Vanguardia}}{{La Vanguardia}}{{\APACyear {2013}}}}
\APACbibcite{LaVanguardia2013}{\citeauthoryear {{La Vanguardia}}{{La Vanguardia}}{{\APACyear {2013}}}}
\bibcite{Leiva2013}{\citeauthoryear {Leiva\ \BBA{} Morales}{Leiva\ \BBA{} Morales}{{\APACyear {2013}}}}
\APACbibcite{Leiva2013}{\citeauthoryear {Leiva\ \BBA{} Morales}{Leiva\ \BBA{} Morales}{{\APACyear {2013}}}}
\bibcite{Lipscomb2013}{\citeauthoryear {Lipscomb\ \BBA{} Mobarak}{Lipscomb\ \BBA{} Mobarak}{{\APACyear {2013}}}}
\APACbibcite{Lipscomb2013}{\citeauthoryear {Lipscomb\ \BBA{} Mobarak}{Lipscomb\ \BBA{} Mobarak}{{\APACyear {2013}}}}
\bibcite{Luechinger2014}{\citeauthoryear {Luechinger}{Luechinger}{{\APACyear {2014}}}}
\APACbibcite{Luechinger2014}{\citeauthoryear {Luechinger}{Luechinger}{{\APACyear {2014}}}}
\bibcite{Lusilao-Makiese2013}{\citeauthoryear {Lusilao-Makiese, Cukrowska, Tessier, Amouroux,{}\ \BBA{} Weiersbye}{Lusilao-Makiese\ \BOthers {.}}{{\APACyear {2013}}}}
\APACbibcite{Lusilao-Makiese2013}{\citeauthoryear {Lusilao-Makiese, Cukrowska, Tessier, Amouroux,{}\ \BBA{} Weiersbye}{Lusilao-Makiese\ \BOthers {.}}{{\APACyear {2013}}}}
\bibcite{Madrinan2013}{\citeauthoryear {Madri{\~n}{\'a}n, Cort{\'e}s,{}\ \BBA{} Richardson}{Madri{\~n}{\'a}n\ \BOthers {.}}{{\APACyear {2013}}}}
\APACbibcite{Madrinan2013}{\citeauthoryear {Madri{\~n}{\'a}n, Cort{\'e}s,{}\ \BBA{} Richardson}{Madri{\~n}{\'a}n\ \BOthers {.}}{{\APACyear {2013}}}}
\bibcite{Maldonado2014}{\citeauthoryear {Maldonado}{Maldonado}{{\APACyear {2014}}}}
\APACbibcite{Maldonado2014}{\citeauthoryear {Maldonado}{Maldonado}{{\APACyear {2014}}}}
\bibcite{Male2013}{\citeauthoryear {Male, Reichelt-Brushett, Pocock,{}\ \BBA{} Nanlohy}{Male\ \BOthers {.}}{{\APACyear {2013}}}}
\APACbibcite{Male2013}{\citeauthoryear {Male, Reichelt-Brushett, Pocock,{}\ \BBA{} Nanlohy}{Male\ \BOthers {.}}{{\APACyear {2013}}}}
\bibcite{Mason1994}{\citeauthoryear {Mason, Fitzgerald,{}\ \BBA{} Morel}{Mason\ \BOthers {.}}{{\APACyear {1994}}}}
\APACbibcite{Mason1994}{\citeauthoryear {Mason, Fitzgerald,{}\ \BBA{} Morel}{Mason\ \BOthers {.}}{{\APACyear {1994}}}}
\bibcite{Masse2012}{\citeauthoryear {Masse\ \BBA{} Camargo}{Masse\ \BBA{} Camargo}{{\APACyear {2012}}}}
\APACbibcite{Masse2012}{\citeauthoryear {Masse\ \BBA{} Camargo}{Masse\ \BBA{} Camargo}{{\APACyear {2012}}}}
\bibcite{May2013}{\citeauthoryear {Maya}{Maya}{{\APACyear {2013}}}}
\APACbibcite{May2013}{\citeauthoryear {Maya}{Maya}{{\APACyear {2013}}}}
\bibcite{McMahon2014}{\citeauthoryear {McMahon\ \BBA{} Moreira}{McMahon\ \BBA{} Moreira}{{\APACyear {2014}}}}
\APACbibcite{McMahon2014}{\citeauthoryear {McMahon\ \BBA{} Moreira}{McMahon\ \BBA{} Moreira}{{\APACyear {2014}}}}
\bibcite{McMahon2001}{\citeauthoryear {McMahon\ \BBA{} Remy}{McMahon\ \BBA{} Remy}{{\APACyear {2001}}}}
\APACbibcite{McMahon2001}{\citeauthoryear {McMahon\ \BBA{} Remy}{McMahon\ \BBA{} Remy}{{\APACyear {2001}}}}
\bibcite{Mergler2007}{\citeauthoryear {Mergler\ \BOthers {.}}{Mergler\ \BOthers {.}}{{\APACyear {2007}}}}
\APACbibcite{Mergler2007}{\citeauthoryear {Mergler\ \BOthers {.}}{Mergler\ \BOthers {.}}{{\APACyear {2007}}}}
\bibcite{MHCP2011}{\citeauthoryear {{Ministerio de Hacienda y Credito Publico}}{{Ministerio de Hacienda y Credito Publico}}{{\APACyear {2011}}}}
\APACbibcite{MHCP2011}{\citeauthoryear {{Ministerio de Hacienda y Credito Publico}}{{Ministerio de Hacienda y Credito Publico}}{{\APACyear {2011}}}}
\bibcite{MinMinas2003}{\citeauthoryear {{Ministerio de Minas y Energia}}{{Ministerio de Minas y Energia}}{{\APACyear {2003}}}}
\APACbibcite{MinMinas2003}{\citeauthoryear {{Ministerio de Minas y Energia}}{{Ministerio de Minas y Energia}}{{\APACyear {2003}}}}
\bibcite{MME2011}{\citeauthoryear {{Ministerio de Minas y Energia}}{{Ministerio de Minas y Energia}}{{\APACyear {2011}}}}
\APACbibcite{MME2011}{\citeauthoryear {{Ministerio de Minas y Energia}}{{Ministerio de Minas y Energia}}{{\APACyear {2011}}}}
\bibcite{MME2012}{\citeauthoryear {{Ministerio de Minas y Energia}}{{Ministerio de Minas y Energia}}{{\APACyear {2012}}}}
\APACbibcite{MME2012}{\citeauthoryear {{Ministerio de Minas y Energia}}{{Ministerio de Minas y Energia}}{{\APACyear {2012}}}}
\bibcite{Mol2004}{\citeauthoryear {Mol\ \BBA{} Ouboter}{Mol\ \BBA{} Ouboter}{{\APACyear {2004}}}}
\APACbibcite{Mol2004}{\citeauthoryear {Mol\ \BBA{} Ouboter}{Mol\ \BBA{} Ouboter}{{\APACyear {2004}}}}
\bibcite{Mol2001}{\citeauthoryear {Mol, Ramlal, Lietar,{}\ \BBA{} Verloo}{Mol\ \BOthers {.}}{{\APACyear {2001}}}}
\APACbibcite{Mol2001}{\citeauthoryear {Mol, Ramlal, Lietar,{}\ \BBA{} Verloo}{Mol\ \BOthers {.}}{{\APACyear {2001}}}}
\bibcite{Montgomery2000}{\citeauthoryear {Montgomery}{Montgomery}{{\APACyear {2000}}}}
\APACbibcite{Montgomery2000}{\citeauthoryear {Montgomery}{Montgomery}{{\APACyear {2000}}}}
\bibcite{Morales2013}{\citeauthoryear {Morales}{Morales}{{\APACyear {2013}}}}
\APACbibcite{Morales2013}{\citeauthoryear {Morales}{Morales}{{\APACyear {2013}}}}
\bibcite{Morel1998}{\citeauthoryear {Morel, Kraepiel,{}\ \BBA{} Amyot}{Morel\ \BOthers {.}}{{\APACyear {1998}}}}
\APACbibcite{Morel1998}{\citeauthoryear {Morel, Kraepiel,{}\ \BBA{} Amyot}{Morel\ \BOthers {.}}{{\APACyear {1998}}}}
\bibcite{Moster2001}{\citeauthoryear {Moster, Lie, Irgens, Bjerkedal,{}\ \BBA{} Markestad}{Moster\ \BOthers {.}}{{\APACyear {2001}}}}
\APACbibcite{Moster2001}{\citeauthoryear {Moster, Lie, Irgens, Bjerkedal,{}\ \BBA{} Markestad}{Moster\ \BOthers {.}}{{\APACyear {2001}}}}
\bibcite{o1999}{\citeauthoryear {Oettinger}{Oettinger}{{\APACyear {1999}}}}
\APACbibcite{o1999}{\citeauthoryear {Oettinger}{Oettinger}{{\APACyear {1999}}}}
\bibcite{Olivero2002}{\citeauthoryear {Olivero\ \BBA{} Johnson}{Olivero\ \BBA{} Johnson}{{\APACyear {2002}}}}
\APACbibcite{Olivero2002}{\citeauthoryear {Olivero\ \BBA{} Johnson}{Olivero\ \BBA{} Johnson}{{\APACyear {2002}}}}
\bibcite{oster2013}{\citeauthoryear {Oster}{Oster}{{\APACyear {2013}}}}
\APACbibcite{oster2013}{\citeauthoryear {Oster}{Oster}{{\APACyear {2013}}}}
\bibcite{Pfeiffer1988}{\citeauthoryear {Pfeiffer\ \BBA{} de Lacerda}{Pfeiffer\ \BBA{} de Lacerda}{{\APACyear {1988}}}}
\APACbibcite{Pfeiffer1988}{\citeauthoryear {Pfeiffer\ \BBA{} de Lacerda}{Pfeiffer\ \BBA{} de Lacerda}{{\APACyear {1988}}}}
\bibcite{Pfeiffer1993}{\citeauthoryear {Pfeiffer, Lacerda, Salomons,{}\ \BBA{} Malm}{Pfeiffer\ \BOthers {.}}{{\APACyear {1993}}}}
\APACbibcite{Pfeiffer1993}{\citeauthoryear {Pfeiffer, Lacerda, Salomons,{}\ \BBA{} Malm}{Pfeiffer\ \BOthers {.}}{{\APACyear {1993}}}}
\bibcite{pope2011}{\citeauthoryear {Pope\ \BBA{} Schweitzer}{Pope\ \BBA{} Schweitzer}{{\APACyear {2011}}}}
\APACbibcite{pope2011}{\citeauthoryear {Pope\ \BBA{} Schweitzer}{Pope\ \BBA{} Schweitzer}{{\APACyear {2011}}}}
\bibcite{PGN2011}{\citeauthoryear {{Procuradoria General de la Nacion}}{{Procuradoria General de la Nacion}}{{\APACyear {2011}}}}
\APACbibcite{PGN2011}{\citeauthoryear {{Procuradoria General de la Nacion}}{{Procuradoria General de la Nacion}}{{\APACyear {2011}}}}
\bibcite{psavelez1992}{\citeauthoryear {Psacharopoulos\ \BBA{} Velez}{Psacharopoulos\ \BBA{} Velez}{{\APACyear {1992}}}}
\APACbibcite{psavelez1992}{\citeauthoryear {Psacharopoulos\ \BBA{} Velez}{Psacharopoulos\ \BBA{} Velez}{{\APACyear {1992}}}}
\bibcite{rabin2000}{\citeauthoryear {Rabin}{Rabin}{{\APACyear {2000}}}}
\APACbibcite{rabin2000}{\citeauthoryear {Rabin}{Rabin}{{\APACyear {2000}}}}
\bibcite{robinson2012}{\citeauthoryear {Robinson}{Robinson}{{\APACyear {2012}}}}
\APACbibcite{robinson2012}{\citeauthoryear {Robinson}{Robinson}{{\APACyear {2012}}}}
\bibcite{robinsonyeh}{\citeauthoryear {Robinson\ \BBA{} Yeh}{Robinson\ \BBA{} Yeh}{{\APACyear {2011}}}}
\APACbibcite{robinsonyeh}{\citeauthoryear {Robinson\ \BBA{} Yeh}{Robinson\ \BBA{} Yeh}{{\APACyear {2011}}}}
\bibcite{Romero2015}{\citeauthoryear {Romero\ \BBA{} Saavedra}{Romero\ \BBA{} Saavedra}{{\APACyear {2015}}}}
\APACbibcite{Romero2015}{\citeauthoryear {Romero\ \BBA{} Saavedra}{Romero\ \BBA{} Saavedra}{{\APACyear {2015}}}}
\bibcite{Rudasetal2013}{\citeauthoryear {Rudas\ \BBA{} Espitia}{Rudas\ \BBA{} Espitia}{{\APACyear {2013}}}}
\APACbibcite{Rudasetal2013}{\citeauthoryear {Rudas\ \BBA{} Espitia}{Rudas\ \BBA{} Espitia}{{\APACyear {2013}}}}
\bibcite{Sanchez2014}{\citeauthoryear {Sanchez de~la Sierra}{Sanchez de~la Sierra}{{\APACyear {2014}}}}
\APACbibcite{Sanchez2014}{\citeauthoryear {Sanchez de~la Sierra}{Sanchez de~la Sierra}{{\APACyear {2014}}}}
\bibcite{Santos2014}{\citeauthoryear {Santos}{Santos}{{\APACyear {2014}}}}
\APACbibcite{Santos2014}{\citeauthoryear {Santos}{Santos}{{\APACyear {2014}}}}
\bibcite{Schlenker2011}{\citeauthoryear {Schlenker\ \BBA{} Walker}{Schlenker\ \BBA{} Walker}{{\APACyear {2011}}}}
\APACbibcite{Schlenker2011}{\citeauthoryear {Schlenker\ \BBA{} Walker}{Schlenker\ \BBA{} Walker}{{\APACyear {2011}}}}
\bibcite{Schoeman2009}{\citeauthoryear {Schoeman, Bend, Hill, Nash,{}\ \BBA{} Koren}{Schoeman\ \BOthers {.}}{{\APACyear {2009}}}}
\APACbibcite{Schoeman2009}{\citeauthoryear {Schoeman, Bend, Hill, Nash,{}\ \BBA{} Koren}{Schoeman\ \BOthers {.}}{{\APACyear {2009}}}}
\bibcite{Schofield2015}{\citeauthoryear {Schofield}{Schofield}{{\APACyear {2015}}}}
\APACbibcite{Schofield2015}{\citeauthoryear {Schofield}{Schofield}{{\APACyear {2015}}}}
\bibcite{Semana2013}{\citeauthoryear {Semana}{Semana}{{\APACyear {2013}}}}
\APACbibcite{Semana2013}{\citeauthoryear {Semana}{Semana}{{\APACyear {2013}}}}
\bibcite{sheldon}{\citeauthoryear {Sheldon}{Sheldon}{{\APACyear {2016}}}}
\APACbibcite{sheldon}{\citeauthoryear {Sheldon}{Sheldon}{{\APACyear {2016}}}}
\bibcite{Sigman2005}{\citeauthoryear {Sigman}{Sigman}{{\APACyear {2005}}}}
\APACbibcite{Sigman2005}{\citeauthoryear {Sigman}{Sigman}{{\APACyear {2005}}}}
\bibcite{Simeonova2011}{\citeauthoryear {Simeonova}{Simeonova}{{\APACyear {2011}}}}
\APACbibcite{Simeonova2011}{\citeauthoryear {Simeonova}{Simeonova}{{\APACyear {2011}}}}
\bibcite{Slemrod2007}{\citeauthoryear {Slemrod}{Slemrod}{{\APACyear {2007}}}}
\APACbibcite{Slemrod2007}{\citeauthoryear {Slemrod}{Slemrod}{{\APACyear {2007}}}}
\bibcite{Swenson2011}{\citeauthoryear {Swenson, Carter, Domec,{}\ \BBA{} Delgado}{Swenson\ \BOthers {.}}{{\APACyear {2011}}}}
\APACbibcite{Swenson2011}{\citeauthoryear {Swenson, Carter, Domec,{}\ \BBA{} Delgado}{Swenson\ \BOthers {.}}{{\APACyear {2011}}}}
\bibcite{TGIATOC}{\citeauthoryear {TGIATOC}{TGIATOC}{{\APACyear {2016}}}}
\APACbibcite{TGIATOC}{\citeauthoryear {TGIATOC}{TGIATOC}{{\APACyear {2016}}}}
\bibcite{Guardian2013}{\citeauthoryear {{The Guardian}}{{The Guardian}}{{\APACyear {2013}}}}
\APACbibcite{Guardian2013}{\citeauthoryear {{The Guardian}}{{The Guardian}}{{\APACyear {2013}}}}
\bibcite{TimesIndia2012}{\citeauthoryear {{The Times of India}}{{The Times of India}}{{\APACyear {2012}}}}
\APACbibcite{TimesIndia2012}{\citeauthoryear {{The Times of India}}{{The Times of India}}{{\APACyear {2012}}}}
\bibcite{Tolonen2015}{\citeauthoryear {Tolonen}{Tolonen}{{\APACyear {2015}}}}
\APACbibcite{Tolonen2015}{\citeauthoryear {Tolonen}{Tolonen}{{\APACyear {2015}}}}
\bibcite{UNEP2013}{\citeauthoryear {{United Nations Environment Programme}}{{United Nations Environment Programme}}{{\APACyear {2013}}}}
\APACbibcite{UNEP2013}{\citeauthoryear {{United Nations Environment Programme}}{{United Nations Environment Programme}}{{\APACyear {2013}}}}
\bibcite{unodc2016}{\citeauthoryear {UNODC}{UNODC}{{\APACyear {2016}}}}
\APACbibcite{unodc2016}{\citeauthoryear {UNODC}{UNODC}{{\APACyear {2016}}}}
\bibcite{Eynde2015}{\citeauthoryear {van~den Eynde}{van~den Eynde}{{\APACyear {2015}}}}
\APACbibcite{Eynde2015}{\citeauthoryear {van~den Eynde}{van~den Eynde}{{\APACyear {2015}}}}
\bibcite{Straaten2000}{\citeauthoryear {van Straaten}{van Straaten}{{\APACyear {2000}}}}
\APACbibcite{Straaten2000}{\citeauthoryear {van Straaten}{van Straaten}{{\APACyear {2000}}}}
\bibcite{Villar2013}{\citeauthoryear {Villar}{Villar}{{\APACyear {2013}}}}
\APACbibcite{Villar2013}{\citeauthoryear {Villar}{Villar}{{\APACyear {2013}}}}
\bibcite{Goltz2014}{\citeauthoryear {von~der Goltz\ \BBA{} Barnwal}{von~der Goltz\ \BBA{} Barnwal}{{\APACyear {2014}}}}
\APACbibcite{Goltz2014}{\citeauthoryear {von~der Goltz\ \BBA{} Barnwal}{von~der Goltz\ \BBA{} Barnwal}{{\APACyear {2014}}}}
\bibcite{Webb2004}{\citeauthoryear {Webb\ \BOthers {.}}{Webb\ \BOthers {.}}{{\APACyear {2004}}}}
\APACbibcite{Webb2004}{\citeauthoryear {Webb\ \BOthers {.}}{Webb\ \BOthers {.}}{{\APACyear {2004}}}}
\bibcite{WorldBank2009}{\citeauthoryear {{World Bank}}{{World Bank}}{{\APACyear {2009}}}}
\APACbibcite{WorldBank2009}{\citeauthoryear {{World Bank}}{{World Bank}}{{\APACyear {2009}}}}
\bibcite{WHO1990}{\citeauthoryear {{World Health Organization}}{{World Health Organization}}{{\APACyear {1990}}}}
\APACbibcite{WHO1990}{\citeauthoryear {{World Health Organization}}{{World Health Organization}}{{\APACyear {1990}}}}
\bibcite{WHO2006}{\citeauthoryear {{World Health Organization}}{{World Health Organization}}{{\APACyear {2006}}}}
\APACbibcite{WHO2006}{\citeauthoryear {{World Health Organization}}{{World Health Organization}}{{\APACyear {2006}}}}
\bibcite{WHO2013}{\citeauthoryear {{World Health Organization}}{{World Health Organization}}{{\APACyear {2013}}}}
\APACbibcite{WHO2013}{\citeauthoryear {{World Health Organization}}{{World Health Organization}}{{\APACyear {2013}}}}
\bibcite{Wu2011}{\citeauthoryear {Wu\ \BOthers {.}}{Wu\ \BOthers {.}}{{\APACyear {2011}}}}
\APACbibcite{Wu2011}{\citeauthoryear {Wu\ \BOthers {.}}{Wu\ \BOthers {.}}{{\APACyear {2011}}}}
