\select@language {english}
\addvspace {10\p@ }
\contentsline {figure}{\numberline {1.1}{\ignorespaces Image of a mine in the municipality of Remedios}}{13}{figure.1.1}
\contentsline {figure}{\numberline {1.2}{\ignorespaces ROC curve for the mining prediction model.}}{15}{figure.1.2}
\contentsline {figure}{\numberline {1.3}{\ignorespaces Visual representation of parallel trends assumption}}{20}{figure.1.3}
\contentsline {figure}{\numberline {1.4}{\ignorespaces Evolution of illegal mining in Colombia and Peru}}{21}{figure.1.4}
\addvspace {10\p@ }
\contentsline {figure}{\numberline {2.1}{\ignorespaces }}{44}{figure.2.1}
\addvspace {10\p@ }
\addvspace {10\p@ }
\contentsline {figure}{\numberline {A.1}{\ignorespaces Theoretical predictions of the income effect of the reform}}{91}{figure.1.A.1}
\contentsline {figure}{\numberline {A.2}{\ignorespaces Heterogeneous effects of the reform by different municipal characteristics}}{93}{figure.1.A.2}
\contentsline {figure}{\numberline {A.3}{\ignorespaces Scenes (Path,row) from LANDSAT 7 covering Colombia}}{101}{figure.1.A.3}
\contentsline {figure}{\numberline {A.4}{\ignorespaces }}{102}{figure.1.A.4}
\contentsline {figure}{\numberline {A.5}{\ignorespaces Visual representation of transforming the satellite data into a data frame }}{103}{figure.1.A.5}
\contentsline {figure}{\numberline {A.6}{\ignorespaces Visual representation of training and testing data }}{104}{figure.1.A.6}
\contentsline {figure}{\numberline {A.7}{\ignorespaces }}{105}{figure.1.A.7}
\contentsline {figure}{\numberline {A.8}{\ignorespaces ROC curve for the mining prediction model trained with UNODC data.}}{106}{figure.1.A.8}
\contentsline {figure}{\numberline {A.9}{\ignorespaces Evolution of illegal mining by winners and losers with the reform}}{112}{figure.1.A.9}
\addvspace {10\p@ }
\contentsline {figure}{\numberline {B.1}{\ignorespaces }}{127}{figure.1.B.1}
\contentsline {figure}{\numberline {B.2}{\ignorespaces }}{128}{figure.1.B.2}
\contentsline {figure}{\numberline {B.4}{\ignorespaces Proportion of births near and downstream from a mine - 5 KM buffer}}{129}{figure.1.B.4}
\contentsline {figure}{\numberline {B.3}{\ignorespaces }}{129}{figure.1.B.3}
\contentsline {figure}{\numberline {B.5}{\ignorespaces Proportion of births near and downstream from a mine - 10 KM buffer}}{130}{figure.1.B.5}
\contentsline {figure}{\numberline {B.6}{\ignorespaces Proportion of births near and downstream from a mine - 20 KM buffer}}{130}{figure.1.B.6}
\contentsline {figure}{\numberline {B.7}{\ignorespaces Mined area and APGAR}}{132}{figure.1.B.7}
\addvspace {10\p@ }
