\relax 
\providecommand\hyper@newdestlabel[2]{}
\providecommand\HyperFirstAtBeginDocument{\AtBeginDocument}
\HyperFirstAtBeginDocument{\ifx\hyper@anchor\@undefined
\global\let\oldcontentsline\contentsline
\gdef\contentsline#1#2#3#4{\oldcontentsline{#1}{#2}{#3}}
\global\let\oldnewlabel\newlabel
\gdef\newlabel#1#2{\newlabelxx{#1}#2}
\gdef\newlabelxx#1#2#3#4#5#6{\oldnewlabel{#1}{{#2}{#3}}}
\AtEndDocument{\ifx\hyper@anchor\@undefined
\let\contentsline\oldcontentsline
\let\newlabel\oldnewlabel
\fi}
\fi}
\global\let\hyper@last\relax 
\gdef\HyperFirstAtBeginDocument#1{#1}
\providecommand\HyField@AuxAddToFields[1]{}
\providecommand\HyField@AuxAddToCoFields[2]{}
\select@language{english}
\@writefile{toc}{\select@language{english}}
\@writefile{lof}{\select@language{english}}
\@writefile{lot}{\select@language{english}}
\@writefile{toc}{\contentsline {section}{\numberline {1}Introduction}{1}{section.1}}
\@writefile{toc}{\contentsline {section}{\numberline {2}Inputs}{1}{section.2}}
\@writefile{toc}{\contentsline {subsection}{\numberline {2.1}R packages required}{2}{subsection.2.1}}
\@writefile{toc}{\contentsline {section}{\numberline {3}Preparing the satellite data}{3}{section.3}}
\@writefile{toc}{\contentsline {subsection}{\numberline {3.1}Identify the list of images available}{3}{subsection.3.1}}
\@writefile{toc}{\contentsline {subsection}{\numberline {3.2}How to make an order}{3}{subsection.3.2}}
\@writefile{toc}{\contentsline {subsection}{\numberline {3.3}Preparing the files}{4}{subsection.3.3}}
\@writefile{toc}{\contentsline {section}{\numberline {4}Training the model}{4}{section.4}}
\@writefile{toc}{\contentsline {section}{\numberline {5}Predicting illegal mining}{5}{section.5}}
\@writefile{toc}{\contentsline {section}{\numberline {6}Creating a shapefile with the predictions}{5}{section.6}}
\@writefile{toc}{\contentsline {section}{\numberline {7}Other calculations}{5}{section.7}}
\@writefile{toc}{\contentsline {subsection}{\numberline {7.1}Creating a table of mines by municipality}{5}{subsection.7.1}}
\@writefile{toc}{\contentsline {subsection}{\numberline {7.2}Predicting ecosystems in Peru}{5}{subsection.7.2}}
\@writefile{toc}{\contentsline {section}{\numberline {8}Others}{5}{section.8}}
\@writefile{toc}{\contentsline {subsection}{\numberline {8.1}How to digitize a map?}{5}{subsection.8.1}}
