\relax 
\providecommand\hyper@newdestlabel[2]{}
\providecommand\HyperFirstAtBeginDocument{\AtBeginDocument}
\HyperFirstAtBeginDocument{\ifx\hyper@anchor\@undefined
\global\let\oldcontentsline\contentsline
\gdef\contentsline#1#2#3#4{\oldcontentsline{#1}{#2}{#3}}
\global\let\oldnewlabel\newlabel
\gdef\newlabel#1#2{\newlabelxx{#1}#2}
\gdef\newlabelxx#1#2#3#4#5#6{\oldnewlabel{#1}{{#2}{#3}}}
\AtEndDocument{\ifx\hyper@anchor\@undefined
\let\contentsline\oldcontentsline
\let\newlabel\oldnewlabel
\fi}
\fi}
\global\let\hyper@last\relax 
\gdef\HyperFirstAtBeginDocument#1{#1}
\providecommand\HyField@AuxAddToFields[1]{}
\providecommand\HyField@AuxAddToCoFields[2]{}
\providecommand \oddpage@label [2]{}
\@writefile{toc}{\beamer@endinputifotherversion {3.33pt}}
\@writefile{nav}{\beamer@endinputifotherversion {3.33pt}}
\select@language{english}
\@writefile{toc}{\select@language{english}}
\@writefile{lof}{\select@language{english}}
\@writefile{lot}{\select@language{english}}
\@writefile{nav}{\headcommand {\slideentry {0}{0}{1}{1/1}{}{0}}}
\@writefile{nav}{\headcommand {\beamer@framepages {1}{1}}}
\@writefile{nav}{\headcommand {\slideentry {0}{0}{2}{2/7}{}{0}}}
\@writefile{nav}{\headcommand {\beamer@framepages {2}{7}}}
\@writefile{nav}{\headcommand {\slideentry {0}{0}{3}{8/8}{}{0}}}
\@writefile{nav}{\headcommand {\beamer@framepages {8}{8}}}
\newlabel{context<1>}{{4}{9}{}{Doc-Start}{}}
\@writefile{snm}{\beamer@slide {context<1>}{9}}
\newlabel{context}{{4}{9}{}{Doc-Start}{}}
\@writefile{snm}{\beamer@slide {context}{9}}
\newlabel{context<2>}{{4}{10}{}{Doc-Start}{}}
\@writefile{snm}{\beamer@slide {context<2>}{10}}
\newlabel{context<3>}{{4}{11}{}{Doc-Start}{}}
\@writefile{snm}{\beamer@slide {context<3>}{11}}
\@writefile{nav}{\headcommand {\slideentry {0}{0}{4}{9/11}{}{0}}}
\@writefile{nav}{\headcommand {\beamer@framepages {9}{11}}}
\@writefile{nav}{\headcommand {\slideentry {0}{0}{5}{12/14}{}{0}}}
\@writefile{nav}{\headcommand {\beamer@framepages {12}{14}}}
\@writefile{nav}{\headcommand {\slideentry {0}{0}{6}{15/15}{}{0}}}
\@writefile{nav}{\headcommand {\beamer@framepages {15}{15}}}
\newlabel{details_reform<1>}{{7}{16}{}{Doc-Start}{}}
\@writefile{snm}{\beamer@slide {details_reform<1>}{16}}
\newlabel{details_reform}{{7}{16}{}{Doc-Start}{}}
\@writefile{snm}{\beamer@slide {details_reform}{16}}
\@writefile{nav}{\headcommand {\slideentry {0}{0}{7}{16/16}{}{0}}}
\@writefile{nav}{\headcommand {\beamer@framepages {16}{16}}}
\@writefile{nav}{\headcommand {\slideentry {0}{0}{8}{17/17}{}{0}}}
\@writefile{nav}{\headcommand {\beamer@framepages {17}{17}}}
\@writefile{nav}{\headcommand {\slideentry {0}{0}{9}{18/18}{}{0}}}
\@writefile{nav}{\headcommand {\beamer@framepages {18}{18}}}
\@writefile{nav}{\headcommand {\slideentry {0}{0}{10}{19/19}{}{0}}}
\@writefile{nav}{\headcommand {\beamer@framepages {19}{19}}}
\newlabel{thmod<1>}{{11}{20}{}{Doc-Start}{}}
\@writefile{snm}{\beamer@slide {thmod<1>}{20}}
\newlabel{thmod}{{11}{20}{}{Doc-Start}{}}
\@writefile{snm}{\beamer@slide {thmod}{20}}
\@writefile{nav}{\headcommand {\slideentry {0}{0}{11}{20/20}{}{0}}}
\@writefile{nav}{\headcommand {\beamer@framepages {20}{20}}}
\@writefile{nav}{\headcommand {\slideentry {0}{0}{12}{21/24}{}{0}}}
\@writefile{nav}{\headcommand {\beamer@framepages {21}{24}}}
\@writefile{nav}{\headcommand {\slideentry {0}{0}{13}{25/26}{}{0}}}
\@writefile{nav}{\headcommand {\beamer@framepages {25}{26}}}
\newlabel{model_convex<1>}{{14}{27}{}{Doc-Start}{}}
\@writefile{snm}{\beamer@slide {model_convex<1>}{27}}
\newlabel{model_convex}{{14}{27}{}{Doc-Start}{}}
\@writefile{snm}{\beamer@slide {model_convex}{27}}
\@writefile{nav}{\headcommand {\slideentry {0}{0}{14}{27/27}{}{0}}}
\@writefile{nav}{\headcommand {\beamer@framepages {27}{27}}}
\@writefile{nav}{\headcommand {\slideentry {0}{0}{15}{28/28}{}{0}}}
\@writefile{nav}{\headcommand {\beamer@framepages {28}{28}}}
\newlabel{algorithm<1>}{{16}{29}{}{Doc-Start}{}}
\@writefile{snm}{\beamer@slide {algorithm<1>}{29}}
\newlabel{algorithm}{{16}{29}{}{Doc-Start}{}}
\@writefile{snm}{\beamer@slide {algorithm}{29}}
\@writefile{nav}{\headcommand {\slideentry {0}{0}{16}{29/29}{}{0}}}
\@writefile{nav}{\headcommand {\beamer@framepages {29}{29}}}
\@writefile{nav}{\headcommand {\slideentry {0}{0}{17}{30/30}{}{0}}}
\@writefile{nav}{\headcommand {\beamer@framepages {30}{30}}}
\newlabel{balancestats_muni<1>}{{18}{31}{}{Doc-Start}{}}
\@writefile{snm}{\beamer@slide {balancestats_muni<1>}{31}}
\newlabel{balancestats_muni}{{18}{31}{}{Doc-Start}{}}
\@writefile{snm}{\beamer@slide {balancestats_muni}{31}}
\@writefile{nav}{\headcommand {\slideentry {0}{0}{18}{31/31}{}{0}}}
\@writefile{nav}{\headcommand {\beamer@framepages {31}{31}}}
\@writefile{snm}{\beamer@slide {eq:reg}{32}}
\newlabel{eq:reg}{{1}{32}{}{Doc-Start}{}}
\@writefile{snm}{\beamer@slide {eq:reg2}{32}}
\newlabel{eq:reg2}{{2}{32}{}{Doc-Start}{}}
\@writefile{nav}{\headcommand {\slideentry {0}{0}{19}{32/32}{}{0}}}
\@writefile{nav}{\headcommand {\beamer@framepages {32}{32}}}
\newlabel{reg_price<1>}{{20}{33}{}{Doc-Start}{}}
\@writefile{snm}{\beamer@slide {reg_price<1>}{33}}
\newlabel{reg_price}{{20}{33}{}{Doc-Start}{}}
\@writefile{snm}{\beamer@slide {reg_price}{33}}
\@writefile{nav}{\headcommand {\slideentry {0}{0}{20}{33/33}{}{0}}}
\@writefile{nav}{\headcommand {\beamer@framepages {33}{33}}}
\newlabel{altonji<1>}{{21}{34}{}{Doc-Start}{}}
\@writefile{snm}{\beamer@slide {altonji<1>}{34}}
\newlabel{altonji}{{21}{34}{}{Doc-Start}{}}
\@writefile{snm}{\beamer@slide {altonji}{34}}
\@writefile{nav}{\headcommand {\slideentry {0}{0}{21}{34/34}{}{0}}}
\@writefile{nav}{\headcommand {\beamer@framepages {34}{34}}}
\newlabel{reg_lasso<1>}{{22}{35}{}{Doc-Start}{}}
\@writefile{snm}{\beamer@slide {reg_lasso<1>}{35}}
\newlabel{reg_lasso}{{22}{35}{}{Doc-Start}{}}
\@writefile{snm}{\beamer@slide {reg_lasso}{35}}
\@writefile{nav}{\headcommand {\slideentry {0}{0}{22}{35/35}{}{0}}}
\@writefile{nav}{\headcommand {\beamer@framepages {35}{35}}}
\newlabel{reg_importance<1>}{{23}{36}{}{Doc-Start}{}}
\@writefile{snm}{\beamer@slide {reg_importance<1>}{36}}
\newlabel{reg_importance}{{23}{36}{}{Doc-Start}{}}
\@writefile{snm}{\beamer@slide {reg_importance}{36}}
\@writefile{nav}{\headcommand {\slideentry {0}{0}{23}{36/36}{}{0}}}
\@writefile{nav}{\headcommand {\beamer@framepages {36}{36}}}
\newlabel{reg_continuous<1>}{{24}{37}{}{Doc-Start}{}}
\@writefile{snm}{\beamer@slide {reg_continuous<1>}{37}}
\newlabel{reg_continuous}{{24}{37}{}{Doc-Start}{}}
\@writefile{snm}{\beamer@slide {reg_continuous}{37}}
\@writefile{nav}{\headcommand {\slideentry {0}{0}{24}{37/37}{}{0}}}
\@writefile{nav}{\headcommand {\beamer@framepages {37}{37}}}
\newlabel{reg_violence<1>}{{25}{38}{}{Doc-Start}{}}
\@writefile{snm}{\beamer@slide {reg_violence<1>}{38}}
\newlabel{reg_violence}{{25}{38}{}{Doc-Start}{}}
\@writefile{snm}{\beamer@slide {reg_violence}{38}}
\@writefile{nav}{\headcommand {\slideentry {0}{0}{25}{38/38}{}{0}}}
\@writefile{nav}{\headcommand {\beamer@framepages {38}{38}}}
\@writefile{nav}{\headcommand {\slideentry {0}{0}{26}{39/39}{}{0}}}
\@writefile{nav}{\headcommand {\beamer@framepages {39}{39}}}
\newlabel{reg_mineral<1>}{{27}{40}{}{Doc-Start}{}}
\@writefile{snm}{\beamer@slide {reg_mineral<1>}{40}}
\newlabel{reg_mineral}{{27}{40}{}{Doc-Start}{}}
\@writefile{snm}{\beamer@slide {reg_mineral}{40}}
\@writefile{nav}{\headcommand {\slideentry {0}{0}{27}{40/40}{}{0}}}
\@writefile{nav}{\headcommand {\beamer@framepages {40}{40}}}
\newlabel{reg_prod<1>}{{28}{41}{}{Doc-Start}{}}
\@writefile{snm}{\beamer@slide {reg_prod<1>}{41}}
\newlabel{reg_prod}{{28}{41}{}{Doc-Start}{}}
\@writefile{snm}{\beamer@slide {reg_prod}{41}}
\@writefile{nav}{\headcommand {\slideentry {0}{0}{28}{41/41}{}{0}}}
\@writefile{nav}{\headcommand {\beamer@framepages {41}{41}}}
\newlabel{reg_tasahomicides<1>}{{29}{42}{}{Doc-Start}{}}
\@writefile{snm}{\beamer@slide {reg_tasahomicides<1>}{42}}
\newlabel{reg_tasahomicides}{{29}{42}{}{Doc-Start}{}}
\@writefile{snm}{\beamer@slide {reg_tasahomicides}{42}}
\@writefile{nav}{\headcommand {\slideentry {0}{0}{29}{42/42}{}{0}}}
\@writefile{nav}{\headcommand {\beamer@framepages {42}{42}}}
\newlabel{reg_homicides<1>}{{30}{43}{}{Doc-Start}{}}
\@writefile{snm}{\beamer@slide {reg_homicides<1>}{43}}
\newlabel{reg_homicides}{{30}{43}{}{Doc-Start}{}}
\@writefile{snm}{\beamer@slide {reg_homicides}{43}}
\@writefile{nav}{\headcommand {\slideentry {0}{0}{30}{43/43}{}{0}}}
\@writefile{nav}{\headcommand {\beamer@framepages {43}{43}}}
\newlabel{reg_tribut<1>}{{31}{44}{}{Doc-Start}{}}
\@writefile{snm}{\beamer@slide {reg_tribut<1>}{44}}
\newlabel{reg_tribut}{{31}{44}{}{Doc-Start}{}}
\@writefile{snm}{\beamer@slide {reg_tribut}{44}}
\@writefile{nav}{\headcommand {\slideentry {0}{0}{31}{44/44}{}{0}}}
\@writefile{nav}{\headcommand {\beamer@framepages {44}{44}}}
\newlabel{reg_tmi<1>}{{32}{45}{}{Doc-Start}{}}
\@writefile{snm}{\beamer@slide {reg_tmi<1>}{45}}
\newlabel{reg_tmi}{{32}{45}{}{Doc-Start}{}}
\@writefile{snm}{\beamer@slide {reg_tmi}{45}}
\@writefile{nav}{\headcommand {\slideentry {0}{0}{32}{45/45}{}{0}}}
\@writefile{nav}{\headcommand {\beamer@framepages {45}{45}}}
\@writefile{nav}{\headcommand {\slideentry {0}{0}{33}{46/46}{}{0}}}
\@writefile{nav}{\headcommand {\beamer@framepages {46}{46}}}
\newlabel{example_wl<1>}{{33}{47}{}{Doc-Start}{}}
\@writefile{snm}{\beamer@slide {example_wl<1>}{47}}
\newlabel{example_wl}{{33}{47}{}{Doc-Start}{}}
\@writefile{snm}{\beamer@slide {example_wl}{47}}
\@writefile{nav}{\headcommand {\slideentry {0}{0}{34}{47/47}{}{0}}}
\@writefile{nav}{\headcommand {\beamer@framepages {47}{47}}}
\@writefile{nav}{\headcommand {\slideentry {0}{0}{35}{48/48}{}{0}}}
\@writefile{nav}{\headcommand {\beamer@framepages {48}{48}}}
\newlabel{roy_ineq<1>}{{35}{49}{}{Doc-Start}{}}
\@writefile{snm}{\beamer@slide {roy_ineq<1>}{49}}
\newlabel{roy_ineq}{{35}{49}{}{Doc-Start}{}}
\@writefile{snm}{\beamer@slide {roy_ineq}{49}}
\newlabel{Circle size proportional to population of the municipality}{{35}{49}{}{Doc-Start}{}}
\@writefile{snm}{\beamer@slide {Circle size proportional to population of the municipality}{49}}
\@writefile{nav}{\headcommand {\slideentry {0}{0}{36}{49/49}{}{0}}}
\@writefile{nav}{\headcommand {\beamer@framepages {49}{49}}}
\newlabel{formula<1>}{{36}{50}{}{Doc-Start}{}}
\@writefile{snm}{\beamer@slide {formula<1>}{50}}
\newlabel{formula}{{36}{50}{}{Doc-Start}{}}
\@writefile{snm}{\beamer@slide {formula}{50}}
\@writefile{nav}{\headcommand {\slideentry {0}{0}{37}{50/50}{}{0}}}
\@writefile{nav}{\headcommand {\beamer@framepages {50}{50}}}
\newlabel{model_target<1>}{{37}{51}{}{Doc-Start}{}}
\@writefile{snm}{\beamer@slide {model_target<1>}{51}}
\newlabel{model_target}{{37}{51}{}{Doc-Start}{}}
\@writefile{snm}{\beamer@slide {model_target}{51}}
\@writefile{nav}{\headcommand {\slideentry {0}{0}{38}{51/51}{}{0}}}
\@writefile{nav}{\headcommand {\beamer@framepages {51}{51}}}
\@writefile{nav}{\headcommand {\slideentry {0}{0}{39}{52/52}{}{0}}}
\@writefile{nav}{\headcommand {\beamer@framepages {52}{52}}}
\newlabel{reg_vs_trees<1>}{{39}{53}{}{Doc-Start}{}}
\@writefile{snm}{\beamer@slide {reg_vs_trees<1>}{53}}
\newlabel{reg_vs_trees}{{39}{53}{}{Doc-Start}{}}
\@writefile{snm}{\beamer@slide {reg_vs_trees}{53}}
\@writefile{nav}{\headcommand {\slideentry {0}{0}{40}{53/53}{}{0}}}
\@writefile{nav}{\headcommand {\beamer@framepages {53}{53}}}
\@writefile{nav}{\headcommand {\slideentry {0}{0}{41}{54/54}{}{0}}}
\@writefile{nav}{\headcommand {\beamer@framepages {54}{54}}}
\@writefile{nav}{\headcommand {\slideentry {0}{0}{42}{55/55}{}{0}}}
\@writefile{nav}{\headcommand {\beamer@framepages {55}{55}}}
\@writefile{nav}{\headcommand {\slideentry {0}{0}{43}{56/56}{}{0}}}
\@writefile{nav}{\headcommand {\beamer@framepages {56}{56}}}
\@writefile{nav}{\headcommand {\slideentry {0}{0}{44}{57/57}{}{0}}}
\@writefile{nav}{\headcommand {\beamer@framepages {57}{57}}}
\@writefile{nav}{\headcommand {\slideentry {0}{0}{45}{58/58}{}{0}}}
\@writefile{nav}{\headcommand {\beamer@framepages {58}{58}}}
\@writefile{nav}{\headcommand {\slideentry {0}{0}{46}{59/59}{}{0}}}
\@writefile{nav}{\headcommand {\beamer@framepages {59}{59}}}
\@writefile{nav}{\headcommand {\slideentry {0}{0}{47}{60/60}{}{0}}}
\@writefile{nav}{\headcommand {\beamer@framepages {60}{60}}}
\@writefile{nav}{\headcommand {\slideentry {0}{0}{48}{61/61}{}{0}}}
\@writefile{nav}{\headcommand {\beamer@framepages {61}{61}}}
\newlabel{balancestats_censed<1>}{{48}{62}{}{Doc-Start}{}}
\@writefile{snm}{\beamer@slide {balancestats_censed<1>}{62}}
\newlabel{balancestats_censed}{{48}{62}{}{Doc-Start}{}}
\@writefile{snm}{\beamer@slide {balancestats_censed}{62}}
\@writefile{nav}{\headcommand {\slideentry {0}{0}{49}{62/62}{}{0}}}
\@writefile{nav}{\headcommand {\beamer@framepages {62}{62}}}
\newlabel{reg_weights<1>}{{49}{63}{}{Doc-Start}{}}
\@writefile{snm}{\beamer@slide {reg_weights<1>}{63}}
\newlabel{reg_weights}{{49}{63}{}{Doc-Start}{}}
\@writefile{snm}{\beamer@slide {reg_weights}{63}}
\@writefile{nav}{\headcommand {\slideentry {0}{0}{50}{63/63}{}{0}}}
\@writefile{nav}{\headcommand {\beamer@framepages {63}{63}}}
\@writefile{nav}{\headcommand {\slideentry {0}{0}{51}{64/64}{}{0}}}
\@writefile{nav}{\headcommand {\beamer@framepages {64}{64}}}
\bibstyle{apacite}
\bibdata{bibille}
\@writefile{nav}{\headcommand {\sectionentry {1}{}{65}{}{0}}}
\@writefile{nav}{\headcommand {\beamer@sectionpages {1}{64}}}
\@writefile{nav}{\headcommand {\beamer@subsectionpages {1}{64}}}
\@writefile{toc}{\contentsline {section}{}}
\@writefile{nav}{\headcommand {\slideentry {1}{0}{52}{65/65}{}{0}}}
\@writefile{nav}{\headcommand {\beamer@framepages {65}{65}}}
\@writefile{nav}{\headcommand {\beamer@partpages {1}{65}}}
\@writefile{nav}{\headcommand {\beamer@subsectionpages {1}{65}}}
\@writefile{nav}{\headcommand {\beamer@sectionpages {1}{65}}}
\@writefile{nav}{\headcommand {\beamer@documentpages {65}}}
\@writefile{nav}{\headcommand {\def \inserttotalframenumber {51}}}
