\relax 
\providecommand\hyper@newdestlabel[2]{}
\providecommand\HyperFirstAtBeginDocument{\AtBeginDocument}
\HyperFirstAtBeginDocument{\ifx\hyper@anchor\@undefined
\global\let\oldcontentsline\contentsline
\gdef\contentsline#1#2#3#4{\oldcontentsline{#1}{#2}{#3}}
\global\let\oldnewlabel\newlabel
\gdef\newlabel#1#2{\newlabelxx{#1}#2}
\gdef\newlabelxx#1#2#3#4#5#6{\oldnewlabel{#1}{{#2}{#3}}}
\AtEndDocument{\ifx\hyper@anchor\@undefined
\let\contentsline\oldcontentsline
\let\newlabel\oldnewlabel
\fi}
\fi}
\global\let\hyper@last\relax 
\gdef\HyperFirstAtBeginDocument#1{#1}
\providecommand\HyField@AuxAddToFields[1]{}
\providecommand\HyField@AuxAddToCoFields[2]{}
\citation{Slemrod2007}
\citation{Jensen2016}
\citation{MinMinas2003}
\citation{Banerjeeetal2012}
\citation{Slemrod2007}
\citation{Khanetal2016}
\citation{Burgess2012}
\citation{Lipscomb2013}
\citation{Henderson2012}
\citation{Jayachandran2009}
\citation{Foster2009}
\citation{Idrobo2014}
\citation{Romero2015}
\select@language{english}
\@writefile{toc}{\select@language{english}}
\@writefile{lof}{\select@language{english}}
\@writefile{lot}{\select@language{english}}
\@writefile{toc}{\contentsline {section}{\numberline {1}Introduction}{2}{section.1}}
\citation{anm2013}
\citation{anm2013}
\citation{Fedesarrollo2014}
\citation{Masse2012}
\citation{Rudasetal2013}
\citation{Semana2013}
\citation{Semana2013}
\@writefile{toc}{\contentsline {section}{\numberline {2}Colombian context and details of the reform}{5}{section.2}}
\newlabel{sec:context}{{2}{5}{Colombian context and details of the reform}{section.2}{}}
\@writefile{toc}{\contentsline {section}{\numberline {3}Theoretical framework}{7}{section.3}}
\@writefile{toc}{\contentsline {subsection}{\numberline {3.1}The effect of the reform on illegal mining}{8}{subsection.3.1}}
\citation{panelcede}
\@writefile{lof}{\contentsline {figure}{\numberline {1}{\ignorespaces Theoretical predictions of the effect of the reform}}{10}{figure.1}}
\newlabel{fig:th_model}{{1}{10}{Theoretical predictions of the effect of the reform}{figure.1}{}}
\@writefile{toc}{\contentsline {section}{\numberline {4}Data}{10}{section.4}}
\newlabel{sec:data}{{4}{10}{Data}{section.4}{}}
\@writefile{lot}{\contentsline {table}{\numberline {1}{\ignorespaces Summary statistics for municipalities used in the analysis}}{11}{table.1}}
\newlabel{tab:sumstats_muni}{{1}{11}{Summary statistics for municipalities used in the analysis}{table.1}{}}
\citation{Hansen_etal}
\citation{mlbible}
\@writefile{toc}{\contentsline {subsection}{\numberline {4.1}Constructing the illegal mining panel}{12}{subsection.4.1}}
\@writefile{lof}{\contentsline {figure}{\numberline {2}{\ignorespaces Image of a mine in the municipality of Caucasia}}{12}{figure.2}}
\newlabel{fig:mine_highres}{{2}{12}{Image of a mine in the municipality of Caucasia}{figure.2}{}}
\@writefile{lof}{\contentsline {figure}{\numberline {3}{\ignorespaces ROC curve for the illegal mining prediction model.}}{13}{figure.3}}
\newlabel{fig:ROC}{{3}{13}{ROC curve for the illegal mining prediction model}{figure.3}{}}
\@writefile{lot}{\contentsline {table}{\numberline {2}{\ignorespaces Summary statistics illegal mining municipality panel}}{14}{table.2}}
\newlabel{tab:sumstats_muniyear}{{2}{14}{Summary statistics illegal mining municipality panel}{table.2}{}}
\@writefile{toc}{\contentsline {subsection}{\numberline {4.2}Econometric analysis of the error term}{14}{subsection.4.2}}
\@writefile{toc}{\contentsline {section}{\numberline {5}Identification strategies}{15}{section.5}}
\newlabel{sec:meth}{{5}{15}{Identification strategies}{section.5}{}}
\@writefile{toc}{\contentsline {subsection}{\numberline {5.1}Main specification}{15}{subsection.5.1}}
\newlabel{eq:reg1}{{1}{15}{Main specification}{equation.5.1}{}}
\@writefile{toc}{\contentsline {section}{\numberline {6}Results}{16}{section.6}}
\newlabel{sec:results}{{6}{16}{Results}{section.6}{}}
\@writefile{toc}{\contentsline {subsection}{\numberline {6.1}The effect of the reform on illegal mining}{16}{subsection.6.1}}
\@writefile{lof}{\contentsline {figure}{\numberline {4}{\ignorespaces }}{17}{figure.4}}
\newlabel{fig:emp_theo_pred}{{4}{17}{}{figure.4}{}}
\citation{altonji2005}
\citation{oster2013}
\@writefile{lot}{\contentsline {table}{\numberline {3}{\ignorespaces Effect of the reform on illegal mining}}{18}{table.3}}
\newlabel{tab:main_reg}{{3}{18}{Effect of the reform on illegal mining}{table.3}{}}
\citation{Bellonietal2012}
\@writefile{toc}{\contentsline {subsection}{\numberline {6.2}Analysis of evasion in reported quantity produced}{19}{subsection.6.2}}
\@writefile{lot}{\contentsline {table}{\numberline {4}{\ignorespaces Effect of the reform on reported quantity}}{20}{table.4}}
\newlabel{tab:prod_reg}{{4}{20}{Effect of the reform on reported quantity}{table.4}{}}
\@writefile{toc}{\contentsline {subsection}{\numberline {6.3}Preliminary analysis with armed groups}{20}{subsection.6.3}}
\@writefile{lot}{\contentsline {table}{\numberline {5}{\ignorespaces Effect of the centralization reform on illegal mining}}{21}{table.5}}
\newlabel{tab:violence_reg}{{5}{21}{Effect of the centralization reform on illegal mining}{table.5}{}}
\@writefile{toc}{\contentsline {section}{\numberline {7}Robustness checks}{21}{section.7}}
\@writefile{toc}{\contentsline {subsection}{\numberline {7.1}Positive effects of the reform?}{21}{subsection.7.1}}
\bibstyle{apacite}
\bibdata{bibille}
\@writefile{toc}{\contentsline {subsection}{\numberline {7.2}Effects on municipalities with mineral resources and prone to satellite detection}{22}{subsection.7.2}}
\@writefile{toc}{\contentsline {subsection}{\numberline {7.3}Endogenous response of municipalities to budget change}{22}{subsection.7.3}}
\@writefile{toc}{\contentsline {section}{\numberline {8}Conclusions and future work}{22}{section.8}}
\newlabel{sec:conc}{{8}{22}{Conclusions and future work}{section.8}{}}
\bibcite{panelcede}{\citeauthoryear {Acevedo\ \BBA{} Bornacelly}{Acevedo\ \BBA{} Bornacelly}{{\APACyear {2014}}}}
\APACbibcite{panelcede}{\citeauthoryear {Acevedo\ \BBA{} Bornacelly}{Acevedo\ \BBA{} Bornacelly}{{\APACyear {2014}}}}
\bibcite{anm2013}{\citeauthoryear {{Agencia Nacional Minera}}{{Agencia Nacional Minera}}{{\APACyear {2013}}}}
\APACbibcite{anm2013}{\citeauthoryear {{Agencia Nacional Minera}}{{Agencia Nacional Minera}}{{\APACyear {2013}}}}
\bibcite{altonji2005}{\citeauthoryear {Altonji, Elder,{}\ \BBA{} Taber}{Altonji\ \BOthers {.}}{{\APACyear {2005}}}}
\APACbibcite{altonji2005}{\citeauthoryear {Altonji, Elder,{}\ \BBA{} Taber}{Altonji\ \BOthers {.}}{{\APACyear {2005}}}}
\bibcite{AngristKugler2008}{\citeauthoryear {Angrist\ \BBA{} Kugler}{Angrist\ \BBA{} Kugler}{{\APACyear {2008}}}}
\APACbibcite{AngristKugler2008}{\citeauthoryear {Angrist\ \BBA{} Kugler}{Angrist\ \BBA{} Kugler}{{\APACyear {2008}}}}
\@writefile{toc}{\contentsline {section}{References}{23}{section*.1}}
\bibcite{Banerjeeetal2012}{\citeauthoryear {Banerjee, Mullainathan,{}\ \BBA{} Hanna}{Banerjee\ \BOthers {.}}{{\APACyear {2012}}}}
\APACbibcite{Banerjeeetal2012}{\citeauthoryear {Banerjee, Mullainathan,{}\ \BBA{} Hanna}{Banerjee\ \BOthers {.}}{{\APACyear {2012}}}}
\bibcite{Bellonietal2012}{\citeauthoryear {Belloni, Chernozhukov,{}\ \BBA{} Hansen}{Belloni\ \BOthers {.}}{{\APACyear {2014}}}}
\APACbibcite{Bellonietal2012}{\citeauthoryear {Belloni, Chernozhukov,{}\ \BBA{} Hansen}{Belloni\ \BOthers {.}}{{\APACyear {2014}}}}
\bibcite{Burgess2012}{\citeauthoryear {Burgess, Hansen, Olken, Potapov,{}\ \BBA{} Sieber}{Burgess\ \BOthers {.}}{{\APACyear {2012}}}}
\APACbibcite{Burgess2012}{\citeauthoryear {Burgess, Hansen, Olken, Potapov,{}\ \BBA{} Sieber}{Burgess\ \BOthers {.}}{{\APACyear {2012}}}}
\bibcite{Dube2013}{\citeauthoryear {Dube\ \BBA{} Vargas}{Dube\ \BBA{} Vargas}{{\APACyear {2013}}}}
\APACbibcite{Dube2013}{\citeauthoryear {Dube\ \BBA{} Vargas}{Dube\ \BBA{} Vargas}{{\APACyear {2013}}}}
\bibcite{Eynde2015}{\citeauthoryear {Eynde}{Eynde}{{\APACyear {2015}}}}
\APACbibcite{Eynde2015}{\citeauthoryear {Eynde}{Eynde}{{\APACyear {2015}}}}
\bibcite{Fedesarrollo2014}{\citeauthoryear {Fedesarrollo}{Fedesarrollo}{{\APACyear {2014}}}}
\APACbibcite{Fedesarrollo2014}{\citeauthoryear {Fedesarrollo}{Fedesarrollo}{{\APACyear {2014}}}}
\bibcite{Foster2009}{\citeauthoryear {Foster, Gutierrez,{}\ \BBA{} Kumar}{Foster\ \BOthers {.}}{{\APACyear {2009}}}}
\APACbibcite{Foster2009}{\citeauthoryear {Foster, Gutierrez,{}\ \BBA{} Kumar}{Foster\ \BOthers {.}}{{\APACyear {2009}}}}
\bibcite{Hansen_etal}{\citeauthoryear {Hansen\ \BOthers {.}}{Hansen\ \BOthers {.}}{{\APACyear {2013}}}}
\APACbibcite{Hansen_etal}{\citeauthoryear {Hansen\ \BOthers {.}}{Hansen\ \BOthers {.}}{{\APACyear {2013}}}}
\bibcite{Henderson2012}{\citeauthoryear {Henderson, Storeygard,{}\ \BBA{} Weil}{Henderson\ \BOthers {.}}{{\APACyear {2012}}}}
\APACbibcite{Henderson2012}{\citeauthoryear {Henderson, Storeygard,{}\ \BBA{} Weil}{Henderson\ \BOthers {.}}{{\APACyear {2012}}}}
\bibcite{Idrobo2014}{\citeauthoryear {Idrobo, Mejia,{}\ \BBA{} Tribin}{Idrobo\ \BOthers {.}}{{\APACyear {2014}}}}
\APACbibcite{Idrobo2014}{\citeauthoryear {Idrobo, Mejia,{}\ \BBA{} Tribin}{Idrobo\ \BOthers {.}}{{\APACyear {2014}}}}
\bibcite{mlbible}{\citeauthoryear {James, Witten, Hastie,{}\ \BBA{} Tibshiran}{James\ \BOthers {.}}{{\APACyear {2014}}}}
\APACbibcite{mlbible}{\citeauthoryear {James, Witten, Hastie,{}\ \BBA{} Tibshiran}{James\ \BOthers {.}}{{\APACyear {2014}}}}
\bibcite{Jayachandran2009}{\citeauthoryear {Jayachandran}{Jayachandran}{{\APACyear {2009}}}}
\APACbibcite{Jayachandran2009}{\citeauthoryear {Jayachandran}{Jayachandran}{{\APACyear {2009}}}}
\bibcite{Jensen2016}{\citeauthoryear {A.~Jensen}{A.~Jensen}{{\APACyear {2016}}}}
\APACbibcite{Jensen2016}{\citeauthoryear {A.~Jensen}{A.~Jensen}{{\APACyear {2016}}}}
\bibcite{Jensen2007}{\citeauthoryear {J.~Jensen}{J.~Jensen}{{\APACyear {2007}}}}
\APACbibcite{Jensen2007}{\citeauthoryear {J.~Jensen}{J.~Jensen}{{\APACyear {2007}}}}
\bibcite{Lipscomb2013}{\citeauthoryear {Lipscomb\ \BBA{} Mobarak}{Lipscomb\ \BBA{} Mobarak}{{\APACyear {2013}}}}
\APACbibcite{Lipscomb2013}{\citeauthoryear {Lipscomb\ \BBA{} Mobarak}{Lipscomb\ \BBA{} Mobarak}{{\APACyear {2013}}}}
\bibcite{Masse2012}{\citeauthoryear {Masse\ \BBA{} Camargo}{Masse\ \BBA{} Camargo}{{\APACyear {2012}}}}
\APACbibcite{Masse2012}{\citeauthoryear {Masse\ \BBA{} Camargo}{Masse\ \BBA{} Camargo}{{\APACyear {2012}}}}
\bibcite{MHCP2011}{\citeauthoryear {{Ministerio de Hacienda y Credito Publico}}{{Ministerio de Hacienda y Credito Publico}}{{\APACyear {2011}}}}
\APACbibcite{MHCP2011}{\citeauthoryear {{Ministerio de Hacienda y Credito Publico}}{{Ministerio de Hacienda y Credito Publico}}{{\APACyear {2011}}}}
\bibcite{MinMinas2003}{\citeauthoryear {{Ministerio de Minas y Energia}}{{Ministerio de Minas y Energia}}{{\APACyear {2003}}}}
\APACbibcite{MinMinas2003}{\citeauthoryear {{Ministerio de Minas y Energia}}{{Ministerio de Minas y Energia}}{{\APACyear {2003}}}}
\bibcite{oster2013}{\citeauthoryear {Oster}{Oster}{{\APACyear {2013}}}}
\APACbibcite{oster2013}{\citeauthoryear {Oster}{Oster}{{\APACyear {2013}}}}
\bibcite{Romero2015}{\citeauthoryear {Romero\ \BBA{} Saavedra}{Romero\ \BBA{} Saavedra}{{\APACyear {2015}}}}
\APACbibcite{Romero2015}{\citeauthoryear {Romero\ \BBA{} Saavedra}{Romero\ \BBA{} Saavedra}{{\APACyear {2015}}}}
\bibcite{Rudasetal2013}{\citeauthoryear {Rudas\ \BBA{} Espitia}{Rudas\ \BBA{} Espitia}{{\APACyear {2013}}}}
\APACbibcite{Rudasetal2013}{\citeauthoryear {Rudas\ \BBA{} Espitia}{Rudas\ \BBA{} Espitia}{{\APACyear {2013}}}}
\bibcite{Semana2013}{\citeauthoryear {Semana}{Semana}{{\APACyear {2013}}}}
\APACbibcite{Semana2013}{\citeauthoryear {Semana}{Semana}{{\APACyear {2013}}}}
\bibcite{Slemrod2007}{\citeauthoryear {Slemrod}{Slemrod}{{\APACyear {2007}}}}
\APACbibcite{Slemrod2007}{\citeauthoryear {Slemrod}{Slemrod}{{\APACyear {2007}}}}
\@writefile{toc}{\contentsline {section}{\numberline {A}Extra Tables}{26}{appendix.A}}
\newlabel{sec:exttab}{{A}{26}{Extra Tables}{appendix.A}{}}
\@writefile{lot}{\contentsline {table}{\numberline {6}{\ignorespaces Results selecting optimal controls with Lasso style procedure}}{26}{table.6}}
\newlabel{taba:lasso}{{6}{26}{Results selecting optimal controls with Lasso style procedure}{table.6}{}}
\@writefile{lot}{\contentsline {table}{\numberline {7}{\ignorespaces Municipalities that relied more in royalties increased illegal mining more}}{27}{table.7}}
\newlabel{taba:importance_reg}{{7}{27}{Municipalities that relied more in royalties increased illegal mining more}{table.7}{}}
\@writefile{lot}{\contentsline {table}{\numberline {8}{\ignorespaces Results with continuous measure of percentage of budget loss}}{27}{table.8}}
\newlabel{taba:continuous_reg}{{8}{27}{Results with continuous measure of percentage of budget loss}{table.8}{}}
\@writefile{lot}{\contentsline {table}{\numberline {9}{\ignorespaces Endogenous response of municipalities to budget change}}{28}{table.9}}
\newlabel{taba:tribut_reg}{{9}{28}{Endogenous response of municipalities to budget change}{table.9}{}}
\@writefile{lot}{\contentsline {table}{\numberline {10}{\ignorespaces Change in infant mortality rate}}{28}{table.10}}
\newlabel{taba:tmi_reg}{{10}{28}{Change in infant mortality rate}{table.10}{}}
\citation{Jensen2007}
\@writefile{toc}{\contentsline {section}{\numberline {B}Constructing the illegal mining data}{29}{appendix.B}}
\newlabel{sec:ilegaldata}{{B}{29}{Constructing the illegal mining data}{appendix.B}{}}
\@writefile{lof}{\contentsline {figure}{\numberline {5}{\ignorespaces }}{30}{figure.5}}
\newlabel{fig:res_ex}{{5}{30}{}{figure.5}{}}
\@writefile{lof}{\contentsline {figure}{\numberline {6}{\ignorespaces }}{32}{figure.6}}
\newlabel{fig:rf_varimportance}{{6}{32}{}{figure.6}{}}
\@writefile{lof}{\contentsline {figure}{\numberline {7}{\ignorespaces }}{33}{figure.7}}
\newlabel{figa:evol_prmined}{{7}{33}{}{figure.7}{}}
\@writefile{toc}{\contentsline {section}{\numberline {C}Online Appendix}{34}{appendix.C}}
\@writefile{lot}{\contentsline {table}{\numberline {11}{\ignorespaces Change in armed groups homicide rate}}{34}{table.11}}
\newlabel{taboa:thomag_reg}{{11}{34}{Change in armed groups homicide rate}{table.11}{}}
\@writefile{lot}{\contentsline {table}{\numberline {12}{\ignorespaces Change in armed groups homicide rate}}{35}{table.12}}
\newlabel{taboa:thomag_creg}{{12}{35}{Change in armed groups homicide rate}{table.12}{}}
\@writefile{lot}{\contentsline {table}{\numberline {13}{\ignorespaces Change in armed groups homicide rate}}{35}{table.13}}
\newlabel{taboa:homag_reg}{{13}{35}{Change in armed groups homicide rate}{table.13}{}}
\@writefile{lot}{\contentsline {table}{\numberline {14}{\ignorespaces Change in armed groups homicide rate}}{36}{table.14}}
\newlabel{taboa:homag_creg}{{14}{36}{Change in armed groups homicide rate}{table.14}{}}
